<s>					
Aleksei	Aleksei	0		H	sg n
Dolgaschev	Dolgaschev	0		H	sg n
kaebab	kaeba	b		V	b
sulase	sulane	0		S	sg g
Kusta	Kusta	0		H	sg n
Kusik	Kusik	0		H	sg n
peale	peale	0		D	
,	,			Z	
see	see	0		P	sg n
olla	ole	a		V	da
tema	tema	0		P	sg g
juure	juur	0		S	sg g
suve	suvi	0		S	sg g
peale	peale	0		K	
tööle	töö	le		S	sg all
heitnud	heit	nud		V	nud
,	,			Z	
palk	palk	0		S	sg n
65	65	0		N	?
rubla	rubla	0		S	sg p
,	,			Z	
saanud	saa	nud		V	nud
6	6	0		N	?
rubla	rubla	0		S	sg p
käsiraha	käsi_raha	0		S	sg g
aga	aga	0		J	
ei	ei	0		D	
tulla	tule	a		V	da
nüüd	nüüd	0		D	
tööle	töö	le		S	sg all
.	.			Z	
</s>					
<s>					
Kusta	Kusta	0		H	sg n
Kusik	Kusik	0		H	sg n
kostab	kost	b		V	b
,	,			Z	
et	et	0		J	
tema	tema	0		P	sg n
ei	ei	0		V	neg
olla	ole	a		V	da
kaupa	kaup	0		S	sg p
tehnud	tege	nud		V	nud
,	,			Z	
laenanud	laena	nud		V	nud
aga	aga	0		J	
kaebaja	kaebaja	0		S	sg g
kaest	käest	0		K	
küll	küll	0		D	
6	6	0		N	?
rubla	rubla	0		S	sg p
.	.			Z	
</s>					
<s>					
Edasi	Edasi	0		H	sg g
küsimises	küsimine	s		S	sg in
ütleb	ütle	b		V	b
tema	tema	0		P	sg n
välja	välja	0		D	
,	,			Z	
et	et	0		J	
tema	tema	0		P	sg n
ei	ei	0		V	neg
tahta	taht	a		V	da
Aleksei	Aleksei	0		H	sg n
Dolgaschevi	Dolgaschev	0		H	sg g
juure	juur	0		S	sg g
teenistuse	teenistus	0		S	sg g
minna	mine	a		V	da
,	,			Z	
sest	sest	0		J	
et	et	0		J	
siis	siis	0		D	
odavalt	odavalt	0		D	
kauba	kaup	0		S	sg g
olla	ole	a		V	da
tehnud	tege	nud		V	nud
.	.			Z	
</s>					
<s>					
Kohtuliikmed	kohtu_liige	d		S	pl n
ühendasid	ühenda	sid		V	sid
endid	ise	d		P	pl p
selle	see	0		P	sg g
moistusele	mõistus	le		S	sg all
,	,			Z	
et	et	0		J	
kaebatu	kaeva	tud		V	tud
sulane	sulane	0		S	sg n
Kusta	Kusta	0		H	sg n
Kusik	Kusik	0		H	sg n
omma	oma	0		P	sg g
ütlemise	ütlemine	0		S	sg g
järele	järele	0		K	
kaup	kaup	0		S	sg n
on	ole	0		V	b
  	ole	0		V	vad
tehnud	tege	nud		V	nud
,	,			Z	
siis	siis	0		J	
peab	pida	b		V	b
tema	tema	0		P	sg g
saadut	saadud	t		A	sg p
kaeraha	kae_raha	0		S	sg p
6	6	0		N	?
rubla	rubla	0		S	sg p
ja	ja	0		J	
sellele	see	le		P	sg all
kõrva	kõrv	0		S	adt
teine	teine	0		O	sg n
     	teine	0		P	sg n
6	6	0		N	?
rubla	rubla	0		S	sg p
peremehe	pere_mees	0		S	sg g
Dolgaschevile	Dolgaschev	le		H	sg all
väljamaksma	välja_maks	ma		V	ma
,	,			Z	
termin	termin	0		S	sg n
8	8	0		N	?
rubla	rubla	0		S	sg p
.	.			Z	
</s>					
<s>					
Otsus	otsus	0		S	sg n
kuulutud	kuulu	tud		V	tud
1860.	1860.	0		O	?
a	a	0		Y	?
.	.			Z	
väljaantud	välja_and	tud		V	tud
talorahva	talu_rahvas	0		S	sg g
seaduse	seadus	0		S	sg g
raamato	raamat	0		S	sg g
§	§	0		Y	?
772	772	0		N	?
ja	ja	0		J	
773	773	0		N	?
juhatusel	juhatus	l		S	sg ad
,	,			Z	
kellega	kes	ga		P	sg kom
kohtukäijad	kohtu_käija	d		S	pl n
rahule	rahule	0		D	
jaevad	####				
.	.			Z	
</s>					
