<s>					
Sel	sel	0		Y	?
30.	30.	0		O	?
juunil	juuni	l		S	sg ad
c	c	0		Y	?
.	.			Z	
poolele	pool	le		S	sg all
jäänud	jää	nud		V	nud
Joosep	Joosep	0		H	sg n
Kruuts	Kruuts	0		H	sg n
kaebduses	kaebus	s		S	sg in
tuli	tule	i		V	s
ette	ette	0		D	
Joosep	Joosep	0		H	sg n
Prems	Prems	0		H	sg n
ja	ja	0		J	
tunnistab	tunnista	b		V	b
,	,			Z	
et	et	0		J	
Joosep	Joosep	0		H	sg n
Kruutsi	Kruuts	0		H	sg g
tüdruk	tüdruk	0		S	sg n
Liiso	Liiso	0		H	sg n
Karjus	Karjus	0		H	sg n
olla	ole	a		V	da
karja	kari	0		S	sg g
tee	tee	0		S	sg g
silla	sild	0		S	sg g
tegemise	tegemine	0		S	sg g
juures	juures	0		K	
rääkinud	rääki	nud		V	nud
:	:			Z	
kuda	kuidas	0		D	
poisid	poiss	d		S	pl n
aita	aita	0		V	o
tulnud	tule	nud		V	nud
,	,			Z	
teda	tema	da		P	sg p
rõpinud	####				
,	,			Z	
tema	tema	0		P	sg g
peasnud	####				
lahti	lahti	0		D	
ja	ja	0		J	
kutsunud	kutsu	nud		V	nud
siis	siis	0		D	
toast	tuba	st		S	sg el
peremehe	pere_mees	0		S	sg g
välja	välja	0		D	
.	.			Z	
</s>					
<s>					
Ta	tema	0		P	sg n
nimetanud	nimeta	nud		V	nud
ka	ka	0		D	
poiste	poiss	te		S	pl g
nimed	nimi	d		S	pl n
,	,			Z	
need	see	d		P	pl n
samad	sama	d		P	pl n
,	,			Z	
kelle	kes	0		P	sg g
peale	peale	0		K	
Joosep	Joosep	0		H	sg n
Kruuts	Kruuts	0		H	sg n
on	ole	0		V	b
  	ole	0		V	vad
kaebanud	kaeva	nud		V	nud
.	.			Z	
</s>					
<s>					
Joosep	Joosep	0		H	sg n
Tuustik	Tuustik	0		H	sg n
tunnistab	tunnista	b		V	b
,	,			Z	
et	et	0		J	
peale	peale	0		K	
selle	see	0		P	sg g
öö	öö	0		S	sg g
jahi	jaht	0		S	sg g
olla	ole	a		V	da
Liiso	Liiso	0		H	sg n
Karjus	Karjus	0		H	sg n
tema	tema	0		P	sg g
juure	juur	0		S	sg g
onni	onn	0		S	adt
tulnud	tule	nud		V	nud
,	,			Z	
ja	ja	0		J	
rääkinud	rääki	nud		V	nud
,	,			Z	
kuda	kuidas	0		D	
selsamal	see_sama	l		P	sg ad
ööl	öö	l		S	sg ad
poisid	poiss	d		S	pl n
Neuland	Neuland	0		H	sg n
,	,			Z	
Alla	Alla	0		H	sg n
,	,			Z	
Prangel	Prangel	0		H	sg n
ja	ja	0		J	
Aid	Aid	0		H	sg n
aidas	ait	s		S	sg in
käinuvad	käi	sid		V	sid
ja	ja	0		J	
peremees	pere_mees	0		S	sg n
võtnud	võt	nud		V	nud
Jakob	Jakob	0		H	sg n
Prangel	Prangel	0		H	sg n
kaest	käsi	st		S	sg el
mütsi	müts	0		S	sg g
ära	ära	0		D	
.	.			Z	
</s>					
<s>					
Selle	see	0		P	sg g
peale	peale	0		K	
sai	saa	i		V	s
Liiso	Liiso	0		H	sg n
Karjus	Karjus	0		H	sg n
kohtu	kohtu	0		H	sg n
ette	ette	0		D	
kutsutud	kutsu	tud		V	tud
,	,			Z	
temale	tema	le		P	sg all
ees	ees	0		D	
ülespandut	üles_pandud	t		A	sg p
tunnistus	tunnistus	0		S	sg n
ettepandut	ette_pan=du	t		S	sg p
,	,			Z	
mis	mis	0		P	sg n
juures	juures	0		K	
ta	tema	0		P	sg n
oma	oma	0		P	sg g
salgamise	salga=mine	0		S	sg g
juure	juur	0		S	sg g
jääb	jää	b		V	b
.	.			Z	
</s>					
<s>					
Jääb	jää	b		V	b
poolele	pool	le		S	sg all
.	.			Z	
</s>					
