<s>					
Ivan	Ivan	0		H	sg n
Andrejev	Andrejev	0		H	sg n
Vojeikov	Vojeikov	0		H	sg n
kaebab	kaeba	b		V	b
Aleksei	Aleksei	0		H	sg n
Vasiljev	Vasiljev	0		H	sg n
Kusov	Kusov	0		H	sg n
peale	peale	0		D	
,	,			Z	
see	see	0		P	sg n
olla	ole	a		V	da
ärajivtitud	####				
prussakad	prussakas	d		S	pl n
ja	ja	0		J	
leiva	leib	0		S	sg g
tükid	tükk	d		S	pl n
oma	oma	0		P	sg g
vilja	vili	0		S	sg p
peale	peale	0		D	
raputanud	raputa	nud		V	nud
,	,			Z	
tema	tema	0		P	sg n
5	5	0		N	?
kana	kana	0		S	sg g
olla	ole	a		V	da
sinna	sinna	0		D	
lähnuvad	mine	nuvad		V	nuvad
,	,			Z	
ja	ja	0		J	
seda	see	da		P	sg p
söönuvad	####				
ja	ja	0		J	
äralõpnud	ära_lõpnu	d		S	pl n
,	,			Z	
kelle	kes	0		P	sg g
eest	eest	0		K	
tema	tema	0		P	sg g
5	5	0		N	?
rubla	rubla	0		S	sg p
nõuab	nõud	b		V	b
.	.			Z	
</s>					
<s>					
Alexei	Alexei	0		H	sg n
Vasiljev	Vasiljev	0		H	sg n
Kusov	Kusov	0		H	sg n
ütleb	ütle	b		V	b
,	,			Z	
et	et	0		J	
tema	tema	0		P	sg n
olla	ole	a		V	da
seda	see	da		P	sg p
tehnud	tege	nud		V	nud
,	,			Z	
et	et	0		J	
vilja	vili	0		S	sg g
sööjadest	####				
lahti	lahti	0		D	
saada	saa	da		V	da
.	.			Z	
</s>					
<s>					
Kohus	kohus	0		S	sg n
moistis	mõist	is		V	s
:	:			Z	
Alexei	Alexei	0		H	sg n
Vasiljev	Vasiljev	0		H	sg n
Kusov	Kusov	0		H	sg n
maksab	maks	b		V	b
nende	see	de		P	pl g
5	5	0		N	?
ärajiftitud	####				
kanade	kana	de		S	pl g
eest	eest	0		K	
Ivan	Ivan	0		H	sg n
Andrejev	Andrejev	0		H	sg n
Vojeikovile	Vojeikov	le		H	sg all
1½	1½	0		N	?
rubla	rubla	0		S	sg p
ja	ja	0		J	
saab	saa	b		V	b
selle	see	0		P	sg g
trahviks	trahv	ks		S	sg tr
2	2	0		N	?
öö	öö	0		S	sg g
ja	ja	0		J	
2	2	0		N	?
paeva	päev	0		S	sg g
peale	peale	0		K	
kinnipandut	kinni_pan=du	t		S	sg p
.	.			Z	
</s>					
<s>					
Sesinane	see_sinane	0		P	sg n
kogukonna	kogukond	0		S	sg g
kohtu	kohtu	0		H	sg n
otsus	otsus	0		S	sg n
sai	saa	i		V	s
kohtukäijatele	kohtu_käija	tele		S	pl all
1860.	1860.	0		O	?
a	a	0		Y	?
.	.			Z	
väljaantud	välja_and	tud		V	tud
talorahva	talu_rahvas	0		S	sg g
seaduse	seadus	0		S	sg g
raamato	raamat	0		S	sg g
§	§	0		Y	?
772	772	0		N	?
ja	ja	0		J	
773	773	0		N	?
juhatusel	juhatus	l		S	sg ad
,	,			Z	
ja	ja	0		J	
oppuse	õppus	0		S	sg g
kirjad	kiri	d		S	pl n
väljaantud	välja_and	tud		V	tud
.	.			Z	
</s>					
