<s>					
Metsavalitseja	metsa_valitseja	0		S	sg n
Gross	Gross	0		H	sg n
kaebab	kaeba	b		V	b
venelase	venelane	0		S	sg g
Ivan	Ivan	0		H	sg n
Ustinov	Ustinov	0		H	sg n
Koschov	Koschov	0		H	sg n
peale	peale	0		D	
,	,			Z	
see	see	0		P	sg n
olla	ole	a		V	da
2	2	0		N	?
aasta	aasta	0		S	sg g
eest	eest	0		K	
kaevu	kaev	0		S	adt
pakud	pakku	d		V	d
(	(			Z	
rakke	rakk	e		S	pl p
pakud	pakku	d		V	d
)	)			Z	
moisa	mõis	0		S	sg g
poolt	poolt	0		K	
saanud	saa	nud		V	nud
kaevu	kaev	0		S	sg g
tegemiseks	tegemine	ks		S	sg tr
pole	ole	0		V	neg o
aga	aga	0		J	
selle	see	0		P	sg g
aea	aeg	0		S	sg g
sees	sees	0		K	
kaevu	kaev	0		S	adt
tehnud	tege	nud		V	nud
,	,			Z	
vaid	vaid	0		J	
mädandada	mädanda	da		V	da
pakud	pakku	d		V	d
.	.			Z	
</s>					
<s>					
Ivan	Ivan	0		H	sg n
Ustinov	Ustinov	0		H	sg n
Koschov	Koschov	0		H	sg n
kostab	kost	b		V	b
kaebduse	kaebus	0		S	sg g
peale	peale	0		K	
,	,			Z	
et	et	0		J	
tema	tema	0		P	sg g
olla	ole	a		V	da
pakud	pakku	d		V	d
saanud	saa	nud		V	nud
,	,			Z	
ei	ei	0		V	neg
jouda	####				
aga	aga	0		J	
üksi	üksi	0		D	
ärateha	####				
,	,			Z	
vaid	vaid	0		J	
tahab	taht	b		V	b
,	,			Z	
et	et	0		J	
teised	teine	d		O	pl n
      	teine	d		P	pl n
peremehed	pere_mees	d		S	pl n
appi	abi	0		S	adt
lööks	löö	ks		V	ks
.	.			Z	
</s>					
<s>					
Kohus	kohus	0		S	sg n
moistis	mõist	is		V	s
:	:			Z	
Ivan	Ivan	0		H	sg n
Ustinov	Ustinov	0		H	sg n
Koschov	Koschov	0		H	sg n
peab	pida	b		V	b
kaevu	kaev	0		S	adt
nelipühiks	neli_pühad	ks		S	pl tr
valmis	valmis	0		D	
tegema	tege	ma		V	ma
,	,			Z	
kui	kui	0		D	
   	kui	0		J	
mitte	mitte	0		D	
,	,			Z	
siis	siis	0		J	
võtab	võt	b		V	b
moisa	mõis	0		S	sg g
rakked	rake	d		S	pl n
ära	ära	0		D	
,	,			Z	
ja	ja	0		J	
saab	saa	b		V	b
trahvitud	trahvi	tud		V	tud
24	24	0		N	?
tunni	tund	0		S	sg g
kinniistumisega	kinni_istumine	ga		S	sg kom
.	.			Z	
</s>					
<s>					
Otsus	otsus	0		S	sg n
kuulutud	kuulu	tud		V	tud
sel	see	l		P	sg ad
31.	31.	0		O	?
märtsil	märts	l		S	sg ad
c	c	0		Y	?
.	.			Z	
seaduse	seadus	0		S	sg g
juhatusel	juhatus	l		S	sg ad
,	,			Z	
kellega	kes	ga		P	sg kom
kohtukäijad	kohtu_käija	d		S	pl n
rahule	rahule	0		D	
on	ole	0		V	b
  	ole	0		V	vad
,	,			Z	
mis	mis	0		P	sg n
peale	peale	0		D	
Ivan	Ivan	0		H	sg n
Ustinov	Ustinov	0		H	sg n
kinni	kinni	0		D	
saab	saa	b		V	b
pandut	pan=du	t		S	sg p
.	.			Z	
</s>					
