<s>					
Peremees	pere_mees	0		S	sg n
Siim	Siim	0		H	sg n
Siim	Siim	0		H	sg n
kaebab	kaeba	b		V	b
moisa	mõis	0		S	sg g
kolosniku	kolosnik	0		S	sg g
Kaarel	Kaarel	0		H	sg n
Mällson	Mällson	0		H	sg n
peale	peale	0		D	
,	,			Z	
see	see	0		P	sg n
olla	ole	a		V	da
tema	tema	0		P	sg g
lehma	lehm	0		S	sg p
kurja	kuri	0		S	sg g
pealt	pealt	0		K	
kinni	kinni	0		D	
aeanud	aja	nud		V	nud
,	,			Z	
seal	seal	0		D	
omas	oma	s		A	sg in
maeas	maja	s		S	sg in
aga	aga	0		J	
lehmale	lehm	le		S	sg all
viga	viga	0		S	sg p
tehnud	tege	nud		V	nud
,	,			Z	
keha	keha	0		S	sg g
ja	ja	0		J	
mao	madu	0		S	sg g
   	magu	0		S	sg g
alune	alune	0		S	sg n
paistetanud	paisteta	nud		V	nud
,	,			Z	
esimene	esimene	0		O	sg n
piha	pihk	0		S	sg g
    	piht	0		S	sg g
luu	luu	0		S	sg n
paigast	paik	st		S	sg el
ära	ära	0		D	
,	,			Z	
seista	seis	ta		V	da
küll	küll	0		D	
jalul	jalg	ul		S	pl ad
,	,			Z	
olla	ole	a		V	da
aga	aga	0		J	
puhtast	puhas	st		A	sg el
vigane	vigane	0		A	sg n
,	,			Z	
ta	tema	0		P	sg n
annab	and	b		V	b
ülesse	ülesse	0		D	
,	,			Z	
et	et	0		J	
karja	kari	0		S	sg g
aeas	####				
olla	ole	a		V	da
kitsas	kitsas	0		A	sg n
uksekene	ukse=kene	0		S	sg n
,	,			Z	
arvab	arva	b		V	b
,	,			Z	
et	et	0		J	
seal	seal	0		D	
vigaseks	vigane	ks		A	sg tr
ola	####				
saanud	saa	nud		V	nud
,	,			Z	
nõuab	nõud	b		V	b
see	see	0		P	sg n
läbi	läbi	0		K	
oma	oma	0		P	sg g
kahju	kahi	0		S	sg g
     	kahju	0		S	sg g
50	50	0		N	?
rublaga	rubla	ga		S	sg kom
.	.			Z	
</s>					
<s>					
Kaarel	Kaarel	0		H	sg n
Mällson	Mällson	0		H	sg n
kostab	kost	b		V	b
,	,			Z	
et	et	0		J	
tema	tema	0		P	sg n
pole	ole	0		V	neg o
mitte	mitte	0		D	
üksi	üksi	0		D	
seda	see	da		P	sg p
lehma	lehm	0		S	sg p
kinniaeanud	kinni_aja	nud	V	n	
vaid	vaid	0		J	
ühes	üks	s		N	sg in
    	üks	s		P	sg in
oma	oma	0		P	sg g
poolemaamehe	poole_maa_mees	0		S	sg g
Joosep	Joosep	0		H	sg n
Lättiga	Lätt	ga		H	sg kom
,	,			Z	
kelle	kes	0		P	sg g
heinamaal	heina_maa	l		S	sg ad
lehm	lehm	0		S	sg n
ka	ka	0		D	
kurjas	kuri	s		S	sg in
olla	ole	a		V	da
olnud	ole	nud		V	nud
.	.			Z	
</s>					
<s>					
Lehmale	lehm	le		S	sg all
pole	ole	0		V	neg o
tema	tema	0		P	sg n
sugugi	sugugi	0		D	
viga	viga	0		S	sg p
tehnud	tege	nud		V	nud
.	.			Z	
</s>					
<s>					
Poolemees	poole_mees	0		S	sg n
Joosep	Joosep	0		H	sg n
Lätt	Lätt	0		H	sg n
ütleb	ütle	b		V	b
,	,			Z	
et	et	0		J	
tema	tema	0		P	sg n
pole	ole	0		V	neg o
lehma	lehm	0		S	sg p
kinniaeanud	kinni_aja	nud	V	n	
,	,			Z	
vaid	vaid	0		J	
Kaarel	Kaarel	0		H	sg n
Mällson	Mällson	0		H	sg n
aeanud	aja	nud		V	nud
kinni	kinni	0		D	
,	,			Z	
tema	tema	0		P	sg g
aeanud	aja	nud		V	nud
lehma	lehm	0		S	sg p
välja	välja	0		D	
ja	ja	0		J	
öölnud	ütle	nud		V	nud
,	,			Z	
ma	mina	0		P	sg n
maksan	maks	n		V	n
1	1	0		N	?
rubla	rubla	0		S	sg p
sulle	sina	lle		P	sg all
hommen	homme	0		D	
hommiko	hommik	0		S	sg g
,	,			Z	
lase	lask	0		V	o
lehm	lehm	0		S	sg n
lahti	lahti	0		D	
,	,			Z	
aga	aga	0		J	
Kaarel	Kaarel	0		H	sg n
Mällson	Mällson	0		H	sg n
aeanud	aja	nud		V	nud
lehma	lehm	0		S	sg p
eest	eest	0		K	
kinni	kinni	0		D	
.	.			Z	
</s>					
<s>					
Jääb	jää	b		V	b
poolele	pool	le		S	sg all
.	.			Z	
</s>					
