<s>					
Aleksei	Aleksei	0		H	sg n
Schirokov	Schirokov	0		H	sg n
kaebab	kaeba	b		V	b
Dementi	Dementi	0		H	sg n
Isakov	Isakov	0		H	sg n
Borodkin	Borodkin	0		H	sg n
peale	peale	0		D	
,	,			Z	
see	see	0		P	sg n
ostnud	ost	nud		V	nud
tema	tema	0		P	sg g
kaest	käsi	st		S	sg el
hobuse	hobune	0		S	sg g
35	35	0		N	?
rublaga	rubla	ga		S	sg kom
,	,			Z	
jäänud	jää	nud		V	nud
raha	raha	0		S	sg g
maksmata	maks	mata		V	mata
,	,			Z	
mis	mis	0		P	sg n
nüüd	nüüd	0		D	
nõuab	nõud	b		V	b
.	.			Z	
</s>					
<s>					
Dementi	Dementi	0		H	sg n
Isakov	Isakov	0		H	sg n
Borodkin	Borodkin	0		H	sg n
ütleb	ütle	b		V	b
,	,			Z	
et	et	0		J	
nõudmine	nõudmine	0		S	sg n
olla	ole	a		V	da
õige	õige	0		A	sg n
,	,			Z	
ja	ja	0		J	
leppisid	leppi	sid		V	sid
alumistel	alumine	tel		A	pl ad
terminide	####				
viisil	viis	l		S	sg ad
maksa	maks	0		V	o
:	:			Z	
15.	15.	0		O	?
oktoobril	oktoober	l		S	sg ad
1878	1878	0		N	?
-	-			Z	
12	12	0		N	?
rubla	rubla	0		S	sg p
15.	15.	0		O	?
oktoobril	oktoober	l		S	sg ad
1879	1879	0		N	?
-	-			Z	
12	12	0		N	?
rubla	rubla	0		S	sg p
15.	15.	0		O	?
oktoobril	oktoober	l		S	sg ad
1880	1880	0		N	?
-	-			Z	
11	11	0		N	?
rubla	rubla	0		S	sg p
Neid	see	d		P	pl p
terminisid	####				
kinnitab	kinnita	b		V	b
kohus	kohus	0		S	sg n
.	.			Z	
</s>					
