<s>					
Moisavalitseja	Moisavalitseja	0		H	sg n
Funcke	Funcke	0		H	sg n
kaebab	kaeba	b		V	b
moonamehe	moona_mees	0		S	sg g
Elias	Elias	0		H	sg n
Leppik	Leppik	0		H	sg n
peale	peale	0		D	
,	,			Z	
see	see	0		P	sg n
olla	ole	a		V	da
viina	viin	0		S	sg g
vedu	vedu	0		S	sg n
peal	peal	0		D	
Tartu	Tartu	0		H	sg n
minnes	mine	es		V	des
viina	viin	0		S	sg g
aamile	aam	le		S	sg all
vikerpuuriga	viker_puur	ga		S	sg kom
auk	auk	0		S	sg n
sisse	sisse	0		D	
lasnud	lask	nud		V	nud
ja	ja	0		J	
seeläbi	see_läbi	0		D	
piiritust	piiritus	t		S	sg p
varastanud	varasta	nud		V	nud
,	,			Z	
selleläbi	selle_läbi	0		D	
olla	ole	a		V	da
1	1	0		N	?
vedro	vedru	0		S	sg p
viina	viin	0		S	sg p
resp	resp	0		Y	?
piiritust	piiritus	t		S	sg p
puudust	puudus	t		S	sg p
tulnud	tule	nud		V	nud
,	,			Z	
nüüd	nüüd	0		D	
palub	palu	b		V	b
kaebaja	kaebaja	0		S	sg n
,	,			Z	
et	et	0		J	
Elias	Elias	0		H	sg n
Leppik	Leppik	0		H	sg n
kahju	kahi	0		S	sg p
     	kahju	0		S	sg p
äratasuma	ära_tasu	ma		V	ma
peab	pida	b		V	b
ja	ja	0		J	
peale	peale	0		K	
selle	see	0		P	sg g
tema	tema	0		P	sg g
teenistuse	teenistus	0		S	sg g
kontraht	kontraht	0		S	sg n
tühjaks	tühi	ks		A	sg tr
saaks	saa	ks		V	ks
moistetud	mõist	tud		V	tud
.	.			Z	
</s>					
<s>					
Elias	Elias	0		H	sg n
Leppik	Leppik	0		H	sg n
ütleb	ütle	b		V	b
,	,			Z	
et	et	0		J	
tema	tema	0		P	sg g
aamile	aam	le		S	sg all
olla	ole	a		V	da
küll	küll	0		D	
auk	auk	0		S	sg n
sisselastud	sisse_las=tud	0		A	sg n
saanud	saa	nud		V	nud
,	,			Z	
tema	tema	0		P	sg g
olla	ole	a		V	da
juures	juures	0		K	
olnud	ole	nud		V	nud
,	,			Z	
kui	kui	0		D	
   	kui	0		J	
Juhan	Juhan	0		H	sg n
Tuustik	Tuustik	0		H	sg n
olla	ole	a		V	da
lasnud	lask	nud		V	nud
.	.			Z	
</s>					
<s>					
Juhan	Juhan	0		H	sg n
Tuustik	Tuustik	0		H	sg n
ütleb	ütle	b		V	b
,	,			Z	
et	et	0		J	
tee	tee	0		S	sg n
peale	peale	0		D	
minnes	mine	es		V	des
käsnud	käsnu	d		V	d
Elias	Elias	0		H	sg n
Leppik	Leppik	0		H	sg n
temal	tema	l		P	sg ad
puur	puur	0		S	sg n
kasa	####				
võtta	võt	a		V	da
,	,			Z	
tema	tema	0		P	sg n
võtnud	võt	nud		V	nud
ühes	üks	s		N	sg in
    	üks	s		P	sg in
,	,			Z	
ja	ja	0		J	
tee	tee	0		S	sg g
peal	peal	0		K	
küsinud	küsi	nud		V	nud
Elias	Elias	0		H	sg n
Leppik	Leppik	0		H	sg n
puuri	puur	0		S	sg g
oma	oma	0		P	sg g
kätte	kätte	0		K	
,	,			Z	
ja	ja	0		J	
lasnud	lask	nud		V	nud
omast	oma	st		P	sg el
vaadist	vaat	st		S	sg el
piiritust	piiritus	t		S	sg p
ja	ja	0		J	
annud	and	nud		V	nud
temale	tema	le		P	sg all
ka	ka	0		D	
piiritust	piiritus	t		S	sg p
juua	joo	a		V	da
.	.			Z	
</s>					
<s>					
Jüri	Jüri	0		H	sg n
Kello	Kello	0		H	sg n
ei	ei	0		V	neg
tea	tead	0		V	o
muud	muu	d		P	sg p
,	,			Z	
kui	kui	0		D	
   	kui	0		J	
Elias	Elias	0		H	sg n
Leppik	Leppik	0		H	sg n
annud	and	nud		V	nud
temale	tema	le		P	sg all
tee	tee	0		S	sg g
peal	peal	0		K	
seda	see	da		P	sg p
piiritust	piiritus	t		S	sg p
juua	joo	a		V	da
.	.			Z	
</s>					
<s>					
Moisavalitseja	Moisavalitseja	0		H	sg n
Funke	Funke	0		H	sg n
ütleb	ütle	b		V	b
,	,			Z	
et	et	0		J	
Elias	Elias	0		H	sg n
Leppik	Leppik	0		H	sg n
olla	ole	a		V	da
niisugust	nii_sugune	t		P	sg p
tempu	temp	0		S	sg p
juba	juba	0		D	
ennemalt	ennemalt	0		D	
tehnud	tege	nud		V	nud
.	.			Z	
</s>					
<s>					
Nõuab	nõud	b		V	b
5	5	0		N	?
toobi	toop	0		S	sg g
piirituse	piiritus	0		S	sg g
eest	eest	0		K	
a	a	0		Y	?
toop	toop	0		S	sg n
75	75	0		N	?
kop	kop	0		Y	?
,	,			Z	
aami	aam	0		S	sg g
rikkumise	rikkumine	0		S	sg g
eest	eest	0		K	
3	3	0		N	?
rubla	rubla	0		S	sg p
ja	ja	0		J	
Juhan	Juhan	0		H	sg n
Tuustikut	Tuustik	t		H	sg p
ka	ka	0		D	
trahvida	trahvi	da		V	da
.	.			Z	
</s>					
<s>					
Kohus	kohus	0		S	sg n
moistis	mõist	is		V	s
:	:			Z	
Elias	Elias	0		H	sg n
Leppik	Leppik	0		H	sg n
on	ole	0		V	b
  	ole	0		V	vad
süüdlane	süüdlane	0		S	sg n
ja	ja	0		J	
peab	pida	b		V	b
moisale	mõis	le		S	sg all
5	5	0		N	?
toobi	toop	0		S	sg g
piirituse	piiritus	0		S	sg g
eest	eest	0		K	
3	3	0		N	?
rubla	rubla	0		S	sg p
75	75	0		N	?
kop	kop	0		Y	?
maksma	maks	ma		V	ma
,	,			Z	
ja	ja	0		J	
moistab	mõist	b		V	b
kohus	kohus	0		S	sg n
teda	tema	da		P	sg p
teenistusest	teenistus	st		S	sg el
lahti	lahti	0		D	
ja	ja	0		J	
maksab	maks	b		V	b
aami	aam	0		S	sg g
kulu	kulu	0		S	sg n
3	3	0		N	?
rublaga	rubla	ga		S	sg kom
,	,			Z	
viina	viin	0		S	sg g
kulu	kulg	0		S	sg g
    	kulu	0		S	sg g
poole	poole	0		K	
jao	jagu	0		S	sg g
maksab	maks	b		V	b
Juhan	Juhan	0		H	sg n
Tuustik	Tuustik	0		H	sg n
.	.			Z	
</s>					
<s>					
Loppeks	####				
saavad	saa	vad		V	vad
Elias	Elias	0		H	sg n
Leppik	Leppik	0		H	sg n
ja	ja	0		J	
Juhan	Juhan	0		H	sg n
Tuustik	Tuustik	0		H	sg n
kumbgi	kumbki	0		P	sg n
15	15	0		N	?
vitsalöögiga	vitsa_löök	ga		S	sg kom
karistud	karista	tud		V	tud
.	.			Z	
</s>					
<s>					
Otsus	otsus	0		S	sg n
kuulutud	kuulu	tud		V	tud
sel	see	l		P	sg ad
12.	12.	0		O	?
mail	mai	l		S	sg ad
1878.	1878.	0		O	?
</s>					
<s>					
1860	1860	0		N	?
talorahva	talu_rahvas	0		S	sg g
seaduse	seadus	0		S	sg g
raamato	raamat	0		S	sg g
§	§	0		Y	?
772	772	0		N	?
ja	ja	0		J	
773	773	0		N	?
juhatusel	juhatus	l		S	sg ad
,	,			Z	
kellega	kes	ga		P	sg kom
kohtukäijad	kohtu_käija	d		S	pl n
rahule	rahule	0		D	
on	ole	0		V	b
  	ole	0		V	vad
mis	mis	0		P	sg n
peale	peale	0		K	
süüdlased	süüdlane	d		S	pl n
äratrahvitud	ära_trahvi=tud	0		A	sg n
said	saa	id		V	sid
.	.			Z	
</s>					
