<s>					
Keiserliko	Keiserliko	0		H	sg n
kihelkonna	kihelkond	0		S	sg g
käsu	käsk	0		S	sg g
peale	peale	0		K	
d	d	0		Y	?
.	.			Z	
d	d	0		Y	?
.	.			Z	
13	13	0		N	?
veebuar	####				
a	a	0		Y	?
.	.			Z	
c	c	0		Y	?
.	.			Z	
sub	sub	0		Y	
.	.			Z	
</s>					
<s>					
nr	nr	0		Y	?
657	657	0		N	?
Hofgerihti	Hofgerihti	0		H	sg n
kohtu	kohtu	0		H	sg n
advokaati	advokaat	0		S	sg p
Lehberti	Lehbert	0		H	sg g
veksli	veksel	0		S	sg g
võla	võlg	0		S	sg g
nõudmise	nõudmine	0		S	sg g
asjus	asi	us		S	pl in
Alatskivi	Alatskivi	0		H	sg n
mölder	mölder	0		S	sg n
Peeterson	Peeterson	0		H	sg n
kaest	käsi	st		S	sg el
(	(			Z	
veksel	veksel	0		S	sg n
sest	sest	0		J	
25.	25.	0		O	?
aprillist	aprill	st		S	sg el
1869	1869	0		N	?
suur	suur	0		A	sg n
132	132	0		N	?
rubla	rubla	0		S	sg p
50	50	0		N	?
kop	kop	0		Y	?
ja	ja	0		J	
protsendid	protsent	d		S	pl n
)	)			Z	
sai	saa	i		V	s
ettekutsutud	ette_kutsutu	d		S	pl n
Arthur	Arthur	0		H	sg n
Peeterson	Peeterson	0		H	sg n
,	,			Z	
temale	tema	le		P	sg all
see	see	0		P	sg n
nimetud	nimetu	d		A	pl n
veksel	veksel	0		S	sg n
ettepandut	ette_pan=du	t		S	sg p
,	,			Z	
mis	mis	0		P	sg n
peale	peale	0		K	
ta	tema	0		P	sg g
kostab	kost	b		V	b
,	,			Z	
et	et	0		J	
tema	tema	0		P	sg n
seda	see	da		P	sg p
vekslid	veksel	d		S	pl n
mitte	mitte	0		D	
pole	ole	0		V	neg o
väljaannud	####				
,	,			Z	
ega	ega	0		J	
ei	ei	0		V	neg
taha	taht	0		V	o
ka	ka	0		D	
kellestgi	####				
võlast	võlg	st		S	sg el
teada	tead	a		V	da
.	.			Z	
</s>					
<s>					
Tema	tema	0		P	sg g
isa	isa	0		S	sg n
vend	vend	0		S	sg n
Kaarel	Kaarel	0		H	sg n
Peeterson	Peeterson	0		H	sg n
elanud	ela	nud		V	nud
Alatskivil	Alats_kivi	l		H	sg ad
,	,			Z	
enemalt	####				
ka	ka	0		D	
Raadimõisa	Raadi	0		H	sg g
tuule	tuul	0		S	sg g
veske	####				
peal	peal	0		D	
Tartu	Tartu	0		H	sg n
lähedal	lähedal	0		D	
,	,			Z	
ta	tema	0		P	sg n
nimetab	nimeta	b		V	b
,	,			Z	
etse	et_see	0		J	
ehk	ehk	0		D	
voimalik	võimalik	0		A	sg n
voib	või	b		V	b
olla	ole	a		V	da
,	,			Z	
et	et	0		J	
see	see	0		P	sg n
Peeterson	Peeterson	0		H	sg n
selle	see	0		P	sg g
veksli	veksel	0		S	sg g
välja	välja	0		D	
on	ole	0		V	b
  	ole	0		V	vad
annud	and	nud		V	nud
.	.			Z	
</s>					
<s>					
Kaarel	Kaarel	0		H	sg n
Peeterson	Peeterson	0		H	sg n
elada	ela	da		V	da
nüüd	nüüd	0		D	
Venemaal	Vene_maa	l		H	sg ad
,	,			Z	
ja	ja	0		J	
seista	seis	ta		V	da
Raadi	Raadi	0		H	sg n
valla	valla	0		H	sg n
revisjonis	revisjon	s		S	sg in
.	.			Z	
</s>					
<s>					
Alexander	Alexander	0		H	sg n
Peeterson	Peeterson	0		H	sg n
ei	ei	0		V	neg
taha	taht	0		V	o
sest	sest	0		J	
võlast	võlg	st		S	sg el
ega	ega	0		J	
vekslist	veksel	st		S	sg el
ka	ka	0		D	
kedagi	keegi	dagi		P	sg p
teada	tead	a		V	da
.	.			Z	
</s>					
<s>					
Otsus	otsus	0		S	sg n
:	:			Z	
seda	see	da		P	sg p
kihelkonna	kihelkond	0		S	sg g
kohtule	kohus	le		S	sg all
ettepanna	ette_panna	0		S	sg n
,	,			Z	
ja	ja	0		J	
kalluda	####				
,	,			Z	
et	et	0		J	
Hofgerihti	Hofgerihti	0		H	sg n
advokat	####				
Lehbert	Lehbert	0		H	sg n
seda	see	da		P	sg p
nimetaks	nimeta	ks		V	ks
,	,			Z	
missuguse	mis_sugune	0		P	sg g
Peetersoni	Peeterson	0		H	sg g
(	(			Z	
ristinimi	risti_nimi	0		S	sg n
?)	)			Z	
</s>					
<s>					
kaest	käest	0		K	
temale	tema	le		P	sg all
see	see	0		P	sg n
nõudmine	nõudmine	0		S	sg n
on	ole	0		V	b
  	ole	0		V	vad
.	.			Z	
</s>					
