<s>					
Alatskivi	Alatskivi	0		H	sg n
moisvalitsuse	####				
nimel	nimel	0		K	
kaebab	kaeba	b		V	b
metsavalitseja	metsa_valitseja	0		S	sg n
Gross	Gross	0		H	sg n
peremehe	pere_mees	0		S	sg g
Jakob	Jakob	0		H	sg n
Lätt	Lätt	0		H	sg n
peale	peale	0		D	
,	,			Z	
see	see	0		P	sg n
olla	ole	a		V	da
koda	koda	0		S	sg p
ehitamiseks	ehitamine	ks		S	sg tr
palgid	palk	d		S	pl n
saanud	saa	nud		V	nud
,	,			Z	
nüüd	nüüd	0		D	
aga	aga	0		J	
koda	koda	0		S	sg n
ärarikkunud	ära_rikku=nud	0		A	sg n
,	,			Z	
ja	ja	0		J	
12	12	0		N	?
palki	palk	0		S	adt
järelejätnud	järele_jät=nud	0		A	sg n
mis	mis	0		P	sg n
eest	eest	0		K	
ta	tema	0		P	sg n
kaebatud	kaeva	tud		V	tud
trahvida	trahvi	da		V	da
palub	palu	b		V	b
.	.			Z	
</s>					
<s>					
Jakob	Jakob	0		H	sg n
Lätt	Lätt	0		H	sg n
peab	pida	b		V	b
ennast	ise	t		P	sg p
süüdlaseks	süüdlane	ks		S	sg tr
tunnistama	tunnista	ma		V	ma
.	.			Z	
</s>					
<s>					
Kohus	kohus	0		S	sg n
moistis	mõist	is		V	s
:	:			Z	
Jakob	Jakob	0		H	sg n
Lätt	Lätt	0		H	sg n
peab	pida	b		V	b
jaanipaevaks	####				
1878	1878	0		N	?
see	see	0		P	sg n
koda	koda	0		S	sg n
täieste	täiesti	0		D	
valmis	valmis	0		D	
tegema	tege	ma		V	ma
,	,			Z	
ja	ja	0		J	
need	see	d		P	pl n
praegu	praegu	0		D	
järele	järele	0		D	
jäänud	jää	nud		V	nud
palgid	palk	d		S	pl n
sinna	sinna	0		D	
sisse	sisse	0		D	
ärapruukima	####				
,	,			Z	
selle	see	0		P	sg g
trahviks	trahv	ks		S	sg tr
saab	saa	b		V	b
tema	tema	0		P	sg n
24	24	0		N	?
tunni	tund	0		S	sg g
peale	peale	0		K	
kinnipandut	kinni_pan=du	t		S	sg p
.	.			Z	
</s>					
<s>					
Otsus	otsus	0		S	sg n
kuulutud	kuulu	tud		V	tud
sel	see	l		P	sg ad
26.	26.	0		O	?
mail	mai	l		S	sg ad
c	c	0		Y	?
.	.			Z	
seaduse	seadus	0		S	sg g
raamato	raamat	0		S	sg g
§	§	0		Y	?
772	772	0		N	?
ja	ja	0		J	
773	773	0		N	?
juhatusel	juhatus	l		S	sg ad
,	,			Z	
kellega	kes	ga		P	sg kom
kohtukäijad	kohtu_käija	d		S	pl n
rahule	rahule	0		D	
on	ole	0		V	b
  	ole	0		V	vad
.	.			Z	
</s>					
