<s>					
Sel	sel	0		Y	?
3.	3.	0		O	?
veebruaril	veebruar	l		S	sg ad
1878	1878	0		N	?
sub	sub	0		Y	
nr	nr	0		Y	?
4	4	0		N	?
poolele	pool	le		S	sg all
jäänud	jää	nud		V	nud
asjus	asi	us		S	pl in
tuli	tule	i		V	s
ette	ette	0		D	
Marfa	Marfa	0		H	sg n
Makimova	Makimova	0		H	sg n
Savostkina	Savostkin	0		H	sg g
omma	oma	0		P	sg g
isaku	isak	0		S	sg g
Maksimaga	Maksimaga	ga		H	sg n
ja	ja	0		J	
Peeter	Peeter	0		H	sg n
Kusmitsev	Kusmitsev	0		H	sg n
Savostkin	Savostkin	0		H	sg n
,	,			Z	
kes	kes	0		P	sg n
viimne	viimne	0		A	sg n
ka	ka	0		D	
täna	täna	0		D	
jälle	jälle	0		D	
kohtule	kohus	le		S	sg all
ülesseannab	####				
,	,			Z	
et	et	0		J	
tüdruku	tüdruk	0		S	sg g
juure	juur	0		S	sg g
käijaid	käija	id		S	pl p
kolm	kolm	0		N	sg n
meest	mees	t		S	sg p
on	ole	0		V	b
  	ole	0		V	vad
olnud	ole	nud		V	nud
,	,			Z	
tema	tema	0		P	sg g
üks	üks	0		N	sg n
   	üks	0		P	sg n
,	,			Z	
ja	ja	0		J	
kaks	kaks	0		N	sg n
teist	teine	t		O	sg p
     	teine	t		P	sg p
.	.			Z	
</s>					
<s>					
Tunnistus	tunnistus	0		S	sg n
sai	saa	i		V	s
avaldut	avalda	ut		V	tud
.	.			Z	
</s>					
<s>					
Kohus	kohus	0		S	sg n
moistis	mõist	is		V	s
:	:			Z	
on	ole	0		V	b
  	ole	0		V	vad
Peeter	Peeter	0		H	sg n
Kusmitsev	Kusmitsev	0		H	sg n
Savostkin	Savostkin	0		H	sg n
kohtule	kohus	le		S	sg all
seda	see	da		P	sg p
avaldanud	avalda	nud		V	nud
,	,			Z	
et	et	0		J	
mitte	mitte	0		D	
üksi	üksi	0		D	
tema	tema	0		P	sg g
Marfa	Marfa	0		H	sg n
Makimovna	Makimova	0		H	sg g
juures	juures	0		K	
pole	ole	0		V	neg o
käinud	käi	nud		V	nud
ja	ja	0		J	
sellega	see	ga		P	sg kom
elanud	ela	nud		V	nud
,	,			Z	
vaid	vaid	0		J	
peale	peale	0		K	
teda	tema	da		P	sg p
veel	veel	0		D	
kaks	kaks	0		N	sg n
teist	teine	t		O	sg p
     	teine	t		P	sg p
,	,			Z	
seda	see	da		P	sg p
oma	oma	0		P	sg g
ütlemist	ütlemine	t		S	sg p
teiste	teine	te		O	pl g
      	teine	te		P	pl g
poiste	poiss	te		S	pl g
peale	peale	0		K	
kudagi	kuidagi	0		D	
tõeks	tõde	ks		S	sg tr
     	tõsi	ks		S	sg tr
ei	ei	0		V	neg
jõua	jõud	0		V	o
teha	tege	a		V	da
,	,			Z	
siis	siis	0		J	
jääb	jää	b		V	b
tema	tema	0		P	sg g
lapse	laps	0		S	sg g
isaks	isa	ks		S	sg tr
ja	ja	0		J	
peab	pida	b		V	b
selle	see	0		P	sg g
ülespidamiseks	üles_pidamine	ks		S	sg tr
ja	ja	0		J	
katmiseks	katmine	ks		S	sg tr
10	10	0		N	?
aastad	aasta	d		S	pl n
,	,			Z	
iga	iga	0		P	sg g
aasta	aasta	0		S	sg g
12	12	0		N	?
rubla	rubla	0		S	sg p
maksma	maks	ma		V	ma
.	.			Z	
</s>					
<s>					
Seesinane	see_sinane	0		P	sg n
kogukonna	kogukond	0		S	sg g
kohtu	kohtu	0		H	sg n
otsus	otsus	0		S	sg n
sai	saa	i		V	s
kohtukäijatele	kohtu_käija	tele		S	pl all
1860.	1860.	0		O	?
a	a	0		Y	?
.	.			Z	
väljaantud	välja_and	tud		V	tud
talorahva	talu_rahvas	0		S	sg g
seaduse	seadus	0		S	sg g
raamato	raamat	0		S	sg g
§	§	0		Y	?
772	772	0		N	?
ja	ja	0		J	
773	773	0		N	?
juhatusel	juhatus	l		S	sg ad
sel	see	l		P	sg ad
28.	28.	0		O	?
veebruaril	veebruar	l		S	sg ad
c	c	0		Y	?
.	.			Z	
kuulutud	kuulu	tud		V	tud
.	.			Z	
</s>					
<s>					
Kaebaja	kaebaja	0		S	sg n
on	ole	0		V	b
  	ole	0		V	vad
selle	see	0		P	sg g
moistusega	####				
rahul	rahul	0		D	
,	,			Z	
aga	aga	0		J	
mitte	mitte	0		D	
kaebatu	kaeva	tud		V	tud
.	.			Z	
</s>					
<s>					
Peeter	Peeter	0		H	sg n
Kusmitsev	Kusmitsev	0		H	sg n
Savostkin	Savostkin	0		H	sg n
kuulutas	kuuluta	s		V	s
sel	see	l		P	sg ad
7.	7.	0		O	?
märtsil	märts	l		S	sg ad
,	,			Z	
et	et	0		J	
tema	tema	0		P	sg g
otsusega	otsus	ga		S	sg kom
rahule	rahule	0		D	
ei	ei	0		V	neg
ole	ole	0		V	o
,	,			Z	
mis	mis	0		P	sg n
peale	peale	0		K	
temale	tema	le		P	sg all
kohe	kohe	0		D	
appellatsiooni	apellatsioon	0		S	sg g
kiri	kiri	0		S	sg n
väljaatud	####				
sai	saa	i		V	s
.	.			Z	
</s>					
