<s>					
Poolele	pool	le		S	sg all
jäänud	jää	nud		V	nud
Alatskivi	Alatskivi	0		H	sg n
moisavalitsuse	mõisa_valitsus	0		S	sg g
kaebduses	kaebus	s		S	sg in
Kokora	Kokora	0		H	sg n
moisa	mõis	0		S	sg g
Kallaste	Kallaste	te		H	sg n
küla	küla	0		H	sg n
venelaste	venelane	te		S	pl g
peale	peale	0		K	
,	,			Z	
ilma	ilma	0		K	
lubata	luba	ta		V	ta
tindi	tint	0		S	sg g
püüdmise	püüdmine	0		S	sg g
pärast	pärast	0		K	
Alatskivi	Alatskivi	0		H	sg n
vees	vesi	s		S	sg in
tulid	tule	id		V	sid
ette	ette	0		D	
Alatskivi	Alatskivi	0		H	sg n
moisavalitseja	mõisa_valitseja	0		S	sg g
hära	härra	0		S	sg n
Funcke	Funcke	0		H	sg n
ja	ja	0		J	
kaebatud	kaeva	tud		V	tud
Nikolai	Nikolai	0		H	sg n
Semenov	Semenov	0		H	sg n
,	,			Z	
Mihail	Mihail	0		H	sg n
Artamonov	Artamov	0		H	sg g
,	,			Z	
Peeter	Peeter	0		H	sg n
Ustinov	Ustinov	0		H	sg n
,	,			Z	
Ivan	Ivan	0		H	sg n
Trifanov	Trifanov	0		H	sg n
ja	ja	0		J	
Mikolai	Mikolai	0		H	sg n
Grigorjev	Grigori	0		H	sg g
.	.			Z	
</s>					
<s>					
Teine-kord	teine-kord	0		S	sg n
ütles	ütle	s		V	s
Alexei	Alexei	0		H	sg n
Leontjev	Leonti	0		H	sg g
Goruschkin	Goruschkin	0		H	sg n
,	,			Z	
et	et	0		J	
tema	tema	0		P	sg n
pole	ole	0		V	neg o
mitte	mitte	0		D	
püüdmas	püüd	mas		V	mas
olnud	ole	nud		V	nud
;	;			Z	
selle	see	0		P	sg g
asemel	asemel	0		K	
on	ole	0		V	b
  	ole	0		V	vad
püidmas	püüd	mas		V	mas
olnud	ole	nud		V	nud
Jefim	Jefim	0		H	sg n
Artamonov	Artamov	0		H	sg g
,	,			Z	
kes	kes	0		P	sg n
väljaütleb	välja_ütle	b		V	b
,	,			Z	
et	et	0		J	
tema	tema	0		P	sg n
olla	ole	a		V	da
küll	küll	0		D	
püidmas	püüd	mas		V	mas
olnud	ole	nud		V	nud
,	,			Z	
ei	ei	0		V	neg
taha	taht	0		V	o
aga	aga	0		J	
seda	see	da		P	sg p
teada	tead	a		V	da
,	,			Z	
et	et	0		J	
Alatskivi	Alatskivi	0		H	sg n
vees	vesi	s		S	sg in
on	ole	0		V	b
  	ole	0		V	vad
püidnud	####				
.	.			Z	
</s>					
<s>					
Kaebaja	kaebaja	0		S	sg g
poolt	poolt	0		K	
ülesantud	üles_antud	0		A	sg n
tunnistajad	tunnistaja	d		S	pl n
Alatskivi	Alatskivi	0		H	sg n
valla	valla	0		H	sg n
taloperemehed	####				
Joosep	Joosep	0		H	sg n
Roots	Roots	0		H	sg n
,	,			Z	
Abram	Abram	0		H	sg n
Roots	Roots	0		H	sg n
ja	ja	0		J	
Kusta	Kusta	0		H	sg n
Kusik	Kusik	0		H	sg n
tunnistavad	tunnista	vad		V	vad
,	,			Z	
et	et	0		J	
need	see	d		P	pl n
Kallaste	Kallaste	te		H	sg n
küla	küla	0		H	sg n
venelased	venelane	d		S	pl n
,	,			Z	
kelle	kes	0		P	sg g
peale	peale	0		K	
valitseja	valitseja	0		S	sg g
hära	härra	0		S	sg n
kaebab	kaeba	b		V	b
,	,			Z	
olla	ole	a		V	da
keik	kõik	0		P	pl n
Alatskivi	Alatskivi	0		H	sg n
jao	jagu	0		S	sg g
peal	peal	0		K	
Pusi	Pusi	0		H	sg n
küla	küla	0		H	sg n
all	all	0		K	
kalu	kalu	0		S	sg p
püidnuvad	####				
,	,			Z	
ka	ka	0		D	
see	see	0		P	sg n
Alexei	Alexei	0		H	sg n
Leontjev	Leonti	0		H	sg g
Goruschkin	Goruschkin	0		H	sg n
.	.			Z	
</s>					
<s>					
Kaebatud	####				
venelased	venelane	d		S	pl n
ütlevad	ütle	vad		V	vad
et	et	0		J	
nemad	tema	d		P	pl n
olla	ole	a		V	da
siis	siis	0		D	
kohe	kohe	0		D	
püidmise	####				
mahajätnuvad	maha_jät	nuvad		V	nud
,	,			Z	
kui	kui	0		D	
   	kui	0		J	
valitseja	valitseja	0		S	sg g
hära	härra	0		S	sg n
keelanud	keela	nud		V	nud
,	,			Z	
nõuavad	nõud	vad		V	vad
,	,			Z	
et	et	0		J	
kupitsad	kupits	d		S	pl n
vette	vesi	tte		S	adt
saaks	saa	ks		V	ks
pandut	pan=du	t		S	sg p
,	,			Z	
siis	siis	0		J	
nääks	####				
nemad	tema	d		P	pl n
rand	rand	0		S	sg n
.	.			Z	
</s>					
<s>					
Tunnistus	tunnistus	0		S	sg n
sai	saa	i		V	s
avaldut	avalda	ut		V	tud
.	.			Z	
</s>					
<s>					
Kohus	kohus	0		S	sg n
on	ole	0		V	b
  	ole	0		V	vad
kaebatuid	####				
venelaisi	####				
mitmel	mitu	l		P	sg ad
korral	korral	0		K	
ette	ette	0		D	
kutsunud	kutsu	nud		V	nud
,	,			Z	
aga	aga	0		J	
naad	tema	d		P	pl n
pole	ole	0		V	neg o
ilmunud	ilmu	nud		V	nud
,	,			Z	
ka	ka	0		D	
puuduvad	puudu	vad		V	vad
jälle	jälle	0		D	
täna	täna	0		D	
.	.			Z	
</s>					
<s>					
Ivan	Ivan	0		H	sg n
Grigorjev	Grigori	0		H	sg g
Marjaschin	Marjaschin	0		H	sg n
,	,			Z	
Peeter	Peeter	0		H	sg n
Mikolajev	Mikolai	0		H	sg g
Kromonov	Kromonov	0		H	sg n
,	,			Z	
Mihaila	Mihail	0		H	sg g
Artamov	Artamov	0		H	sg n
,	,			Z	
Semen	Semen	0		H	sg n
Saharov	Saharov	0		H	sg n
Gluharov	Gluharov	0		H	sg n
,	,			Z	
Ivan	Ivan	0		H	sg n
Saveljev	Saveljev	0		H	sg n
Gluharov	Gluharov	0		H	sg n
,	,			Z	
Gavrilla	Gavrilla	0		H	sg n
Ikorahodov	Ikorahodov	0		H	sg n
,	,			Z	
Ivan	Ivan	0		H	sg n
Antipov	Antipov	0		H	sg n
,	,			Z	
Ivan	Ivan	0		H	sg n
Jegorov	Jegorov	0		H	sg n
Budasehov	Budasehov	0		H	sg n
,	,			Z	
Grigori	Grigori	0		H	sg n
Jegorov	Jegorov	0		H	sg n
Kukin	Kukin	0		H	sg n
,	,			Z	
Ivan	Ivan	0		H	sg n
Jegorov	Jegorov	0		H	sg n
Kukin	Kukin	0		H	sg n
,	,			Z	
Vasili	Vasili	0		H	sg n
Ivanov	Ivanov	0		H	sg n
Krivzov	Krivzov	0		H	sg n
,	,			Z	
Grigori	Grigori	0		H	sg n
Maximov	Maximov	0		H	sg n
,	,			Z	
Feodor	Feodor	0		H	sg n
Saharov	Saharov	0		H	sg n
,	,			Z	
Jakov	Jakov	0		H	sg n
Vasiljev	Vasiljev	0		H	sg n
Dolgoi	Dolgoi	0		H	sg n
,	,			Z	
Ivan	Ivan	0		H	sg n
Kirillov	Kirillov	0		H	sg n
Gusarev	Gusarev	0		H	sg n
,	,			Z	
siis	siis	0		J	
on	ole	0		V	b
  	ole	0		V	vad
kohus	kohus	0		S	sg n
ilma	ilma	0		D	
nendeta	see	deta		P	pl ab
.	.			Z	
</s>					
<s>					
Otsuseks	otsus	ks		S	sg tr
tehtud	tege	tud		V	tud
:	:			Z	
et	et	0		J	
kui	kui	0		D	
   	kui	0		J	
Alatskivi	Alatskivi	0		H	sg n
moisavalitsus	####				
seda	see	da		P	sg p
tunnistuse	tunnistus	0		S	sg g
läbi	läbi	0		K	
tõeks	tõde	ks		S	sg tr
     	tõsi	ks		S	sg tr
on	ole	0		V	b
  	ole	0		V	vad
tehnud	tege	nud		V	nud
,	,			Z	
et	et	0		J	
keik	kõik	0		P	pl n
need	see	d		P	pl n
kaebatud	kaeva	tud		V	tud
Kokora	Kokora	0		H	sg n
moisa	mõis	0		S	sg g
Kallaste	Kallaste	te		H	sg n
küla	küla	0		H	sg n
kalapüüdjad	kala_püüdja	d		S	pl n
kelle	kes	0		P	sg g
nimed	nimi	d		S	pl n
protokolli	protokoll	0		S	sg g
hakatuses	hakatus	s		S	sg in
nimetud	nimetu	d		A	pl n
,	,			Z	
Alatskivi	Alatskivi	0		H	sg n
vees	vesi	s		S	sg in
Peepsi	Peepsi	0		H	sg n
järves	järves	s		H	sg n
on	ole	0		V	b
  	ole	0		V	vad
püidmas	püüd	mas		V	mas
olnud	ole	nud		V	nud
,	,			Z	
siis	siis	0		J	
saab	saa	b		V	b
see	see	0		P	sg n
asi	asi	0		S	sg n
keiserliko	keiserlik	0		A	sg g
Tartu	Tartu	0		H	sg n
silla	sild	0		S	sg g
kohtu	kohtu	0		H	sg n
kätte	käsi	tte		S	adt
edaspidiseks	edas_pidine	ks		A	sg tr
talituseks	talitus	ks		S	sg tr
sisseantud	sisse_antud	0		A	sg n
.	.			Z	
</s>					
<s>					
Kohtu	kohus	0		S	sg g
alused	alune	d		S	pl n
      	alus	d		S	pl n
venelased	venelane	d		S	pl n
maksavad	maks	vad		V	vad
igaüks	iga_üks	0		P	sg n
käsu	käsk	0		S	sg g
vastapanemise	####				
eest	eest	0		K	
60	60	0		N	?
kop	kop	0		Y	?
ja	ja	0		J	
need	see	d		P	pl n
kes	kes	0		P	sg n
täna	täna	0		D	
puudunud	puudu	nud		V	nud
90	90	0		N	?
kop	kop	0		Y	?
vaestelaadiko	vaes+te_laadik	0		S	sg g
trahviks	trahv	ks		S	sg tr
.	.			Z	
</s>					
<s>					
Otsus	otsus	0		S	sg n
kuulutud	kuulu	tud		V	tud
sel	see	l		P	sg ad
3.	3.	0		O	?
veebruaril	veebruar	l		S	sg ad
1878.	1878.	0		O	?
</s>					
