<s>					
Harjaklane	####				
Fevdor	Fevdor	0		H	sg n
Sovokin	Sovokin	0		H	sg n
nõuab	nõud	b		V	b
Dementi	Dementi	0		H	sg n
Isakov	Isakov	0		H	sg n
Borodkina	Borodkin	0		H	sg g
kaest	käsi	st		S	sg el
võlg	võlg	0		S	sg n
raha	raha	0		S	sg p
22	22	0		N	?
rubla	rubla	0		S	sg p
.	.			Z	
</s>					
<s>					
Dementi	Dementi	0		H	sg n
Isakov	Isakov	0		H	sg n
Borodkin	Borodkin	0		H	sg n
kostab	kost	b		V	b
kaebduse	kaebus	0		S	sg g
peale	peale	0		K	
,	,			Z	
et	et	0		J	
temal	tema	l		P	sg ad
olla	ole	a		V	da
Fevdor	Fevdor	0		H	sg n
Savostkinale	Savostkin	le		H	sg all
20	20	0		N	?
rubla	rubla	0		S	sg p
maksa	maks	0		S	sg p
,	,			Z	
kelle	kes	0		P	sg g
summaga	summ	ga		S	sg kom
       	summa	ga		S	sg kom
ka	ka	0		D	
kaebaja	kaebaja	0		S	sg n
rahule	rahule	0		D	
jääb	jää	b		V	b
.	.			Z	
</s>					
<s>					
Otsus	otsus	0		S	sg n
:	:			Z	
Dementi	Dementi	0		H	sg n
Isakov	Isakov	0		H	sg n
Borodkin	Borodkin	0		H	sg n
peab	pida	b		V	b
sest	see	st		P	sg el
võlast	võlg	st		S	sg el
10	10	0		N	?
rubla	rubla	0		S	sg g
15.	15.	0		O	?
märtsiks	märts	ks		S	sg tr
1878	1878	0		N	?
ja	ja	0		J	
10	10	0		N	?
rubla	rubla	0		S	sg p
suviste	suvine	te		A	pl g
pühadeks	püha	deks		S	pl tr
1878	1878	0		N	?
kaebajale	kaebaja	le		S	sg all
väljamaksma	välja_maks	ma		V	ma
.	.			Z	
</s>					
<s>					
Otsus	otsus	0		S	sg n
kuulutud	kuulu	tud		V	tud
sel	see	l		P	sg ad
17.	17.	0		O	?
veebruaril	veebruar	l		S	sg ad
c	c	0		Y	?
.	.			Z	
talorahva	talu_rahvas	0		S	sg g
seaduse	seadus	0		S	sg g
raamato	raamat	0		S	sg g
772	772	0		N	?
ja	ja	0		J	
773	773	0		N	?
juhatusel	juhatus	l		S	sg ad
,	,			Z	
kellega	kes	ga		P	sg kom
kohtukäijad	kohtu_käija	d		S	pl n
rahule	rahule	0		D	
on	ole	0		V	b
  	ole	0		V	vad
.	.			Z	
</s>					
