<s>					
Sepp	Sepp	0		H	sg n
Kaarel	Kaarel	0		H	sg n
Kaer	Kaer	0		H	sg n
kaebduses	kaebus	s		S	sg in
rätsepp	####				
Jaan	Jaan	0		H	sg n
Ostra	Ostra	0		H	sg n
peale	peale	0		D	
,	,			Z	
ja	ja	0		J	
selle	see	0		P	sg g
vasta	vasta	0		V	o
kaebduse	kaebus	0		S	sg g
asjus	asi	us		S	pl in
,	,			Z	
nõudmise	nõudmine	0		S	sg g
asjus	asi	us		S	pl in
,	,			Z	
maa	maa	0		S	sg g
üüri	üür	0		S	sg g
asjus	asi	us		S	pl in
,	,			Z	
krundi	krunt	0		S	sg g
obroki	obrok	0		S	sg g
asjus	asi	us		S	pl in
jne	jne	0		Y	?
olid	ole	id		V	sid
kohtukäijad	kohtu_käija	d		S	pl n
kohtu	kohtu	0		H	sg n
ees	ees	0		D	
,	,			Z	
pidasid	pida	sid		V	sid
omad	oma	d		P	pl n
rechnungid	rehnung	d		S	pl n
ja	ja	0		J	
said	saa	id		V	sid
rechnungid	rehnung	d		S	pl n
kohtu	kohtu	0		H	sg n
poolt	poolt	0		K	
tehtud	tege	tud		V	tud
,	,			Z	
mis	mis	0		P	sg n
peale	peale	0		K	
kohus	kohus	0		S	sg n
lõppeks	lõppeks	0		D	
moistis	mõist	is		V	s
:	:			Z	
et	et	0		J	
nende	tema	de		P	pl g
nõudmised	nõudmine	d		S	pl n
ja	ja	0		J	
maea	maja	0		S	sg g
üür	üür	0		S	sg n
vastastikku	vastastikku	0		D	
jäevad	jää	id		V	sid
,	,			Z	
ja	ja	0		J	
Kaarel	Kaarel	0		H	sg n
Kaer	Kaer	0		H	sg n
maksab	maks	b		V	b
2	2	0		N	?
rubla	rubla	0		S	sg p
Jaan	Jaan	0		H	sg n
Ostrale	Ostra	le		H	sg all
juure	juur	0		S	sg g
,	,			Z	
siis	siis	0		J	
on	ole	0		V	b
  	ole	0		V	vad
keik	kõik	0		P	pl n
nõudmiset	####				
lõpetud	lõppe	tud		V	tud
.	.			Z	
</s>					
<s>					
Otsus	otsus	0		S	sg n
kuulutud	kuulu	tud		V	tud
sel	see	l		P	sg ad
12.	12.	0		O	?
mail	mai	l		S	sg ad
1878	1878	0		N	?
talorahva	talu_rahvas	0		S	sg g
seaduse	seadus	0		S	sg g
raamato	raamat	0		S	sg g
§	§	0		Y	?
772	772	0		N	?
ja	ja	0		J	
773	773	0		N	?
juhatusel	juhatus	l		S	sg ad
.	.			Z	
</s>					
