<s>					
Ivan	Ivan	0		H	sg n
Leontjev	Leonti	0		H	sg g
Gretsehin	Gretsehin	0		H	sg n
nõuab	nõud	b		V	b
Leonti	Leonti	0		H	sg n
Afonasjev	Afonasjev	0		H	sg n
Pusanovi	Pusanov	0		H	sg g
kaest	käsi	st		S	sg el
võlg	võlg	0		S	sg n
raha	raha	0		S	sg p
15	15	0		N	?
rubla	rubla	0		S	sg p
.	.			Z	
</s>					
<s>					
Tuli	tule	i		V	s
ette	ette	0		D	
Leonti	Leonti	0		H	sg n
Afonasjev	Afonasjev	0		H	sg n
Pusanov	Pusanov	0		H	sg n
,	,			Z	
ja	ja	0		J	
ütleb	ütle	b		V	b
,	,			Z	
et	et	0		J	
temal	tema	l		P	sg ad
olla	ole	a		V	da
nii	nii	0		D	
palju	palju	0		D	
võlga	võlg	0		S	sg p
,	,			Z	
ja	ja	0		J	
lubab	luba	b		V	b
keik	kõik	0		P	pl n
see	see	0		P	sg n
võlg	võlg	0		S	sg n
15	15	0		N	?
rubla	rubla	0		S	sg p
täna	täna	0		D	
3	3	0		N	?
nädala	nädal	0		S	sg g
pärast	pärast	0		K	
ära	ära	0		D	
maksa	maks	0		V	o
.	.			Z	
</s>					
