<s>					
Kaarel	Kaarel	0		H	sg n
Hallik	Hallik	0		H	sg n
Kokoralt	Kokorale	t		H	sg p
kaebab	kaeba	b		V	b
Semon	Semon	0		H	sg n
Tiktinnikov	Tiktinnikov	0		H	sg n
peale	peale	0		D	
,	,			Z	
ja	ja	0		J	
nõuab	nõud	b		V	b
selle	see	0		P	sg g
kaest	käest	0		K	
sellele	see	le		P	sg all
veedut	####				
2	2	0		N	?
vakka	vakk	0		S	adt
rukki	rukis	0		S	sg g
jahu	jahu	0		S	sg g
eest	eest	0		K	
6	6	0		N	?
rubla	rubla	0		S	sg p
30	30	0		N	?
kop	kop	0		Y	?
ja	ja	0		J	
vana	vana	0		A	sg p
võlga	võlg	0		S	sg p
50	50	0		N	?
kop	kop	0		Y	?
.	.			Z	
</s>					
<s>					
Summa	summa	0		S	sg n
6	6	0		N	?
rubla	rubla	0		S	sg g
80	80	0		N	?
kop	kop	0		Y	?
.	.			Z	
</s>					
<s>					
Semon	Semon	0		H	sg n
Tiktinnikov	Tiktinnikov	0		H	sg n
kostab	kost	b		V	b
,	,			Z	
et	et	0		J	
tema	tema	0		P	sg g
ollad	####				
selle	see	0		P	sg g
raha	raha	0		S	sg p
äramaksnud	ära_maks=nud	0		A	sg n
.	.			Z	
</s>					
<s>					
Kohus	kohus	0		S	sg n
moistis	mõist	is		V	s
:	:			Z	
Semon	Semon	0		H	sg n
Tiktinnikov	Tiktinnikov	0		H	sg n
ütleb	ütle	b		V	b
,	,			Z	
et	et	0		J	
tema	tema	0		P	sg n
on	ole	0		V	b
  	ole	0		V	vad
kraam	kraam	0		S	sg n
võtnud	võt	nud		V	nud
ja	ja	0		J	
raha	raha	0		S	sg p
äramaksnud	ära_maks=nud	0		A	sg n
,	,			Z	
pole	ole	0		V	neg o
aga	aga	0		J	
selle	see	0		P	sg g
peale	peale	0		K	
tunnistust	tunnistus	t		S	sg p
,	,			Z	
et	et	0		J	
raha	raha	0		S	sg n
on	ole	0		V	b
  	ole	0		V	vad
äramaksnud	ära_maks=nud	0		A	sg n
,	,			Z	
siis	siis	0		J	
peab	pida	b		V	b
tema	tema	0		P	sg n
need	see	d		P	pl n
6	6	0		N	?
rubla	rubla	0		S	sg p
80	80	0		N	?
kop	kop	0		Y	?
kaebajale	kaebaja	le		S	sg all
8	8	0		N	?
paeva	päev	0		S	sg g
sees	sees	0		K	
väljamaksma	välja_maks	ma		V	ma
.	.			Z	
</s>					
<s>					
Otsus	otsus	0		S	sg n
kuulutud	kuulu	tud		V	tud
sel	see	l		P	sg ad
18.	18.	0		O	?
augustil	august	l		S	sg ad
c	c	0		Y	?
.	.			Z	
seaduse	seadus	0		S	sg g
raamato	raamat	0		S	sg g
§	§	0		Y	?
772	772	0		N	?
ja	ja	0		J	
773	773	0		N	?
juhatusel	juhatus	l		S	sg ad
,	,			Z	
ja	ja	0		J	
oppuse	õppus	0		S	sg g
kirjad	kiri	d		S	pl n
väljaantud	välja_and	tud		V	tud
.	.			Z	
</s>					
