<s>					
Tuli	tule	i		V	s
kohtu	kohtu	0		H	sg n
ette	ette	0		D	
tänavune	tänavune	0		A	sg n
loosipoiss	loosi_poiss	0		S	sg n
Joosep	Joosep	0		H	sg n
Kuslap	Kuslap	0		H	sg n
ja	ja	0		J	
annab	and	b		V	b
ülesse	ülesse	0		D	
et	et	0		J	
tema	tema	0		P	sg n
oma	oma	0		P	sg g
poisikese	poisike	0		S	sg g
põlvest	põli	st		S	sg el
       	põlv	st		S	sg el
saadik	saadik	0		K	
pahema	pahem	0		C	sg g
kõrvaga	kõrv	ga		S	sg kom
mitte	mitte	0		D	
ei	ei	0		V	neg
kuulda	kuul	da		V	ta
.	.			Z	
</s>					
<s>					
Kohtumehed	kohtu_mees	d		S	pl n
Madis	Madis	0		H	sg n
Erm	Erm	0		H	sg n
ja	ja	0		J	
Jaan	Jaan	0		H	sg n
Piiri	Piiri	0		H	sg n
tunnistavad	tunnista	vad		V	vad
,	,			Z	
et	et	0		J	
nemad	tema	d		P	pl n
elada	ela	da		V	da
Joosep	Joosep	0		H	sg n
Kuslapuuga	Kuslap	ga		H	sg kom
ligi	ligi	0		D	
lähedal	lähedal	0		D	
ja	ja	0		J	
voida	või	da		V	da
     	võid	a		V	da
seda	see	da		P	sg p
tunnistada	tunnista	da		V	da
,	,			Z	
et	et	0		J	
nimetud	nimetu	d		A	pl n
Joosep	Joosep	0		H	sg n
Kuslapuu	Kuslap	0		H	sg g
kõrvad	kõrv	d		S	pl n
14.	14.	0		O	?
eloaastast	####				
saadik	saadik	0		K	
tihti	tihti	0		D	
mäda	mäda	0		A	sg n
jooksta	jooks	ta		V	da
ja	ja	0		J	
ei	ei	0		V	neg
kuulda	kuul	da		V	ta
hästi	hästi	0		D	
.	.			Z	
</s>					
