<s>					
Sel	sel	0		Y	?
15.	15.	0		O	?
septembril	september	l		S	sg ad
c	c	0		Y	?
.	.			Z	
sub	sub	0		Y	
nr121	####				
poolele	pool	le		S	sg all
jäänud	jää	nud		V	nud
asjus	asi	us		S	pl in
tunnistab	tunnista	b		V	b
kihelkonna	kihelkond	0		S	sg g
kohtumees	kohtu_mees	0		S	sg n
Jaan	Jaan	0		H	sg n
Kook	Kook	0		H	sg n
,	,			Z	
et	et	0		J	
tema	tema	0		P	sg g
taplust	taplus	t		S	sg p
pole	ole	0		V	neg o
nähnud	näge	nud		V	nud
,	,			Z	
härja	härg	0		S	sg g
müija	müüja	0		S	sg n
Joosep	Joosep	0		H	sg n
Kook	Kook	0		H	sg n
ütelnud	ütle	nud		V	nud
tema	tema	0		P	sg g
vasta	vasta	0		V	o
,	,			Z	
et	et	0		J	
tema	tema	0		P	sg g
olla	ole	a		V	da
Jefim	Jefim	0		H	sg n
Koslovile	Koslov	le		H	sg all
luba	luba	0		S	sg p
annud	and	nud		V	nud
härg	härg	0		S	sg n
ära	ära	0		D	
viia	vii	a		V	da
,	,			Z	
kui	kui	0		D	
   	kui	0		J	
20	20	0		N	?
rubla	rubla	0		S	sg p
maksa	maks	0		S	sg p
tahab	taht	b		V	b
.	.			Z	
</s>					
<s>					
Jaan	Jaan	0		H	sg n
Jürgenson	Jürgenson	0		H	sg n
tunnistab	tunnista	b		V	b
,	,			Z	
et	et	0		J	
tema	tema	0		P	sg n
pole	ole	0		V	neg o
selgest	selge	st		A	sg el
nähnud	näge	nud		V	nud
,	,			Z	
kas	kas	0		D	
Peeter	Peeter	0		H	sg n
Kusik	Kusik	0		H	sg n
lükkas	lükka	s		V	s
vai	vai	0		S	sg n
lõi	loo	i		V	s
   	löö	i		V	s
Jefin	Jefin	0		H	sg n
Koslovi	Koslov	0		H	sg g
,	,			Z	
aga	aga	0		J	
Jefim	Jefim	0		H	sg n
Koslov	Koslov	0		H	sg n
taganenud	tagane	nud		V	nud
.	.			Z	
</s>					
<s>					
Hans	Hans	0		H	sg n
Käärdi	Käärdi	0		H	sg n
tunnistab	tunnista	b		V	b
,	,			Z	
et	et	0		J	
Jefim	Jefim	0		H	sg n
Koslov	Koslov	0		H	sg n
tulnud	tule	nud		V	nud
härjaga	härg	ga		S	sg kom
kõrtsi	kõrts	0		S	sg g
nukka	nukk	0		S	adt
tagast	taga	st		A	sg el
välja	välja	0		D	
teed	tee	d		S	sg p
mööda	mööda	0		K	
ja	ja	0		J	
tahtnud	taht	nud		V	nud
mööda	mööda	0		D	
minna	mine	a		V	da
,	,			Z	
seal	seal	0		D	
tulnud	tule	nud		V	nud
Peeter	Peeter	0		H	sg n
Kusik	Kusik	0		H	sg n
ja	ja	0		J	
võtnud	võt	nud		V	nud
härja	härg	0		S	sg g
kaest	käsi	st		S	sg el
ära	ära	0		D	
ja	ja	0		J	
lükanud	lükka	nud		V	nud
Jefim	Jefim	0		H	sg n
Koslovi	Koslov	0		H	sg g
minema	mine	ma		V	ma
.	.			Z	
</s>					
<s>					
Kaarel	Kaarel	0		H	sg n
Käer	Käer	0		H	sg n
tunnistab	tunnista	b		V	b
,	,			Z	
et	et	0		J	
tema	tema	0		P	sg n
pole	ole	0		V	neg o
taplust	taplus	t		S	sg p
nähnud	näge	nud		V	nud
,	,			Z	
kui	kui	0		D	
   	kui	0		J	
tema	tema	0		P	sg g
kõrtsist	kõrts	st		S	sg el
välja	välja	0		D	
tulnud	tule	nud		V	nud
,	,			Z	
siis	siis	0		J	
lähnud	mine	nud		V	nud
härg	härg	0		S	sg n
reia	reig	0		S	sg g
alla	alla	0		K	
.	.			Z	
</s>					
<s>					
Feodor	Feodor	0		H	sg n
Nemets	Nemets	0		H	sg n
tunnistab	tunnista	b		V	b
,	,			Z	
et	et	0		J	
tema	tema	0		P	sg n
pole	ole	0		V	neg o
seda	see	da		P	sg p
pahandust	pahandus	t		S	sg p
nähnud	näge	nud		V	nud
.	.			Z	
</s>					
<s>					
Peten	Peten	0		H	sg n
Kusik	Kusik	0		H	sg n
ütleb	ütle	b		V	b
,	,			Z	
et	et	0		J	
Jefim	Jefim	0		H	sg n
Koslov	Koslov	0		H	sg n
olla	ole	a		V	da
tema	tema	0		P	sg g
härja	härg	0		S	sg g
varas	varas	0		S	sg n
.	.			Z	
</s>					
<s>					
Tunnistus	tunnistus	0		S	sg n
sai	saa	i		V	s
kohtukäijatele	kohtu_käija	tele		S	pl all
avaldut	avalda	ut		V	tud
.	.			Z	
</s>					
<s>					
Jefim	Jefim	0		H	sg n
Koslov	Koslov	0		H	sg n
nimetab	nimeta	b		V	b
härja	härg	0		S	sg g
äravotjad	####				
Peeter	Peeter	0		H	sg n
Kusikud	Kusik	d		H	sg g
mõrtsukaks	mõrtsukas	ks		S	sg tr
,	,			Z	
sest	sest	0		J	
et	et	0		J	
kahe	kaks	0		N	sg g
sulase	sulane	0		S	sg g
ja	ja	0		J	
kervega	kirves	ga		S	sg kom
tema	tema	0		P	sg g
kallale	kallale	0		K	
tulnud	tule	nud		V	nud
.	.			Z	
</s>					
<s>					
Kohus	kohus	0		S	sg n
moistis	mõist	is		V	s
:	:			Z	
Peeter	Peeter	0		H	sg n
Kusik	Kusik	0		H	sg n
ostis	ost	is		V	s
üks	üks	0		N	sg n
   	üks	0		P	sg n
härg	härg	0		S	sg n
Joosep	Joosep	0		H	sg n
Kook	Kook	0		H	sg n
kaest	käsi	st		S	sg el
ja	ja	0		J	
voinud	või	nud		V	nud
ostetud	ost	tud		V	tud
härg	härg	0		S	sg n
selle	see	0		P	sg g
kaest	käest	0		K	
nõuda	nõud	a		V	da
,	,			Z	
ei	ei	0		V	neg
olnud	ole	nud		V	nud
temal	tema	l		P	sg ad
aga	aga	0		J	
mitte	mitte	0		D	
õigus	õigus	0		S	sg n
,	,			Z	
Jefim	Jefim	0		H	sg n
Koslovi	Koslov	0		H	sg g
kaest	käsi	st		S	sg el
härg	härg	0		S	sg n
riisuda	riisu	da		V	da
,	,			Z	
ja	ja	0		J	
seal	seal	0		D	
juures	juures	0		K	
vägivalda	vägi_vald	0		S	sg p
pruukida	pruuki	da		V	da
,	,			Z	
ja	ja	0		J	
veel	veel	0		D	
Jefim	Jefim	0		H	sg n
Koslovi	Koslov	0		H	sg g
lükata	lükka	ta		V	da
,	,			Z	
siis	siis	0		J	
maksab	maks	b		V	b
Peeter	Peeter	0		H	sg n
Kusik	Kusik	0		H	sg n
Jefim	Jefim	0		H	sg n
Koslovile	Koslov	le		H	sg all
valorahaks	valu_raha	ks		S	sg tr
5	5	0		N	?
rubla	rubla	0		S	sg p
ja	ja	0		J	
trahviks	trahv	ks		S	sg tr
riisumise	riisumine	0		S	sg g
ja	ja	0		J	
vägivalla	vägi_vald	0		S	sg g
pruukimise	pruukimine	0		S	sg g
eest	eest	0		K	
1	1	0		N	?
rubla	rubla	0		S	sg p
vaestelaadiko	vaes+te_laadik	0		S	sg g
.	.			Z	
</s>					
<s>					
Et	et	0		J	
nemad	tema	d		P	pl n
kumbgi	kumbki	0		P	sg n
kohtu	kohtu	0		H	sg n
ees	ees	0		K	
teine	teine	0		O	sg n
     	teine	0		P	sg n
teisele	teine	le		O	sg all
       	teine	le		P	sg all
pahad	paha	d		A	pl n
sõnad	sõna	d		S	pl n
on	ole	0		V	b
  	ole	0		V	vad
ütelnud	ütle	nud		V	nud
,	,			Z	
maksavad	maks	vad		V	vad
kumbgi	kumbki	0		P	sg n
2	2	0		N	?
rubla	rubla	0		S	sg p
vaestelaadiko	vaes+te_laadik	0		S	sg g
trahviks	trahv	ks		S	sg tr
.	.			Z	
</s>					
<s>					
Otsus	otsus	0		S	sg n
kuulutud	kuulu	tud		V	tud
sel	see	l		P	sg ad
6.	6.	0		O	?
oktobril	####				
c	c	0		Y	?
.	.			Z	
talorahva	talu_rahvas	0		S	sg g
seaduse	seadus	0		S	sg g
raamato	raamat	0		S	sg g
§	§	0		Y	?
772	772	0		N	?
ja	ja	0		J	
773	773	0		N	?
juhatusel	juhatus	l		S	sg ad
,	,			Z	
ja	ja	0		J	
oppuse	õppus	0		S	sg g
kirjad	kiri	d		S	pl n
väljaantud	välja_and	tud		V	tud
.	.			Z	
</s>					
<s>					
Jefim	Jefim	0		H	sg n
Koslov	Koslov	0		H	sg n
kuulutas	kuuluta	s		V	s
sel	see	l		P	sg ad
13.	13.	0		O	?
oktoobril	oktoober	l		S	sg ad
et	et	0		J	
tema	tema	0		P	sg g
otsusega	otsus	ga		S	sg kom
rahule	rahule	0		D	
ei	ei	0		V	neg
ole	ole	0		V	o
,	,			Z	
mis	mis	0		P	sg n
peale	peale	0		K	
temale	tema	le		P	sg all
kohe	kohe	0		D	
appellatsiooni	apellatsioon	0		S	sg g
kiri	kiri	0		S	sg n
väljaantud	välja_and	tud		V	tud
sai	saa	i		V	s
.	.			Z	
</s>					
