<s>					
Timofei	Timofei	0		H	sg n
Ivanov	Ivanov	0		H	sg n
ei	ei	0		V	neg
ole	ole	0		V	o
oma	oma	0		P	sg g
paevi	päev	i		S	pl p
moisale	mõis	le		S	sg all
äratehnud	ära_tege	tud		V	tud
,	,			Z	
mis	mis	0		P	sg n
peale	peale	0		K	
kohus	kohus	0		S	sg n
moistis	mõist	is		V	s
:	:			Z	
et	et	0		J	
tema	tema	0		P	sg n
paevad	päev	d		S	pl n
ära	ära	0		D	
tegema	tege	ma		V	ma
peab	pida	b		V	b
,	,			Z	
ja	ja	0		J	
maksab	maks	b		V	b
1	1	0		N	?
rubla	rubla	0		S	sg p
vaestelaadiko	vaes+te_laadik	0		S	sg g
trahviks	trahv	ks		S	sg tr
.	.			Z	
</s>					
<s>					
Otsus	otsus	0		S	sg n
kuulutud	kuulu	tud		V	tud
ja	ja	0		J	
rahul	rahul	0		D	
oldut	ol=du	t		S	sg p
.	.			Z	
</s>					
