<s>					
Poolele	pool	le		S	sg all
jäänud	jää	nud		V	nud
asjus	asi	us		S	pl in
tunnistab	tunnista	b		V	b
Tõnis	Tõnis	0		H	sg n
Grünvald	Grünvald	0		H	sg n
,	,			Z	
Varalt	Varalt	lt		H	sg n
,	,			Z	
et	et	0		J	
Ilja	Ilja	0		H	sg n
Petrov	Petrov	0		H	sg n
Samsonov	Samsonov	0		H	sg n
olla	ole	a		V	da
Vara	vara	0		S	sg g
kirjutaja	kirjutaja	0		S	sg n
vasta	vasta	0		V	o
öölnud	ütle	nud		V	nud
,	,			Z	
et	et	0		J	
tema	tema	0		P	sg g
700	700	0		N	?
rublaga	rubla	ga		S	sg kom
ehitust	ehitus	t		S	sg p
ei	ei	0		V	neg
võta	võt	0		V	o
.	.			Z	
</s>					
<s>					
Jakob	Jakob	0		H	sg n
Pedak	Pedak	0		H	sg n
tunnistab	tunnista	b		V	b
,	,			Z	
et	et	0		J	
Vara	vara	0		S	sg g
kõrtsis	kõrts	s		S	sg in
olla	ole	a		V	da
Ilja	Ilja	0		H	sg n
Petrov	Petrov	0		H	sg n
vallavanema	valla_vanem	0		S	sg g
ja	ja	0		J	
teiste	teine	te		O	pl g
      	teine	te		P	pl g
vasta	vasta	0		V	o
öölnud	ütle	nud		V	nud
,	,			Z	
et	et	0		J	
tema	tema	0		P	sg g
700	700	0		N	?
rublaga	rubla	ga		S	sg kom
tööd	töö	d		S	sg p
oma	oma	0		P	sg g
kätte	kätte	0		K	
ei	ei	0		V	neg
võta	võt	0		V	o
.	.			Z	
</s>					
<s>					
Toomas	Toomas	0		H	sg n
Saul	Saul	0		H	sg n
tunnistab	tunnista	b		V	b
,	,			Z	
et	et	0		J	
Aron	Aron	0		H	sg n
Vilip	Vilip	0		H	sg n
olla	ole	a		V	da
kõrtsi	kõrts	0		S	sg g
juures	juures	0		K	
öölnud	ütle	nud		V	nud
,	,			Z	
et	et	0		J	
tema	tema	0		P	sg g
700	700	0		N	?
rublaga	rubla	ga		S	sg kom
tööd	töö	d		S	sg p
oma	oma	0		P	sg g
peale	peale	0		K	
ei	ei	0		V	neg
võta	võt	0		V	o
.	.			Z	
</s>					
<s>					
Jääb	jää	b		V	b
poolele	pool	le		S	sg all
.	.			Z	
</s>					
