<s>					
Metsavalitseja	metsa_valitseja	0		S	sg g
Grossiga	gross	ga		S	sg kom
kaebab	kaeba	b		V	b
moisa	mõis	0		S	sg g
kolosnik	kolosnik	0		S	sg n
Kaarel	Kaarel	0		H	sg n
Mällson	Mällson	0		H	sg n
peale	peale	0		D	
,	,			Z	
see	see	0		P	sg n
olla	ole	a		V	da
moisa	mõis	0		S	sg g
metsast	mets	st		S	sg el
saagimisega	saagimine	ga		S	sg kom
alamalnimetud	####				
puud	puud	0		S	sg n
varastanud	varasta	nud		V	nud
:	:			Z	
1	1	0		N	?
kuusk	kuusk	0		S	sg n
36	36	0		N	?
jalga	jalg	0		S	sg p
pitk	pikk	0		A	sg n
8	8	0		N	?
tolli	toll	0		S	sg g
jäme	jäme	0		A	sg n
</s>					
<s>					
1	1	0		N	?
kuusk	kuusk	0		S	sg n
60	60	0		N	?
jalga	jalg	0		S	sg p
pitk	pikk	0		A	sg n
10	10	0		N	?
tolli	toll	0		S	sg g
jäme	jäme	0		A	sg n
</s>					
<s>					
1	1	0		N	?
kuusk	kuusk	0		S	sg n
54	54	0		N	?
jalga	jalg	0		S	sg p
pitk	pikk	0		A	sg n
9	9	0		N	?
tolli	toll	0		S	sg g
jäme	jäme	0		A	sg n
</s>					
<s>					
1	1	0		N	?
kuusk	kuusk	0		S	sg n
48	48	0		N	?
jalga	jalg	0		S	sg p
pitk	pikk	0		A	sg n
8	8	0		N	?
tolli	toll	0		S	sg g
jäme	jäme	0		A	sg n
</s>					
<s>					
1	1	0		N	?
kuusk	kuusk	0		S	sg n
54	54	0		N	?
jalga	jalg	0		S	sg p
pitk	pikk	0		A	sg n
9	9	0		N	?
tolli	toll	0		S	sg g
jäme	jäme	0		A	sg n
</s>					
<s>					
1	1	0		N	?
kuusk	kuusk	0		S	sg n
36	36	0		N	?
jalga	jalg	0		S	sg p
pitk	pikk	0		A	sg n
6	6	0		N	?
tolli	toll	0		S	sg g
jäme	jäme	0		A	sg n
</s>					
<s>					
1	1	0		N	?
kuusk	kuusk	0		S	sg n
24	24	0		N	?
jalga	jalg	0		S	sg p
pitk	pikk	0		A	sg n
4	4	0		N	?
tolli	toll	0		S	sg g
jäme	jäme	0		A	sg n
</s>					
<s>					
1	1	0		N	?
kuusk	kuusk	0		S	sg n
36	36	0		N	?
jalga	jalg	0		S	sg p
pitk	pikk	0		A	sg n
6	6	0		N	?
tolli	toll	0		S	sg g
jäme	jäme	0		A	sg n
</s>					
<s>					
1	1	0		N	?
kuusk	kuusk	0		S	sg n
36	36	0		N	?
jalg	jalg	0		S	sg n
pitk	pikk	0		A	sg n
5	5	0		N	?
tolli	toll	0		S	sg g
jäme	jäme	0		A	sg n
</s>					
<s>					
1	1	0		N	?
aav	####				
54	54	0		N	?
jalga	jalg	0		S	sg p
pitk	pikk	0		A	sg n
9	9	0		N	?
tolli	toll	0		S	sg g
jäme	jäme	0		A	sg n
</s>					
<s>					
1	1	0		N	?
kask	kask	0		S	sg n
54	54	0		N	?
jalga	jalg	0		S	sg p
pitk	pikk	0		A	sg n
9	9	0		N	?
tolli	toll	0		S	sg g
jäme	jäme	0		A	sg n
</s>					
<s>					
1	1	0		N	?
lepp	lepp	0		S	sg n
36	36	0		N	?
jalga	jalg	0		S	sg p
pitk	pikk	0		A	sg n
12	12	0		N	?
tolli	toll	0		S	sg g
jäme	jäme	0		A	sg n
</s>					
<s>					
taksi	taks	0		S	sg g
järele	järele	0		K	
tulla	tule	a		V	da
temal	tema	l		P	sg ad
neljakordne	nelja_kordne	0		A	sg n
hind	hind	0		S	sg n
41	41	0		N	?
rubla	rubla	0		S	sg g
76	76	0		N	?
kop	kop	0		Y	?
jätab	jät	b		V	b
aga	aga	0		J	
poole	poole	0		K	
maha	maha	0		D	
.	.			Z	
</s>					
<s>					
Kaarel	Kaarel	0		H	sg n
Mällson	Mällson	0		H	sg n
tunnistab	tunnista	b		V	b
ennast	ise	t		P	sg p
süidlaseks	süüdlane	ks		S	sg tr
,	,			Z	
ja	ja	0		J	
palub	palu	b		V	b
armu	arm	0		S	sg p
.	.			Z	
</s>					
<s>					
Kohtumees	kohtu_mees	0		S	sg n
Aron	Aron	0		H	sg n
Krimm	Krimm	0		H	sg n
tunnistab	tunnista	b		V	b
,	,			Z	
et	et	0		J	
tema	tema	0		P	sg g
olla	ole	a		V	da
vargust	vargus	t		S	sg p
järele	järele	0		D	
vaatamas	vaata	mas		V	mas
käinud	käi	nud		V	nud
,	,			Z	
ja	ja	0		J	
võtnud	võt	nud		V	nud
Kaarel	Kaarel	0		H	sg n
Mällson	Mällson	0		H	sg n
keik	kõik	0		P	pl n
need	see	d		P	pl n
puud	puud	0		S	sg n
oma	oma	0		P	sg g
peale	peale	0		K	
,	,			Z	
mis	mis	0		P	sg n
saagiga	saak	ga		S	sg kom
saetud	saagi	tud		V	tud
.	.			Z	
</s>					
<s>					
Kohus	kohus	0		S	sg n
moistis	mõist	is		V	s
:	:			Z	
Kaarel	Kaarel	0		H	sg n
Mällson	Mällson	0		H	sg n
on	ole	0		V	b
  	ole	0		V	vad
eespool	ees_pool	0		D	
ülesantud	üles_antud	0		A	sg n
puud	puud	0		S	sg n
oma	oma	0		P	sg g
voliga	voli	ga		S	sg kom
moisa	mõis	0		S	sg g
metsast	mets	st		S	sg el
saaginud	saagi	nud		V	nud
,	,			Z	
taksi	taks	0		S	sg g
järele	järele	0		K	
tuleb	tule	b		V	b
see	see	0		P	sg n
trahv	trahv	0		S	sg n
40	40	0		N	?
rubla	rubla	0		S	sg g
ümber	ümber	0		K	
,	,			Z	
kui	kui	0		D	
   	kui	0		J	
aga	aga	0		J	
kaebaja	kaebaja	0		S	sg g
koigest	####				
20	20	0		N	?
rubla	rubla	0		S	sg p
nõuab	nõud	b		V	b
,	,			Z	
siis	siis	0		J	
kinnitab	kinnita	b		V	b
kohus	kohus	0		S	sg n
seda	see	da		P	sg p
tema	tema	0		P	sg g
nõudmist	nõudmine	t		S	sg p
ja	ja	0		J	
peab	pida	b		V	b
Kaarel	Kaarel	0		H	sg n
Mällson	Mällson	0		H	sg n
need	see	d		P	pl n
20	20	0		N	?
rubla	rubla	0		S	sg g
8	8	0		N	?
paeva	päev	0		S	sg g
sees	sees	0		K	
kaebajale	kaebaja	le		S	sg all
väljamaksma	välja_maks	ma		V	ma
.	.			Z	
</s>					
<s>					
Otsus	otsus	0		S	sg n
kuulutud	kuulu	tud		V	tud
sel	see	l		P	sg ad
3.	3.	0		O	?
novembril	november	l		S	sg ad
c	c	0		Y	?
.	.			Z	
talorahva	talu_rahvas	0		S	sg g
seaduse	seadus	0		S	sg g
raamato	raamat	0		S	sg g
§	§	0		Y	?
772	772	0		N	?
ja	ja	0		J	
773	773	0		N	?
juhatusel	juhatus	l		S	sg ad
,	,			Z	
ja	ja	0		J	
rahul	rahul	0		D	
oldut	ol=du	t		S	sg p
.	.			Z	
</s>					
