<s>					
Alatskivi	Alatskivi	0		H	sg n
metsavalitseja	metsa_valitseja	0		S	sg g
Grossiga	gross	ga		S	sg kom
kaebab	kaeba	b		V	b
otstavki	otstavki	0		D	
madruse	madrus	0		S	sg g
Juhan	Juhan	0		H	sg n
Tehvan	Tehvan	0		H	sg n
peale	peale	0		D	
,	,			Z	
see	see	0		P	sg n
olla	ole	a		V	da
ilma	ilma	0		K	
lubata	luba	ta		V	ta
ühe	üks	0		N	sg g
   	üks	0		P	sg g
kase	kask	0		S	sg g
60	60	0		N	?
jalga	jalg	0		S	adt
pitk	pikk	0		A	sg n
ja	ja	0		J	
14	14	0		N	?
tolli	toll	0		S	sg g
maantee	maan_tee	0		S	sg g
jäärest	jää_rest	0		S	sg n
maharaidunud	maha_raiu	nud		V	nud
,	,			Z	
kelle	kes	0		P	sg g
eest	eest	0		K	
tema	tema	0		P	sg g
seaduslik	seaduslik	0		A	sg n
trahv	trahv	0		S	sg n
nõuab	nõud	b		V	b
.	.			Z	
</s>					
<s>					
Juhan	Juhan	0		H	sg n
Tehvan	Tehvan	0		H	sg n
ütleb	ütle	b		V	b
,	,			Z	
et	et	0		J	
tema	tema	0		P	sg n
olla	ole	a		V	da
kase	kask	0		S	sg g
küll	küll	0		D	
maharaidunud	maha_raiu	nud		V	nud
,	,			Z	
aga	aga	0		J	
ta	tema	0		P	sg n
pole	ole	0		V	neg o
toores	toores	0		A	sg n
olnud	ole	nud		V	nud
,	,			Z	
vaid	vaid	0		J	
kuiv	kuiv	0		A	sg n
.	.			Z	
</s>					
<s>					
Kohtumees	kohtu_mees	0		S	sg n
Tavet	Tavet	0		H	sg n
Kook	Kook	0		H	sg n
tunnistab	tunnista	b		V	b
et	et	0		J	
kask	kask	0		S	sg n
olnud	ole	nud		V	nud
pool-kuiva	pool-kuiv	0		S	adt
ja	ja	0		J	
14	14	0		N	?
tolli	toll	0		S	sg g
paks	paks	0		A	sg n
ja	ja	0		J	
60	60	0		N	?
jalga	jalg	0		S	sg p
pitk	pikk	0		A	sg n
.	.			Z	
</s>					
<s>					
Tunnistus	tunnistus	0		S	sg n
sai	saa	i		V	s
avaldut	avalda	ut		V	tud
.	.			Z	
</s>					
<s>					
Kohus	kohus	0		S	sg n
moistis	mõist	is		V	s
:	:			Z	
on	ole	0		V	b
  	ole	0		V	vad
Juhan	Juhan	0		H	sg n
Tehvan	Tehvan	0		H	sg n
oma	oma	0		P	sg g
voliga	voli	ga		S	sg kom
kask	kask	0		S	sg n
maharaidunud	maha_raiu	nud		V	nud
,	,			Z	
siis	siis	0		J	
maksab	maks	b		V	b
tema	tema	0		P	sg g
selle	see	0		P	sg g
eest	eest	0		K	
metsavalltseja	####				
Grossile	gross	le		S	sg all
6	6	0		N	?
rubla	rubla	0		S	sg g
8	8	0		N	?
paeva	päev	0		S	sg g
sees	sees	0		K	
trahviks	trahv	ks		S	sg tr
.	.			Z	
</s>					
<s>					
Otsus	otsus	0		S	sg n
kuulutud	kuulu	tud		V	tud
sel	see	l		P	sg ad
27.	27.	0		O	?
oktoobril	oktoober	l		S	sg ad
c	c	0		Y	?
.	.			Z	
talorahva	talu_rahvas	0		S	sg g
seaduse	seadus	0		S	sg g
raamato	raamat	0		S	sg g
§	§	0		Y	?
772	772	0		N	?
ja	ja	0		J	
773	773	0		N	?
juhatusel	juhatus	l		S	sg ad
ja	ja	0		J	
oppuse	õppus	0		S	sg g
kirjad	kiri	d		S	pl n
väljaantud	välja_and	tud		V	tud
.	.			Z	
</s>					
