<s>					
Filip	Filip	0		H	sg n
Dubimin	####				
juure	juur	0		S	sg g
sai	saa	i		V	s
tänasel	tänane	l		A	sg ad
paeval	päev	l		S	sg ad
kohtu	kohtu	0		H	sg n
ees	ees	0		D	
Aleksei	Aleksei	0		H	sg n
Rõischovi	Rõischov	0		H	sg g
raha	raha	0		S	sg n
,	,			Z	
mis	mis	0		P	sg n
sellel	see	l		P	sg ad
maea	maja	0		S	sg g
müimisest	####				
veel	veel	0		D	
saada	saa	da		V	da
on	ole	0		V	b
  	ole	0		V	vad
,	,			Z	
45	45	0		N	?
rubla	rubla	0		S	sg p
kinnipandut	kinni_pan=du	t		S	sg p
,	,			Z	
ja	ja	0		J	
peab	pida	b		V	b
tema	tema	0		P	sg g
see	see	0		P	sg n
raha	raha	0		S	sg n
seie	siia	0		D	
kohtusse	kohus	sse		S	sg ill
sissemaksma	sisse_maks	ma		V	ma
.	.			Z	
</s>					
