<s>					
Moisavalitseja	Moisavalitseja	0		H	sg n
Funke	Funke	0		H	sg n
kaebab	kaeba	b		V	b
Ilja	Ilja	0		H	sg n
Osubuschkin	Osubuschkin	0		H	sg n
peale	peale	0		D	
Kasepea	Kasepea	0		H	sg n
külast	külast	st		H	sg n
,	,			Z	
see	see	0		P	sg n
olla	ole	a		V	da
Kolkja	Kolkja	0		H	sg n
kõrtsimeest	kõrtsi_mees	t		S	sg p
uherdiga	oherdi	ga		S	sg kom
ähvardanud	ähvarda	nud		V	nud
lüüa	löö	a		V	da
.	.			Z	
</s>					
<s>					
Ilja	Ilja	0		H	sg n
Osubuschkin	Osubuschkin	0		H	sg n
ütleb	ütle	b		V	b
,	,			Z	
et	et	0		J	
kõrtsimees	kõrtsi_mees	0		S	sg n
olla	ole	a		V	da
teda	tema	da		P	sg p
enni	enne	0		D	
tuuraga	tuur	ga		S	sg kom
ärkitanud	ärgita	nud		V	nud
ja	ja	0		J	
tema	tema	0		P	sg g
ärkitanud	ärgita	nud		V	nud
pärast	pärast	0		K	
uherdiga	oherdi	ga		S	sg kom
.	.			Z	
</s>					
<s>					
Jaan	Jaan	0		H	sg n
Nautras	Nautras	0		H	sg n
ja	ja	0		J	
Johannes	Johannes	0		H	sg n
Tint	Tint	0		H	sg n
tunnistab	tunnista	b		V	b
,	,			Z	
et	et	0		J	
nemad	tema	d		P	pl n
olla	ole	a		V	da
küll	küll	0		D	
nähnud	näge	nud		V	nud
,	,			Z	
kuda	kuidas	0		D	
Ilja	Ilja	0		H	sg n
Osubuschkin	Osubuschkin	0		H	sg n
kõrtsimeest	kõrtsi_mees	t		S	sg p
uherdiga	oherdi	ga		S	sg kom
ähvardanud	ähvarda	nud		V	nud
,	,			Z	
aga	aga	0		J	
tuura	tuur	0		S	sg g
ärkitamist	####				
pole	ole	0		V	neg o
nemad	tema	d		P	pl n
nähnud	näge	nud		V	nud
.	.			Z	
</s>					
<s>					
Kaebatu	kaevatu	0		S	sg n
lubanud	luba	nud		V	nud
ööse	öös	e		S	pl p
aknad	aken	d		S	pl n
lõhku	lõhk	0		S	adt
,	,			Z	
tunnistab	tunnista	b		V	b
Johannes	Johannes	0		H	sg n
Tint	Tint	0		H	sg n
.	.			Z	
</s>					
<s>					
Kõrtsimees	kõrtsi_mees	0		S	sg n
Jaan	Jaan	0		H	sg n
Lane	Lane	0		H	sg n
sai	saa	i		V	s
ette	ette	0		D	
kutsutud	kutsu	tud		V	tud
ja	ja	0		J	
ütleb	ütle	b		V	b
küsimise	küsimine	0		S	sg g
peale	peale	0		K	
,	,			Z	
et	et	0		J	
tema	tema	0		P	sg n
pole	ole	0		V	neg o
mitte	mitte	0		D	
sellele	see	le		P	sg all
tuura	tuur	0		S	adt
ärgitanud	ärgita	nud		V	nud
,	,			Z	
vaid	vaid	0		J	
ühe	üks	0		N	sg g
   	üks	0		P	sg g
teisele	teine	le		O	sg all
       	teine	le		P	sg all
.	.			Z	
</s>					
<s>					
Jääb	jää	b		V	b
poolele	pool	le		S	sg all
.	.			Z	
</s>					
