<s>					
Vallavölmünder	Vallavölmünder	0		H	sg n
Jaan	Jaan	0		H	sg n
Rosenthal	Rosenthal	0		H	sg n
kaibas	kaeba	s		V	s
et	et	0		J	
Peterburgi	Peterburgi	0		H	sg n
sure	sure	0		V	o
tee	tee	0		S	sg g
tegemisse	tegemine	se		S	adt
man	man	0		D	
om	ole	0		V	b
Kertsu	Kertsu	0		H	sg n
tallu	talu	0		S	adt
tullemada	####				
jänu	jää	nu		V	nud
,	,			Z	
tema	tema	0		P	sg n
om	ole	0		V	b
selle	see	0		P	sg g
tee	tee	0		S	sg g
raha	raha	0		S	sg g
est	eest	0		K	
tetta	####				
lasknu	lask	nud		V	nud
ja	ja	0		H	sg n
om	ole	0		V	b
5	5	0		N	?
rbl	rbl	0		Y	
kullunu	####				
pallus	palu	s		V	s
seda	see	da		P	sg p
kullu	####				
Kertsu	Kertsu	0		H	sg n
Perremehe	Perremehe	0		H	sg n
käest	käsi	st		S	sg el
sisse	sisse	0		D	
nõuda	nõud	a		V	da
.	.			Z	
</s>					
<s>					
Kertsu	Kertsu	0		H	sg n
tallu	talu	0		S	adt
Perremees	Perremees	0		H	sg n
Rudolph	Rudolph	0		H	sg n
Black	Black	0		H	sg n
vastutas	vastuta	s		V	s
,	,			Z	
et	et	0		J	
temma	tema	0		P	sg n
selle	see	0		P	sg g
tee	tee	0		S	sg g
tarvis	tarvis	0		K	
käsku	käsk	0		S	sg p
sanu	saa	nu		V	nud
ei	ei	0		V	neg
olle	ole	0		V	o
.	.			Z	
</s>					
<s>					
???				Z	
</s>					
<s>					
Rein	Rein	0		H	sg n
Anko	Anko	0		H	sg n
andis	and	is		V	s
ülles	üles	0		D	
,	,			Z	
et	et	0		J	
temma	tema	0		P	sg n
sullane	####				
Jaag	Jaag	0		H	sg n
Teder	Teder	0		H	sg n
selle	see	0		P	sg g
kässu	####				
Kertsu	Kertsu	0		H	sg n
tallu	talu	0		S	adt
vinu	vii	nud		V	nud
om	ole	0		V	b
Jaag	Jaag	0		H	sg n
Teder	Teder	0		H	sg n
andis	and	is		V	s
ülles	üles	0		D	
,	,			Z	
et	et	0		J	
tema	tema	0		P	sg g
selle	see	0		P	sg g
kässu	####				
Kertsu	Kertsu	0		H	sg n
tallun	####				
nisama	nii_sama	0		D	
andnu	and=nu	0		S	sg n
kui	kui	0		D	
   	kui	0		J	
muijal	####				
.	.			Z	
</s>					
<s>					
Moistetu	mõist	tu		V	tud
:	:			Z	
et	et	0		J	
Kertsu	Kertsu	0		H	sg n
Tallu	Tallu	0		H	sg n
perremees	perre_mees	0		S	sg n
se	see	0		P	sg n
5	5	0		N	?
rbl	rbl	0		Y	
8	8	0		N	?
päiva	päev	0		S	sg g
sehen	sees	0		K	
Jaan	Jaan	0		H	sg n
Rosenthali	Rosenthal	0		H	sg g
kätte	käsi	tte		S	adt
ärra	ära	0		D	
massma	maks	ma		V	ma
peab	pida	b		V	b
,	,			Z	
selle	see	0		P	sg g
et	et	0		J	
arvata	arva	ta		V	ta
et	et	0		J	
Jaag	Jaag	0		H	sg n
Teder	Teder	0		H	sg n
selle	see	0		P	sg g
kässu	####				
andnu	and=nu	0		S	sg n
om	ole	0		V	b
sest	sest	0		J	
keik	kõik	0		P	sg n
tõised	teine	d		P	pl n
om	ole	0		V	b
selle	see	0		P	sg g
kässu	####				
päle	peale	0		K	
välja	välja	0		D	
tulnu	tulnu	0		S	sg n
.	.			Z	
</s>					
<s>					
Se	Se	0		Y	sg n
moistus	mõistus	0		S	sg n
sai	saa	i		V	s
kulutedo	kuuluta	do		V	tud
ja	ja	0		H	sg n
opetus	õpetus	0		S	sg n
leht	leht	0		S	sg n
välja	välja	0		D	
antu	antud	0		A	sg g
.	.			Z	
</s>					
<s>					
260	260	0		N	?
kop	kop	0		Y	?
sel	see	l		P	sg ad
3	3	0		N	?
Septb	####				
1884	1884	0		N	?
ärra	ära	0		D	
massetu	maks	tu		V	tud
</s>					
