<s>					
Päkohtumees	Päkohtumees	0		H	sg n
Jaan	Jaan	0		H	sg n
Link	Link	0		H	sg n
Kohtumees	kohtu_mees	0		S	sg n
Johan	Johan	0		H	sg n
Grossberg	Grossberg	0		H	sg n
Peter	Peter	0		H	sg n
Ivan	Ivan	0		H	sg n
</s>					
<s>					
16.01.1884	16.01.1884	0		N	?
</s>					
<s>					
Kaibas	kaeba	s		V	s
Johan	Johan	0		H	sg n
Klaosen	Klaosen	0		H	sg n
,	,			Z	
et	et	0		J	
tema	tema	0		P	sg g
rentnik	rentnik	0		S	sg n
Johan	Johan	0		H	sg n
Madison	Madison	0		H	sg n
om	ole	0		V	b
teda	tema	da		P	sg p
ähvartanu	####				
solikut	####				
maha	maha	0		D	
laske	lask	ke		V	ge
ja	ja	0		H	sg n
pallus	palu	s		V	s
et	et	0		J	
kohus	kohus	0		S	sg n
Johan	Johan	0		H	sg n
Madisoni	Madison	0		H	sg g
selle	see	0		P	sg g
est	eest	0		K	
trahvis	trahvi	s		V	s
Johan	Johan	0		H	sg n
Madison	Madison	0		H	sg n
vastutas	vastuta	s		V	s
selle	see	0		P	sg g
kaibuse	kaebus	0		S	sg g
päle	peale	0		K	
,	,			Z	
et	et	0		J	
Johan	Johan	0		H	sg n
Klaosen	Klaosen	0		H	sg n
ei	ei	0		V	neg
olle	ole	0		V	o
linno	####				
Kebbe	####				
tallu	talu	0		S	adt
vija	####				
lasknu	lask	nud		V	nud
ja	ja	0		H	sg n
üttelnu	ütle	nu		V	nud
temale	tema	le		P	sg all
:	:			Z	
""""	""""			Z	
sinna	sinna	0		D	
olled	####				
varras	varras	0		S	sg n
ja	ja	0		H	sg n
riisja	####				
ja	ja	0		H	sg n
nõudis	nõud	is		V	s
300	300	0		N	?
rbl	rbl	0		Y	
omma	oma	0		P	sg g
teotuse	teotus	0		S	sg g
est	eest	0		K	
.	.			Z	
</s>					
<s>					
Sullane	####				
Karl	Karl	0		H	sg n
Lätti	Lätti	0		H	sg n
tunistas	tunnista	s		V	s
et	et	0		J	
Johan	Johan	0		H	sg n
Madison	Madison	0		H	sg n
om	ole	0		V	b
üttelnu	ütle	nu		V	nud
Johan	Johan	0		H	sg n
Klaosoni	Klaoson	0		H	sg g
vastu	vastu	0		K	
:	:			Z	
""""	""""			Z	
kui	kui	0		D	
   	kui	0		J	
sinna	sinna	0		D	
mino	####				
kelat	####				
mina	mina	0		S	sg g
panne	pann	e		S	pl p
sinno	####				
soliko	####				
tossama	tossa	ma		V	ma
"""."	"""."			Z	
</s>					
<s>					
Johan	Johan	0		H	sg n
Madison	Madison	0		H	sg n
pallus	palu	s		V	s
et	et	0		J	
kohus	kohus	0		S	sg n
temale	tema	le		P	sg all
luba	luba	0		S	sg p
anus	anu	s		V	s
üte	üte	0		S	sg n
vahe	vahe	0		S	sg g
kambrele	####				
tetta	####				
laske	lask	ke		V	ge
,	,			Z	
kedas	####				
Johan	Johan	0		H	sg n
Klaoson	Klaoson	0		H	sg n
mitte	mitte	0		D	
es	ei	s		V	neg s
luba	luba	0		S	sg n
.	.			Z	
</s>					
<s>					
Moistetu	mõist	tu		V	tud
:	:			Z	
et	et	0		J	
Johan	Johan	0		H	sg n
Madison	Madison	0		H	sg n
3	3	0		N	?
rbl	rbl	0		Y	
trahvi	trahv	0		S	sg g
vaeste	vaene	te		S	pl g
ladiko	####				
heas	hea	s		A	sg in
8	8	0		N	?
päiva	päev	0		S	sg g
sehen	sees	0		K	
selle	see	0		P	sg g
ähvarduse	ähvardus	0		S	sg g
est	eest	0		K	
massma	maks	ma		V	ma
peab	pida	b		V	b
.	.			Z	
</s>					
<s>					
Se	Se	0		Y	sg n
moistus	mõistus	0		S	sg n
sai	saa	i		V	s
kulutedu	kuuluta	tu		V	tud
ja	ja	0		H	sg n
opetus	õpetus	0		S	sg n
leht	leht	0		S	sg n
välja	välja	0		D	
antu	antud	0		A	sg g
</s>					
