<s>					
Kaibas	kaeba	s		V	s
Raija	Raija	0		H	sg n
Jürri	Jürri	0		H	sg n
Klaos	Klaos	0		H	sg n
,	,			Z	
et	et	0		J	
temmal	tema	l		P	sg ad
rentnik	rentnik	0		S	sg n
Peter	Peter	0		H	sg n
Leminge	Leming	0		H	sg g
käest	käsi	st		S	sg el
10	10	0		N	?
rbl	rbl	0		Y	
rentiraha	renti_raha	0		S	sg n
,	,			Z	
mes	mis	0		P	sg n
1	1	0		N	?
Märtsil	märts	l		S	sg ad
massetu	maks	tu		V	tud
pidi	pida	i		V	s
sama	sama	0		P	sg n
,	,			Z	
sada	sada	0		N	sg n
om	ole	0		V	b
ja	ja	0		H	sg n
mineva	minev	0		A	sg g
kevade	kevad	0		S	sg g
      	kevade	0		S	sg g
om	ole	0		V	b
Leming	Leming	0		H	sg n
15	15	0		N	?
Vakkamaad	Vakka	d		H	sg g
Kartofli	Kartofli	0		H	sg n
maad	maa	d		S	sg p
sanu	saa	nu		V	nud
,	,			Z	
mes	mis	0		P	sg n
künetu	####				
ollnu	ole	nu		V	nud
ja	ja	0		H	sg n
nüüd	nüüd	0		D	
om	ole	0		V	b
engi	####				
5	5	0		N	?
Vakamaad	vaka_maa	d		S	pl n
künnete	####				
ja	ja	0		H	sg n
nõudis	nõud	is		V	s
1	1	0		N	?
rbl	rbl	0		Y	
vakamaa	vaka_maa	0		S	sg g
est	eest	0		K	
,	,			Z	
mes	mis	0		P	sg n
kündmada	künd	mada		V	mata
ja	ja	0		H	sg n
1	1	0		N	?
vakkamaa	####				
kaera	kaer	0		S	sg p
om	ole	0		V	b
temma	tema	0		P	sg n
maha	maha	0		D	
tennu	tege	nu		V	nud
seda	see	da		P	sg p
om	ole	0		V	b
Leming	Leming	0		H	sg n
ärra	ära	0		D	
võtnu	võt	nud		V	nud
,	,			Z	
mes	mis	0		P	sg n
est	eest	0		K	
Klaos	Klaos	0		H	sg n
2	2	0		N	?
vakka	vakk	0		S	adt
kaero	kaer	0		S	sg p
ja	ja	0		H	sg n
3	3	0		N	?
rbl	rbl	0		Y	
tegemisse	tegemine	se		S	adt
est	eest	0		K	
nõudis	nõud	is		V	s
,	,			Z	
kontrahti	kontraht	0		S	sg p
perra	perra	0		K	
peab	pida	b		V	b
5	5	0		N	?
Vakkamaad	Vakka	d		H	sg g
ristikheina	ristik_hein	0		S	sg g
külvetu	külva	tu		V	tud
ollema	####				
,	,			Z	
ent	ent	0		J	
3	3	0		N	?
Vakkamaad	Vakka	d		H	sg g
om	ole	0		V	b
enegi	####				
külvetu	külva	tu		V	tud
ja	ja	0		H	sg n
se	see	0		P	sg n
om	ole	0		V	b
ka	ka	0		D	
väega	vägi	ga		S	sg kom
puduline	pudu=line	0		A	sg n
,	,			Z	
kedas	####				
Päkohtumees	Päkohtumees	0		H	sg n
Jaan	Jaan	0		H	sg n
Link	Link	0		H	sg n
ülle	ülle	0		D	
kaenu	kae	nud		V	nud
om	ole	0		V	b
,	,			Z	
ja	ja	0		H	sg n
5	5	0		N	?
Vakkamad	####				
rükki	####				
om	ole	0		V	b
nenda	nõnda	0		D	
halvaste	####				
tehtu	tehtu	0		S	sg g
et	et	0		J	
seda	see	da		P	sg p
ülles	üles	0		D	
kündu	####				
peab	pida	b		V	b
kedas	####				
Jaan	Jaan	0		H	sg n
Link	Link	0		H	sg n
ka	ka	0		D	
ülle	ülle	0		D	
kaenu	kae	nud		V	nud
om	ole	0		V	b
.	.			Z	
</s>					
<s>					
Klaos	Klaos	0		H	sg n
nõudis	nõud	is		V	s
ristikheina	ristik_hein	0		S	sg g
kahju	kahi	0		S	sg g
     	kahju	0		S	sg g
10	10	0		N	?
kormat	####				
ristikheino	####				
ja	ja	0		H	sg n
rükki	####				
kahju	kahi	0		S	sg g
     	kahju	0		S	sg g
6	6	0		N	?
semend	####				
se	see	0		P	sg n
om	ole	0		V	b
30	30	0		N	?
Vakka	Vakka	0		H	sg n
rükki	####				
Päle	Päle	0		H	sg n
selle	see	0		P	sg g
om	ole	0		V	b
järrelseisva	####				
puduse	####				
maja	maja	0		S	sg g
jures	juures	0		D	
ollnu	ole	nu		V	nud
:	:			Z	
1	1	0		N	?
kambre	####				
akna	aken	0		S	sg g
krut	####				
pudub	####				
masen	####				
25	25	0		N	?
kop	kop	0		Y	?
vanna	####				
kambre	####				
aken	aken	0		S	sg n
pudub	####				
masa	####				
1	1	0		N	?
rbl	rbl	0		Y	
Lao	ladu	0		S	sg g
   	lagu	0		S	sg g
puu	puu	0		S	sg g
pudus	pudu	s		S	sg in
massab	maks	b		V	b
5	5	0		N	?
rbl	rbl	0		Y	
</s>					
<s>					
sauna	saun	0		S	sg g
lava	lava	0		S	sg n
ja	ja	0		H	sg n
3	3	0		N	?
akna	aken	0		S	sg g
krutu	####				
saunan	####				
puduva	####				
masab	####				
2	2	0		N	?
rbl	rbl	0		Y	
75	75	0		N	?
kop	kop	0		Y	?
rehe	rehi	0		S	sg g
tarre	tare	0		S	adt
2	2	0		N	?
akna	aken	0		S	sg g
kruti	krutti	0		V	o
puduva	####				
ja	ja	0		H	sg n
vija	####				
on	ole	0		V	b
  	ole	0		V	vad
massa	maks	0		V	o
75	75	0		N	?
kop	kop	0		Y	?
Jürri	Jürri	0		H	sg n
Klaos	Klaos	0		H	sg n
pallus	palu	s		V	s
neid	tema	d		P	pl p
pudusi	####				
Peter	Peter	0		H	sg n
Lemingule	Leming	le		H	sg all
massa	maks	0		V	o
panda	panda	0		S	sg n
.	.			Z	
</s>					
<s>					
Peter	Peter	0		H	sg n
Leming	Leming	0		H	sg n
vastutas	vastuta	s		V	s
et	et	0		J	
10	10	0		N	?
rbl	rbl	0		Y	
renti	rent	0		S	sg p
est	eest	0		K	
om	ole	0		V	b
J.	J.	0		Y	sg n
Klaos	Klaos	0		H	sg n
ristikheina	ristik_hein	0		S	sg g
semnit	####				
osta	ost	a		V	da
käsknu	####				
,	,			Z	
tema	tema	0		P	sg n
om	ole	0		V	b
45	45	0		N	?
naela	nael	0		S	sg p
semend	####				
Kurrikasi	####				
käest	käsi	st		S	sg el
ostnu	ost	nud		V	nud
ja	ja	0		H	sg n
massnu	maks	nu		V	nud
11	11	0		N	?
rbl	rbl	0		Y	
50	50	0		N	?
kop	kop	0		Y	?
selle	see	0		P	sg g
est	eest	0		K	
et	et	0		J	
temal	tema	l		P	sg ad
maa	maa	0		S	sg g
kündmisse	künd=mine	se		S	adt
perrast	pärast	0		K	
midagi	miski	dagi		P	sg p
kaebatta	####				
ei	ei	0		V	neg
olle	ole	0		V	o
,	,			Z	
Kaero	Kaero	0		H	sg n
maad	maa	d		S	sg p
külvetu	külva	tu		V	tud
om	ole	0		V	b
tema	tema	0		P	sg g
sanu	saa	nu		V	nud
.	.			Z	
</s>					
<s>					
tema	tema	0		P	sg n
om	ole	0		V	b
kahju	kahi	0		S	sg g
     	kahju	0		S	sg g
sanu	saa	nu		V	nud
,	,			Z	
Ristikheina	ristik_hein	0		S	sg p
ei	ei	0		V	neg
olle	ole	0		V	o
temal	tema	l		P	sg ad
ollnu	ole	nu		V	nud
ja	ja	0		H	sg n
temma	tema	0		P	sg n
om	ole	0		V	b
se	see	0		P	sg n
45	45	0		N	?
naela	nael	0		S	sg p
ristikheina	ristik_hein	0		S	sg g
semend	####				
maha	maha	0		D	
külvanu	külva=nu	0		S	sg g
ja	ja	0		H	sg n
ni	nii	0		D	
paljo	palju	0		D	
kui	kui	0		D	
   	kui	0		J	
sanu	saa	nu		V	nud
.	.			Z	
</s>					
<s>					
Rükki	Rükki	0		H	sg n
om	ole	0		V	b
sügise	sügis	0		S	sg g
1883	1883	0		N	?
ärra	ära	0		D	
aetu	aetud	0		A	sg g
,	,			Z	
temma	tema	0		P	sg n
om	ole	0		V	b
tõine	teine	0		P	sg n
kõrd	kord	0		S	sg n
sis	siis	0		D	
küllinu	####				
,	,			Z	
mes	mis	0		P	sg n
sis	siis	0		D	
mitte	mitte	0		D	
tema	tema	0		P	sg g
süi	####				
ei	ei	0		V	neg
voi	või	0		V	o
olla	ole	a		V	da
Kevade	kevad	0		S	sg g
      	kevade	0		S	sg g
1883	1883	0		N	?
ei	ei	0		V	neg
olle	ole	0		V	o
temmale	tema	le		P	sg ad
keaki	####				
seda	see	da		P	sg p
maja	maja	0		S	sg g
katte	kätte	0		K	
andno	and	no		V	nud
ja	ja	0		H	sg n
ei	ei	0		V	neg
tea	tead	0		V	o
neist	see	st		P	pl el
pudustest	####				
midagi	miski	dagi		P	sg p
,	,			Z	
ni	nii	0		D	
kui	kui	0		D	
   	kui	0		J	
temma	tema	0		P	sg n
maja	maja	0		S	sg p
vasta	vasta	0		V	o
võtnu	võt	nud		V	nud
om	ole	0		V	b
,	,			Z	
om	ole	0		V	b
temma	tema	0		P	sg n
ka	ka	0		D	
ärra	ära	0		D	
andno	and	no		V	nud
Kontrahti	kontraht	0		S	sg p
ei	ei	0		V	neg
olle	ole	0		V	o
tema	tema	0		P	sg g
sanu	saa	nu		V	nud
üts	üks	0		P	sg n
väikene	väikene	0		A	sg n
täheken	####				
om	ole	0		V	b
sanu	saa	nu		V	nud
,	,			Z	
Jürri	Jürri	0		H	sg n
Klaos	Klaos	0		H	sg n
andis	and	is		V	s
Krimani	Krimani	0		H	sg n
Kohtumees	kohtu_mees	0		S	sg n
Johan	Johan	0		H	sg n
Kärik	Kärik	0		H	sg n
tunistajas	tunnistaja	s		S	sg tr
ülles	üles	0		D	
,	,			Z	
kes	kes	0		P	sg n
selle	see	0		P	sg g
maja	maja	0		S	sg g
andmisse	andmine	se		S	adt
man	man	0		D	
Lemingo	Leming	0		H	sg g
katte	käsi	tte		S	adt
om	ole	0		V	b
ollnu	ole	nu		V	nud
.	.			Z	
</s>					
<s>					
Otsus	otsus	0		S	sg n
:	:			Z	
et	et	0		J	
Johan	Johan	0		H	sg n
Kärik	Kärik	0		H	sg n
Krimanist	Krimanist	st		H	sg n
ette	ette	0		D	
kutsutu	kutsutu	0		S	sg n
om	ole	0		V	b
.	.			Z	
</s>					
