<s>					
Kaibas	kaeba	s		V	s
Jaan	Jaan	0		H	sg n
Kopli	Kopli	0		H	sg n
Vanna	Vanna	0		H	sg n
Kustest	Kuste	t		H	sg p
,	,			Z	
et	et	0		J	
kui	kui	0		D	
   	kui	0		J	
temma	tema	0		P	sg n
mineva	minev	0		A	sg g
sügise	sügis	0		S	sg g
omma	oma	0		P	sg g
hobuse	hobune	0		S	pl n
vargide	####				
perra	perra	0		K	
otsinu	otsi	nud		V	nud
sis	siis	0		D	
om	ole	0		V	b
Johan	Johan	0		H	sg n
Rosenthal	Rosenthal	0		H	sg n
Vanna	Vanna	0		H	sg n
Kuste	Kuste	0		H	sg n
Päkohtumehe	Päkohtumehe	0		H	sg n
jures	juures	0		D	
tunistanu	####				
,	,			Z	
et	et	0		J	
temma	tema	0		P	sg n
hobuste	hobune	te		S	pl g
kamitse	####				
Sola	Sola	0		H	sg n
tallun	####				
laudu	laud	u		S	pl p
peal	peal	0		K	
om	ole	0		V	b
ja	ja	0		H	sg n
kui	kui	0		D	
   	kui	0		J	
Karl	Karl	0		H	sg n
Rosenthal	Rosenthal	0		H	sg n
enemba	####				
kodu	kodu	0		S	sg p
saab	saa	b		V	b
sis	siis	0		D	
paneb	pane	b		V	b
tema	tema	0		P	sg g
need	see	d		P	pl n
kamitsed	####				
ära	ära	0		D	
,	,			Z	
tema	tema	0		P	sg g
lännu	mine	nu		V	nud
selle	see	0		P	sg g
päle	peale	0		K	
Sola	Sola	0		H	sg n
tallu	talu	0		S	adt
ja	ja	0		H	sg n
Karl	Karl	0		H	sg n
Rosenthal	Rosenthal	0		H	sg n
ollnu	ole	nu		V	nud
kodu	kodu	0		S	sg g
tullnu	tule	nu		V	nud
,	,			Z	
kes	kes	0		P	sg n
kül	küll	0		D	
Luhan	Luhan	0		H	sg n
küssimise	####				
päle	peale	0		K	
üttelnu	ütle	nu		V	nud
et	et	0		J	
tema	tema	0		P	sg g
kodu	kodu	0		S	sg n
ei	ei	0		V	neg
lähe	mine	0		V	neg o
ja	ja	0		H	sg n
kamitsid	####				
ei	ei	0		V	neg
olle	ole	0		V	o
leutu	leu=tu	0		A	sg n
,	,			Z	
kedas	####				
Haslava	Haslava	0		H	sg n
Kohtumees	kohtu_mees	0		S	sg n
Johan	Johan	0		H	sg n
Klaosen	Klaosen	0		H	sg n
kuldnu	####				
,	,			Z	
selleperrast	selle_pärast	0		D	
nõuab	nõud	b		V	b
temma	tema	0		P	sg n
neid	see	d		P	pl p
kamitsed	####				
kokko	####				
6	6	0		N	?
rbl	rbl	0		Y	
Karl	Karl	0		H	sg n
Rosenthali	Rosenthal	0		H	sg g
käest	käsi	st		S	sg el
,	,			Z	
selle	see	0		P	sg g
et	et	0		J	
tema	tema	0		P	sg n
sis	siis	0		D	
ka	ka	0		D	
pellen	####				
et	et	0		J	
Karl	Karl	0		H	sg n
Rosenthal	Rosenthal	0		H	sg n
ette	ette	0		D	
Verro	Verro	0		H	sg n
linna	linna	0		H	sg n
sõidab	sõit	b		V	b
ja	ja	0		H	sg n
ka	ka	0		D	
hobused	hobune	d		S	pl n
ärra	ära	0		D	
paotada	paota	da		V	da
lasseb	####				
om	ole	0		V	b
tema	tema	0		P	sg g
ösil	####				
kohtu	kohtu	0		H	sg n
Vanna	Vanna	0		H	sg n
Kusten	Kustes	0		H	sg n
koko	####				
talli	tall	0		S	sg g
tään	####				
ja	ja	0		H	sg n
läbbi	läbi	0		D	
ka	ka	0		D	
Werro	Werro	0		H	sg n
linna	linna	0		H	sg n
soitnu	####				
.	.			Z	
</s>					
<s>					
Temmale	####				
om	ole	0		V	b
tunistedu	####				
et	et	0		J	
Karl	Karl	0		H	sg n
Rosenthal	Rosenthal	0		H	sg n
ka	ka	0		D	
Werro	Werro	0		H	sg n
linnan	linn	n		S	sg in
temma	tema	0		P	sg n
hobusid	hobu	sid		S	pl p
müüman	####				
ollnu	ole	nu		V	nud
.	.			Z	
</s>					
<s>					
Karl	Karl	0		H	sg n
Rosenthal	Rosenthal	0		H	sg n
vastutas	vastuta	s		V	s
selle	see	0		P	sg g
päle	peale	0		K	
et	et	0		J	
temma	tema	0		P	sg n
sest	sest	0		J	
hobuse	hobune	0		S	pl n
vargusest	vargus	st		S	sg el
midagi	miski	dagi		P	sg p
ei	ei	0		V	neg
tea	tead	0		V	o
ja	ja	0		H	sg n
temma	tema	0		P	sg n
ei	ei	0		V	neg
olle	ole	0		V	o
sis	siis	0		D	
kül	küll	0		D	
Luhast	luht	st		S	sg el
kodu	kodu	0		S	sg g
mina	mina	0		S	sg n
lubanu	luba	nud		V	nud
kui	kui	0		D	
   	kui	0		J	
Kohtumees	kohtu_mees	0		S	sg n
Johan	Johan	0		H	sg n
Klaosen	Klaosen	0		H	sg n
temma	tema	0		P	sg n
käest	käest	0		K	
seda	see	da		P	sg p
küssinu	####				
ent	ent	0		J	
söök	söök	0		S	sg n
sanu	saa	nu		V	nud
otsa	otsa	0		D	
sis	siis	0		D	
om	ole	0		V	b
temma	tema	0		P	sg n
kodu	kodu	0		S	sg g
sõitma	sõit	ma		V	ma
pidanu	pida	nud		V	nud
neist	see	st		P	pl el
kamitsist	####				
ei	ei	0		V	neg
tea	tead	0		V	o
temma	tema	0		P	sg n
midagi	miski	dagi		P	sg p
.	.			Z	
</s>					
<s>					
Moistetu	mõist	tu		V	tud
:	:			Z	
et	et	0		J	
Karl	Karl	0		H	sg n
Rosenthal	Rosenthal	0		H	sg n
neide	neid	e		S	pl p
hobuste	hobune	te		S	pl g
kamitse	####				
est	eest	0		K	
6	6	0		N	?
rbl	rbl	0		Y	
Jaan	Jaan	0		H	sg n
Koplile	Kopli	le		H	sg all
8	8	0		N	?
päiva	päev	0		S	sg g
sehen	sees	0		K	
massma	maks	ma		V	ma
peab	pida	b		V	b
,	,			Z	
selle	see	0		P	sg g
et	et	0		J	
Karl	Karl	0		H	sg n
Rosenthal	Rosenthal	0		H	sg n
õdagu	####				
kodu	kodu	0		S	sg g
mina	mina	0		S	sg n
lubanu	luba	nud		V	nud
es	ei	s		V	neg s
olle	ole	0		V	o
ent	ent	0		J	
siski	####				
kodu	kodu	0		S	sg n
lännu	mine	nu		V	nud
sis	siis	0		D	
arvata	arva	ta		V	da
om	ole	0		V	b
et	et	0		J	
temma	tema	0		P	sg n
selle	see	0		P	sg g
asja	asi	0		S	sg p
jures	juures	0		D	
süidi	süit	0		S	sg g
om	ole	0		V	b
.	.			Z	
</s>					
<s>					
Se	Se	0		Y	sg n
moistus	mõistus	0		S	sg n
sai	saa	i		V	s
kulutedo	kuuluta	do		V	tud
ja	ja	0		H	sg n
opetus	õpetus	0		S	sg n
leht	leht	0		S	sg n
välja	välja	0		D	
antu	antud	0		A	sg g
.	.			Z	
</s>					
