<s>					
Kaibas	kaeba	s		V	s
Veriko	Veriko	0		H	sg n
Jürri	Jürri	0		H	sg n
Luha	Luha	0		H	sg n
,	,			Z	
et	et	0		J	
temmal	tema	l		P	sg ad
10	10	0		N	?
rbl	rbl	0		Y	
Johan	Johan	0		H	sg n
Luha	Luha	0		H	sg n
käest	käsi	st		S	sg el
sada	sada	0		N	sg n
om	ole	0		V	b
ja	ja	0		H	sg n
pallus	palu	s		V	s
,	,			Z	
et	et	0		J	
Kohhus	Kohhus	0		H	sg n
sedda	see	da		P	sg p
massa	maks	0		V	o
sunis	sund	s		V	ks
,	,			Z	
keige	####				
protsentiga	protsent_iga	0		S	sg n
Johan	Johan	0		H	sg n
Luha	Luha	0		H	sg n
vastutas	vastuta	s		V	s
et	et	0		J	
temal	tema	l		P	sg ad
se	see	0		P	sg n
raha	raha	0		S	sg n
massa	maks	0		V	o
om	ole	0		V	b
ja	ja	0		H	sg n
lubas	luba	s		V	s
tulleva	####				
sügise	sügis	0		S	sg g
Mihkli	Mihkli	0		H	sg n
päivas	####				
1884	1884	0		N	?
keige	####				
protsentiga	protsent_iga	0		S	sg n
12	12	0		N	?
rbl	rbl	0		Y	
ärra	ära	0		D	
massa	maks	0		V	o
,	,			Z	
kellega	kes	ga		P	sg kom
Jürri	Jürri	0		H	sg n
Luha	Luha	0		H	sg n
ka	ka	0		D	
kannatada	kannata	da		V	da
lubas	luba	s		V	s
.	.			Z	
</s>					
<s>					
Otsus	otsus	0		S	sg n
:	:			Z	
et	et	0		J	
Johan	Johan	0		H	sg n
Luha	Luha	0		H	sg n
lubamisse	lubamine	se		S	adt
perra	perra	0		K	
se	see	0		P	sg n
12	12	0		N	?
rbl	rbl	0		Y	
ärra	ära	0		D	
massa	maks	0		V	o
peab	pida	b		V	b
.	.			Z	
</s>					
<s>					
(	(			Z	
peab	pida	b		V	b
Jürri	Jürri	0		H	sg n
Laber	Laber	0		H	sg n
1	1	0		N	?
rbl	rbl	0		Y	
Jürri	Jürri	0		H	sg n
Luhale	Luha	le		H	sg all
8	8	0		N	?
päeva	päev	0		S	sg g
sehen	sees	0		K	
ärra	ära	0		D	
massma	maks	ma		V	ma
)	)			Z	
</s>					
