<s>					
Keiserliko	Keiserliko	0		H	sg n
4te	####				
Tarto	Tarto	0		H	sg n
Kihelkonna	Kihelkonna	0		H	sg n
Kohtu	kohus	0		S	sg g
kässu	####				
päle	peale	0		K	
sest	sest	0		J	
21	21	0		N	?
Junil	Junil	0		H	sg n
sa	sina	0		P	sg n
Nr	Nr	0		Y	?
3759	3759	0		N	?
olli	ole	i		V	s
tänases	tänane	s		A	sg in
päivas	####				
Kirbu	kirp	0		S	sg g
tallu	talu	0		S	adt
perremees	perre_mees	0		S	sg n
Jaan	Jaan	0		H	sg n
Rosenthal	Rosenthal	0		H	sg n
seija	####				
kutsutu	kutsutu	0		S	sg n
.	.			Z	
</s>					
<s>					
Sesamma	####				
andis	and	is		V	s
ülles	üles	0		D	
,	,			Z	
et	et	0		J	
Villem	Villem	0		H	sg n
Ristil	Risti	l		H	sg ad
midagi	miski	dagi		P	sg p
varrandust	varr_and_uks	t		S	sg p
ei	ei	0		V	neg
olle	ole	0		V	o
ja	ja	0		H	sg n
temma	tema	0		P	sg n
seni	seni	0		D	
kui	kui	0		D	
   	kui	0		J	
Kaderna	Kaderna	0		H	sg n
päivani	####				
45	45	0		N	?
rbl	rbl	0		Y	
palka	palk	0		S	sg p
saab	saa	b		V	b
,	,			Z	
kost	kost	0		S	sg n
17	17	0		N	?
rbl	rbl	0		Y	
jobba	joba	0		S	sg n
välja	välja	0		D	
sanu	saa	nu		V	nud
om	ole	0		V	b
ni	nii	0		D	
et	et	0		J	
temmal	tema	l		P	sg ad
28	28	0		N	?
rbl	rbl	0		Y	
sada	sada	0		N	sg n
om	ole	0		V	b
kui	kui	0		D	
   	kui	0		J	
aija	####				
välja	välja	0		D	
tenib	####				
.	.			Z	
</s>					
<s>					
Selle	see	0		P	sg g
päle	peale	0		K	
sai	saa	i		V	s
kohtu	kohtu	0		H	sg n
poolt	poolt	0		K	
15	15	0		N	?
rbl	rbl	0		Y	
Villem	Villem	0		H	sg n
Risti	Risti	0		H	sg n
palkast	####				
kinni	kinni	0		D	
keletud	####				
,	,			Z	
mes	mis	0		P	sg n
raha	raha	0		S	sg n
Jaan	Jaan	0		H	sg n
Rosenthal	Rosenthal	0		H	sg n
Kaderna	Kaderna	0		H	sg n
päivas	####				
seija	####				
ärra	ära	0		D	
massma	maks	ma		V	ma
peab	pida	b		V	b
nisama	nii_sama	0		D	
ka	ka	0		D	
eentulleva	####				
asta	aasta	0		S	sg g
päraha	####				
tarvis	tarvis	0		D	
kinni	kinni	0		D	
peab	pida	b		V	b
pidama	pida	ma		V	ma
Otsus	otsus	0		S	sg n
:	:			Z	
seda	see	da		P	sg p
protokolli	protokoll	0		S	sg p
ülles	üles	0		D	
panda	panda	0		S	sg n
</s>					
