<s>					
Kaibas	kaeba	s		V	s
Haslva	####				
Kõrtsimees	Kõrtsimees	0		H	sg n
Mihkel	Mihkel	0		H	sg n
Rattasep	Rattasep	0		H	sg n
,	,			Z	
et	et	0		J	
temmal	tema	l		P	sg ad
27	27	0		N	?
rbl	rbl	0		Y	
Jaan	Jaan	0		H	sg n
Posti	Posti	0		H	sg n
käest	käsi	st		S	sg el
sada	sada	0		N	sg n
om	ole	0		V	b
ja	ja	0		H	sg n
pallus	palu	s		V	s
et	et	0		J	
kohus	kohus	0		S	sg n
seda	see	da		P	sg p
massma	maks	ma		V	ma
sunis	sund	s		V	ks
.	.			Z	
</s>					
<s>					
Jaan	Jaan	0		H	sg n
Post	Post	0		H	sg n
vastutas	vastuta	s		V	s
,	,			Z	
et	et	0		J	
temma	tema	0		P	sg n
seda	see	da		P	sg p
raha	raha	0		S	sg p
Mihkel	Mihkel	0		H	sg n
Rattasep	Rattasep	0		H	sg n
võlgu	võlgu	0		D	
ei	ei	0		V	neg
olle	ole	0		V	o
ja	ja	0		H	sg n
nõudis	nõud	is		V	s
4	4	0		N	?
1/2	1/2	0		N	?
Vakka	Vakka	0		H	sg n
Rükki	Rükki	0		H	sg n
kaibaja	kaebaja	0		S	sg g
käest	käest	0		K	
,	,			Z	
mes	mis	0		P	sg n
tema	tema	0		P	sg g
3	3	0		N	?
asta	aasta	0		S	sg g
est	eest	0		K	
kaibajale	####				
Magatsist	Magatsist	st		H	sg n
omma	oma	0		P	sg g
pulka	pulk	0		S	adt
päle	peale	0		K	
andno	and	no		V	nud
om	ole	0		V	b
ja	ja	0		H	sg n
ka	ka	0		D	
neide	neid	e		S	pl p
rükki	####				
3	3	0		N	?
asta	aasta	0		S	sg g
odas	oda	s		S	sg in
.	.			Z	
</s>					
<s>					
Mihkel	Mihkel	0		H	sg n
Rattasep	Rattasep	0		H	sg n
vastutas	vastuta	s		V	s
et	et	0		J	
tema	tema	0		P	sg g
rükki	####				
võttnu	####				
ei	ei	0		V	neg
olle	ole	0		V	o
ja	ja	0		H	sg n
selle	see	0		P	sg g
raha	raha	0		S	sg g
perrast	pärast	0		K	
teab	tead	b		V	b
Otsa	Otsa	0		H	sg n
Jürri	Jürri	0		H	sg n
Luha	Luha	0		H	sg n
ja	ja	0		H	sg n
Jaan	Jaan	0		H	sg n
Savik	Savik	0		H	sg n
tunistada	####				
.	.			Z	
</s>					
<s>					
Otsa	Otsa	0		H	sg n
Jürri	Jürri	0		H	sg n
Luha	Luha	0		H	sg n
tunistas	tunnista	s		V	s
et	et	0		J	
tema	tema	0		P	sg g
üts	üks	0		P	sg n
kõrd	kord	0		S	sg n
kuldnu	####				
,	,			Z	
kui	kui	0		D	
   	kui	0		J	
Jaan	Jaan	0		H	sg n
Post	Post	0		H	sg n
üttelnu	ütle	nu		V	nud
,	,			Z	
et	et	0		J	
mina	mina	0		S	sg g
massan	####				
se	see	0		P	sg n
20	20	0		N	?
rbl	rbl	0		Y	
ärra	ära	0		D	
kui	kui	0		D	
   	kui	0		J	
mina	mina	0		S	sg n
Jürri	Jürri	0		H	sg n
Luha	Luha	0		H	sg n
käest	käest	0		K	
saan	saa	n		V	n
Jaan	Jaan	0		H	sg n
Savik	Savik	0		H	sg n
tunistas	tunnista	s		V	s
,	,			Z	
et	et	0		J	
tema	tema	0		P	sg g
kuldnu	####				
kui	kui	0		D	
   	kui	0		J	
Mihkel	Mihkel	0		H	sg n
Rattasep	Rattasep	0		H	sg n
25	25	0		N	?
rbl	rbl	0		Y	
Jaan	Jaan	0		H	sg n
Posti	Posti	0		H	sg n
käest	käsi	st		S	sg el
nõudnu	nõud	nud		V	nud
sis	siis	0		D	
om	ole	0		V	b
Jaan	Jaan	0		H	sg n
Post	Post	0		H	sg n
üttelnu	ütle	nu		V	nud
,	,			Z	
kül	küll	0		D	
minna	mine	a		V	da
massa	maks	0		V	o
sinnu	####				
omma	oma	0		P	sg g
ka	ka	0		D	
ärra	ära	0		D	
.	.			Z	
</s>					
<s>					
Roija	Roija	0		H	sg n
Jürri	Jürri	0		H	sg n
Klaos	Klaos	0		H	sg n
tunistas	tunnista	s		V	s
et	et	0		J	
2	2	0		N	?
nädali	####				
est	eest	0		K	
om	ole	0		V	b
seija	####				
kohta	kohta	0		K	
eentuse	####				
Jaan	Jaan	0		H	sg n
Post	Post	0		H	sg n
ja	ja	0		H	sg n
Mihkel	Mihkel	0		H	sg n
Rattasep	Rattasep	0		H	sg n
omma	oma	0		P	sg g
võlgu	võlg	u		S	pl p
selletanu	selle_tanu	0		S	sg n
,	,			Z	
seda	see	da		P	sg p
raha	raha	0		S	sg p
ollnu	ole	nu		V	nud
24	24	0		N	?
ehk	ehk	0		J	
25	25	0		N	?
rbl	rbl	0		Y	
sis	siis	0		D	
om	ole	0		V	b
Jaan	Jaan	0		H	sg n
Post	Post	0		H	sg n
üttelnu	ütle	nu		V	nud
,	,			Z	
et	et	0		J	
mes	mis	0		P	sg n
meije	####				
kohtu	kohtu	0		H	sg n
ette	ette	0		K	
läheme	mine	me		V	me
kül	küll	0		D	
mina	mina	0		S	sg n
massa	maks	0		V	o
se	see	0		P	sg n
raha	raha	0		S	sg n
ärra	ära	0		D	
Endrik	Endrik	0		H	sg n
Teder	Teder	0		H	sg n
tunistas	tunnista	s		V	s
,	,			Z	
et	et	0		J	
tema	tema	0		P	sg g
ollnu	ole	nu		V	nud
jures	juures	0		D	
kui	kui	0		D	
   	kui	0		J	
Jaan	Jaan	0		H	sg n
Post	Post	0		H	sg n
selle	see	0		P	sg g
Mihkel	Mihkel	0		H	sg n
Rattasepa	Rattasep	0		H	sg g
vasta	vasta	0		V	o
üttelnu	ütle	nu		V	nud
:	:			Z	
""""	""""			Z	
anna	and	0		V	o
minule	mina	le		P	sg all
veel	veel	0		D	
5	5	0		N	?
rbl	rbl	0		Y	
päle	peale	0		K	
minul	mina	l		P	sg ad
om	ole	0		V	b
Vallavanemba	Vallavanemba	0		H	sg n
käest	käsi	st		S	sg el
30	30	0		N	?
rbl	rbl	0		Y	
sada	sada	0		N	sg n
sis	siis	0		D	
saad	saa	d		V	d
sinna	sinna	0		D	
omma	oma	0		P	sg g
raha	raha	0		S	sg g
ütte	üte	0		S	sg g
kõrraga	####				
Vallavanemba	Vallavanemba	0		H	sg n
käest	käsi	st		S	sg el
kätte	käsi	tte		S	adt
.	.			Z	
</s>					
<s>					
Jaan	Jaan	0		H	sg n
Post	Post	0		H	sg n
andis	and	is		V	s
ülles	üles	0		D	
,	,			Z	
et	et	0		J	
temmal	tema	l		P	sg ad
tunistust	tunnistus	t		S	sg p
ei	ei	0		V	neg
olle	ole	0		V	o
,	,			Z	
et	et	0		J	
tema	tema	0		P	sg g
4	4	0		N	?
1/2	1/2	0		N	?
Vakka	Vakka	0		H	sg n
Rükki	Rükki	0		H	sg n
Mihkel	Mihkel	0		H	sg n
Rattasepale	Rattasep	le		H	sg all
andnu	and=nu	0		S	sg n
.	.			Z	
</s>					
<s>					
Moistetu	mõist	tu		V	tud
:	:			Z	
et	et	0		J	
Jaan	Jaan	0		H	sg n
Post	Post	0		H	sg n
27	27	0		N	?
rbl	rbl	0		Y	
võlg	võlg	0		S	sg n
raha	raha	0		S	sg g
8	8	0		N	?
päiva	päev	0		S	sg g
sehen	sees	0		K	
Mihkel	Mihkel	0		H	sg n
rattasepale	ratta_sepp	le		S	sg all
ärra	ära	0		D	
massma	maks	ma		V	ma
peab	pida	b		V	b
selle	see	0		P	sg g
et	et	0		J	
tema	tema	0		P	sg g
se	see	0		P	sg n
raha	raha	0		S	sg g
tunistuste	####				
perra	perra	0		K	
võlgu	võlgu	0		D	
om	ole	0		V	b
,	,			Z	
Jaan	Jaan	0		H	sg n
Posti	Posti	0		H	sg n
rükki	####				
nõudmine	nõudmine	0		S	sg n
om	ole	0		V	b
tühjas	tühi	s		A	sg in
moistu	mõist	tu		V	tud
,	,			Z	
selle	see	0		P	sg g
et	et	0		J	
tunnistust	tunnistus	t		S	sg p
ei	ei	0		V	neg
olle	ole	0		V	o
.	.			Z	
</s>					
<s>					
Se	Se	0		Y	sg n
moistus	mõistus	0		S	sg n
sai	saa	i		V	s
kulutedu	kuuluta	tu		V	tud
ja	ja	0		H	sg n
opetus	õpetus	0		S	sg n
leht	leht	0		S	sg n
välja	välja	0		D	
antu	antud	0		A	sg g
</s>					
