<s>					
Kaibas	kaeba	s		V	s
Mihkel	Mihkel	0		H	sg n
Klaos	Klaos	0		H	sg n
,	,			Z	
et	et	0		J	
3	3	0		N	?
ehk	ehk	0		J	
4	4	0		N	?
asta	aasta	0		S	sg g
est	eest	0		K	
om	ole	0		V	b
Otsa	Otsa	0		H	sg n
Jürri	Jürri	0		H	sg n
Luha	Luha	0		H	sg n
80	80	0		N	?
punda	pund	0		S	sg p
pikki	pikk	i		A	pl p
õlgi	õlg	i		S	pl p
temma	tema	0		P	sg n
käest	käest	0		K	
lainanu	laena	nu		V	nud
ja	ja	0		H	sg n
pallus	palu	s		V	s
et	et	0		J	
Kohus	Kohus	0		H	sg n
seda	see	da		P	sg p
massma	maks	ma		V	ma
sunis	sund	s		V	ks
selle	see	0		P	sg g
et	et	0		J	
Luha	Luha	0		H	sg n
neid	see	d		P	pl p
õlgi	õlg	i		S	pl p
ei	ei	0		V	neg
massa	maks	0		V	o
.	.			Z	
</s>					
<s>					
Jürri	Jürri	0		H	sg n
Luha	Luha	0		H	sg n
vastutas	vastuta	s		V	s
selle	see	0		P	sg g
kaibuse	kaebus	0		S	sg g
päle	peale	0		K	
,	,			Z	
et	et	0		J	
temma	tema	0		P	sg n
50	50	0		N	?
punda	pund	0		S	sg p
õlgi	õlg	i		S	pl p
kül	küll	0		D	
Mihkel	Mihkel	0		H	sg n
Klaose	Klaos	0		H	sg g
käest	käsi	st		S	sg el
sanu	saa	nu		V	nud
om	ole	0		V	b
,	,			Z	
sis	siis	0		D	
om	ole	0		V	b
neide	neid	e		S	pl p
vahel	vahel	0		D	
kõnne	####				
ollnu	ole	nu		V	nud
et	et	0		J	
tema	tema	0		P	sg g
kui	kui	0		D	
   	kui	0		J	
voimalik	võimalik	0		A	sg n
õlled	õlu	d		S	pl n
tagasi	tagasi	0		D	
ehk	ehk	0		D	
5	5	0		N	?
kop	kop	0		Y	?
punna	pund	0		S	sg g
est	eest	0		K	
raha	raha	0		S	sg p
massab	maks	b		V	b
ja	ja	0		H	sg n
andno	and	no		V	nud
sis	siis	0		D	
ka	ka	0		D	
võlla	võllas	0		S	sg g
täht	täht	0		S	sg n
Mihkel	Mihkel	0		H	sg n
Klaosele	Klaos	le		H	sg all
,	,			Z	
selle	see	0		P	sg g
tähe	täht	0		S	sg g
om	ole	0		V	b
tema	tema	0		P	sg g
sis	siis	0		D	
Klaose	Klaos	0		H	sg g
käest	käest	0		K	
tagasi	tagasi	0		K	
võtnu	võt	nud		V	nud
kui	kui	0		D	
   	kui	0		J	
tema	tema	0		P	sg g
rahhaga	####				
need	see	d		P	pl n
õlled	õlu	d		S	pl n
Klaosele	Klaos	le		H	sg all
ärra	ära	0		D	
massnu	maks	nu		V	nud
se	see	0		P	sg n
ollnu	ole	nu		V	nud
veel	veel	0		D	
Haslava	Haslava	0		H	sg n
kõrtsin	####				
rohkemb	####				
ei	ei	0		V	neg
olle	ole	0		V	o
tema	tema	0		P	sg g
olgi	####				
lainanu	laena	nu		V	nud
se	see	0		P	sg n
lainamine	####				
om	ole	0		V	b
rohkemb	####				
kümme	kümme	0		N	sg n
astat	####				
tagasi	tagasi	0		D	
.	.			Z	
</s>					
<s>					
Mihkel	Mihkel	0		H	sg n
Klaos	Klaos	0		H	sg n
andis	and	is		V	s
ülles	üles	0		D	
et	et	0		J	
ütte	üte	0		S	sg g
kormaga	####				
om	ole	0		V	b
Jürri	Jürri	0		H	sg n
Luha	Luha	0		H	sg n
sullane	####				
80	80	0		N	?
punda	pund	0		S	sg p
ärra	ära	0		D	
vienu	vii	nu		V	nud
,	,			Z	
ja	ja	0		H	sg n
raha	raha	0		S	sg p
ei	ei	0		V	neg
olle	ole	0		V	o
temma	tema	0		P	sg n
õlgi	õlg	i		S	pl p
est	eest	0		K	
sanu	saa	nu		V	nud
,	,			Z	
selle	see	0		P	sg g
et	et	0		J	
temma	tema	0		P	sg n
neid	see	d		P	pl p
õlgi	õlg	i		S	pl p
mitte	mitte	0		D	
müinu	müü	nud		V	nud
ei	ei	0		V	neg
olle	ole	0		V	o
.	.			Z	
</s>					
<s>					
Moistetu	mõist	tu		V	tud
:	:			Z	
et	et	0		J	
Jürri	Jürri	0		H	sg n
Luha	Luha	0		H	sg n
need	see	d		P	pl n
50	50	0		N	?
punda	pund	0		S	sg p
õlgi	õlg	i		S	pl p
4	4	0		N	?
nädali	####				
sehen	sees	0		K	
Mihkel	Mihkel	0		H	sg n
Klaosele	Klaos	le		H	sg all
ärra	ära	0		D	
massm	####				
peab	pida	b		V	b
,	,			Z	
selle	see	0		P	sg g
et	et	0		J	
temal	tema	l		P	sg ad
tunistust	tunnistus	t		S	sg p
ei	ei	0		V	neg
olle	ole	0		V	o
et	et	0		J	
temma	tema	0		P	sg n
need	see	d		P	pl n
õlled	õlu	d		S	pl n
rahaga	raha	ga		S	sg kom
ärra	ära	0		D	
massnu	maks	nu		V	nud
olles	ole	es		V	des
.	.			Z	
</s>					
<s>					
Se	Se	0		Y	sg n
moistus	mõistus	0		S	sg n
sai	saa	i		V	s
kulutedu	kuuluta	tu		V	tud
ja	ja	0		H	sg n
opetus	õpetus	0		S	sg n
leht	leht	0		S	sg n
välja	välja	0		D	
antu	antud	0		A	sg g
</s>					
