<s>					
Kaibas	kaeba	s		V	s
Karl	Karl	0		H	sg n
Lätti	Lätti	0		H	sg n
Krimanist	Krimanist	st		H	sg n
,	,			Z	
et	et	0		J	
temmal	tema	l		P	sg ad
1883/84	1883/84	0		N	?
asta	aasta	0		S	sg g
palka	palk	0		S	sg p
4	4	0		N	?
rbl	rbl	0		Y	
60	60	0		N	?
kop	kop	0		Y	?
Johan	Johan	0		H	sg n
Madisoni	Madison	0		H	sg g
käest	käsi	st		S	sg el
sada	sada	0		N	sg n
om	ole	0		V	b
ja	ja	0		H	sg n
pallus	palu	s		V	s
et	et	0		J	
kohus	kohus	0		S	sg n
seda	see	da		P	sg p
massma	maks	ma		V	ma
sunis	sund	s		V	ks
.	.			Z	
</s>					
<s>					
Johan	Johan	0		H	sg n
Madison	Madison	0		H	sg n
vastutas	vastuta	s		V	s
selle	see	0		P	sg g
päle	peale	0		K	
et	et	0		J	
Karl	Karl	0		H	sg n
Lätti	Lätti	0		H	sg n
24	24	0		N	?
rbl	rbl	0		Y	
75	75	0		N	?
kop	kop	0		Y	?
essi	ise	0		P	sg n
palka	palk	0		S	sg p
sannu	####				
om	ole	0		V	b
ja	ja	0		H	sg n
16	16	0		N	?
rbl	rbl	0		Y	
om	ole	0		V	b
temma	tema	0		P	sg n
Päraha	Päraha	0		H	sg n
võlgu	võlgu	0		D	
Sure	Sure	0		H	sg n
Kambja	Kambja	0		H	sg n
poisi	poiss	0		S	sg g
est	eest	0		K	
massnu	maks	nu		V	nud
,	,			Z	
selleperra	####				
om	ole	0		V	b
tema	tema	0		P	sg g
78	78	0		N	?
kop	kop	0		Y	?
veel	veel	0		D	
rohkemb	####				
välja	välja	0		D	
massnu	maks	nu		V	nud
.	.			Z	
</s>					
<s>					
Moistetu	mõist	tu		V	tud
:	:			Z	
et	et	0		J	
Johan	Johan	0		H	sg n
Madison	Madison	0		H	sg n
4	4	0		N	?
rbl	rbl	0		Y	
palka	palk	0		S	sg p
raha	raha	0		S	sg n
Karl	Karl	0		H	sg n
Lättile	Lätti	le		H	sg all
8	8	0		N	?
päiva	päev	0		S	sg g
sehen	sees	0		K	
perra	perra	0		K	
massma	maks	ma		V	ma
peab	pida	b		V	b
,	,			Z	
selle	see	0		P	sg g
et	et	0		J	
se	see	0		P	sg n
raha	raha	0		S	sg n
kui	kui	0		D	
   	kui	0		J	
Päraha	Päraha	0		H	sg n
kinni	kinni	0		D	
keeletu	keeletu	0		A	sg n
olli	ole	i		V	s
ja	ja	0		H	sg n
Johan	Johan	0		H	sg n
Madison	Madison	0		H	sg n
essi	ise	0		P	sg n
seda	see	da		P	sg p
ka	ka	0		D	
kinni	kinni	0		D	
pidada	pida	da		V	da
om	ole	0		V	b
lubanu	luba	nud		V	nud
,	,			Z	
sis	siis	0		D	
arvata	arva	ta		V	da
et	et	0		J	
Johan	Johan	0		H	sg n
Madison	Madison	0		H	sg n
se	see	0		P	sg n
raha	raha	0		S	sg n
võlga	võlg	0		S	sg p
om	ole	0		V	b
.	.			Z	
</s>					
<s>					
Se	Se	0		Y	sg n
moistus	mõistus	0		S	sg n
sai	saa	i		V	s
kulutedu	kuuluta	tu		V	tud
ja	ja	0		H	sg n
opetus	õpetus	0		S	sg n
leht	leht	0		S	sg n
välja	välja	0		D	
antu	antud	0		A	sg g
.	.			Z	
</s>					
<s>					
Ollen	Ollen	0		H	sg n
4	4	0		N	?
rbl	rbl	0		Y	
sel	see	l		P	sg ad
3	3	0		N	?
Septbl	####				
1884	1884	0		N	?
kätte	käsi	tte		S	adt
sanu	saa	nu		V	nud
Karl	Karl	0		H	sg n
Essa	Essa	0		H	sg n
Peter	Peter	0		H	sg n
Lätti	Lätti	0		H	sg n
</s>					
