<s>					
Johan	Johan	0		H	sg n
Tallu	Tallu	0		H	sg n
ostja	ostja	0		S	sg n
Johan	Johan	0		H	sg n
Klaosen	Klaosen	0		H	sg n
andis	and	is		V	s
omma	oma	0		P	sg g
Tallu	Tallu	0		H	sg n
rentsnik	####				
Johan	Johan	0		H	sg n
Madisonile	Madison	le		H	sg all
ülles	üles	0		D	
,	,			Z	
selle	see	0		P	sg g
et	et	0		J	
tema	tema	0		P	sg g
tallu	talu	0		S	adt
ärra	ära	0		D	
müinu	müü	nud		V	nud
om	ole	0		V	b
,	,			Z	
sis	siis	0		D	
peab	pida	b		V	b
Johan	Johan	0		H	sg n
Madison	Madison	0		H	sg n
se	see	0		P	sg n
Johani	Johan	0		H	sg g
tallu	talu	0		S	adt
Jürripäival	Jürripäiva	l		H	sg ad
1885	1885	0		N	?
selle	see	0		P	sg g
tallu	talu	0		S	adt
ostja	ostja	0		S	sg g
Ado	Ado	0		H	sg n
Ottase	Ottas	0		H	sg g
kätte	kätte	0		K	
andma	and	ma		V	ma
,	,			Z	
mes	mis	0		P	sg n
ka	ka	0		D	
Johan	Johan	0		H	sg n
Madisonile	Madison	le		H	sg all
kulutedo	kuuluta	do		V	tud
sai	saa	i		V	s
kellega	kes	ga		P	sg kom
Johan	Johan	0		H	sg n
Madison	Madison	0		H	sg n
ka	ka	0		D	
rahul	rahul	0		D	
lubas	luba	s		V	s
olla	ole	a		V	da
.	.			Z	
</s>					
<s>					
Ado	Ado	0		H	sg n
Ottas	Ottas	0		H	sg n
Surest	Surest	0		H	sg n
Kambjast	Kambjast	st		H	sg n
olli	ole	i		V	s
ka	ka	0		D	
seija	####				
tullnu	tule	nu		V	nud
ja	ja	0		H	sg n
andis	and	is		V	s
Johan	Johan	0		H	sg n
Klaosenile	Klaosen	le		H	sg all
ülles	üles	0		D	
et	et	0		J	
tema	tema	0		P	sg n
ni	nii	0		D	
kui	kui	0		D	
   	kui	0		J	
neide	neid	e		S	pl p
kaub	####				
om	ole	0		V	b
selle	see	0		P	sg g
Johani	Johan	0		H	sg g
Tallu	Tallu	0		H	sg n
Jürripäival	Jürripäiva	l		H	sg ad
1885	1885	0		N	?
kätte	käsi	tte		S	adt
tahab	taht	b		V	b
sada	sada	0		N	sg n
.	.			Z	
</s>					
<s>					
Otsus	otsus	0		S	sg n
:	:			Z	
seda	see	da		P	sg p
Protokolli	protokoll	0		S	adt
ülles	üles	0		D	
panda	panda	0		S	sg n
.	.			Z	
</s>					
