<s>					
Kaibas	kaeba	s		V	s
Roija	Roija	0		H	sg n
Jürri	Jürri	0		H	sg n
Klaos	Klaos	0		H	sg n
,	,			Z	
et	et	0		J	
tema	tema	0		P	sg n
om	ole	0		V	b
tähe	täht	0		S	sg g
päle	peale	0		K	
28	28	0		N	?
Vakka	Vakka	0		H	sg n
Kaero	Kaero	0		H	sg n
Johan	Johan	0		H	sg n
Köhrale	Köhr	le		H	sg all
Haslava	Haslava	0		H	sg n
Magatsi	Magatsi	0		H	sg n
aidast	ait	st		S	sg el
lainus	laen	s		S	sg tr
anda	and	a		V	da
om	ole	0		V	b
lasknu	lask	nud		V	nud
ja	ja	0		H	sg n
Johan	Johan	0		H	sg n
Köhra	Köhra	0		H	sg n
ei	ei	0		V	neg
olle	ole	0		V	o
neid	see	d		P	pl p
Kaero	Kaero	0		H	sg n
ärra	ära	0		D	
massnu	maks	nu		V	nud
ja	ja	0		H	sg n
tema	tema	0		P	sg n
om	ole	0		V	b
need	see	d		P	pl n
kaerad	kaer	d		S	pl n
ärra	ära	0		D	
massma	maks	ma		V	ma
pidanu	pida	nud		V	nud
ja	ja	0		H	sg n
pallus	palu	s		V	s
et	et	0		J	
Kohus	Kohus	0		H	sg n
Johan	Johan	0		H	sg n
Köhrad	Köhr	d		H	sg g
sunis	sund	s		V	ks
neid	see	d		P	pl p
kaero	kaer	0		S	sg p
temmale	tema	le		P	sg ad
tagasi	tagasi	0		D	
massa	maks	0		V	o
.	.			Z	
</s>					
<s>					
Tõiseld	####				
om	ole	0		V	b
temal	tema	l		P	sg ad
sis	siis	0		D	
kui	kui	0		D	
   	kui	0		J	
Johan	Johan	0		H	sg n
Köhra	Köhra	0		H	sg n
Torti	Torti	0		H	sg n
tallu	talu	0		S	adt
rentnikus	rentnik	s		S	sg in
tullnu	tule	nu		V	nud
22	22	0		N	?
Wakka	Wakka	0		H	sg n
maa	maa	0		S	sg g
alla	alla	0		K	
rükki	####				
välja	välja	0		D	
külvetu	külva	tu		V	tud
ollnu	ole	nu		V	nud
ja	ja	0		H	sg n
kevade	kevad	0		S	sg g
      	kevade	0		S	sg g
1883	1883	0		N	?
kui	kui	0		D	
   	kui	0		J	
Johan	Johan	0		H	sg n
Köhre	Köhr	0		H	sg g
selle	see	0		P	sg g
koha	koha	0		S	sg g
    	koht	0		S	sg g
ärra	ära	0		D	
andno	and	no		V	nud
om	ole	0		V	b
enegi	####				
174	174	0		N	?
Vakkamaad	Vakka	d		H	sg g
rükki	####				
välja	välja	0		D	
külvetu	külva	tu		V	tud
ollnu	ole	nu		V	nud
.	.			Z	
</s>					
<s>					
Jürri	Jürri	0		H	sg n
Klaos	Klaos	0		H	sg n
nõudis	nõud	is		V	s
Kahjutassumist	Kahjutassumist	st		H	sg n
.	.			Z	
</s>					
<s>					
Rükkikõrd	####				
ei	ei	0		V	neg
olle	ole	0		V	o
ka	ka	0		D	
kainetu	####				
ollnu	ole	nu		V	nud
terve	terve	0		A	sg n
nurm	nurm	0		S	sg n
.	.			Z	
</s>					
<s>					
Johan	Johan	0		H	sg n
Köhr	Köhr	0		H	sg n
Krimanist	Krimanist	st		H	sg n
vastutas	vastuta	s		V	s
edimetse	####				
kaibuse	kaebus	0		S	sg g
päle	peale	0		K	
,	,			Z	
et	et	0		J	
tema	tema	0		P	sg n
mitte	mitte	0		D	
üts	üks	0		P	sg n
terra	####				
Kaero	Kaero	0		H	sg n
Haslava	Haslava	0		H	sg n
Magatsist	Magatsist	st		H	sg n
lainanu	laena	nu		V	nud
ei	ei	0		V	neg
olle	ole	0		V	o
Tõise	Tõise	0		H	sg n
kaibuse	kaebus	0		S	sg g
päle	peale	0		K	
vastutas	vastuta	s		V	s
Johan	Johan	0		H	sg n
Köhra	Köhra	0		H	sg n
,	,			Z	
et	et	0		J	
temale	tema	le		P	sg all
rükki	####				
kätte	käsi	tte		S	adt
mõdetu	####				
ei	ei	0		V	neg
olle	ole	0		V	o
ja	ja	0		H	sg n
temma	tema	0		P	sg n
om	ole	0		V	b
ka	ka	0		D	
täis	täis	0		A	
nurm	nurm	0		S	sg n
rükki	####				
ärra	ära	0		D	
andnu	and=nu	0		S	sg g
ja	ja	0		H	sg n
nurmed	nurm	d		S	pl n
om	ole	0		V	b
välja	välja	0		D	
aetu	aetud	0		A	sg g
tema	tema	0		P	sg g
kätte	kätte	0		K	
antu	antud	0		A	sg g
.	.			Z	
</s>					
<s>					
Jürri	Jürri	0		H	sg n
Klaos	Klaos	0		H	sg n
andis	and	is		V	s
Kaero	Kaero	0		H	sg n
perrast	pärast	0		K	
tunistajas	tunnistaja	s		S	sg tr
ülles	üles	0		D	
Haslava	Haslava	0		H	sg n
Magatsi	Magatsi	0		H	sg n
Kirjutaja	kirjutaja	0		S	sg n
Johan	Johan	0		H	sg n
Link	Link	0		H	sg n
Johan	Johan	0		H	sg n
Köhra	Köhra	0		H	sg n
tõendas	tõenda	s		V	s
et	et	0		J	
se	see	0		P	sg n
rükki	####				
ja	ja	0		H	sg n
rükki	####				
kõrra	kõrra	0		D	
assi	ass	0		S	sg g
joba	joba	0		S	sg n
Krimani	Krimani	0		H	sg n
Kogukonna	Kogukonna	0		H	sg n
Kohtu	kohus	0		S	sg g
een	ees	0		K	
ärra	ära	0		D	
selletedu	####				
ja	ja	0		H	sg n
moistedu	####				
om	ole	0		V	b
.	.			Z	
</s>					
<s>					
Otsus	otsus	0		S	sg n
:	:			Z	
et	et	0		J	
Magatsi	Magatsi	0		H	sg n
kirjutaja	kirjutaja	0		S	sg n
Johan	Johan	0		H	sg n
Link	Link	0		H	sg n
13	13	0		N	?
Augusti	August	0		H	sg g
sa	sina	0		P	sg n
ette	ette	0		D	
kutsu	kutsu	0		V	o
om	ole	0		V	b
ja	ja	0		H	sg n
sai	saa	i		V	s
Johan	Johan	0		H	sg n
Köhrale	Köhr	le		H	sg all
ütteldu	####				
,	,			Z	
et	et	0		J	
tema	tema	0		P	sg n
sis	siis	0		D	
ku	####				
se	see	0		P	sg n
tunistus	####				
Krimani	Krimani	0		H	sg n
Kogukonna	Kogukonna	0		H	sg n
Kohtu	kohus	0		S	sg g
poolt	poolt	0		K	
ette	ette	0		D	
toma	####				
peab	pida	b		V	b
et	et	0		J	
se	see	0		P	sg n
assi	ass	0		S	sg g
jobba	joba	0		S	sg n
Krimanin	Krimani	0		H	sg g
selletedu	####				
59	59	0		N	?
Mõõtu	Mõõtu	0		H	sg n
</s>					
