<s>					
Kaibas	kaeba	s		V	s
Haslava	Haslava	0		H	sg n
moisa	mõis	0		S	sg g
Kõrtsimees	Kõrtsimees	0		H	sg n
Mihkel	Mihkel	0		H	sg n
Rattasep	Rattasep	0		H	sg n
,	,			Z	
et	et	0		J	
temal	tema	l		P	sg ad
71	71	0		N	?
rbl	rbl	0		Y	
rahha	raha	0		S	sg p
Endrik	Endrik	0		H	sg n
Kärike	Kärik	0		H	sg g
käest	käsi	st		S	sg el
sada	sada	0		N	sg n
om	ole	0		V	b
ja	ja	0		H	sg n
nimmelt	nimelt	0		D	
om	ole	0		V	b
tema	tema	0		P	sg g
40	40	0		N	?
rbl	rbl	0		Y	
selged	selge	d		A	pl n
raha	raha	0		S	sg n
Kärikule	Kärik	le		H	sg all
lainus	laen	s		S	sg tr
andno	and	no		V	nud
ja	ja	0		H	sg n
31	31	0		N	?
rbl	rbl	0		Y	
est	eest	0		K	
om	ole	0		V	b
Kärik	Kärik	0		H	sg n
Kaero	Kaero	0		H	sg n
tema	tema	0		P	sg g
käest	käest	0		K	
sanu	saa	nu		V	nud
ja	ja	0		H	sg n
pallus	palu	s		V	s
,	,			Z	
et	et	0		J	
Kohus	Kohus	0		H	sg n
seda	see	da		P	sg p
massma	maks	ma		V	ma
sunis	sund	s		V	ks
.	.			Z	
</s>					
<s>					
Endrik	Endrik	0		H	sg n
Kärik	Kärik	0		H	sg n
vastutas	vastuta	s		V	s
selle	see	0		P	sg g
kaibuse	kaebus	0		S	sg g
päle	peale	0		K	
,	,			Z	
et	et	0		J	
temma	tema	0		P	sg n
sel	see	l		P	sg ad
kõrral	kord	l		S	sg ad
kui	kui	0		D	
   	kui	0		J	
tema	tema	0		P	sg g
Tarto	Tarto	0		H	sg n
Linnan	Linnan	0		H	sg n
töömees	töö_mees	0		S	sg n
ollun	ole	n		V	nud
80	80	0		N	?
rbl	rbl	0		Y	
Mihkel	Mihkel	0		H	sg n
Rattasepale	Rattasep	le		H	sg all
lainus	laen	s		S	sg tr
andnu	and=nu	0		S	sg n
ja	ja	0		H	sg n
sis	siis	0		D	
sanu	saa	nu		V	nud
tema	tema	0		P	sg g
selle	see	0		P	sg g
vasta	vasta	0		V	o
Kaero	Kaero	0		H	sg n
Mihkel	Mihkel	0		H	sg n
Rattasepa	Rattasep	0		H	sg g
käest	käsi	st		S	sg el
ni	nii	0		D	
et	et	0		J	
tassu	tasu	0		S	sg p
sanu	saa	nu		V	nud
,	,			Z	
40	40	0		N	?
rbl	rbl	0		Y	
on	ole	0		V	b
  	ole	0		V	vad
tema	tema	0		P	sg g
kül	küll	0		D	
kaibaja	kaebaja	0		S	sg g
käest	käest	0		K	
lainanu	laena	nu		V	nud
,	,			Z	
10	10	0		N	?
rbl	rbl	0		Y	
om	ole	0		V	b
juba	juba	0		D	
ärra	ära	0		D	
massnu	maks	nu		V	nud
,	,			Z	
ja	ja	0		H	sg n
sis	siis	0		D	
om	ole	0		V	b
tema	tema	0		P	sg g
31	31	0		N	?
rbl	rbl	0		Y	
25	25	0		N	?
kop	kop	0		Y	?
est	eest	0		K	
Mihkel	Mihkel	0		H	sg n
Rattasepa	Rattasep	0		H	sg g
orjanu	orja=nu	0		S	sg n
ja	ja	0		H	sg n
nimelt	nimelt	0		D	
1	1	0		N	?
hobuse	hobune	0		S	pl n
päiv	päev	0		S	sg n
linast	lina	st		S	sg el
tennu	tege	nu		V	nud
se	see	0		P	sg n
massab	maks	b		V	b
3	3	0		N	?
rbl	rbl	0		Y	
</s>					
<s>					
4	4	0		N	?
Vore	Voore	0		H	sg g
mäelt	mägi	lt		S	sg abl
palke	palk	e		S	pl p
tonu	too	nu		V	nud
8	8	0		N	?
rbl	rbl	0		Y	
</s>					
<s>					
1	1	0		N	?
lubja	lubi	0		S	sg g
veski	veski	0		S	sg g
jure	juurde	0		K	
vienu	vii	nu		V	nud
2	2	0		N	?
rbl	rbl	0		Y	
</s>					
<s>					
1	1	0		N	?
jahu	jahu	0		S	sg g
linna	linna	0		H	sg n
vienu	vii	nu		V	nud
2	2	0		N	?
rbl	rbl	0		Y	
</s>					
<s>					
1	1	0		N	?
sitta	sitt	0		S	adt
vedanu	veda	nud		V	nud
2	2	0		N	?
rbl	rbl	0		Y	
</s>					
<s>					
1	1	0		N	?
jalla	jalg	0		S	sg g
päiv	päev	0		S	sg n
linna	linna	0		H	sg n
kentnu	####				
1	1	0		N	?
rbl	rbl	0		Y	
</s>					
<s>					
2	2	0		N	?
vilja	vili	0		S	sg p
ostma	ost	ma		V	ma
käinu	käi	nud		V	nud
2	2	0		N	?
rbl	rbl	0		Y	
</s>					
<s>					
7	7	0		N	?
1/2	1/2	0		N	?
Vakka	Vakka	0		H	sg n
kaero	kaer	0		S	sg p
Mihkel	Mihkel	0		H	sg n
Rattasepa	Rattasep	0		H	sg g
est	eest	0		K	
Magatside	magasi	de		S	sg ill
massnu	maks	nu		V	nud
mes	mis	0		P	sg n
massab	maks	b		V	b
11	11	0		N	?
rbl	rbl	0		Y	
25	25	0		N	?
kop	kop	0		Y	?
</s>					
<s>					
Summa	summa	0		S	sg n
31	31	0		N	?
rbl	rbl	0		Y	
25	25	0		N	?
kop	kop	0		Y	?
</s>					
<s>					
mes	mis	0		P	sg n
perra	perra	0		K	
temal	tema	l		P	sg ad
1	1	0		N	?
rbl	rbl	0		Y	
25	25	0		N	?
kop	kop	0		Y	?
veel	veel	0		D	
tagasi	tagasi	0		D	
sada	sada	0		N	sg n
om	ole	0		V	b
.	.			Z	
</s>					
<s>					
Mihkel	Mihkel	0		H	sg n
Rattasep	Rattasep	0		H	sg n
vastutas	vastuta	s		V	s
selle	see	0		P	sg g
päle	peale	0		K	
et	et	0		J	
tema	tema	0		P	sg g
konnagi	konn	0	gi	S	sg g
80	80	0		N	?
rbl	rbl	0		Y	
Endrik	Endrik	0		H	sg n
Käriko	Kärik	0		H	sg g
käest	käsi	st		S	sg el
lainanu	laena	nu		V	nud
ei	ei	0		V	neg
olle	ole	0		V	o
,	,			Z	
10	10	0		N	?
rbl	rbl	0		Y	
om	ole	0		V	b
temma	tema	0		P	sg n
kül	küll	0		D	
kaerade	kaer	de		S	pl g
est	eest	0		K	
Endrik	Endrik	0		H	sg n
Käriko	Kärik	0		H	sg g
käest	käsi	st		S	sg el
sanu	saa	nu		V	nud
,	,			Z	
neida	tema	ida		P	pl p
tegude	tegu	de		S	pl g
päle	peale	0		K	
vastutas	vastuta	s		V	s
Rattasep	Rattasep	0		H	sg n
:	:			Z	
""""	""""			Z	
hobuse	hobune	0		S	pl n
päiva	päev	0		S	sg g
linnast	linn	st		S	sg el
ei	ei	0		V	neg
olle	ole	0		V	o
Kärik	Kärik	0		H	sg n
temmale	tema	le		P	sg ad
tennu	tege	nu		V	nud
,	,			Z	
2	2	0		N	?
hobuse	hobune	0		S	pl n
päiva	päev	0		S	sg g
om	ole	0		V	b
Endrik	Endrik	0		H	sg n
Karik	Karik	0		H	sg n
talkuse	talgus	0		S	sg g
päl	peal	0		K	
tennu	tege	nu		V	nud
ja	ja	0		H	sg n
palke	palk	e		S	pl p
Vore	Voore	0		H	sg g
mäelt	mägi	lt		S	sg abl
vedanu	veda	nud		V	nud
,	,			Z	
ja	ja	0		H	sg n
Käriko	Kärik	0		H	sg g
Naese	Naese	0		H	sg n
essa	isa	0		S	sg n
om	ole	0		V	b
2	2	0		N	?
päiva	päev	0		S	sg g
tennu	tege	nu		V	nud
,	,			Z	
mes	mis	0		P	sg n
est	eest	0		K	
temma	tema	0		P	sg n
selle	see	0		P	sg g
Naese	Naese	0		H	sg n
essale	isa	le		S	sg all
massma	maks	ma		V	ma
peab	pida	b		V	b
kui	kui	0		D	
   	kui	0		J	
se	see	0		P	sg n
nõuab	nõud	b		V	b
,	,			Z	
need	see	d		P	pl n
päivat	päev	t		S	pl n
om	ole	0		V	b
talkuse	talgus	0		S	sg g
pääl	peal	0		K	
tehtu	tehtu	0		S	sg g
ja	ja	0		H	sg n
ei	ei	0		V	neg
olle	ole	0		V	o
mitte	mitte	0		D	
rahast	raha	st		S	sg el
tehtut	tehtu	t		S	sg p
,	,			Z	
Lubja	lubi	0		S	sg g
veski	veski	0		S	sg g
päle	peale	0		K	
om	ole	0		V	b
Kärik	Kärik	0		H	sg n
teda	tema	da		P	sg p
vienu	vii	nu		V	nud
,	,			Z	
se	see	0		P	sg n
sõit	sõit	0		S	sg n
ei	ei	0		V	neg
olle	ole	0		V	o
mitte	mitte	0		D	
kaubeltu	kauple	tu		V	tud
ollnu	ole	nu		V	nud
,	,			Z	
jahu	jahu	0		S	sg p
linna	linna	0		H	sg n
ei	ei	0		V	neg
ka	ka	0		D	
sitta	sitt	0		S	adt
ei	ei	0		V	neg
olle	ole	0		V	o
Endrik	Endrik	0		H	sg n
Kärik	Kärik	0		H	sg n
vedaman	veda	man		V	mas
ollnu	ole	nu		V	nud
,	,			Z	
linna	linna	0		H	sg n
kentman	####				
ei	ei	0		V	neg
ka	ka	0		D	
vilja	vili	0		S	sg p
ostman	ost	man		V	mas
ei	ei	0		V	neg
olle	ole	0		V	o
Kärik	Kärik	0		H	sg n
tema	tema	0		P	sg g
jures	juures	0		D	
ollnu	ole	nu		V	nud
.	.			Z	
</s>					
<s>					
Need	see	d		P	pl n
7	7	0		N	?
1/2	1/2	0		N	?
Vak	Vak	0		H	sg n
Kaero	Kaero	0		H	sg n
om	ole	0		V	b
tema	tema	0		P	sg g
Magatsist	Magatsist	st		H	sg n
võtnu	võt	nud		V	nud
ja	ja	0		H	sg n
andnu	and=nu	0		S	sg g
need	see	d		P	pl n
sammad	sama	d		P	pl n
Endrik	Endrik	0		H	sg n
Kärikul	Kärik	l		H	sg ad
kui	kui	0		D	
   	kui	0		J	
se	see	0		P	sg n
linnan	linn	n		S	sg in
ollun	ole	n		V	nud
,	,			Z	
ja	ja	0		H	sg n
sis	siis	0		D	
om	ole	0		V	b
Endrik	Endrik	0		H	sg n
Kärik	Kärik	0		H	sg n
need	see	d		P	pl n
kaerad	kaer	d		S	pl n
ka	ka	0		D	
essi	ise	0		P	sg n
Magatside	magasi	de		S	sg ill
ärra	ära	0		D	
massnu	maks	nu		V	nud
.	.			Z	
</s>					
<s>					
Endrik	Endrik	0		H	sg n
Kärik	Kärik	0		H	sg n
andis	and	is		V	s
küssimisse	küsimine	0		S	sg g
päle	peale	0		K	
ülles	üles	0		D	
,	,			Z	
et	et	0		J	
temal	tema	l		P	sg ad
tunnistust	tunnistus	t		S	sg p
ei	ei	0		V	neg
olle	ole	0		V	o
ülles	üles	0		D	
anda	and	a		V	da
kui	kui	0		D	
   	kui	0		J	
Mihkel	Mihkel	0		H	sg n
Rattasep	Rattasep	0		H	sg n
tema	tema	0		P	sg g
käest	käest	0		K	
80	80	0		N	?
rbl	rbl	0		Y	
lainanu	laena	nu		V	nud
,	,			Z	
tema	tema	0		P	sg g
Emma	Emma	0		H	sg n
ja	ja	0		H	sg n
Sossar	Sossar	0		H	sg n
om	ole	0		V	b
kül	küll	0		D	
jures	juures	0		D	
ollnu	ole	nu		V	nud
,	,			Z	
neida	tema	ida		P	pl p
es	ei	s		V	neg s
luba	luba	0		S	sg n
Rattasep	Rattasep	0		H	sg n
tunistajas	tunnistaja	s		S	sg tr
vasta	vasta	0		V	o
võtta	võt	a		V	da
.	.			Z	
</s>					
<s>					
Jaan	Jaan	0		H	sg n
Kiesa	Kiesa	0		H	sg n
tunistas	tunnista	s		V	s
,	,			Z	
et	et	0		J	
tema	tema	0		P	sg g
ollnu	ole	nu		V	nud
jures	juures	0		D	
kui	kui	0		D	
   	kui	0		J	
Endrik	Endrik	0		H	sg n
Kärik	Kärik	0		H	sg n
ja	ja	0		H	sg n
Mihkel	Mihkel	0		H	sg n
Rattasep	Rattasep	0		H	sg n
omma	oma	0		P	sg g
asju	asi	u		S	pl p
selletanu	selle_tanu	0		S	sg n
sis	siis	0		D	
om	ole	0		V	b
Endrik	Endrik	0		H	sg n
Kärik	Kärik	0		H	sg n
üttelnu	ütle	nu		V	nud
kannata	kannata	0		V	o
sis	siis	0		D	
mina	mina	0		S	sg p
massa	maks	0		V	o
sinnule	sina	le		P	sg all
keik	kõik	0		P	sg n
ärra	ära	0		D	
ent	ent	0		J	
kui	kui	0		D	
   	kui	0		J	
suur	suur	0		A	sg n
se	see	0		P	sg n
võlg	võlg	0		S	sg n
ollnu	ole	nu		V	nud
,	,			Z	
ei	ei	0		V	neg
olle	ole	0		V	o
temma	tema	0		P	sg n
kulda	kuld	0		S	sg p
sanu	saa	nu		V	nud
.	.			Z	
</s>					
<s>					
Johan	Johan	0		H	sg n
Birkenbaum	Birkenbaum	0		H	sg n
tunistas	tunnista	s		V	s
et	et	0		J	
temma	tema	0		P	sg n
neide	neid	e		S	pl p
asjust	asi	ust		S	pl el
midagi	miski	dagi		P	sg p
ei	ei	0		V	neg
tea	tead	0		V	o
Moistetu	mõist	tu		V	tud
:	:			Z	
et	et	0		J	
Endrik	Endrik	0		H	sg n
Karik	Karik	0		H	sg n
se	see	0		P	sg n
70	70	0		N	?
rbl	rbl	0		Y	
Mihkel	Mihkel	0		H	sg n
Rattasepal	Rattasep	l		H	sg ad
14	14	0		N	?
päiva	päev	0		S	sg g
sehen	sees	0		K	
ärra	ära	0		D	
massma	maks	ma		V	ma
peab	pida	b		V	b
,	,			Z	
selle	see	0		P	sg g
et	et	0		J	
temma	tema	0		P	sg n
essi	ise	0		P	sg n
tunnistab	tunnista	b		V	b
et	et	0		J	
tema	tema	0		P	sg g
40	40	0		N	?
rbl	rbl	0		Y	
selged	selge	d		A	pl n
raha	raha	0		S	sg n
ja	ja	0		H	sg n
ka	ka	0		D	
kaero	kaer	0		S	sg p
Mihkel	Mihkel	0		H	sg n
Rattasepa	Rattasep	0		H	sg g
kaest	käsi	st		S	sg el
sanu	saa	nu		V	nud
om	ole	0		V	b
ent	ent	0		J	
seda	see	da		P	sg p
tões	tõde	s		S	sg in
    	tõsi	s		S	sg in
teha	tege	a		V	da
ei	ei	0		V	neg
jõva	jõud	0		V	o
et	et	0		J	
tema	tema	0		P	sg n
seda	see	da		P	sg p
ärra	ära	0		D	
massnu	maks	nu		V	nud
olles	ole	es		V	des
.	.			Z	
</s>					
<s>					
1	1	0		N	?
rbl	rbl	0		Y	
selle	see	0		P	sg g
lubja	lubi	0		S	sg g
veski	veski	0		S	sg g
jure	juurde	0		K	
sõido	sõit	0		S	sg g
est	eest	0		K	
peab	pida	b		V	b
Mihkel	Mihkel	0		H	sg n
Rattasep	Rattasep	0		H	sg n
Endrik	Endrik	0		H	sg n
Kärikule	Kärik	le		H	sg all
massma	maks	ma		V	ma
,	,			Z	
mes	mis	0		P	sg n
ka	ka	0		D	
Rattasepa	Rattasep	0		H	sg g
nõudmissest	nõudmine	st		S	sg el
maha	maha	0		D	
om	ole	0		V	b
arvatu	arva=tu	0		S	sg n
,	,			Z	
ja	ja	0		H	sg n
tõised	teine	d		P	pl n
Endrik	Endrik	0		H	sg n
Käriko	Kärik	0		H	sg g
nõudmisset	nõudmine	t		S	pl n
om	ole	0		V	b
tühjas	tühi	s		A	sg in
moistu	mõist	tu		V	tud
,	,			Z	
selle	see	0		P	sg g
et	et	0		J	
seal	seal	0		D	
jures	juures	0		D	
selgust	selgus	t		S	sg p
ei	ei	0		V	neg
olle	ole	0		V	o
.	.			Z	
</s>					
<s>					
Se	Se	0		Y	sg n
moistus	mõistus	0		S	sg n
sai	saa	i		V	s
kulutedo	kuuluta	do		V	tud
ja	ja	0		H	sg n
opetus	õpetus	0		S	sg n
leht	leht	0		S	sg n
välja	välja	0		D	
antu	antud	0		A	sg g
</s>					
