<s>					
Kaibas	kaeba	s		V	s
Kristjan	Kristjan	0		H	sg n
Toom	Toom	0		H	sg n
Surest	Surest	0		H	sg n
Kambjast	Kambjast	st		H	sg n
,	,			Z	
et	et	0		J	
temal	tema	l		P	sg ad
7	7	0		N	?
rbl	rbl	0		Y	
50	50	0		N	?
kop	kop	0		Y	?
Päraha	Päraha	0		H	sg n
Johan	Johan	0		H	sg n
Zobeli	Zobeli	0		H	sg n
käest	käsi	st		S	sg el
sada	sada	0		N	sg n
om	ole	0		V	b
ja	ja	0		H	sg n
pallus	palu	s		V	s
et	et	0		J	
se	see	0		P	sg n
raha	raha	0		S	sg n
sisse	sisse	0		D	
nõutas	nõuta	s		V	s
temma	tema	0		P	sg n
Päraha	Päraha	0		H	sg n
kustutamis	####				
tarvis	tarvis	0		D	
Johan	Johan	0		H	sg n
Zobel	Zobel	0		H	sg n
vastutas	vastuta	s		V	s
,	,			Z	
et	et	0		J	
temal	tema	l		P	sg ad
se	see	0		P	sg n
raha	raha	0		S	sg n
massa	maks	0		V	o
om	ole	0		V	b
ollnu	ole	nu		V	nud
,	,			Z	
et	et	0		J	
4	4	0		N	?
asta	aasta	0		S	sg g
est	eest	0		K	
om	ole	0		V	b
tema	tema	0		P	sg g
sekõrdse	####				
Päkohtumehe	Päkohtumehe	0		H	sg n
Mihkel	Mihkel	0		H	sg n
Klaose	Klaos	0		H	sg g
kätte	käsi	tte		S	adt
5	5	0		N	?
rbl	rbl	0		Y	
kui	kui	0		D	
   	kui	0		J	
risutu	risu=tu	0		A	sg n
sanu	saa	nu		V	nud
,	,			Z	
massnu	maks	nu		V	nud
ja	ja	0		H	sg n
luban	luba	n		V	n
se	see	0		P	sg n
2	2	0		N	?
rbl	rbl	0		Y	
50	50	0		N	?
kop	kop	0		Y	?
tulleva	####				
sügise	sügis	0		S	sg g
Mihklipäivas	Mihklipäivas	0		H	sg n
ärra	ära	0		D	
massa	maks	0		V	o
.	.			Z	
</s>					
<s>					
Mihkel	Mihkel	0		H	sg n
Klaos	Klaos	0		H	sg n
,	,			Z	
andis	and	is		V	s
ülles	üles	0		D	
et	et	0		J	
tema	tema	0		P	sg g
sest	sest	0		J	
ei	ei	0		V	neg
malleta	####				
et	et	0		J	
seda	see	da		P	sg p
raha	raha	0		S	sg p
vasta	vasta	0		V	o
olles	ole	es		V	des
võtnu	võt	nud		V	nud
.	.			Z	
</s>					
<s>					
Johan	Johan	0		H	sg n
Zobel	Zobel	0		H	sg n
andis	and	is		V	s
tunistajas	tunnistaja	s		S	sg tr
ülles	üles	0		D	
enine	####				
kohtumes	####				
Johan	Johan	0		H	sg n
Link	Link	0		H	sg n
ja	ja	0		H	sg n
vanna	####				
Valle	Valle	0		H	sg n
kassak	####				
Johan	Johan	0		H	sg n
Luha	Luha	0		H	sg n
,	,			Z	
kes	kes	0		P	sg n
jures	juures	0		D	
ollnu	ole	nu		V	nud
,	,			Z	
kui	kui	0		D	
   	kui	0		J	
temma	tema	0		P	sg n
selle	see	0		P	sg g
raha	raha	0		S	sg g
massnu	maks	nu		V	nud
om	ole	0		V	b
.	.			Z	
</s>					
<s>					
Otsus	otsus	0		S	sg n
:	:			Z	
et	et	0		J	
Johan	Johan	0		H	sg n
Link	Link	0		H	sg n
ja	ja	0		H	sg n
Johan	Johan	0		H	sg n
Luha	Luha	0		H	sg n
ette	ette	0		D	
kutsutu	kutsutu	0		S	sg n
om	ole	0		V	b
</s>					
