<s>					
Marri	Marri	0		H	sg n
Tamm	Tamm	0		H	sg n
,	,			Z	
Hindriko	####				
naine	naine	0		S	sg n
kaibas	kaeba	s		V	s
,	,			Z	
perremees	perre_mees	0		S	sg n
Retto	Retto	0		H	sg n
Andres	Andres	0		H	sg n
Kill	Kill	0		H	sg n
ollevad	ole	0		V	b
       	ole	0		V	vad
tedda	tema	da		P	sg p
pühhapäival	####				
tarrest	####				
välla	####				
vissanu	####				
,	,			Z	
käe	käsi	0		S	sg g
ärra	ära	0		D	
pitsidanu	####				
nink	ning	0		J	
mahha	maha	0		D	
ruddunu	####				
.	.			Z	
</s>					
<s>					
Perremees	perre_mees	0		S	sg n
Retto	Retto	0		H	sg n
Andres	Andres	0		H	sg n
vastas	vasta	s		V	s
selle	see	0		P	sg g
päle	peale	0		K	
:	:			Z	
se	see	0		P	sg n
naine	naine	0		S	sg n
Marri	Marri	0		H	sg n
Tamm	Tamm	0		H	sg n
ollevad	ole	0		V	b
       	ole	0		V	vad
tedda	tema	da		P	sg p
sõimanu	sõima	nud		V	nud
nink	ning	0		J	
trotsno	####				
pühhapäival	####				
,	,			Z	
selle	see	0		P	sg g
ollevad	ole	0		V	b
       	ole	0		V	vad
temma	tema	0		P	sg n
naise	naine	0		S	sg g
välla	####				
vino	####				
kätpiddi	####				
nink	ning	0		J	
muud	muu	d		P	sg p
middagi	miski	dagi		P	sg p
tennu	tege	nud		V	nud
.	.			Z	
</s>					
<s>					
Hans	Hans	0		H	sg n
Tamm	Tamm	0		H	sg n
tunnistas	tunnista	s		V	s
:	:			Z	
Marri	Marri	0		H	sg n
Tamm	Tamm	0		H	sg n
nink	ning	0		J	
Perremees	perre_mees	0		S	sg n
Andres	Andres	0		H	sg n
Kill	Kill	0		H	sg n
ollevad	ole	0		V	b
       	ole	0		V	vad
Erne	####				
söötmisse	söötmine	se		S	adt
perrast	pärast	0		D	
sõnnutanu	####				
,	,			Z	
nink	ning	0		J	
Andres	Andres	0		H	sg n
ollevad	ole	0		V	b
       	ole	0		V	vad
naise	naine	0		S	sg g
Usse	uss	e		S	pl p
aija	####				
verjast	####				
kätpiddi	####				
välla	####				
vissanu	####				
,	,			Z	
nink	ning	0		J	
muud	muu	d		P	sg p
middagi	miski	dagi		P	sg p
tennu	tege	nud		V	nud
.	.			Z	
</s>					
<s>					
Marri	Marri	0		H	sg n
Pimme	Pimme	0		H	sg n
tunnistas	tunnista	s		V	s
,	,			Z	
perremehhe	####				
Retto	Retto	0		H	sg n
Andresse	Andres	sse		H	sg ill
Ärg	Ärg	0		H	sg n
ollevad	ole	0		V	b
       	ole	0		V	vad
Marri	Marri	0		H	sg n
Tamme	Tamm	0		H	sg g
Ernen	Ernen	0		H	sg n
olnu	ole	nud		V	nud
nink	ning	0		J	
selle	see	0		P	sg g
ülle	ülle	0		D	
sõnnutanuva	####				
,	,			Z	
perremees	perre_mees	0		S	sg n
Andres	Andres	0		H	sg n
Kill	Kill	0		H	sg n
ollevad	ole	0		V	b
       	ole	0		V	vad
naise	naine	0		S	sg g
Marri	Marri	0		H	sg n
Tamm	Tamm	0		H	sg n
kättpiddi	kätt_pidi	0		D	
kinni	kinni	0		D	
võtno	####				
nink	ning	0		J	
ülleusse	####				
aija	####				
viino	####				
nink	ning	0		J	
värjast	####				
välla	####				
vissanu	####				
.	.			Z	
</s>					
<s>					
Et	et	0		J	
perremees	perre_mees	0		S	sg n
Andres	Andres	0		H	sg n
Kill	Kill	0		H	sg n
sedda	see	da		P	sg p
naist	naine	t		S	sg p
löönu	löö	nud		V	nud
es	ei	s		V	neg s
olle	ole	0		V	o
,	,			Z	
egga	ega	0		J	
middagi	miski	dagi		P	sg p
muud	muu	d		P	sg p
vigga	viga	0		S	sg p
es	ei	s		V	neg s
tee	tee	0		S	sg n
-	-			Z	
nink	ning	0		J	
se	see	0		P	sg n
naine	naine	0		S	sg n
ka	ka	0		D	
perremeest	perre_mees	t		S	sg p
essi	ise	0		P	sg n
trotsno	####				
olli	ole	i		V	s
,	,			Z	
sai	saa	i		V	s
arvadut	####				
:	:			Z	
Mõistus	mõistus	0		S	sg n
Se	see	0		P	sg n
naine	naine	0		S	sg n
Marri	Marri	0		H	sg n
Tam	Tam	0		H	sg n
ei	ei	0		V	neg
saa	saa	0		V	o
middagi	miski	dagi		P	sg p
,	,			Z	
end	ise	0		P	sg p
perremees	perre_mees	0		S	sg n
Andres	Andres	0		H	sg n
Kill	Kill	0		H	sg n
peab	pida	b		V	b
Pühhapäiva	Pühhapäiva	0		H	sg n
tülli	tüli	0		S	adt
     	tüll	0		S	adt
eest	eest	0		K	
1	1	0		N	?
rbl	rbl	0		Y	
Kerriko	####				
ladiko	####				
sisse	sisse	0		D	
masma	maks	ma		V	ma
</s>					
