<s>					
Jerriste	Jerriste	0		H	sg n
kõrtzimehhe	####				
Karl	Karl	0		H	sg n
Lahmanni	Lahmanni	0		H	sg n
kaibusse	kai_buss	e		S	pl p
asjan	####				
,	,			Z	
tunnistas	tunnista	s		V	s
Peter	Peter	0		H	sg n
Lõstal	Lõstal	0		H	sg n
,	,			Z	
et	et	0		J	
Jaan	Jaan	0		H	sg n
Lõstman	Lõstal	0		H	sg g
minneva	####				
süggise	sügis	0		S	sg g
Karl	Karl	0		H	sg n
Adamsoni	Adamsoni	0		H	sg n
võlga	võlg	0		S	sg p
5	5	0		N	?
rbl	rbl	0		Y	
48	48	0		N	?
kop	kop	0		Y	?
enda	ise	0		P	sg g
päle	peale	0		K	
massa	maks	0		S	sg g
võtno	####				
.	.			Z	
</s>					
