<s>					
Nõo	Nõo	0		H	sg n
kõrtsimees	kõrtsi_mees	0		S	sg n
Peter	Peter	0		H	sg n
Kanzei	Kanzei	0		H	sg n
kaibas	kaeba	s		V	s
temma	tema	0		P	sg n
ollevad	ole	0		V	b
       	ole	0		V	vad
Karli	Karli	0		H	sg n
Õiguse	Õiguse	0		H	sg n
käest	käsi	st		S	sg el
1	1	0		N	?
kuhhi	####				
Haino	####				
ostno	####				
21	21	0		N	?
rbl	rbl	0		Y	
eest	eest	0		K	
,	,			Z	
nink	ning	0		J	
selle	see	0		P	sg g
kaupa	kaupa	0		K	
päle	peale	0		K	
10	10	0		N	?
rbl	rbl	0		Y	
kaerahha	####				
võtno	####				
,	,			Z	
nüüid	####				
ollevad	ole	0		V	b
       	ole	0		V	vad
Karli	Karli	0		H	sg n
Õigus	õigus	0		S	sg n
sedda	see	da		P	sg p
Haina	hai	na		S	sg es
kuhja	kuhi	0		S	sg g
teisele	teine	le		O	sg all
       	teine	le		P	sg all
ärra	ära	0		D	
müinod	####				
-	-			Z	
nüüd	nüüd	0		D	
palleb	####				
et	et	0		J	
kohhus	####				
temmale	tema	le		P	sg all
neid	see	d		P	pl p
ostetud	ost	tud		V	tud
haino	####				
kätte	käsi	tte		S	adt
mõistas	####				
,	,			Z	
ehk	ehk	0		J	
kaks	kaks	0		N	sg n
käerahha	####				
taggasi	tagasi	0		D	
.	.			Z	
</s>					
<s>					
Karli	Karli	0		H	sg n
Õigus	õigus	0		S	sg n
vastas	vasta	s		V	s
selle	see	0		P	sg g
päle	peale	0		K	
,	,			Z	
temma	tema	0		P	sg n
ollevad	ole	0		V	b
       	ole	0		V	vad
kül	küll	0		D	
sedda	see	da		P	sg p
Hainakuhja	Hainakuhja	0		H	sg n
Kanzveile	Kanzei	le		H	sg all
müinod	####				
nink	ning	0		J	
10	10	0		N	?
rbl	rbl	0		Y	
kaerahha	####				
võtno	####				
,	,			Z	
end	ise	0		P	sg p
temma	tema	0		P	sg g
poig	poeg	0		S	sg n
olevad	olev	d		A	pl n
ilma	ilma	0		K	
temma	tema	0		P	sg g
tiitmatta	####				
hainakuhja	####				
teisele	teine	le		O	sg all
       	teine	le		P	sg all
enne	enne	0		D	
ärra	ära	0		D	
müinod	####				
nink	ning	0		J	
ollevad	ole	0		V	b
       	ole	0		V	vad
sedda	see	da		P	sg p
käerahha	####				
varsti	varsti	0		D	
teisel	teine	l		O	sg ad
      	teine	l		P	sg ad
päival	####				
taggasi	tagasi	0		D	
viino	####				
end	end	0		Y	?
Kanzvei	####				
ei	ei	0		V	neg
ollevad	ole	0		V	b
       	ole	0		V	vad
vasto	####				
võtno	####				
.	.			Z	
</s>					
<s>					
Kohtu	kohus	0		S	sg g
otsus	otsus	0		S	sg n
et	et	0		J	
karli	####				
Õigus	õigus	0		S	sg n
enda	ise	0		P	sg g
kaupa	kaupa	0		K	
es	ei	s		V	neg s
pea	pida	0		V	o
,	,			Z	
nink	ning	0		J	
haina	hai	na		S	sg es
kuhja	kuhi	0		S	sg g
teisele	teine	le		O	sg all
       	teine	le		P	sg all
ärra	ära	0		D	
müinod	####				
,	,			Z	
peab	pida	b		V	b
selle	see	0		P	sg g
käerahhale	####				
5	5	0		N	?
rbl	rbl	0		Y	
mannu	####				
masma	maks	ma		V	ma
,	,			Z	
se	see	0		P	sg n
om	ole	0		V	b
  	ole	0		V	vad
,	,			Z	
15	15	0		N	?
rbl	rbl	0		Y	
varsti	varsti	0		D	
ärra	ära	0		D	
masma	maks	ma		V	ma
Peter	Peter	0		H	sg n
Kanzveile	Kanzei	le		H	sg all
.	.			Z	
</s>					
