<s>					
Mõisamõtsasaks	####				
Döring	Döring	0		H	sg n
antis	####				
ette	ette	0		D	
,	,			Z	
et	et	0		J	
Karl	Karl	0		H	sg n
Antonov	Antonov	0		H	sg n
1	1	0		N	?
Kõopuu	####				
10	10	0		N	?
tolli	toll	0		S	sg g
tüvvest	####				
jämme	####				
mahha	maha	0		D	
raggono	####				
nõvvab	####				
selle	see	0		P	sg g
eest	eest	0		K	
3	3	0		N	?
rbl	rbl	0		Y	
.	.			Z	
</s>					
<s>					
Karl	Karl	0		H	sg n
Antonov	Antonov	0		H	sg n
tunnistas	tunnista	s		V	s
sedda	see	da		P	sg p
õkva	õkva	0		D	
ollevad	ole	0		V	b
       	ole	0		V	vad
.	.			Z	
</s>					
<s>					
Mõistus	mõistus	0		S	sg n
:	:			Z	
Karl	Karl	0		H	sg n
Antonov	Antonov	0		H	sg n
peab	pida	b		V	b
selle	see	0		P	sg g
puu	puu	0		S	sg g
eest	eest	0		K	
3	3	0		N	?
rbl	rbl	0		Y	
trahvi	trahv	0		S	sg p
masma	maks	ma		V	ma
.	.			Z	
</s>					
