<s>					
Vanna	Vanna	0		H	sg n
Opman	Opman	0		H	sg n
Bandt	Bandt	0		H	sg n
antis	####				
kaibuses	####				
ette	ette	0		D	
,	,			Z	
et	et	0		J	
Vinapruli	Vinapruli	0		H	sg n
Jannson	Jannson	0		H	sg n
temmale	tema	le		P	sg all
võlgo	võlgu	0		D	
om	ole	0		V	b
  	ole	0		V	vad
ni	nii	0		D	
kui	kui	0		D	
   	kui	0		J	
:	:			Z	
1	1	0		N	?
vak	####				
peegeldedu	####				
Roa	roog	0		S	sg g
jahho	####				
3	3	0		N	?
rbl	rbl	0		Y	
</s>					
<s>					
3/4	3/4	0		N	?
vak	####				
Ernit	Erni	t		H	sg p
2	2	0		N	?
rbl	rbl	0		Y	
</s>					
<s>					
selget	selge	t		A	sg p
rahha	raha	0		S	sg g
4	4	0		N	?
rbl	rbl	0		Y	
</s>					
<s>					
1	1	0		N	?
vastne	vastne	0		A	sg n
Müts	müts	0		S	sg n
ostno	####				
1	1	0		N	?
rbl	rbl	0		Y	
25	25	0		N	?
kop	kop	0		Y	?
</s>					
<s>					
2	2	0		N	?
Tivanimatsatsi	####				
a	a	0		Y	?
4	4	0		N	?
rbl	rbl	0		Y	
8	8	0		N	?
rbl	rbl	0		Y	
</s>					
<s>					
1	1	0		N	?
Taschenbuch	####				
2	2	0		N	?
rbl	rbl	0		Y	
</s>					
<s>					
Kaupmehhe	####				
Reinvaldi	####				
Rehnung	rehnung	0		S	sg n
masno	####				
49	49	0		N	?
rbl	rbl	0		Y	
47	47	0		N	?
kop	kop	0		Y	?
Summa	summa	0		S	sg n
69	69	0		N	?
rbl	rbl	0		Y	
72	72	0		N	?
kop	kop	0		Y	?
</s>					
<s>					
Selle	see	0		P	sg g
päle	peale	0		K	
sai	saa	i		V	s
Vinapruli	Vinapruli	0		H	sg n
Jannson	Jannson	0		H	sg n
kolm	kolm	0		N	sg n
kõrda	####				
kohto	kohus	0		S	sg g
ette	ette	0		K	
kutsutud	kutsu	tud		V	tud
nink	ning	0		J	
es	ei	s		V	neg s
tulle	tuli	0		S	adt
enge	####				
olli	ole	i		V	s
Kohtoteenril	####				
vastanu	vasta	nud		V	nud
:	:			Z	
""""	""""			Z	
temma	tema	0		P	sg n
mitte	mitte	0		D	
selle	see	0		P	sg g
Kohto	####				
ette	ette	0		D	
ei	ei	0		V	neg
tulle	tuli	0		S	adt
egga	ega	0		J	
prugi	####				
tulla	tule	a		V	da
"""."	"""."			Z	
</s>					
<s>					
Siis	siis	0		D	
ühhentiva	####				
Kohtoliikmed	####				
selle	see	0		P	sg g
mõistusega	mõistus	ga		S	sg kom
-	-			Z	
Jannson	Jannson	0		H	sg n
peab	pida	b		V	b
sedda	see	da		P	sg p
ülles	üles	0		D	
antu	antud	0		A	sg g
Summad	summ	d		S	pl n
      	summa	d		S	pl n
69	69	0		N	?
rbl	rbl	0		Y	
72	72	0		N	?
kop	kop	0		Y	?
ärra	ära	0		D	
masma	maks	ma		V	ma
,	,			Z	
nink	ning	0		J	
et	et	0		J	
kohtokässo	####				
vasto	####				
panni	pann	0		S	sg g
2	2	0		N	?
rbl	rbl	0		Y	
vaeste	vaene	te		S	pl g
Ladiko	Ladiko	0		H	sg n
sisse	sisse	0		D	
masma	maks	ma		V	ma
.	.			Z	
</s>					
