<s>					
Sullane	####				
Karl	Karl	0		H	sg n
Ürril	Ürril	0		H	sg n
kaibas	kaeba	s		V	s
,	,			Z	
et	et	0		J	
temmal	tema	l		P	sg ad
pu	puu	0		S	sg g
veddamisse	vedamine	se		S	adt
man	man	0		D	
te	sina	0		P	pl n
pääl	peal	0		K	
korma	####				
ärra	ära	0		D	
kistu	kistud	0		A	sg g
-	-			Z	
vimati	viimati	0		D	
sanu	saa	nu		V	nud
ta	tema	0		P	sg n
Johan	Johan	0		H	sg n
Praklile	Prakel	le		H	sg all
järge	järg	0		S	sg p
leidnu	leid	nud		V	nud
omma	oma	0		P	sg g
pu	puu	0		S	sg g
hallo	hallo	0		I	
temma	tema	0		P	sg g
koormas	koorem	s		S	sg in
2	2	0		N	?
tükki	tükk	0		S	sg p
mis	mis	0		P	sg n
ärra	ära	0		D	
märgitu	märgi=tu	0		S	sg n
,	,			Z	
tõisi	####				
mis	mis	0		P	sg n
märgimada	####				
ta	tema	0		P	sg n
ei	ei	0		V	neg
tundnu	tund	nud		V	nud
.	.			Z	
</s>					
<s>					
Kaevatav	Kaevatav	0		H	sg n
Johan	Johan	0		H	sg n
Prakli	Prakel	0		H	sg n
vabbandas	vabanda	s		V	s
,	,			Z	
et	et	0		J	
ta	tema	0		P	sg n
temma	tema	0		P	sg g
pu	puu	0		S	sg g
koormat	koorem	t		S	sg p
ei	ei	0		V	neg
lõhknu	####				
,	,			Z	
kaebaja	kaebaja	0		S	sg g
lönu	####				
tedda	tema	0		P	sg p
3	3	0		N	?
kõrd	kord	0		D	
kõrvo	####				
möda	####				
.	.			Z	
</s>					
<s>					
1.	1.	0		O	?
</s>					
<s>					
Tun	Tun	0		H	sg n
.	.			Z	
</s>					
<s>					
Kopli	Kopli	0		H	sg n
Peter	Peter	0		H	sg n
tun	tun			Y	
.	.			Z	
</s>					
<s>					
et	et	0		J	
ta	tema	0		P	sg n
näinud	näge	nud		V	nud
,	,			Z	
kui	kui	0		D	
   	kui	0		J	
Karl	Karl	0		H	sg n
Ürril	Ürril	0		H	sg n
tõuganu	tõuka	nud		V	nud
Johan	Johan	0		H	sg n
Prakli	Prakel	0		H	sg n
süllite	####				
mahha	maha	0		D	
,	,			Z	
muud	muu	d		P	sg p
ta	tema	0		P	sg n
ei	ei	0		V	neg
teda	tema	da		P	sg p
.	.			Z	
</s>					
<s>					
2.	2.	0		O	?
</s>					
<s>					
Tun	Tun	0		H	sg n
.	.			Z	
</s>					
<s>					
Karl	Karl	0		H	sg n
Tiro	Tiro	0		H	sg n
tun	tun			Y	
.	.			Z	
</s>					
<s>					
et	et	0		J	
nemma	tema	d		P	pl n
vastastiko	####				
rindo	####				
piddi	pida	i		V	s
koon	koon	0		S	sg n
olnu	ole	nud		V	nud
,	,			Z	
vimati	viimati	0		D	
lönu	####				
Johan	Johan	0		H	sg n
Prakli	Prakel	0		H	sg n
piitsa	piits	0		S	sg p
varrega	vars	ga		S	sg kom
vasta	vasta	0		V	o
.	.			Z	
</s>					
<s>					
3.	3.	0		O	?
</s>					
<s>					
Tun	Tun	0		H	sg n
.	.			Z	
</s>					
<s>					
Johan	Johan	0		H	sg n
Kalla	Kalla	0		H	sg n
ütles	ütle	s		V	s
ennege	####				
helli	hell	i		A	pl p
kuulnu	kuul	nud		V	nud
olla	ole	a		V	da
.	.			Z	
</s>					
<s>					
Moisteti	####				
:	:			Z	
Et	et	0		J	
Karl	Karl	0		H	sg n
Praaklil	Praaklil	0		H	sg n
selle	see	0		P	sg g
süi	süü	0		S	sg g
eest	eest	0		K	
,	,			Z	
et	et	0		J	
ta	tema	0		P	sg g
tõise	teine	0		S	sg g
pu	puu	0		S	sg g
koorma	koorem	0		S	sg g
lõhkus	lõhku	s		V	s
,	,			Z	
5	5	0		N	?
vitsa	vits	0		S	sg g
löki	####				
ehk	ehk	0		D	
1	1	0		N	?
rbl	rbl	0		Y	
vaeste	vaene	te		S	pl g
lati	latt	0		S	sg g
8	8	0		N	?
p	p	0		Y	?
.	.			Z	
trahvi	trahv	0		S	sg p
maksa	maks	0		V	o
ent	ent	0		J	
tõise	teine	0		S	sg g
vellel	####				
Johan	Johan	0		H	sg n
Praaklil	Praaklil	0		H	sg n
om	ole	0		V	b
  	ole	0		V	vad
Karl	Karl	0		H	sg n
Ürrilaga	Ürril	ga		H	sg kom
tappelusse	tapp_elu	sse		S	sg ill
perrast	pärast	0		K	
ärra	ära	0		D	
leppi	lepp	i		S	pl p
n	n	0		Y	?
.	.			Z	
rahhule	####				
jäda	####				
.	.			Z	
</s>					
<s>					
Se	Se	0		Y	sg n
otsus	otsus	0		S	sg n
sai	saa	i		V	s
k.k	####				
.	.			Z	
</s>					
<s>					
kulutud	kulu	tud		V	tud
.	.			Z	
</s>					
<s>					
Karl	Karl	0		H	sg n
Prakli	Prakel	0		H	sg n
lubbas	luba	s		V	s
1	1	0		N	?
rbl	rbl	0		Y	
8	8	0		N	?
p	p	0		Y	?
.	.			Z	
sissen	####				
maksa	maks	0		V	o
.	.			Z	
</s>					
