<s>					
Otto	Otto	0		H	sg n
Tohver	Tohver	0		H	sg n
kaibas	kaeba	s		V	s
,	,			Z	
et	et	0		J	
ta	tema	0		P	sg n
teinud	tege	nud		V	nud
Peter	Peter	0		H	sg n
Adamsonile	Adamson	le		H	sg all
13	13	0		N	?
jallapäiva	####				
,	,			Z	
näddalist	####				
2	2	0		N	?
p	p	0		Y	?
.	.			Z	
Jürri	Jürri	0		H	sg n
p	p	0		Y	?
.	.			Z	
Mihklipäivani	####				
olnu	ole	nud		V	nud
kaup	kaup	0		S	sg n
,	,			Z	
ne	see	0		P	pl n
13	13	0		N	?
p	p	0		Y	?
.	.			Z	
sanu	saa	nu		V	nud
ette	ette	0		D	
rahha	raha	0		S	sg p
eest	eest	0		K	
40	40	0		N	?
kop	kop	0		Y	?
-	-			Z	
5	5	0		N	?
rbl	rbl	0		Y	
20	20	0		N	?
kop	kop	0		Y	?
.	.			Z	
</s>					
<s>					
Ta	tema	0		P	sg n
nõuda	nõud	a		V	da
kätte	käsi	tte		S	adt
.	.			Z	
</s>					
<s>					
Kaevatav	Kaevatav	0		H	sg n
Peter	Peter	0		H	sg n
Adamson	Adamson	0		H	sg n
ütles	ütle	s		V	s
et	et	0		J	
temmal	tema	l		P	sg ad
olnu	ole	nud		V	nud
Otto	Otto	0		H	sg n
Tohvriga	Tohver	ga		H	sg kom
kaup	kaup	0		S	sg n
,	,			Z	
et	et	0		J	
ta	tema	0		P	sg n
piddanu	pida	nud		V	nud
Jürripäivanist	Jürripäivanist	st		H	sg n
Märdipäivani	Märdipäivani	0		H	sg n
2	2	0		N	?
p	p	0		Y	?
.	.			Z	
näddalist	####				
teggema	tege	ma		V	ma
58	58	0		N	?
päiva	päev	0		S	sg p
.	.			Z	
</s>					
<s>					
Teinud	tege	nud		V	nud
olla	ole	a		V	da
Janipäivani	Janipäivani	0		H	sg n
8	8	0		N	?
päiva	päev	0		S	sg g
ja	ja	0		J	
nida	####				
eddesi	####				
kellest	kes	st		P	sg el
ta	tema	0		P	sg n
12	12	0		N	?
päiva	päev	0		S	sg g
võlgo	võlg	u		S	pl p
jäi	jää	i		V	s
ja	ja	0		J	
praegu	praegu	0		D	
võlgo	võlg	u		S	pl p
,	,			Z	
ent	ent	0		J	
se	see	0		P	sg n
täis	täis	0		A	
palk	palk	0		S	sg n
3	3	0		N	?
v	v	0		Y	?
.	.			Z	
rukki	rukis	0		S	sg g
ja	ja	0		J	
2	2	0		N	?
v	v	0		Y	?
.	.			Z	
kesvi	kesv	i		S	pl p
olla	ole	a		V	da
ta	tema	0		P	sg n
välja	välja	0		D	
võtnu	võt	nud		V	nud
.	.			Z	
</s>					
<s>					
Kaebaja	Kaebaja	0		H	sg n
Otto	Otto	0		H	sg n
Tohver	Tohver	0		H	sg n
ütles	ütle	s		V	s
,	,			Z	
et	et	0		J	
ta	tema	0		P	sg n
kül	küll	0		D	
4	4	0		N	?
päiva	päev	0		S	sg g
võlgo	võlg	u		S	pl p
jänu	jää	nu		V	nud
,	,			Z	
ent	ent	0		J	
13	13	0		N	?
päiva	päev	0		S	adt
teinud	tege	nud		V	nud
ette	ette	0		D	
.	.			Z	
</s>					
<s>					
Tunnistaja	tunnistaja	0		S	sg n
Jaan	Jaan	0		H	sg n
Kibbal	Kibbal	0		H	sg n
ütles	ütle	s		V	s
,	,			Z	
et	et	0		J	
ta	tema	0		P	sg g
ennege	####				
kuulnu	kuul	nud		V	nud
,	,			Z	
et	et	0		J	
ni	nii	0		D	
suur	suur	0		A	sg n
palk	palk	0		S	sg n
Otto	Otto	0		H	sg n
Tohvrile	Tohver	le		H	sg all
lubbatu	luba	tu		V	tud
.	.			Z	
</s>					
<s>					
Moistetu	####				
:	:			Z	
Et	et	0		J	
neil	tema	l		P	pl ad
vastastiku	vastastik	0		A	sg g
rahhule	####				
jäda	####				
,	,			Z	
kunna	kuna	0		J	
neil	tema	l		P	pl ad
kummalgi	kumbki	lgi		P	sg ad
tunnistust	tunnistus	t		S	sg p
ei	ei	0		V	neg
olle	ole	0		V	o
.	.			Z	
</s>					
<s>					
Se	Se	0		Y	sg n
otsus	otsus	0		S	sg n
sai	saa	i		V	s
k.k	####				
.	.			Z	
</s>					
<s>					
sel	see	l		P	sg ad
19.	19.	0		O	?
</s>					
<s>					
Märzil	####				
1876	1876	0		N	?
,	,			Z	
1860	1860	0		N	?
a.t.r.s.r	####				
.	.			Z	
</s>					
<s>					
järele	järele	0		D	
kulutud	kulu	tud		V	tud
§.§.	§.§	0		Y	?
</s>					
<s>					
772	772	0		N	?
ja	ja	0		J	
773	773	0		N	?
järrele	####				
ja	ja	0		J	
mõllembile	####				
õppusse	õppus	se		S	adt
kirri	####				
pakkutu	####				
ja	ja	0		J	
need	see	d		P	pl n
ei	ei	0		V	neg
võtnu	võt	nud		V	nud
.	.			Z	
</s>					
