<s>					
Moisavallitsusse	Moisavallitsusse	sse		H	sg n
eest	eest	0		K	
kaibas	kaeba	s		V	s
mõtsavaht	####				
Davit	Davit	0		H	sg n
Viksi	Viksi	0		H	sg n
et	et	0		J	
ta	tema	0		P	sg g
andno	####				
kol	####				
.	.			Z	
</s>					
<s>					
Hendrik	Hendrik	0		H	sg n
Rabbase	Rabbase	0		H	sg n
ja	ja	0		J	
Karl	Karl	0		H	sg n
Vastsekivile	Vastsekivile	0		H	sg n
2	2	0		N	?
kõrd	kord	0		D	
käsko	####				
moisahe	####				
heino	hein	0		S	pl p
veddama	veda	ma		V	ma
minna	mine	a		V	da
,	,			Z	
ent	ent	0		J	
nemma	tema	d		P	pl n
ei	ei	0		V	neg
ollo	ole	nud		V	nud
läinud	mine	nud		V	nud
.	.			Z	
</s>					
<s>					
Sovib	####				
neid	tema	d		P	pl p
selle	see	0		P	sg g
eest	eest	0		K	
trahvida	trahvi	da		V	da
.	.			Z	
</s>					
<s>					
Kaevatav	Kaevatav	0		H	sg n
Hendrik	Hendrik	0		H	sg n
Rebbane	Rebbane	0		H	sg n
vabbandas	vabanda	s		V	s
et	et	0		J	
ta	tema	0		P	sg n
ei	ei	0		V	neg
olla	ole	a		V	da
käsko	####				
sanu	saa	nu		V	nud
,	,			Z	
ent	ent	0		J	
kaebaja	kaebaja	0		S	sg n
tõendas	tõenda	s		V	s
;	;			Z	
kaevatav	kaeva=tav	0		A	sg n
Karl	Karl	0		H	sg n
vastsekivi	vastse_kivi	0		S	sg n
vabbandas	vabanda	s		V	s
et	et	0		J	
ta	tema	0		P	sg g
haigst	####				
jänu	jää	nu		V	nud
.	.			Z	
</s>					
<s>					
Moisteti	####				
:	:			Z	
Et	et	0		J	
Hendrik	Hendrik	0		H	sg n
Rebbasel	Rebbane	l		H	sg ad
moisale	mõis	le		S	sg all
selle	see	0		P	sg g
eest	eest	0		K	
1	1	0		N	?
jallapäiv	####				
tehha	####				
ja	ja	0		J	
Karl	Karl	0		H	sg n
Vastsekivil	vastse_kivi	l		S	sg ad
vallitsejat	####				
andis	and	is		V	s
palluda	palu	da		V	vat
.	.			Z	
</s>					
<s>					
Se	Se	0		Y	sg n
otsus	otsus	0		S	sg n
sai	saa	i		V	s
k	k	0		Y	?
k	k	0		Y	?
kuluted	####				
.	.			Z	
</s>					
