<s>					
Kaera	Kaera	0		H	sg n
Micheli	Michel	0		H	sg g
kaibas	kaeba	s		V	s
et	et	0		J	
Hendri	Hendri	0		H	sg n
Otti	Otti	0		H	sg n
naineb	####				
kaubelnu	kauple	nud		V	nud
temma	tema	0		P	sg g
juurde	juurde	0		K	
omma	oma	0		P	sg g
poja	poeg	0		S	sg g
    	poja	0		S	sg g
9	9	0		N	?
aastane	aastane	0		A	sg n
karja	kari	0		S	sg g
Kastrehe	kast_rehi	0		S	sg g
,	,			Z	
5	5	0		N	?
näddalit	####				
olli	ole	i		V	s
sääl	seal	0		D	
olnu	ole	nud		V	nud
,	,			Z	
siis	siis	0		J	
tulnu	tulnu	0		S	sg n
se	see	0		P	sg n
naine	naine	0		S	sg n
perra	järele	0		D	
ja	ja	0		J	
tonu	too	nu		V	nud
ärra	ära	0		D	
.	.			Z	
</s>					
<s>					
Ta	tema	0		P	sg g
andno	####				
temmale	tema	le		P	sg all
käe	käsi	0		S	sg g
rahha	raha	0		S	sg p
25	25	0		N	?
kop	kop	0		Y	?
.	.			Z	
</s>					
<s>					
1	1	0		N	?
hamme	####				
ja	ja	0		J	
1	1	0		N	?
püksi	püks	0		S	adt
,	,			Z	
1/2	1/2	0		N	?
pätse	päts	e		S	pl p
leiba	leib	0		S	sg p
10	10	0		N	?
topi	topp	0		S	sg g
uppe	####				
.	.			Z	
</s>					
<s>					
1	1	0		N	?
pr	pr	0		Y	?
.	.			Z	
</s>					
<s>					
Zoge	####				
olnu	ole	nud		V	nud
ka	ka	0		D	
.	.			Z	
</s>					
<s>					
Ta	tema	0		P	sg n
nõuda	nõud	a		V	da
tedda	tema	0		P	sg p
karja	kari	0		S	sg g
ehk	ehk	0		J	
oma	oma	0		P	sg g
asja	asi	0		S	sg g
ja	ja	0		J	
5	5	0		N	?
näddale	####				
söötmist	söötmine	t		S	sg p
ilm	ilma	0		K	
tähheta	####				
ta	tema	0		P	sg n
kül	küll	0		D	
kaubelnu	kauple	nud		V	nud
.	.			Z	
</s>					
<s>					
An	An	0		Y	sg n
Otti	Otti	0		H	sg n
ütles	ütle	s		V	s
,	,			Z	
et	et	0		J	
Michel	Michel	0		H	sg n
Kommusar	Kommusar	0		H	sg n
ei	ei	0		V	neg
olle	ole	0		V	o
selle	see	0		P	sg g
lapsele	laps	le		S	sg all
süvva	####				
andnu	and=nu	0		S	sg g
selleperrast	selle_pärast	0		D	
ta	tema	0		P	sg g
tonu	too	nu		V	nud
latse	lats	e		S	pl p
ärra	ära	0		D	
.	.			Z	
</s>					
<s>					
Moisteti	####				
:	:			Z	
Et	et	0		J	
Hendrik	Hendrik	0		H	sg n
Otti	Otti	0		H	sg n
S.	S.	0		Y	sg n
Merist	Merist	st		H	sg n
ka	ka	0		D	
ette	ette	0		D	
.	.			Z	
</s>					
<s>					
Se	Se	0		Y	sg n
otsus	otsus	0		S	sg n
kulutud	kulu	tud		V	tud
.	.			Z	
</s>					
