<s>					
Koiksi	Koiksi	0		H	sg n
Johan	Johan	0		H	sg n
kaibas	kaeba	s		V	s
,	,			Z	
et	et	0		J	
temma	tema	0		P	sg g
saatnu	saat	nud		V	nud
pari	pari	0		S	sg g
näddale	####				
eest	eest	0		K	
karja	kari	0		S	sg g
mõtsa	mets	0		S	adt
,	,			Z	
kos	kus	0		D	
temmal	tema	l		P	sg ad
üks	üks	0		N	sg n
   	üks	0		P	sg n
lehm	lehm	0		S	sg n
ni	nii	0		D	
kui	kui	0		D	
   	kui	0		J	
vikkatiga	####				
ärrä	ära	0		D	
raggotu	####				
muijalt	####				
ta	tema	0		P	sg n
ei	ei	0		V	neg
arvata	arva	ta		V	ta
haiget	haige	t		S	sg p
sanu	saa	nu		V	nud
olla	ole	a		V	da
kui	kui	0		D	
   	kui	0		J	
ühhe	üks	0		P	sg g
terra	####				
ristaga	####				
tehtu	tehtu	0		S	sg g
,	,			Z	
koolmeistri	kool_meister	0		S	sg g
pojad	poeg	d		S	pl n
     	poja	d		S	pl n
kesva	kesv	0		S	adt
sääl	seal	0		D	
pool	pool	0		N	sg n
niitnu	niit	nud		V	nud
,	,			Z	
siis	siis	0		J	
arvata	arva	ta		V	da
ta	tema	0		P	sg g
,	,			Z	
et	et	0		J	
need	see	d		P	pl n
sedda	see	da		P	sg p
vikkatiga	####				
teinud	tege	nud		V	nud
.	.			Z	
</s>					
<s>					
Temma	####				
karja	kari	0		S	sg g
pois	poi	s		S	sg in
Jakob	Jakob	0		H	sg n
Akkertaja	Akkertaja	0		H	sg n
piddanu	pida	nud		V	nud
sedda	see	da		P	sg p
teedma	####				
.	.			Z	
</s>					
<s>					
Ta	tema	0		P	sg n
sada	sada	0		N	sg n
kül	küll	0		D	
tervist	tervis	t		S	sg p
,	,			Z	
agga	aga	0		D	
rohhitsemine	####				
tulla	tule	a		V	da
üts	üks	0		N	sg n
   	üks	0		P	sg n
4	4	0		N	?
rubla	rubla	0		S	sg p
.	.			Z	
</s>					
<s>					
Kaevatav	Kaevatav	0		H	sg n
Jaan	Jaan	0		H	sg n
Ilves	Ilves	0		H	sg n
,	,			Z	
15	15	0		N	?
aastane	aastane	0		A	sg n
,	,			Z	
vabbandas	vabanda	s		V	s
,	,			Z	
et	et	0		J	
meije	meie	0		P	sg n
niitseme	####				
kesset	####				
kesva	kesv	0		S	adt
,	,			Z	
se	see	0		P	sg n
karja	kari	0		S	sg g
pois	poi	s		S	sg in
olle	ole	0		V	o
tõisel	teine	l		P	sg ad
pool	pool	0		K	
kravi	####				
,	,			Z	
ajas	aja	s		V	s
meijega	####				
jutto	####				
,	,			Z	
ellaja	####				
olliva	ole	va		V	sid
mulla	muld	0		S	sg g
     	mulla	0		S	sg g
pääl	peal	0		K	
,	,			Z	
es	ei	s		V	neg s
olle	ole	0		V	o
meije	meie	0		P	sg n
viljan	####				
,	,			Z	
nink	ning	0		J	
es	ei	s		V	neg s
voi	või	0		D	
meije	meie	0		P	sg n
ka	ka	0		D	
vikkatega	####				
neid	tema	d		P	pl p
raggoda	####				
.	.			Z	
</s>					
<s>					
Kaebaja	Kaebaja	0		H	sg n
karjapois	karja_poi	s		S	sg in
Jakob	Jakob	0		H	sg n
Akkerta	Akkerta	0		H	sg n
ütles	ütle	s		V	s
,	,			Z	
et	et	0		J	
minna	mine	a		V	da
lömist	####				
kül	küll	0		D	
essi	ise	0		P	sg n
es	ei	s		V	neg s
näe	näge	0		V	o
,	,			Z	
lehm	lehm	0		S	sg n
olli	ole	i		V	s
neide	neid	e		S	pl p
kesva	kesv	0		S	adt
otsan	otsa	n		V	n
kravin	####				
,	,			Z	
kost	kost	0		S	sg n
ta	tema	0		P	sg n
välja	välja	0		D	
tulli	tule	i		V	s
ja	ja	0		J	
olli	ole	i		V	s
verrine	####				
,	,			Z	
ta	tema	0		P	sg n
selleperrast	selle_pärast	0		D	
arvata	arva	ta		V	da
,	,			Z	
et	et	0		J	
nemma	tema	d		P	pl n
vikkatiga	####				
lönu	####				
.	.			Z	
</s>					
<s>					
Kaebaja	Kaebaja	0		H	sg n
Johan	Johan	0		H	sg n
arvas	arva	s		V	s
,	,			Z	
et	et	0		J	
koolmeistri	kool_meister	0		S	sg g
suremb	####				
poeg	poeg	0		S	sg n
,	,			Z	
mitte	mitte	0		D	
se	see	0		P	sg n
,	,			Z	
ehk	ehk	0		D	
koggemada	####				
sedda	see	da		P	sg p
teinud	tege	nud		V	nud
,	,			Z	
kes	kes	0		P	sg n
nüüd	nüüd	0		D	
siin	siin	0		D	
ei	ei	0		V	neg
olle	ole	0		V	o
.	.			Z	
</s>					
<s>					
Moisteti	####				
:	:			Z	
Et	et	0		J	
kaebajal	kaebaja	l		S	sg ad
parrembad	####				
tunnistust	tunnistus	t		S	sg p
otsi	ots	i		S	pl p
,	,			Z	
kes	kes	0		P	sg n
süidi	süit	0		S	sg g
,	,			Z	
kunna	kuna	0		J	
pälegi	####				
se	see	0		P	sg n
lehm	lehm	0		S	sg n
tervest	terve	st		A	sg el
sada	sada	0		N	sg n
.	.			Z	
</s>					
<s>					
Se	Se	0		Y	sg n
otsus	otsus	0		S	sg n
sai	saa	i		V	s
k.k	####				
.	.			Z	
</s>					
<s>					
kulutud	kulu	tud		V	tud
.	.			Z	
</s>					
