<s>					
Tüdruk	tüdruk	0		S	sg n
Kadri	Kadri	0		H	sg n
Sirgo	Sirgo	0		H	sg n
omma	oma	0		P	sg g
venna	vend	0		S	sg g
Jaan	Jaan	0		H	sg n
Sirgo	Sirgo	0		H	sg n
eestkostmissen	####				
kaibas	kaeba	s		V	s
et	et	0		J	
perremees	perre_mees	0		S	sg n
Juhkum	Juhkum	0		H	sg n
Suurmõts	Suurm	0		H	sg g
tedda	tema	0		P	sg p
ärra	ära	0		D	
eksiten	####				
,	,			Z	
kelle	kes	0		P	sg g
jure	juurde	0		D	
ta	tema	0		P	sg n
Jürripäival	Jürripäival	0		H	sg n
1874	1874	0		N	?
tenima	####				
näutsikust	####				
läind	####				
kui	kui	0		D	
   	kui	0		J	
ta	tema	0		P	sg n
1	1	0		N	?
1/2	1/2	0		N	?
aastat	aasta	t		S	sg p
sääl	seal	0		D	
teninu	####				
,	,			Z	
sanu	saa	nu		V	nud
temmal	tema	l		P	sg ad
</s>					
<s>					
5.	5.	0		O	?
</s>					
<s>					
Oktobril	####				
1875	1875	0		N	?
tüttar	####				
,	,			Z	
nüüd	nüüd	0		D	
nõuda	nõud	a		V	da
ta	tema	0		P	sg g
,	,			Z	
Juhkum	Juhkum	0		H	sg n
Suurmõtsa	Suurm	0		H	sg g
kui	kui	0		D	
   	kui	0		J	
essa	####				
käest	käsi	st		S	sg el
selle	see	0		P	sg g
latsele	####				
13	13	0		N	?
aastad	aasta	d		S	pl n
läbbi	läbi	0		D	
4	4	0		N	?
rubla	rubla	0		S	sg p
ku	####				
.	.			Z	
</s>					
<s>					
Kartohvli	####				
võtmisse	võtmine	se		S	adt
aiga	aeg	0		S	sg p
allustanu	####				
söbris	####				
Sept	Sept	0		Y	?
1874	1874	0		N	?
Kolmekunninga	####				
p	p	0		Y	?
.	.			Z	
Januaril	jaanuar	l		S	sg ad
s.a	s.a	0		Y	?
.	.			Z	
</s>					
<s>					
jään	jää	n		V	n
rassedast	####				
.	.			Z	
</s>					
<s>					
Kaevatav	Kaevatav	0		H	sg n
Juhkum	Juhkum	0		H	sg n
Suurmõts	Suurm	0		H	sg g
salgab	salga	b		V	b
,	,			Z	
et	et	0		J	
ta	tema	0		P	sg n
olla	ole	a		V	da
sest	see	st		P	sg el
tüdrukust	tüdruk	st		S	sg el
õige	õige	0		A	sg n
ja	ja	0		J	
middagi	miski	dagi		P	sg p
maksa	maks	0		S	sg p
ei	ei	0		V	neg
tahta	taht	a		V	da
,	,			Z	
mitte	mitte	0		D	
üts	üks	0		N	sg n
   	üks	0		P	sg n
verand	####				
andku	and	ku		V	gu
kaebaja	kaebaja	0		S	sg n
muid	muu	id		P	pl p
ülles	üles	0		D	
,	,			Z	
kedda	kes	da		P	sg p
ta	tema	0		P	sg n
teda	tema	da		P	sg p
,	,			Z	
mitte	mitte	0		D	
tedda	tema	0		P	sg p
.	.			Z	
</s>					
<s>					
Ta	tema	0		P	sg n
ei	ei	0		V	neg
teda	tema	da		P	sg p
ka	ka	0		D	
neid	see	d		P	pl p
kellega	kes	ga		P	sg kom
tal	tema	l		P	sg ad
teggemist	tegemine	t		S	sg p
olnu	ole	nud		V	nud
,	,			Z	
et	et	0		J	
ta	tema	0		P	sg n
tedda	tema	0		P	sg p
ei	ei	0		V	neg
vahtinu	vahti=nu	0		S	sg n
.	.			Z	
</s>					
<s>					
Johan	Johan	0		H	sg n
Jallak	Jallak	0		H	sg n
voida	või	da		V	vat
tunnistada	tunnista	da		V	da
.	.			Z	
</s>					
<s>					
Kaebaja	Kaebaja	0		H	sg n
Kadri	Kadri	0		H	sg n
Sirgo	Sirgo	0		H	sg n
tõendas	tõenda	s		V	s
,	,			Z	
et	et	0		J	
ta	tema	0		P	sg n
tõeste	tõene	te		A	pl g
selle	see	0		P	sg g
latse	lats	e		S	pl p
issa	####				
,	,			Z	
muid	muu	id		P	pl p
mitte	mitte	0		D	
üks	üks	0		N	sg n
   	üks	0		P	sg n
ei	ei	0		V	neg
olla	ole	a		V	da
tedda	tema	0		P	sg p
puttunu	####				
.	.			Z	
</s>					
<s>					
Sedda	see	da		P	sg p
neide	neid	e		S	pl p
sõprust	sõprus	t		S	sg p
pandnu	pane	nud		V	nud
tähhele	####				
popsi	pops	0		S	sg g
naine	naine	0		S	sg n
Marri	Marri	0		H	sg n
Kangro	Kangro	0		H	sg n
,	,			Z	
kes	kes	0		P	sg n
tunnistada	tunnista	da		V	da
voida	või	da		V	vat
nisamma	####				
kaevat	kae	vat		V	vat
.	.			Z	
</s>					
<s>					
emma	####				
ja	ja	0		J	
se	see	0		P	sg n
lats	lats	0		S	sg n
essi	ise	0		P	sg n
olla	ole	a		V	da
avvalik	####				
tunnistaja	tunnistaja	0		S	sg g
.	.			Z	
</s>					
<s>					
Moisteti	####				
:	:			Z	
Et	et	0		J	
27.	27.	0		O	?
Augustist	august	st		S	sg el
tun	tun			Y	
.	.			Z	
</s>					
<s>					
Marri	Marri	0		H	sg n
Kangro	Kangro	0		H	sg n
ette	ette	0		D	
kutsu	kutsu	0		V	o
kaebajale	kaebaja	le		S	sg all
ja	ja	0		J	
Johan	Johan	0		H	sg n
Jallak	Jallak	0		H	sg n
kaevatavale	kaeva=tav	le		A	sg all
.	.			Z	
</s>					
<s>					
Se	Se	0		Y	sg n
otsus	otsus	0		S	sg n
sai	saa	i		V	s
k.k	####				
.	.			Z	
</s>					
<s>					
kulutud	kulu	tud		V	tud
.	.			Z	
</s>					
