<s>					
Moisavallitsusse	Moisavallitsusse	sse		H	sg n
kaibusse	kai_buss	e		S	pl p
asjun	####				
,	,			Z	
et	et	0		J	
õlle	õlu	0		S	sg g
koast	####				
14	14	0		N	?
v	v	0		Y	?
.	.			Z	
ossa	osa	0		S	adt
rabba	raba	0		S	sg g
õlle	õlu	0		S	sg g
pois	poi	s		S	sg in
Peter	Peter	0		H	sg n
Reinmann	Reinmann	0		H	sg n
ärra	ära	0		D	
varrastada	varrasta	da		V	da
lasknu	lask	nud		V	nud
,	,			Z	
kes	kes	0		P	sg n
vabbandas	vabanda	s		V	s
et	et	0		J	
temma	tema	0		P	sg g
läinud	mine	nud		V	nud
maggama	maga	ma		V	ma
n	n	0		Y	?
.	.			Z	
taggan	taga	n		V	n
se	see	0		P	sg n
sündino	####				
.	.			Z	
</s>					
<s>					
Moisteti	####				
:	:			Z	
Et	et	0		J	
temal	tema	l		P	sg ad
moisale	mõis	le		S	sg all
ni	nii	0		D	
kui	kui	0		D	
   	kui	0		J	
jo	ju	0		D	
vallitseja	####				
leppinu	leppi=nu	0		S	sg g
3	3	0		N	?
rubla	rubla	0		S	sg g
kahjo	kahju	0		S	sg n
tassomist	####				
maksa	maks	0		S	sg g
ja	ja	0		J	
palluda	palu	da		V	vat
tenistuste	####				
jätta	jät	a		V	da
.	.			Z	
</s>					
<s>					
se	see	0		P	sg n
otsus	otsus	0		S	sg n
sai	saa	i		V	s
k.k	####				
.	.			Z	
</s>					
<s>					
kulutud	kulu	tud		V	tud
.	.			Z	
</s>					
<s>					
Kaevatav	Kaevatav	0		H	sg n
lubbas	luba	s		V	s
sedda	see	da		P	sg p
täita	täit	a		V	da
.	.			Z	
</s>					
