<s>					
Hendrik	Hendrik	0		H	sg n
Schultzi	Schultzi	0		H	sg n
kaibusse	kai_buss	e		S	pl p
asjan	####				
3	3	0		N	?
päiva	päev	0		S	sg g
nõudmisse	nõudmine	se		S	adt
perrast	pärast	0		K	
.	.			Z	
</s>					
<s>					
Moisteti	####				
:	:			Z	
Et	et	0		J	
Jaak	Jaak	0		H	sg n
Kielil	Kielil	l		H	sg n
veel	veel	0		D	
2	2	0		N	?
p	p	0		Y	?
.	.			Z	
</s>					
<s>					
14	14	0		N	?
päiva	päev	0		S	sg g
sissen	####				
kaebajale	kaebaja	le		S	sg all
hobbese	hobune	0		S	sg g
eest	eest	0		K	
tehha	####				
.	.			Z	
</s>					
<s>					
Se	Se	0		Y	sg n
otsus	otsus	0		S	sg n
sai	saa	i		V	s
k.k	####				
.	.			Z	
</s>					
<s>					
kulutud	kulu	tud		V	tud
.	.			Z	
</s>					
