<s>					
Mäksavallitsus	####				
hr	hr	0		Y	?
.	.			Z	
</s>					
<s>					
Th	Th	0		Y	sg n
.	.			Z	
</s>					
<s>					
Kussmanoff	####				
et	et	0		J	
Talloperremees	####				
Traksilt	traks	lt		S	sg abl
Johan	Johan	0		H	sg n
Konsa	Konsa	0		H	sg n
moisale	mõis	le		S	sg all
veel	veel	0		D	
84	84	0		N	?
rbl	rbl	0		Y	
renti	rent	0		S	sg p
võlgo	võlg	u		S	pl p
,	,			Z	
kelleperrast	####				
arvata	arva	ta		V	da
et	et	0		J	
ta	tema	0		P	sg n
sedda	see	da		P	sg p
tallo	talu	sse		S	sg ill
eddespiddi	####				
ennamb	####				
piddada	pida	da		V	da
ei	ei	0		V	neg
tahha	####				
ehk	ehk	0		J	
ei	ei	0		V	neg
jõua	jõud	0		V	o
.	.			Z	
</s>					
<s>					
Kaibaja	####				
nõuda	nõud	a		V	da
sedda	see	da		P	sg p
võlg	võlg	0		S	sg n
renti	rent	0		S	sg p
temma	tema	0		P	sg g
käest	käest	0		K	
välja	välja	0		D	
nõuda	nõud	a		V	da
nink	ning	0		J	
temma	tema	0		P	sg g
käest	käest	0		K	
küssida	####				
,	,			Z	
kas	kas	0		D	
temmast	tema	st		P	sg el
veel	veel	0		D	
selle	see	0		P	sg g
tallo	talu	sse		S	sg ill
piddajat	pidaja	t		S	sg p
saab	saa	b		V	b
.	.			Z	
</s>					
<s>					
Võlgnik	võlgnik	0		S	sg n
Johan	Johan	0		H	sg n
Konsa	Konsa	0		H	sg n
vastutas	vastuta	s		V	s
küssimisse	küsimine	0		S	sg g
päle	peale	0		D	
,	,			Z	
et	et	0		J	
ta	tema	0		P	sg n
tahta	taht	a		V	da
se	see	0		P	sg n
rent	rent	0		S	sg n
24.	24.	0		O	?
Detsembrini	detsember	ni		S	sg ter
s.a	s.a	0		Y	?
.	.			Z	
</s>					
<s>					
ärra	ära	0		D	
maksa	maks	0		V	o
,	,			Z	
ent	ent	0		J	
sedda	see	da		P	sg p
tallo	talu	sse		S	sg ill
tahta	taht	a		V	da
ta	tema	0		P	sg n
kül	küll	0		D	
Jürripäiv	Jürripäiv	0		H	sg n
1877	1877	0		N	?
ärra	ära	0		D	
anda	and	a		V	da
,	,			Z	
kedda	kes	da		P	sg p
ta	tema	0		P	sg n
piddada	pida	da		V	da
ei	ei	0		V	neg
jõuda	jõud	a		V	da
.	.			Z	
</s>					
<s>					
Moisteti	####				
:	:			Z	
Et	et	0		J	
võlgniku	võlgnik	0		S	sg g
Johann	Johan	0		H	sg g
Konsal	Konsa	l		H	sg ad
sest	sest	0		J	
võllast	võllas	t		S	sg p
ossast	osa	st		S	sg el
,	,			Z	
se	see	0		P	sg n
on	ole	0		V	b
  	ole	0		V	vad
40	40	0		N	?
rubla	rubla	0		S	sg p
pühhadest	####				
ja	ja	0		J	
viimne	viimne	0		A	sg n
ossa	osa	0		S	adt
jälle	jälle	0		D	
14	14	0		N	?
Januarini	####				
1877	1877	0		N	?
ärra	ära	0		D	
maksa	maks	0		V	o
ja	ja	0		J	
se	see	0		P	sg n
tallo	talu	sse		S	sg ill
omma	oma	0		P	sg g
sovimisse	####				
järrele	####				
ni	nii	0		D	
kui	kui	0		D	
   	kui	0		J	
kontrakt	####				
kässeb	####				
moisale	mõis	le		S	sg all
käest	käsi	st		S	sg el
ärra	ära	0		D	
anda	and	a		V	da
on	ole	0		V	b
  	ole	0		V	vad
.	.			Z	
</s>					
<s>					
Se	Se	0		Y	sg n
otsus	otsus	0		S	sg n
sai	saa	i		V	s
k.k	####				
.	.			Z	
</s>					
<s>					
tänna	tänna	0		D	
sel	see	l		P	sg ad
3.	3.	0		O	?
Detsembril	detsember	l		S	sg ad
s.a	s.a	0		Y	?
.	.			Z	
</s>					
<s>					
kulutud	kulu	tud		V	tud
1860	1860	0		N	?
a.t.r.s.r	####				
.§.§.	§.§	0		Y	?
</s>					
<s>					
772	772	0		N	?
ja	ja	0		J	
773	773	0		N	?
järrele	####				
,	,			Z	
Johan	Johan	0		H	sg n
Konsa	Konsa	0		H	sg n
kui	kui	0		D	
   	kui	0		J	
ka	ka	0		D	
moisavallitsus	####				
jäi	jää	i		V	s
sellega	see	ga		P	sg kom
rahhule	####				
.	.			Z	
</s>					
