<s>					
Vannavallavannemb	####				
Johann	Johan	0		H	sg g
Verrev	Verrev	0		H	sg n
ja	ja	0		J	
vastne	vastne	0		A	sg n
vannemb	####				
Karl	Karl	0		H	sg n
Serre	Serre	0		H	sg n
nõudsiva	####				
Kusta	Kusta	0		H	sg n
Karl	Karl	0		H	sg n
Praakli	Praakli	0		H	sg n
käest	käsi	st		S	sg el
minneva	mineva	0		A	sg n
aasta	aasta	0		S	sg g
valla	vald	0		S	sg g
ladist	####				
laenatu	laena=tu	0		S	sg g
50	50	0		N	?
rbl	rbl	0		Y	
ärra	ära	0		D	
maksa	maks	0		V	o
.	.			Z	
</s>					
<s>					
Võlgnik	võlgnik	0		S	sg n
Karl	Karl	0		H	sg n
Prakle	Prakle	0		H	sg n
lubbas	luba	s		V	s
Detsembri	Detsembri	0		H	sg n
kuus	kuus	0		N	sg n
s.a	s.a	0		Y	?
.	.			Z	
</s>					
<s>					
1/2	1/2	0		N	?
se	see	0		P	sg n
on	ole	0		V	b
  	ole	0		V	vad
25	25	0		N	?
rubla	rubla	0		S	sg p
ja	ja	0		J	
päle	peale	0		D	
pühhi	####				
Januari	####				
kuus	kuu	s		S	sg in
1877	1877	0		N	?
toine	####				
1/2	1/2	0		N	?
-	-			Z	
25	25	0		N	?
rubla	rubla	0		S	sg p
.	.			Z	
</s>					
<s>					
Moisteti	####				
:	:			Z	
Et	et	0		J	
Võlgniku	võlgnik	0		S	sg g
Karl	Karl	0		H	sg n
Praklil	Prakle	l		H	sg ad
se	see	0		P	sg n
lubbaminne	####				
täita	täit	a		V	da
nimmetud	nimme=tu	d		A	pl n
terminil	termin	l		S	sg ad
.	.			Z	
</s>					
<s>					
Se	Se	0		Y	sg n
otsus	otsus	0		S	sg n
sai	saa	i		V	s
k.k	####				
.	.			Z	
</s>					
<s>					
kulutud	kulu	tud		V	tud
.	.			Z	
</s>					
