<s>					
Poisi	poiss	0		S	sg g
Peter	Peter	0		H	sg n
Rätseppa	Rätseppa	0		H	sg n
kaebusse	kaebus	se		S	adt
asjan	####				
Jaan	Jaan	0		H	sg n
Sali	Sali	0		H	sg n
vasta	vasta	0		V	o
et	et	0		J	
ta	tema	0		P	sg n
tedda	tema	0		P	sg p
tenistussest	####				
4	4	0		N	?
näddale	####				
eest	eest	0		K	
ärra	ära	0		D	
ajanu	aja	nud		V	nud
.	.			Z	
</s>					
<s>					
Moisteti	####				
:	:			Z	
Et	et	0		J	
Jaan	Jaan	0		H	sg n
Salel	Salel	0		H	sg n
se	see	0		P	sg n
pois	poi	s		S	sg in
jälle	jälle	0		D	
tenistuste	####				
võtta	võt	a		V	da
,	,			Z	
n	n	0		Y	?
.	.			Z	
muretseda	muretse	da		V	da
,	,			Z	
et	et	0		J	
essete	####				
Kavastuhe	####				
õigel	õige	l		A	sg ad
ajal	aeg	l		S	sg ad
,	,			Z	
enne	enne	0		D	
pühhi	####				
selle	see	0		P	sg g
massut	####				
ärra	ära	0		D	
massetus	####				
saab	saa	b		V	b
ja	ja	0		J	
poisil	poiss	l		S	sg ad
illuste	####				
kaubeldu	kaubel=du	0		S	sg g
palga	palk	0		S	sg g
eest	eest	0		K	
tenida	####				
.	.			Z	
</s>					
<s>					
Se	Se	0		Y	sg n
otsus	otsus	0		S	sg n
sai	saa	i		V	s
kulutud	kulu	tud		V	tud
.	.			Z	
</s>					
<s>					
Jäiva	####				
rahhule	####				
.	.			Z	
</s>					
