<s>					
Moisast	####				
lambapoisid	lamba_poiss	d		S	pl n
tulliva	tull_iva	0		S	sg g
tappelusse	tapp_elu	sse		S	sg ill
perrast	pärast	0		K	
ette	ette	0		D	
,	,			Z	
nimmel	nimme	l		S	sg ad
Karl	Karl	0		H	sg n
Rattasep	Rattasep	0		H	sg n
kaibas	kaeba	s		V	s
et	et	0		J	
Jaan	Jaan	0		H	sg n
Sirge	Sirge	0		H	sg n
olla	ole	a		V	da
tedda	tema	0		P	sg p
loga	loga	0		D	
küüdsega	####				
päha	####				
,	,			Z	
ni	nii	0		D	
et	et	0		J	
ta	tema	0		P	sg n
3	3	0		N	?
päiva	päev	0		S	sg g
haige	haige	0		S	sg n
olnu	ole	nud		V	nud
ja	ja	0		J	
veel	veel	0		D	
praegu	praegu	0		D	
pä	####				
vallutab	valluta	b		V	b
.	.			Z	
</s>					
<s>					
Selle	see	0		P	sg g
eest	eest	0		K	
ta	tema	0		P	sg g
lönu	####				
,	,			Z	
et	et	0		J	
ta	tema	0		P	sg n
omma	oma	0		P	sg g
väist	väi	st		S	sg el
ärra	ära	0		D	
küssinu	####				
.	.			Z	
</s>					
<s>					
Johan	Johan	0		H	sg n
Sõru	Sõru	0		H	sg n
olla	ole	a		V	da
tunnistaja	tunnistaja	0		S	sg g
.	.			Z	
</s>					
<s>					
Kaevatav	Kaevatav	0		H	sg n
Jaan	Jaan	0		H	sg n
Sirge	Sirge	0		H	sg n
ütles	ütle	s		V	s
,	,			Z	
minna	mine	a		V	da
es	ei	s		V	neg s
lö	####				
tedda	tema	0		P	sg p
enne	enne	0		D	
kui	kui	0		D	
   	kui	0		J	
ta	tema	0		P	sg g
minno	####				
korvast	####				
kinni	kinni	0		D	
võttis	võt	is		V	s
ja	ja	0		J	
sõimas	sõima	s		V	s
minno	####				
väitsevargas	väitse_varas	s		S	sg in
,	,			Z	
tõmmas	####				
minno	####				
pä	####				
henne	####				
üska	üsk	0		S	adt
n	n	0		Y	?
.	.			Z	
ütles	ütle	s		V	s
,	,			Z	
nüüd	nüüd	0		D	
minna	mine	a		V	da
moistan	####				
sulle	sina	lle		P	sg all
kohhut	####				
.	.			Z	
</s>					
<s>					
Look	look	0		S	sg n
olli	ole	i		V	s
posti	post	0		S	sg g
taggan	taga	n		V	n
,	,			Z	
siis	siis	0		J	
kinnitasin	kinnita	sin		V	sin
ühhe	üks	0		P	sg g
käega	käsi	ga		S	sg kom
loga	loga	0		D	
n	n	0		Y	?
.	.			Z	
tahtsin	taht	sin		V	sin
tedda	tema	0		P	sg p
lüja	####				
nink	ning	0		J	
es	ei	s		V	neg s
näe	näge	0		V	o
kohhes	####				
läts	####				
,	,			Z	
selle	see	0		P	sg g
et	et	0		J	
pä	####				
olli	ole	i		V	s
temma	tema	0		P	sg g
üssan	####				
.	.			Z	
</s>					
<s>					
Väist	väi	st		S	sg el
ta	tema	0		P	sg g
minno	####				
kätte	käsi	tte		S	adt
sukkugi	####				
es	ei	s		V	neg s
anna	and	0		V	o
,	,			Z	
selle	see	0		P	sg g
perrast	pärast	0		K	
minna	mine	a		V	da
väist	väi	st		S	sg el
es	ei	s		V	neg s
voi	või	0		D	
talle	tema	lle		P	sg all
anda	and	a		V	da
,	,			Z	
kost	kost	0		S	sg n
se	see	0		P	sg n
tülli	tülli	0		D	
tulli	tule	i		V	s
:	:			Z	
look	look	0		S	sg n
läts	####				
posti	post	0		S	adt
vasta	vasta	0		V	o
,	,			Z	
mitte	mitte	0		D	
temmale	tema	le		P	sg all
.	.			Z	
</s>					
<s>					
Tun	Tun	0		H	sg n
.	.			Z	
</s>					
<s>					
Johan	Johan	0		H	sg n
Sõru	Sõru	0		H	sg n
tunnistas	tunnista	s		V	s
,	,			Z	
et	et	0		J	
minna	mine	a		V	da
kässin	käsk	sin		V	sin
neil	tema	l		P	pl ad
hennist	####				
praga	praga	0		V	o
välja	välja	0		D	
võtta	võt	a		V	da
,	,			Z	
kelle	kes	0		P	sg g
man	man	0		K	
nemma	tema	d		P	pl n
taplema	taple	ma		V	ma
lätsiva	lätsi=v	0		A	sg g
,	,			Z	
Karl	Karl	0		H	sg n
Rattasepal	Rattasep	l		H	sg ad
olli	ole	i		V	s
2	2	0		N	?
käega	käsi	ga		S	sg kom
Jaan	Jaan	0		H	sg n
Sirge	Sirge	0		H	sg n
hiusist	####				
kinni	kinni	0		D	
voetu	voe=tu	0		A	sg n
,	,			Z	
Jaan	Jaan	0		H	sg n
Sirge	Sirge	0		H	sg n
tännitas	####				
:	:			Z	
kas	kas	0		D	
sa	sina	0		P	sg n
lasset	####				
lahti	lahti	0		D	
,	,			Z	
Jaan	Jaan	0		H	sg n
Sirge	Sirge	0		H	sg n
kinnitas	kinnita	s		V	s
ühhe	üks	0		P	sg g
käega	käsi	ga		S	sg kom
loga	loga	0		D	
nink	ning	0		J	
tahtis	taht	is		V	s
lüja	####				
look	look	0		S	sg n
läks	mine	s		V	s
posti	post	0		S	adt
vasta	vasta	0		V	o
nink	ning	0		J	
satte	####				
käest	käsi	st		S	sg el
mahha	maha	0		D	
,	,			Z	
nink	ning	0		J	
es	ei	s		V	neg s
näe	näge	0		V	o
kas	kas	0		D	
poisile	poiss	le		S	sg all
külge	külge	0		D	
puttus	####				
ehk	ehk	0		J	
mitte	mitte	0		D	
.	.			Z	
</s>					
<s>					
Karl	Karl	0		H	sg n
Rattasep	Rattasep	0		H	sg n
läts	####				
selle	see	0		P	sg g
päle	peale	0		D	
kontorihe	####				
vallitsejal	####				
kaibama	####				
.	.			Z	
</s>					
<s>					
Minnole	####				
ta	tema	0		P	sg n
es	ei	s		V	neg s
näita	näita	0		V	o
ta	tema	0		P	sg n
kas	kas	0		D	
ta	tema	0		P	sg g
haiged	haige	d		S	pl n
sanu	saa	nu		V	nud
ehk	ehk	0		D	
mitte	mitte	0		D	
,	,			Z	
ennege	####				
3	3	0		N	?
päiva	päev	0		S	sg p
es	ei	s		V	neg s
tulle	tuli	0		S	adt
ta	tema	0		P	sg g
töho	####				
.	.			Z	
</s>					
<s>					
Minneva	####				
neljapäiv	nelja_päev	0		S	sg n
olli	ole	i		V	s
tappelus	tapp_elu	s		S	sg in
.	.			Z	
</s>					
<s>					
Väitsest	väits	st		S	sg el
minna	mine	a		V	da
ei	ei	0		V	neg
tija	tead	0		V	o
.	.			Z	
</s>					
<s>					
Moisavallitsus	Moisavallitsus	0		H	sg n
hr	hr	0		Y	?
.	.			Z	
</s>					
<s>					
Th	Th	0		Y	sg n
.	.			Z	
</s>					
<s>					
Kussmanoffi	####				
järrele	####				
ei	ei	0		V	neg
olla	ole	a		V	da
kevvadist	####				
kaebaja	kaebaja	0		S	sg g
Karl	Karl	0		H	sg n
Rattaseppa	Rattasep	0		H	sg g
ülle	ülle	0		D	
kaebtust	####				
olnu	ole	nud		V	nud
,	,			Z	
enge	####				
Jaan	Jaan	0		H	sg n
Sirge	Sirge	0		H	sg n
pea	pida	0		V	o
igga	iga	0		P	sg n
ösel	öösel	0		D	
ümbre	####				
hulguta	hulku	ta		V	ta
,	,			Z	
kõrtside	kõrts	de		S	pl g
man	man	0		K	
tappelda	####				
ja	ja	0		J	
jooda	joot	0		V	o
õllut	####				
-	-			Z	
tun	tun			Y	
.	.			Z	
</s>					
<s>					
Johan	Johan	0		H	sg n
Sõru	Sõru	0		H	sg n
kui	kui	0		D	
   	kui	0		J	
vannemb	####				
pois	poi	s		S	sg in
hoita	hoid	ta		V	ta
Jaan	Jaan	0		H	sg n
Sirge	Sirge	0		H	sg n
pole	ole	0		V	neg o
,	,			Z	
et	et	0		J	
ta	tema	0		P	sg n
temmale	tema	le		P	sg all
õllut	####				
anda	and	a		V	da
kunna	kuna	0		J	
essa	####				
olle	ole	0		V	o
prule	####				
:	:			Z	
Ka	ka	0		D	
ei	ei	0		D	
olla	ole	a		V	da
ta	tema	0		P	sg g
vallitsussele	####				
middagi	miski	dagi		P	sg p
sest	sest	0		J	
tappelusest	####				
teda	tema	da		P	sg p
andnu	and=nu	0		S	sg n
,	,			Z	
n	n	0		Y	?
.	.			Z	
omma	oma	0		P	sg g
lubbaga	luba	ga		S	sg kom
innimisse	####				
poisi	poiss	0		S	sg g
assamele	####				
kaubelnu	kauple	nud		V	nud
.	.			Z	
</s>					
<s>					
Moisteti	####				
:	:			Z	
1.	1.	0		O	?
</s>					
<s>					
Et	et	0		J	
kaevatav	kaeva=tav	0		A	sg n
Jaan	Jaan	0		H	sg n
Sirge	Sirge	0		H	sg n
suremb	####				
süidlane	süüdlane	0		S	sg n
-	-			Z	
kunna	kuna	0		J	
ta	tema	0		P	sg n
väitse	väits	0		S	sg g
võtnu	võt	nud		V	nud
nink	ning	0		J	
ärra	ära	0		D	
salgas	salk	s		S	sg in
ja	ja	0		J	
sest	sest	0		J	
tülli	tüli	0		S	adt
     	tüll	0		S	adt
tulli	tule	i		V	s
ja	ja	0		J	
temma	tema	0		P	sg g
ülle	ülle	0		D	
jo	ju	0		D	
enne	enne	0		K	
kaebust	kaebus	t		S	sg p
olnu	ole	nud		V	nud
on	ole	0		V	b
  	ole	0		V	vad
temmal	tema	l		P	sg ad
15	15	0		N	?
vitsa	vits	0		S	sg p
löki	####				
võtta	võt	a		V	da
ehk	ehk	0		D	
3	3	0		N	?
rbl	rbl	0		Y	
trahvi	trahv	0		S	sg g
maksa	maks	0		S	sg p
.	.			Z	
</s>					
<s>					
2.	2.	0		O	?
</s>					
<s>					
Et	et	0		J	
kaebaja	kaebaja	0		S	sg n
Karl	Karl	0		H	sg n
Rattaseppal	Rattasep	l		H	sg ad
ka	ka	0		D	
1	1	0		N	?
rubla	rubla	0		S	sg p
trahvi	trahv	0		S	sg g
maksa	maks	0		S	sg g
ehk	ehk	0		J	
5	5	0		N	?
vitsa	vits	0		S	adt
löki	####				
võtta	võt	a		V	da
,	,			Z	
et	et	0		J	
ta	tema	0		P	sg n
ka	ka	0		D	
tülli	tüli	0		S	adt
     	tüll	0		S	adt
läinud	mine	nud		V	nud
voib	või	b		V	b
olla	ole	a		V	da
.	.			Z	
</s>					
<s>					
3.	3.	0		O	?
</s>					
<s>					
Et	et	0		J	
vannemba	####				
poisi	poiss	0		S	sg g
Jaan	Jaan	0		H	sg n
Sõrul	Sõru	l		H	sg ad
selle	see	0		P	sg g
eest	eest	0		K	
et	et	0		J	
ta	tema	0		P	sg n
ülle	ülle	0		D	
tõiste	####				
lasseb	####				
poistel	poiss	tel		S	pl ad
taplema	taple	ma		V	ma
minna	mine	a		V	da
ja	ja	0		J	
pälegi	####				
se	see	0		P	sg n
asja	asi	0		S	sg g
vallitseja	####				
ees	ees	0		K	
salgusses	####				
piddanu	pida	nud		V	nud
,	,			Z	
on	ole	0		V	b
  	ole	0		V	vad
tal	tema	l		P	sg ad
1	1	0		N	?
rbl	rbl	0		Y	
trahvi	trahv	0		S	sg g
maksa	maks	0		S	sg p
Se	Se	0		Y	sg n
otsus	otsus	0		S	sg n
sai	saa	i		V	s
kohto	kohus	0		S	sg g
käijile	####				
kulutud	kulu	tud		V	tud
.	.			Z	
</s>					
<s>					
Nemma	####				
lubbasid	luba	sid		V	sid
kiik	kiik	0		S	sg n
tulleva	####				
redist	redis	t		S	sg p
rahha	raha	0		S	sg p
maksa	maks	0		V	o
.	.			Z	
</s>					
<s>					
3	3	0		N	?
Decbr	####				
76	76	0		N	?
masnu	maks	nud		V	nud
lati	latt	0		S	sg g
:	:			Z	
Johan	Johan	0		H	sg n
Sõru	Sõru	0		H	sg n
1	1	0		N	?
rbl	rbl	0		Y	
,	,			Z	
Jaan	Jaan	0		H	sg n
Sirge	Sirge	0		H	sg n
3	3	0		N	?
rbl	rbl	0		Y	
,	,			Z	
Karl	Karl	0		H	sg n
Rattasep	Rattasep	0		H	sg n
1	1	0		N	?
rbl	rbl	0		Y	
.	.			Z	
</s>					
