<s>					
Jürri	Jürri	0		H	sg n
Konnimus	####				
Tartust	Tartu	st		H	sg el
nõuab	nõud	b		V	b
Kusta	Kusta	0		H	sg n
Karli	Karl	0		H	sg g
Praakli	Praakli	0		H	sg n
omma	oma	0		P	sg g
rahha	raha	0		S	sg p
16	16	0		N	?
rbl	rbl	0		Y	
,	,			Z	
mis	mis	0		P	sg n
ta	tema	0		P	sg n
1873	1873	0		N	?
rendi	rent	0		S	sg g
maksa	maks	0		S	sg g
lainanu	####				
,	,			Z	
lubbanu	luba	nud		V	nud
1874	1874	0		N	?
aastal	aasta	l		S	sg ad
10	10	0		N	?
protsentiga	protsent_iga	0		S	sg p
ärra	ära	0		D	
massa	maks	0		S	adt
agga	aga	0		D	
sedda	see	da		P	sg p
vimast	####				
ossa	osa	0		S	adt
ei	ei	0		V	neg
olla	ole	a		V	da
ta	tema	0		P	sg n
veel	veel	0		D	
16	16	0		N	?
rbl	rbl	0		Y	
tännine	####				
ärra	ära	0		D	
maksnu	maks	nud		V	nud
.	.			Z	
</s>					
<s>					
Ta	tema	0		P	sg n
palluda	palu	da		V	vat
ärra	ära	0		D	
nõuda	nõud	a		V	da
.	.			Z	
</s>					
<s>					
Võlgnik	võlgnik	0		S	sg n
Karl	Karl	0		H	sg n
Prakel	Prakel	0		H	sg n
lubbas	luba	s		V	s
hommen	homme	0		D	
päivi	####				
sest	sest	0		J	
16	16	0		N	?
rublast	rubla	st		S	sg el
10	10	0		N	?
rubla	rubla	0		S	sg p
ärra	ära	0		D	
maksa	maks	0		V	o
-	-			Z	
se	see	0		P	sg n
viimne	viimne	0		A	sg n
6	6	0		N	?
rubla	rubla	0		S	sg p
ei	ei	0		V	neg
jouda	####				
ta	tema	0		P	sg g
nüüd	nüüd	0		D	
.	.			Z	
</s>					
<s>					
Moisteti	####				
:	:			Z	
Et	et	0		J	
Võlgniku	võlgnik	0		S	sg g
Karl	Karl	0		H	sg n
Praklil	Prakle	l		H	sg ad
tänna	tänna	0		D	
3	3	0		N	?
näddale	####				
eest	eest	0		K	
3.	3.	0		O	?
</s>					
<s>					
Detsembrin	####				
s.a	s.a	0		Y	?
.	.			Z	
</s>					
<s>					
ärra	ära	0		D	
maksa	maks	0		V	o
.	.			Z	
</s>					
<s>					
Se	Se	0		Y	sg n
otsus	otsus	0		S	sg n
sai	saa	i		V	s
k	k	0		Y	?
.	.			Z	
käijile	####				
kulutud	kulu	tud		V	tud
.	.			Z	
</s>					
