<s>					
Hans	Hans	0		H	sg n
Pärn	Pärn	0		H	sg n
annab	and	b		V	b
ülesse	ülesse	0		D	
,	,			Z	
et	et	0		J	
olla	ole	a		V	da
Hano	####				
talu	talu	0		S	sg g
rentnik	rentnik	0		S	sg n
Mart	Mart	0		H	sg n
Hanseni	Hans	0		H	sg g
käest	käsi	st		S	sg el
võlgraha	võlg_raha	0		S	sg n
3	3	0		N	?
rubla	rubla	0		S	sg g
60	60	0		N	?
kop	kop	0		Y	?
saada	saa	da		V	da
ja	ja	0		J	
tahab	taht	b		V	b
neid	tema	d		P	pl p
nüüd	nüüd	0		D	
kätte	käsi	tte		S	adt
.	.			Z	
</s>					
<s>					
Mart	Mart	0		H	sg n
Hansen	Hans	0		H	sg g
kostab	kost	b		V	b
selle	see	0		P	sg g
kaebuse	kaebus	0		S	sg g
peale	peale	0		K	
,	,			Z	
et	et	0		J	
olla	ole	a		V	da
selle	see	0		P	sg g
Hans	Hans	0		H	sg n
Pärnale	Pärn	le		H	sg all
3	3	0		N	?
rubla	rubla	0		S	sg p
60	60	0		N	?
kop	kop	0		Y	?
maksta	maks	ta		V	da
ja	ja	0		J	
lubab	luba	b		V	b
see	see	0		P	sg n
raha	raha	0		S	sg n
ühe	üks	0		N	sg g
   	üks	0		P	sg g
nädala	nädal	0		S	sg g
pärast	pärast	0		K	
ära	ära	0		D	
maksta	maks	ta		V	da
.	.			Z	
</s>					
<s>					
Hans	Hans	0		H	sg n
Pärn	Pärn	0		H	sg n
on	ole	0		V	b
  	ole	0		V	vad
sellega	see	ga		P	sg kom
rahu	rahu	0		S	sg n
.	.			Z	
</s>					
<s>					
Otsus	otsus	0		S	sg n
Seda	see	da		P	sg p
ühendust	ühendus	t		S	sg p
niikui	####				
sündinud	sündi	nud		V	nud
protokolli	protokoll	0		S	sg g
üles	üles	0		D	
võtta	võt	a		V	da
.	.			Z	
</s>					
