<s>					
Jüri	Jüri	0		H	sg n
Amor	Amor	0		H	sg n
Suuremardi	suure_mart	0		S	sg g
talu	talu	0		S	sg g
peremees	pere_mees	0		S	sg n
annab	and	b		V	b
ülesse	ülesse	0		D	
,	,			Z	
sepp	sepp	0		S	sg n
Ludvig	Ludvig	0		H	sg n
Tuuter	Tuuter	0		H	sg n
1882	1882	0		N	?
aastal	aasta	l		S	sg ad
olla	ole	a		V	da
2	2	0		N	?
kuud	kuu	d		S	sg p
korteris	korter	s		S	sg in
olnud	ole	nud		V	nud
ja	ja	0		J	
tema	tema	0		P	sg g
käest	käest	0		K	
süüa	söö	a		V	da
saanud	saa	nud		V	nud
ning	ning	0		J	
olla	ole	a		V	da
selle	see	0		P	sg g
üle	üle	0		K	
leppinud	leppi	nud		V	nud
,	,			Z	
et	et	0		J	
Ludvig	Ludvig	0		H	sg n
Tuuter	Tuuter	0		H	sg n
temale	tema	le		P	sg all
selle	see	0		P	sg g
korteri	korter	0		S	sg g
ja	ja	0		J	
söögi	söök	0		S	sg g
eest	eest	0		K	
ülepea	üle_pea	0		D	
5	5	0		N	?
rubla	rubla	0		S	sg p
maksta	maks	ta		V	da
pidanud	pida	nud		V	nud
ja	ja	0		J	
lubanud	luba	nud		V	nud
ning	ning	0		J	
nõuab	nõud	b		V	b
siis	siis	0		D	
see	see	0		P	sg n
raha	raha	0		S	sg n
5	5	0		N	?
rubla	rubla	0		S	sg p
hõbedat	hõbe	t		S	sg p
.	.			Z	
</s>					
<s>					
Ludvig	Ludvig	0		H	sg n
Tuuter	Tuuter	0		H	sg n
sepp	sepp	0		S	sg n
kostab	kost	b		V	b
kaebuse	kaebus	0		S	sg g
peale	peale	0		K	
,	,			Z	
et	et	0		J	
temal	tema	l		P	sg ad
olla	ole	a		V	da
5	5	0		N	?
rubla	rubla	0		S	sg p
hõb	hõb			Y	
Jüri	Jüri	0		H	sg n
Amorile	Amor	le		H	sg all
söögi	söök	0		S	sg g
eest	eest	0		K	
maksta	maks	ta		V	da
,	,			Z	
aga	aga	0		J	
olla	ole	a		V	da
selle	see	0		P	sg g
käest	käsi	st		S	sg el
sepa	sepa	0		H	sg n
töö	töö	0		S	sg g
eest	eest	0		K	
saada	saa	da		V	da
niikuinii	nii_kui_nii	0		D	
:	:			Z	
</s>					
<s>					
1.	1.	0		O	?
kaks	kaks	0		N	sg n
korda	kord	0		S	sg p
hobuseid	hobune	id		S	pl p
rautanud	rauta	nud		V	nud
selle	see	0		P	sg g
eest	eest	0		K	
70	70	0		N	?
kop	kop	0		Y	?
</s>					
<s>					
2.	2.	0		O	?
kangasjalad	kangas_jalg	d		S	pl n
parandanud	paranda	nud		V	nud
50	50	0		N	?
kop	kop	0		Y	?
</s>					
<s>					
3.	3.	0		O	?
üks	üks	0		N	sg n
   	üks	0		P	sg n
võti	võti	0		S	sg n
tehtud	tege	tud		V	tud
selle	see	0		P	sg g
eest	eest	0		K	
25	25	0		N	?
kop	kop	0		Y	?
</s>					
<s>					
4.	4.	0		O	?
linnupuu	linnu_puu	0		S	sg g
rautanud	rauta	nud		V	nud
25	25	0		N	?
kop	kop	0		Y	?
</s>					
<s>					
5.	5.	0		O	?
kapsaraud	kapsa_raud	0		S	sg n
tehtud	tege	tud		V	tud
25	25	0		N	?
kop	kop	0		Y	?
</s>					
<s>					
6.	6.	0		O	?
üks	üks	0		N	sg n
   	üks	0		P	sg n
päev	päev	0		S	sg n
tuulamas	tuula	mas		V	mas
olnud	ole	nud		V	nud
50	50	0		N	?
kop	kop	0		Y	?
</s>					
<s>					
7.	7.	0		O	?
üks	üks	0		N	sg n
   	üks	0		P	sg n
päev	päev	0		S	sg n
heinamaal	heina_maa	l		S	sg ad
olnud	ole	nud		V	nud
50	50	0		N	?
kop	kop	0		Y	?
</s>					
<s>					
8.	8.	0		O	?
kaerapange	kaera_pang	0		S	adt
rautanud	rauta	nud		V	nud
50	50	0		N	?
kop	kop	0		Y	?
</s>					
<s>					
9.	9.	0		O	?
kirveid	kirves	id		S	pl p
ja	ja	0		J	
nuge	nuga	e		S	pl p
teinud	tege	nud		V	nud
1	1	0		N	?
rubla	rubla	0		S	sg p
20	20	0		N	?
kop	kop	0		Y	?
10.	10.	0		O	?
vankri	vanker	0		S	sg g
paranduse	parandus	0		S	sg g
eest	eest	0		K	
2	2	0		N	?
rubla	rubla	0		S	sg p
</s>					
<s>					
11.	11.	0		O	?
uksehinged	ukse_hing	d		S	pl n
teinud	tege	nud		V	nud
30	30	0		N	?
kop	kop	0		Y	?
</s>					
<s>					
12.	12.	0		O	?
atrasid	ader	sid		S	pl p
parandanud	paranda	nud		V	nud
1	1	0		N	?
rubla	rubla	0		S	sg p
30	30	0		N	?
kop	kop	0		Y	?
</s>					
<s>					
13.	13.	0		O	?
tangisid	tangid	sid		S	pl p
teinud	tege	nud		V	nud
30	30	0		N	?
kop	kop	0		Y	?
</s>					
<s>					
14.	14.	0		O	?
peitleid	peitel	id		S	pl p
teinud	tege	nud		V	nud
15	15	0		N	?
kop	kop	0		Y	?
</s>					
<s>					
Summa	summa	0		S	sg n
8	8	0		N	?
rubla	rubla	0		S	sg g
70	70	0		N	?
kop	kop	0		Y	?
</s>					
<s>					
Jüri	Jüri	0		H	sg n
Amor	Amor	0		H	sg n
kostab	kost	b		V	b
selle	see	0		P	sg g
Ludvig	Ludvig	0		H	sg n
Tuuteri	Tuuter	0		H	sg g
ülesandmise	üles_andmine	0		S	sg g
peale	peale	0		K	
,	,			Z	
et	et	0		J	
temale	tema	le		P	sg all
ei	ei	0		V	neg
ole	ole	0		V	o
Ludvig	Ludvig	0		H	sg n
Tuuter	Tuuter	0		H	sg n
muud	muu	d		P	sg p
kedagi	keegi	dagi		P	sg p
teinud	tege	nud		V	nud
kui	kui	0		D	
   	kui	0		J	
ad	####				
.	.			Z	
</s>					
<s>					
2.	2.	0		O	?
kangajalad	kanga_jalg	d		S	pl n
parandanud	paranda	nud		V	nud
;	;			Z	
ad	####				
.	.			Z	
</s>					
<s>					
7	7	0		N	?
üks	üks	0		N	sg n
   	üks	0		P	sg n
päev	päev	0		S	sg n
heinamaal	heina_maa	l		S	sg ad
,	,			Z	
kelle	kes	0		P	sg g
vastu	vastu	0		K	
poeg	poeg	0		S	sg n
on	ole	0		V	b
  	ole	0		V	vad
hobusega	hobune	ga		S	sg kom
sepa	sepa	0		H	sg n
L.	L.	0		Y	sg n
Tuuteri	Tuuter	0		H	sg g
pojale	poeg	le		S	sg all
      	poja	le		S	sg all
savi	savi	0		S	sg p
vedanud	veda	nud		V	nud
;	;			Z	
ad	####				
8.	8.	0		O	?
kaerapange	kaera_pang	0		S	adt
on	ole	0		V	b
  	ole	0		V	vad
parandanud	paranda	nud		V	nud
,	,			Z	
mis	mis	0		P	sg n
võtab	võt	b		V	b
omaks	oma	ks		A	sg tr
.	.			Z	
</s>					
<s>					
Kohtumõistus	kohtu_mõistus	0		S	sg n
:	:			Z	
Ludvig	Ludvig	0		H	sg n
Tuuter	Tuuter	0		H	sg n
maksab	maks	b		V	b
söögiraha	söögi_raha	0		S	sg g
leppimise	leppimine	0		S	sg g
järele	järele	0		K	
Jüri	Jüri	0		H	sg n
Amorile	Amor	le		H	sg all
5	5	0		N	?
rubla	rubla	0		S	sg p
hõb	hõb			Y	
8	8	0		N	?
päeva	päev	0		S	sg g
sees	sees	0		K	
ja	ja	0		J	
J.	J.	0		Y	sg n
Amor	Amor	0		H	sg n
maksab	maks	b		V	b
sepa	sepa	0		H	sg n
Ludvig	Ludvig	0		H	sg n
Tuuterile	Tuuter	le		H	sg all
tööpalka	töö_palk	0		S	sg p
1	1	0		N	?
rubla	rubla	0		S	sg p
50	50	0		N	?
kop	kop	0		Y	?
,	,			Z	
mis	mis	0		P	sg n
tema	tema	0		P	sg g
lubab	luba	b		V	b
,	,			Z	
see	see	0		P	sg n
on	ole	0		V	b
  	ole	0		V	vad
ad	####				
.	.			Z	
</s>					
<s>					
2,7,8.	2,7,8.	0		N	?
</s>					
<s>					
Otsus	otsus	0		S	sg n
kuulutatud	kuuluta	tud		V	tud
kohtualustele	kohtu_alune	tele		S	pl all
seaduseraamatu	seaduse_raamat	0		S	sg g
§§	§§	0		Y	?
772	772	0		N	?
,	,			Z	
773	773	0		N	?
juhatusel	juhatus	l		S	sg ad
,	,			Z	
kellega	kes	ga		P	sg kom
Ludvig	Ludvig	0		H	sg n
Tuuter	Tuuter	0		H	sg n
rahu	rahu	0		S	sg p
ei	ei	0		V	neg
ole	ole	0		V	o
ja	ja	0		J	
temale	tema	le		P	sg all
kohe	kohe	0		D	
õppusekiri	õppuse_kiri	0		S	sg n
sai	saa	i		V	s
välja	välja	0		D	
antud	and	tud		V	tud
.	.			Z	
</s>					
