<s>					
Mart	Mart	0		H	sg n
Rõigas	Rõigas	0		H	sg n
poboli	####				
mees	mees	0		S	sg n
annab	and	b		V	b
kaebust	kaebus	t		S	sg p
Lõppeküla	lõppe_küla	0		S	sg g
Tõnno	####				
talu	talu	0		S	sg g
peremehe	pere_mees	0		S	sg g
Hans	Hans	0		H	sg n
Voormanni	Voormann	0		H	sg g
peale	peale	0		K	
,	,			Z	
selle	see	0		P	sg g
lehmad	lehm	d		S	pl n
alla	alla	0		D	
tema	tema	0		P	sg g
odra	oder	0		S	sg g
aunade	aun	de		S	pl g
kallal	kallal	0		K	
löönud	löö	nud		V	nud
,	,			Z	
mis	mis	0		P	sg n
läbi	läbi	0		K	
tema	tema	0		P	sg g
kahju	kahi	0		S	sg g
     	kahju	0		S	sg g
saanud	saa	nud		V	nud
ja	ja	0		J	
palub	palu	b		V	b
,	,			Z	
et	et	0		J	
kohus	kohus	0		S	sg n
see	see	0		P	sg n
tema	tema	0		P	sg g
kahju	kahi	0		S	sg g
     	kahju	0		S	sg g
asi	asi	0		S	sg n
seletab	seleta	b		V	b
,	,			Z	
seda	see	da		P	sg p
kurja	kuri	0		S	sg p
olla	ole	a		V	da
vallavöörmünder	valla_vöörmünder	0		S	sg n
Karel	Karel	0		H	sg n
Malm	Malm	0		H	sg n
üle	üle	0		D	
vaadanud	vaata	nud		V	nud
.	.			Z	
</s>					
<s>					
Otsus	otsus	0		S	sg n
See	see	0		P	sg n
asi	asi	0		S	sg n
lähemast	lähem	st		C	sg el
kohtupäevani	kohtu_päev	ni		S	sg ter
pooleli	pooleli	0		D	
jätta	jät	a		V	da
,	,			Z	
et	et	0		J	
Hans	Hans	0		H	sg n
Voormann	Voormann	0		H	sg n
ette	ette	0		D	
ei	ei	0		V	neg
ole	ole	0		V	o
tulnud	tule	nud		V	nud
.	.			Z	
</s>					
