<s>					
Peale	peale	0		K	
selle	see	0		P	sg g
kui	kui	0		D	
   	kui	0		J	
kuulutused	kuulutus	d		S	pl n
kirikusambas	kiriku_samba	s		S	sg in
            	kiriku_sammas	s		S	sg in
on	ole	0		V	b
  	ole	0		V	vad
seisnud	seis	nud		V	nud
sai	saa	i		V	s
tänasel	tänane	l		A	sg ad
päeval	päev	l		S	sg ad
kaks	kaks	0		N	sg n
heinakuhja	heina_kuhi	0		S	adt
kõrgema	kõrgem	0		C	sg g
hinna	hind	0		S	sg g
pakkujale	pakkuja	le		S	sg all
välja	välja	0		D	
müüdud	müü	dud		V	tud
ja	ja	0		J	
nimelt	nimelt	0		D	
:	:			Z	
</s>					
<s>					
1.	1.	0		O	?
</s>					
<s>					
Tõnu	Tõnu	0		H	sg n
Reinelleri	Reinelleri	0		H	sg n
heinakuhi	heina_kuhi	0		S	sg n
,	,			Z	
mis	mis	0		P	sg n
Sakkussaare	sakk_uss_aare	0		S	sg n
Mart	Mart	0		H	sg n
Brunn	Brunn	0		H	sg n
maa	maa	0		S	sg g
peal	peal	0		K	
seisab	seis	b		V	b
sai	saa	i		V	s
Tõnu	Tõnu	0		H	sg n
Reinelleri	Reinelleri	0		H	sg n
vana	vana	0		A	sg g
pearahavõla	pea_raha_võlg	0		S	sg g
ette	ette	0		K	
välja	välja	0		D	
müüdud	müü	dud		V	tud
ja	ja	0		J	
ostis	ost	is		V	s
Hindrik	Hindrik	0		H	sg n
Paigaline	Paigaline	0		H	sg n
7.	7.	0		O	?
rubla	rubla	0		S	sg g
hõb	hõb			Y	
eest	eest	0		K	
.	.			Z	
</s>					
<s>					
2.	2.	0		O	?
</s>					
<s>					
Juhan	Juhan	0		H	sg n
Aunpu	Aunpu	0		H	sg n
heinakuhi	heina_kuhi	0		S	sg n
,	,			Z	
mis	mis	0		P	sg n
Morra	Morra	0		H	sg n
umbsoo	umb_soo	0		S	sg g
peal	peal	0		K	
,	,			Z	
sai	saa	i		V	s
tema	tema	0		P	sg g
pearaha	pea_raha	0		S	sg g
võla	võlg	0		S	sg g
ette	ette	0		K	
välja	välja	0		D	
müüdud	müü	dud		V	tud
ja	ja	0		J	
ostis	ost	is		V	s
Jaan	Jaan	0		H	sg n
Voimann	Voimann	0		H	sg n
7	7	0		N	?
rubla	rubla	0		S	sg g
40	40	0		N	?
kop	kop	0		Y	?
eest	eest	0		K	
.	.			Z	
</s>					
<s>					
Otsus	otsus	0		S	sg n
See	see	0		P	sg n
sisse	sisse	0		D	
tulnud	tule	nud		V	nud
raha	raha	0		S	sg p
nende	see	de		P	pl g
pearaha	pea_raha	0		S	sg g
võla	võlg	0		S	sg g
ette	ette	0		D	
kirjutada	kirjuta	da		V	da
ja	ja	0		J	
nimelt	nimelt	0		D	
:	:			Z	
</s>					
<s>					
1.	1.	0		O	?
</s>					
<s>					
Tõnu	Tõnu	0		H	sg n
Reinelleri	Reinelleri	0		H	sg n
pearaha	pea_raha	0		S	sg g
ette	ette	0		K	
7	7	0		N	?
rubla	rubla	0		S	sg p
hõb	hõb			Y	
</s>					
<s>					
2.	2.	0		O	?
</s>					
<s>					
Juhan	Juhan	0		H	sg n
Aunpu	Aunpu	0		H	sg n
pearaha	pea_raha	0		S	sg g
ette	ette	0		K	
7	7	0		N	?
rubla	rubla	0		S	sg p
40	40	0		N	?
kop	kop	0		Y	?
hõb	hõb			Y	
</s>					
