<s>					
Protokolli	protokoll	0		S	sg g
nr	nr	0		Y	?
17	17	0		N	?
pooleli	pooleli	0		D	
jäänud	jää	nud		V	nud
asjus	asi	us		S	pl in
astus	astu	s		V	s
Jüri	Jüri	0		H	sg n
Kulli	Kull	0		H	sg g
ette	ette	0		K	
ja	ja	0		J	
andis	and	is		V	s
oma	oma	0		P	sg g
tunnistuse	tunnistus	0		S	sg g
kirja	kiri	0		S	sg g
ette	ette	0		K	
,	,			Z	
kelle	kes	0		P	sg g
peal	peal	0		K	
seisab	seis	b		V	b
sõna	sõna	0		S	sg n
sõnalt	sõna	lt		S	sg abl
:	:			Z	
Hiermit	Hiermit	0		H	sg n
bescheinige	####				
,	,			Z	
dass	####				
ich	####				
Herrn	Herrn	0		H	sg n
Kull	Kull	0		H	sg n
meinen	####				
Dampt-Kessel	Dampt-Kessel	0		H	sg n
und	und	0		S	sg n
Maschine	####				
verkauft	####				
habe	habe	0		S	sg n
zu	####				
6	6	0		N	?
Pferde	Pferde	0		H	sg n
Kraft	Kraft	0		H	sg n
für	####				
(	(			Z	
600	600	0		N	?
)	)			Z	
sechshundert	####				
Robel	####				
(	(			Z	
400	400	0		N	?
)	)			Z	
vierhundert	####				
vird	vird	0		S	sg n
bezahlt	####				
,	,			Z	
(	(			Z	
200	200	0		N	?
)	)			Z	
zveihundert	####				
bleibt	####				
auf	####				
ein	####				
Jahr	Jahr	0		H	sg n
schuldig	####				
.	.			Z	
</s>					
<s>					
Selle	see	0		P	sg g
tunnistuse	tunnistus	0		S	sg g
küljest	küljest	0		K	
on	ole	0		V	b
  	ole	0		V	vad
alumine	alumine	0		A	sg n
pool	pool	0		S	sg n
ära	ära	0		D	
,	,			Z	
kus	kus	0		D	
kinnitus	kinnitus	0		S	sg n
ja	ja	0		J	
käekirjad	käe_kiri	d		S	pl n
seisavad	seis	vad		V	vad
.	.			Z	
</s>					
<s>					
Otsus	otsus	0		S	sg n
:	:			Z	
seda	see	da		P	sg p
nii	nii	0		D	
kui	kui	0		D	
   	kui	0		J	
sündinud	sündi	nud		V	nud
üles	üles	0		D	
võtta	võt	a		V	da
ja	ja	0		J	
kaebaja	kaebaja	0		S	sg n
Gustav	Gustav	0		H	sg n
Freybergile	Freyberg	le		H	sg all
selle	see	0		P	sg g
üle	üle	0		K	
teatust	teatud	st		A	sg el
anda	and	a		V	da
,	,			Z	
mis	mis	0		P	sg n
siiasaadik	siia_saadik	0		D	
kohtu	kohus	0		S	sg g
eestseletatud	eest_seleta=tu	d		S	pl n
on	ole	0		V	b
  	ole	0		V	vad
,	,			Z	
niisama	nii_sama	0		D	
ka	ka	0		D	
advokaat	advokaat	0		S	sg n
v	v	0		Y	?
.	.			Z	
Bungele	####				
ja	ja	0		J	
Gustav	Gustav	0		H	sg n
Freyberg	Freyberg	0		H	sg n
oma	oma	0		P	sg g
tunnistuste	tunnistus	te		S	pl g
ja	ja	0		J	
võlavekslitega	võla_veksel	tega		S	pl kom
kohtu	kohus	0		S	sg g
ette	ette	0		K	
kutsuda	kutsu	da		V	da
.	.			Z	
</s>					
