<s>					
Mihel	Mihel	0		H	sg n
Beckmann	Beckmann	0		H	sg n
Vaiatu	vaia=tu	0		S	sg g
kõrtsmik	kõrtsmik	0		S	sg n
annab	and	b		V	b
ülesse	ülesse	0		D	
,	,			Z	
et	et	0		J	
temal	tema	l		P	sg ad
siit	siit	0		D	
valla	valla	0		H	sg n
alamal	alam	l		S	sg ad
nimetatud	nimeta	tud		V	tud
inimeste	inimene	te		S	pl g
käest	käest	0		K	
raha	raha	0		S	sg p
nõuda	nõud	a		V	da
on	ole	0		V	b
  	ole	0		V	vad
,	,			Z	
mis	mis	0		P	sg n
need	see	d		P	pl n
tema	tema	0		P	sg g
käest	käest	0		K	
kõrtsist	kõrts	st		S	sg el
ja	ja	0		J	
poodist	####				
on	ole	0		V	b
  	ole	0		V	vad
võlgu	võlgu	0		D	
võtnud	võt	nud		V	nud
,	,			Z	
need	see	d		P	pl n
on	ole	0		V	b
  	ole	0		V	vad
tal	tema	l		P	sg ad
saada	saa	da		V	da
:	:			Z	
</s>					
<s>					
1.	1.	0		O	?
</s>					
<s>					
Jaan	Jaan	0		H	sg n
Asperi	Asper	0		H	sg g
käest	käsi	st		S	sg el
on	ole	0		V	b
  	ole	0		V	vad
saada	saa	da		V	da
9	9	0		N	?
rubla	rubla	0		S	sg p
69	69	0		N	?
kop	kop	0		Y	?
</s>					
<s>					
2.	2.	0		O	?
</s>					
<s>					
Jüri	Jüri	0		H	sg n
Leiteni	Leiten	0		H	sg g
käest	käsi	st		S	sg el
4	4	0		N	?
rubla	rubla	0		S	sg p
</s>					
<s>					
3.	3.	0		O	?
</s>					
<s>					
Mart	Mart	0		H	sg n
Tärni	Tärn	0		H	sg g
käest	käsi	st		S	sg el
7	7	0		N	?
rubla	rubla	0		S	sg p
30	30	0		N	?
kop	kop	0		Y	?
</s>					
<s>					
4.	4.	0		O	?
</s>					
<s>					
Jüri	Jüri	0		H	sg n
Aunpu	Aunpu	0		H	sg n
käest	käsi	st		S	sg el
3	3	0		N	?
rubla	rubla	0		S	sg p
palub	palu	b		V	b
siis	siis	0		D	
kohtu	kohus	0		S	sg g
abil	abil	0		K	
need	see	d		P	pl n
võlad	võlg	d		S	pl n
sisse	sisse	0		D	
nõuda	nõud	a		V	da
.	.			Z	
</s>					
<s>					
Jüri	Jüri	0		H	sg n
Aunpu	Aunpu	0		H	sg n
sai	saa	i		V	s
ette	ette	0		D	
kutsutud	kutsu	tud		V	tud
,	,			Z	
kes	kes	0		P	sg n
kostab	kost	b		V	b
,	,			Z	
et	et	0		J	
temal	tema	l		P	sg ad
mitte	mitte	0		D	
Mihel	Mihel	0		H	sg n
Beckmannile	Beckmanni	le		H	sg all
3	3	0		N	?
rubla	rubla	0		S	sg p
hõb	hõb			Y	
maksta	maks	ta		V	da
ei	ei	0		V	neg
olla	ole	a		V	da
,	,			Z	
vaid	vaid	0		D	
aga	aga	0		J	
paljalt	paljalt	0		D	
1	1	0		N	?
rubla	rubla	0		S	sg p
hõb	hõb			Y	
.	.			Z	
</s>					
<s>					
Mihel	Mihel	0		H	sg n
Beckmann	Beckmann	0		H	sg n
annab	and	b		V	b
selle	see	0		P	sg g
üle	üle	0		K	
kohtumehe	kohtu_mees	0		S	sg g
Jüri	Jüri	0		H	sg n
Aunpu	Aunpu	0		H	sg n
tunnistuseks	tunnistus	ks		S	sg tr
üles	üles	0		D	
,	,			Z	
kes	kes	0		P	sg n
seal	seal	0		D	
juures	juures	0		K	
olnud	ole	nud		V	nud
,	,			Z	
kui	kui	0		D	
   	kui	0		J	
3	3	0		N	?
rubla	rubla	0		S	sg p
hõb	hõb			Y	
Jüri	Jüri	0		H	sg n
Aunpul	Aunpu	l		H	sg ad
temale	tema	le		P	sg all
võlga	võlg	0		S	sg p
jäänud	jää	nud		V	nud
.	.			Z	
</s>					
<s>					
Otsus	otsus	0		S	sg n
:	:			Z	
See	see	0		P	sg n
asi	asi	0		S	sg n
pooleli	pooleli	0		D	
jätta	jät	a		V	da
,	,			Z	
et	et	0		J	
tunnistus	tunnistus	0		S	sg n
puudub	puudu	b		V	b
ja	ja	0		J	
teised	teine	d		O	pl n
      	teine	d		P	pl n
võlgnikud	võlgnik	d		S	pl n
Jaan	Jaan	0		H	sg n
Asper	Asper	0		H	sg n
,	,			Z	
Jüri	Jüri	0		H	sg n
Leiten	Leiten	0		H	sg n
ja	ja	0		J	
Mart	Mart	0		H	sg n
Tärn	Tärn	0		H	sg n
välja	välja	0		D	
on	ole	0		V	b
  	ole	0		V	vad
jäänud	jää	nud		V	nud
.	.			Z	
</s>					
