<s>					
Protokollist	protokoll	st		S	sg el
nr	nr	0		Y	?
23	23	0		N	?
pooleli	pooleli	0		D	
jäänud	jää	nud		V	nud
asjus	asi	us		S	pl in
said	saa	id		V	sid
kaebaja	kaebaja	0		S	sg n
Gustav	Gustav	0		H	sg n
Freyberg	Freyberg	0		H	sg n
Tallinnast	Tallinn	st		H	sg el
ja	ja	0		J	
kaebatu	kaeva	tud		V	tud
Jüri	Jüri	0		H	sg n
Kull	Kull	0		H	sg n
Laiuselt	Laiuse	t		H	sg p
ette	ette	0		D	
kutsutud	kutsu	tud		V	tud
ja	ja	0		J	
Gustav	Gustav	0		H	sg n
Freyberg	Freyberg	0		H	sg n
näitas	näita	s		V	s
selle	see	0		P	sg g
aurukatla	auru_katel	0		S	sg g
kauba	kaup	0		S	sg g
üle	üle	0		K	
tunnistuse	tunnistus	0		S	sg g
ette	ette	0		K	
,	,			Z	
mis	mis	0		P	sg n
sõna	sõna	0		S	sg n
sõnalt	sõna	lt		S	sg abl
on	ole	0		V	b
  	ole	0		V	vad
:	:			Z	
bescheinige	####				
hiermit	####				
,	,			Z	
dass	####				
ich	####				
Herrn	Herrn	0		H	sg n
Kull	Kull	0		H	sg n
meiner	####				
Dampf-Kessel	Dampf	l		H	sg ad
und	uni	0		S	sg p
die	####				
Maschine	####				
verkauft	####				
habe	habe	0		S	sg n
,	,			Z	
zu	####				
6	6	0		N	?
Pferdekraft	####				
für	####				
(	(			Z	
600	600	0		N	?
rubla	rubla	0		S	sg p
)	)			Z	
sechshundert	####				
Rubla	rubla	0		S	sg n
(	(			Z	
400	400	0		N	?
)	)			Z	
vierhundert	####				
verden	####				
ausgezahlt	####				
(	(			Z	
200	200	0		N	?
)	)			Z	
bleibt	####				
auf	####				
ein	####				
Jahr	Jahr	0		H	sg n
schuldig	####				
.	.			Z	
</s>					
<s>					
Habe	habe	0		S	sg n
gemacht	####				
,	,			Z	
dass	####				
der	####				
Dampf	Dampf	0		H	sg n
Kessel	Kessel	0		H	sg n
und	und	0		S	sg n
die	####				
Maschine	####				
heil	####				
ist	ist	0		S	sg n
und	und	0		S	sg n
mit	####				
45	45	0		N	?
lb	####				
dampt	####				
gearbeitet	####				
hat	####				
,	,			Z	
der	####				
Käufer	Käufer	0		H	sg n
selbst	####				
als	####				
Zeuge	####				
gewesen	####				
und	und	0		S	sg n
mit	####				
solchen	####				
Bedingungen	Bedingungen	0		H	sg n
empfangen	####				
.	.			Z	
</s>					
<s>					
Ampel	ampel	0		S	sg n
d	d	0		Y	?
.	.			Z	
13	13	0		N	?
Juni	####				
1884.	1884.	0		O	?
</s>					
<s>					
Niisama	nii_sama	0		D	
näitas	näita	s		V	s
Gustav	Gustav	0		H	sg n
Freyberg	Freyberg	0		H	sg n
sooloveksel	soolo_veksel	0		S	sg n
ette	ette	0		D	
,	,			Z	
kus	kus	0		D	
Jüri	Jüri	0		H	sg n
Kull	Kull	0		H	sg n
olla	ole	a		V	da
kirjutanud	kirjuta	nud		V	nud
13.	13.	0		O	?
juunil	juuni	l		S	sg ad
1884	1884	0		N	?
,	,			Z	
et	et	0		J	
temal	tema	l		P	sg ad
200	200	0		N	?
rubla	rubla	0		S	sg p
G.	G.	0		Y	sg n
Freybergile	Freyberg	le		H	sg all
võlgu	võlgu	0		D	
on	ole	0		V	b
  	ole	0		V	vad
,	,			Z	
ja	ja	0		J	
maksmise	maksmine	0		S	sg g
termin	termin	0		S	sg n
13.	13.	0		O	?
juuni	juuni	0		S	sg g
1885	1885	0		N	?
kinnitatud	kinnita	tud		V	tud
.	.			Z	
</s>					
<s>					
Gustav	Gustav	0		H	sg n
Freyberg	Freyberg	0		H	sg n
nõuab	nõud	b		V	b
siis	siis	0		D	
Jüri	Jüri	0		H	sg n
Kulli	Kull	0		H	sg g
käest	käsi	st		S	sg el
see	see	0		P	sg n
võlg	võlg	0		S	sg n
200	200	0		N	?
rubla	rubla	0		S	sg p
ja	ja	0		J	
selle	see	0		P	sg g
intress	intress	0		S	sg n
sellest	see	st		P	sg el
päevast	päev	st		S	sg el
saadik	saadik	0		K	
,	,			Z	
kui	kui	0		D	
   	kui	0		J	
aeg	aeg	0		S	sg n
mööda	mööda	0		K	
,	,			Z	
see	see	0		P	sg n
on	ole	0		V	b
  	ole	0		V	vad
13.	13.	0		O	?
juunist	juuni	st		S	sg el
1885	1885	0		N	?
-	-			Z	
6	6	0		N	?
%,	%	0		Y	?
ja	ja	0		J	
selle	see	0		P	sg g
võla	võlg	0		S	sg g
võlaveksli	võla_veksel	0		S	sg g
Prokosterimine	####				
,	,			Z	
mis	mis	0		P	sg n
Tartus	Tartu	s		H	sg in
notariuse	####				
juures	juures	0		K	
11.	11.	0		O	?
rubla	rubla	0		S	sg p
61	61	0		N	?
kop	kop	0		Y	?
;	;			Z	
advokaadi	advokaat	0		S	sg g
kulu	kulu	0		S	sg n
20	20	0		N	?
rubla	rubla	0		S	sg p
üks	üks	0		N	sg n
   	üks	0		P	sg n
kord	kord	0		S	sg n
Tallinnast	Tallinn	st		H	sg el
Laiuse	Laiuse	0		H	sg n
Jüri	Jüri	0		H	sg n
Kulli	Kull	0		H	sg g
juures	juures	0		K	
käinud	käi	nud		V	nud
seda	see	da		P	sg p
raha	raha	0		S	sg p
nõudmas	nõud	mas		V	mas
kulu	kulu	0		S	sg p
10	10	0		N	?
rubla	rubla	0		S	sg p
;	;			Z	
ja	ja	0		J	
nüüd	nüüd	0		D	
täna	täna	0		D	
siin	siin	0		D	
kohtu	kohus	0		S	sg g
juurde	juurde	0		K	
teine	teine	0		O	sg n
     	teine	0		P	sg n
sõit	sõit	0		S	sg n
Tallinnast	Tallinn	st		H	sg el
10	10	0		N	?
rubla	rubla	0		S	sg p
ja	ja	0		J	
nõudmine	nõudmine	0		S	sg n
oleks	ole	ks		V	ks
üle	üle	0		D	
pea	pea	0		S	sg g
251	251	0		N	?
rubla	rubla	0		S	sg g
61	61	0		N	?
kop	kop	0		Y	?
.	.			Z	
</s>					
<s>					
Jüri	Jüri	0		H	sg n
Kull	Kull	0		H	sg n
kostab	kost	b		V	b
selle	see	0		P	sg g
G.	G.	0		Y	sg n
Freybergi	Freyberg	0		H	sg g
kaebuse	kaebus	0		S	sg g
peale	peale	0		K	
,	,			Z	
et	et	0		J	
tema	tema	0		P	sg n
seda	see	da		P	sg p
massinat	####				
(	(			Z	
auruketelt	####				
)	)			Z	
G.	G.	0		Y	sg n
Freybergi	Freyberg	0		H	sg g
käest	käsi	st		S	sg el
selle	see	0		P	sg g
tingimisega	tingimine	ga		S	sg kom
ostnud	ost	nud		V	nud
,	,			Z	
et	et	0		J	
pidanud	pida	nud		V	nud
kaks	kaks	0		N	sg n
kivi	kivi	0		S	sg p
ümber	ümber	0		D	
vedama	veda	ma		V	ma
,	,			Z	
aga	aga	0		J	
see	see	0		P	sg n
ei	ei	0		V	neg
olema	ole	ma		V	ma
mitte	mitte	0		D	
ühtegi	üks	0	gi	N	sg p
      	üks	0	gi	P	sg p
kivi	kivi	0		S	sg p
ümber	ümber	0		D	
vedanud	veda	nud		V	nud
,	,			Z	
ütleb	ütle	b		V	b
ka	ka	0		D	
,	,			Z	
et	et	0		J	
tema	tema	0		P	sg g
selle	see	0		P	sg g
tunnistusele	tunnistus	le		S	sg all
(	(			Z	
kaubatähele	kauba_täht	le		S	sg all
)	)			Z	
oma	oma	0		P	sg g
käega	käsi	ga		S	sg kom
alla	alla	0		D	
kirjutanud	kirjuta	nud		V	nud
.	.			Z	
</s>					
<s>					
Kohtumõistus	kohtu_mõistus	0		S	sg n
:	:			Z	
Jüri	Jüri	0		H	sg n
Kull	Kull	0		H	sg n
,	,			Z	
kes	kes	0		P	sg n
ise	ise	0		P	sg n
seda	see	da		P	sg p
tunnistab	tunnista	b		V	b
,	,			Z	
et	et	0		J	
temal	tema	l		P	sg ad
200	200	0		N	?
rubla	rubla	0		S	sg p
aurukatla	auru_katel	0		S	sg g
ja	ja	0		J	
massina	mass	na		S	sg es
eest	eest	0		K	
Gustav	Gustav	0		H	sg n
Freybergile	Freyberg	le		H	sg all
võlgu	võlgu	0		D	
on	ole	0		V	b
  	ole	0		V	vad
,	,			Z	
maksab	maks	b		V	b
siis	siis	0		D	
see	see	0		P	sg n
raha	raha	0		S	sg n
200	200	0		N	?
rubla	rubla	0		S	sg p
ühes	ühes	0		K	
6	6	0		N	?
%	%	0		Y	?
protsendid	protsent	d		S	pl n
arvatud	arva	tud		V	tud
13.	13.	0		O	?
juunist	juuni	st		S	sg el
1885	1885	0		N	?
kuni	kuni	0		K	
maksmise	maksmine	0		S	sg g
päevani	päev	ni		S	sg ter
ja	ja	0		J	
6	6	0		N	?
rubla	rubla	0		S	sg p
hõb	hõb			Y	
tänase	tänane	0		A	sg g
sõidu	sõit	0		S	sg g
eest	eest	0		K	
Tallinnast	Tallinn	st		H	sg el
siia	siia	0		D	
kohtu	kohus	0		S	sg g
juurde	juurde	0		K	
,	,			Z	
see	see	0		P	sg n
on	ole	0		V	b
  	ole	0		V	vad
4	4	0		N	?
rubla	rubla	0		S	sg p
raudtee	raud_tee	0		S	sg g
peal	peal	0		K	
pileti	pilet	0		S	sg g
raha	raha	0		S	sg p
ja	ja	0		J	
Jõgeva	Jõgeva	0		H	sg n
raudteejaamast	raud_tee_jaam	st		S	sg el
siia	siia	0		D	
ja	ja	0		J	
siit	siit	0		D	
tagasi	tagasi	0		D	
voorimehe	voori_mees	0		S	sg g
raha	raha	0		S	sg p
2	2	0		N	?
rubla	rubla	0		S	sg p
Gustav	Gustav	0		H	sg n
Freybergile	Freyberg	le		H	sg all
8	8	0		N	?
päeva	päev	0		S	sg g
sees	sees	0		K	
välja	välja	0		D	
,	,			Z	
kõik	kõik	0		P	sg n
teised	teine	d		O	pl n
      	teine	d		P	pl n
nõudmised	nõudmine	d		S	pl n
saavad	saa	vad		V	vad
tühjaks	tühi	ks		A	sg tr
arvatud	arva	tud		V	tud
.	.			Z	
</s>					
<s>					
Otsus	otsus	0		S	sg n
kuulutatud	kuuluta	tud		V	tud
kohtualustele	kohtu_alune	tele		S	pl all
talurahva	talu_rahvas	0		S	sg g
seaduseraamatu	seaduse_raamat	0		S	sg g
§§	§§	0		Y	?
772	772	0		N	?
,	,			Z	
773	773	0		N	?
juhatusel	juhatus	l		S	sg ad
,	,			Z	
kellega	kes	ga		P	sg kom
kumbki	kumbki	0		P	sg n
kohtualune	kohtu_alune	0		S	sg n
rahu	rahu	0		S	sg p
ei	ei	0		V	neg
ole	ole	0		V	o
ja	ja	0		J	
neile	tema	le		P	pl all
kohe	kohe	0		D	
õppuse	õppus	0		S	sg g
kirjad	kiri	d		S	pl n
resp	resp	0		Y	?
.	.			Z	
</s>					
<s>					
apellatsioonikirjad	apellatsiooni_kiri	d		S	pl n
välja	välja	0		D	
said	saa	id		V	sid
antud	and	tud		V	tud
.	.			Z	
</s>					
<s>					
Istumine	istumine	0		S	sg n
lõppes	lõppe	s		V	s
kell	kell	0		S	sg n
1	1	0		N	?
lõuna	lõuna	0		S	sg g
ajal	ajal	0		K	
.	.			Z	
</s>					
<s>					
Märkus	Märkus	0		H	sg n
Gustav	Gustav	0		H	sg n
Freyberg	Freyberg	0		H	sg n
võttis	võt	is		V	s
4	4	0		N	?
nov	nov	0		Y	?
.	.			Z	
</s>					
<s>					
s.a	s.a	0		Y	?
.	.			Z	
</s>					
<s>					
apellatsiooni	apellatsioon	0		S	sg g
välja	välja	0		D	
.	.			Z	
</s>					
<s>					
Jüri	Jüri	0		H	sg n
Kull	Kull	0		H	sg n
võttis	võt	is		V	s
9	9	0		N	?
nov	nov	0		Y	?
.	.			Z	
</s>					
<s>					
apellatsiooni	apellatsioon	0		S	sg g
välja	välja	0		D	
.	.			Z	
</s>					
