<s>					
Mart	Mart	0		H	sg n
Pirn	Pirn	0		H	sg n
Reino	Reino	0		H	sg n
talu	talu	0		S	sg g
peremees	pere_mees	0		S	sg n
annab	and	b		V	b
ülesse	ülesse	0		D	
,	,			Z	
et	et	0		J	
temal	tema	l		P	sg ad
kimmel	kimmel	0		S	sg n
ruun	ruun	0		S	sg n
hobune	hobune	0		S	sg n
hind	hind	0		S	sg n
30	30	0		N	?
rubla	rubla	0		S	sg p
hõb	hõb			Y	
ööse	öös	e		S	pl p
1/2	1/2	0		N	?
sept	sept	0		Y	?
.	.			Z	
</s>					
<s>					
s.a	s.a	0		Y	?
.	.			Z	
</s>					
<s>					
ära	ära	0		D	
varastatud	varasta	tud		V	tud
ja	ja	0		J	
arvab	arva	b		V	b
seda	see	da		P	sg p
vargust	vargus	t		S	sg p
Mart	Mart	0		H	sg n
Leiteni	Leiten	0		H	sg g
peale	peale	0		K	
,	,			Z	
kes	kes	0		P	sg n
siit	siit	0		D	
valla	valla	0		H	sg n
liige	liige	0		S	sg n
ja	ja	0		J	
nüüd	nüüd	0		D	
Kuremaa	Kuremaa	0		H	sg n
vallas	vallas	s		H	sg n
teenistuses	teenistus	s		S	sg in
on	ole	0		V	b
  	ole	0		V	vad
,	,			Z	
seesama	see_sama	0		P	sg n
olla	ole	a		V	da
pühapäev	püha_päev	0		S	sg n
sel	see	l		P	sg ad
1.	1.	0		O	?
sept	sept	0		Y	?
.	.			Z	
</s>					
<s>					
s.a	s.a	0		Y	?
.	.			Z	
</s>					
<s>					
seal	seal	0		D	
Alavere	Alavere	0		H	sg n
külas	küla	s		H	sg g
käinud	käi	nud		V	nud
ja	ja	0		J	
arvab	arva	b		V	b
siis	siis	0		D	
,	,			Z	
et	et	0		J	
tema	tema	0		P	sg g
see	see	0		P	sg n
hobune	hobune	0		S	sg n
varastatud	varasta	tud		V	tud
on	ole	0		V	b
  	ole	0		V	vad
.	.			Z	
</s>					
<s>					
Hobune	hobune	0		S	sg n
olnud	ole	nud		V	nud
koplis	koppel	s		S	sg in
söömas	söö	mas		V	mas
,	,			Z	
kus	kus	0		D	
teda	tema	da		P	sg p
ära	ära	0		D	
varastatud	varasta	tud		V	tud
.	.			Z	
</s>					
<s>					
Palub	palu	b		V	b
seda	see	da		P	sg p
asja	asi	0		S	sg p
seaduslikult	seaduslikult	0		D	
üle	üle	0		D	
kuulata	kuula	ta		V	da
.	.			Z	
</s>					
<s>					
Mart	Mart	0		H	sg n
Leiten	Leiten	0		H	sg n
Kuremaalt	Kuremaa	t		H	sg p
sai	saa	i		V	s
ette	ette	0		D	
kutsutud	kutsu	tud		V	tud
ja	ja	0		J	
temale	tema	le		P	sg all
Mart	Mart	0		H	sg n
Pirni	Pirn	0		H	sg g
kaebus	kaebus	0		S	sg n
ette	ette	0		D	
pandud	pane	dud		V	tud
,	,			Z	
mis	mis	0		P	sg n
peale	peale	0		K	
tema	tema	0		P	sg g
kostab	kost	b		V	b
,	,			Z	
et	et	0		J	
tema	tema	0		P	sg g
sellest	see	st		P	sg el
Mart	Mart	0		H	sg n
Pirni	Pirn	0		H	sg g
hobusest	hobune	st		S	sg el
kõige	kõige	0		D	
vähematki	vähem	t	ki	C	sg p
ei	ei	0		V	neg
tea	tead	0		V	o
,	,			Z	
tema	tema	0		P	sg g
olla	ole	a		V	da
pühapeeval	####				
sel	see	l		P	sg ad
1.	1.	0		O	?
sept	sept	0		Y	?
.	.			Z	
</s>					
<s>					
s.a	s.a	0		Y	?
.	.			Z	
</s>					
<s>					
Kuremaalt	Kuremaa	t		H	sg p
Laiuse	Laiuse	0		H	sg n
oma	oma	0		P	sg g
isa	isa	0		S	sg n
Rädovere	Rädovere	0		H	sg n
tulnud	tule	nud		V	nud
ja	ja	0		J	
õhtu	õhtu	0		S	sg n
aegsast	aegus	st		A	sg el
sealt	sealt	0		D	
ära	ära	0		D	
läinud	mine	nud		V	nud
ja	ja	0		J	
tee	tee	0		S	sg g
peal	peal	0		K	
kodu	kodu	0		S	sg g
poole	poole	0		K	
minnes	mine	es		V	des
olla	ole	a		V	da
tema	tema	0		P	sg g
Alavere	Alavere	0		H	sg n
külas	küla	s		H	sg g
oma	oma	0		P	sg g
venda	vend	0		S	sg p
vaatamas	vaata	mas		V	mas
käinud	käi	nud		V	nud
ja	ja	0		J	
olla	ole	a		V	da
juba	juba	0		D	
kell	kell	0		S	sg n
8	8	0		N	?
õhtul	õhtu	l		S	sg ad
Kuremaal	Kuremaal	0		H	sg n
oma	oma	0		P	sg g
koduperemehe	kodu_pere_mees	0		S	sg g
majas	maja	s		S	sg in
olnud	ole	nud		V	nud
ning	ning	0		J	
annab	and	b		V	b
tunnistuseks	tunnistus	ks		S	sg tr
ülesse	ülesse	0		D	
oma	oma	0		P	sg g
peremehe	pere_mees	0		S	sg g
Juhan	Juhan	0		H	sg n
Mursi	Mursi	0		H	sg n
ja	ja	0		J	
tema	tema	0		P	sg g
poeg	poeg	0		S	sg n
Gustav	Gustav	0		H	sg n
,	,			Z	
kes	kes	0		P	sg n
teavad	tead	vad		V	vad
,	,			Z	
et	et	0		J	
tema	tema	0		P	sg g
kell	kell	0		S	sg n
8	8	0		N	?
õhtul	õhtu	l		S	sg ad
kodu	kodu	0		S	sg n
oli	ole	i		V	s
ja	ja	0		J	
mitte	mitte	0		D	
Mart	Mart	0		H	sg n
Pirni	Pirn	0		H	sg g
hobuse	hobune	0		S	sg g
varguse	vargus	0		S	sg g
peal	peal	0		K	
ei	ei	0		V	neg
võinud	või	nud		V	nud
olla	ole	a		V	da
.	.			Z	
</s>					
<s>					
Mart	Mart	0		H	sg n
Pirn	Pirn	0		H	sg n
annab	and	b		V	b
tunnistuse	tunnistus	0		S	sg g
ülesse	ülesse	0		D	
,	,			Z	
kes	kes	0		P	sg n
olema	ole	ma		V	ma
kuulnud	kuul	nud		V	nud
,	,			Z	
kui	kui	0		D	
   	kui	0		J	
seda	see	da		P	sg p
hobuse	hobune	0		S	sg g
varguse	vargus	0		S	sg g
aru	aru	0		S	sg p
on	ole	0		V	b
  	ole	0		V	vad
peetud	pida	tud		V	tud
,	,			Z	
need	see	d		P	pl n
on	ole	0		V	b
  	ole	0		V	vad
Jaan	Jaan	0		H	sg n
Saare	Saar	0		H	sg g
naine	naine	0		S	sg n
Ello	Ello	0		H	sg n
,	,			Z	
Tõnnis	Tõnnis	s		H	sg n
Perandt	Perandt	0		H	sg n
,	,			Z	
Hans	Hans	0		H	sg n
Suumann	Suumann	0		H	sg n
ja	ja	0		J	
Jaan	Jaan	0		H	sg n
Karo	Karo	0		H	sg n
.	.			Z	
</s>					
<s>					
Otsus	otsus	0		S	sg n
:	:			Z	
See	see	0		P	sg n
asi	asi	0		S	sg n
jääb	jää	b		V	b
lähemast	lähem	st		C	sg el
ülekuulamise	üle_kuulamine	0		S	sg g
päevast	päev	st		S	sg el
pooleli	pooleli	0		D	
,	,			Z	
et	et	0		J	
tunnisus	tunni=sus	0		S	sg n
puudub	puudu	b		V	b
.	.			Z	
</s>					
<s>					
Istumine	istumine	0		S	sg n
lõppes	lõppe	s		V	s
kell	kell	0		S	sg n
1	1	0		N	?
lõuna	lõuna	0		S	sg g
ajal	ajal	0		K	
.	.			Z	
</s>					
