<s>					
Jüri	Jüri	0		H	sg n
Vaab	Vaab	0		H	sg n
Tooma	Tooma	0		H	sg n
talu	talu	0		S	sg g
rentnik	rentnik	0		S	sg n
annab	and	b		V	b
ülesse	ülesse	0		D	
,	,			Z	
et	et	0		J	
Jalaki	Jalaki	0		H	sg n
talu	talu	0		S	sg g
rentnik	rentnik	0		S	sg n
Mart	Mart	0		H	sg n
Vaab	Vaab	0		H	sg n
olla	ole	a		V	da
tänavu	tänavu	0		D	
suvel	suvi	l		S	sg ad
septembri	september	0		S	sg g
kuus	kuus	0		N	sg n
üks	üks	0		N	sg n
   	üks	0		P	sg n
teisipäev	teisi_päev	0		S	sg n
tahtnud	taht	nud		V	nud
vägisi	vägisi	0		D	
tema	tema	0		P	sg g
majasse	maja	sse		S	sg ill
oma	oma	0		P	sg g
kraami	kraam	0		S	sg p
vedada	veda	da		V	da
ja	ja	0		J	
kui	kui	0		D	
   	kui	0		J	
teda	tema	da		P	sg p
õueväravas	õue_värav	s		S	sg in
kinni	kinni	0		D	
pidanud	pida	nud		V	nud
ja	ja	0		J	
keelanud	keela	nud		V	nud
sisse	sisse	0		D	
tulemast	tule	mast		V	mast
,	,			Z	
siis	siis	0		J	
olla	ole	a		V	da
Mart	Mart	0		H	sg n
Vaab	Vaab	0		H	sg n
temale	tema	le		P	sg all
ühe	üks	0		N	sg g
   	üks	0		P	sg g
puuhanguga	puu_hang	ga		S	sg kom
üks	üks	0		N	sg n
   	üks	0		P	sg n
kord	kord	0		S	sg n
pähe	pea	0		S	adt
löönud	löö	nud		V	nud
,	,			Z	
nii	nii	0		D	
et	et	0		J	
suust	suu	st		S	sg el
ja	ja	0		J	
ninast	nina	st		S	sg el
veri	veri	0		S	sg n
välja	välja	0		D	
tulnud	tule	nud		V	nud
ja	ja	0		J	
seal	seal	0		D	
juures	juures	0		K	
ka	ka	0		D	
tema	tema	0		P	sg g
tütre	tütar	0		S	sg g
sõrme	sõrm	0		S	sg p
ära	ära	0		D	
murdnud	murd	nud		V	nud
,	,			Z	
nõuab	nõud	b		V	b
siis	siis	0		D	
kõige	kõige	0		D	
selle	see	0		P	sg g
löögi	löök	0		S	sg g
eest	eest	0		K	
50	50	0		N	?
rubla	rubla	0		S	sg p
hõb	hõb			Y	
Mart	Mart	0		H	sg n
Vaabi	Vaab	0		H	sg g
käest	käsi	st		S	sg el
.	.			Z	
</s>					
<s>					
Mart	Mart	0		H	sg n
Vaab	Vaab	0		H	sg n
kostab	kost	b		V	b
selle	see	0		P	sg g
Jüri	Jüri	0		H	sg n
Vaabi	Vaab	0		H	sg g
kaebuse	kaebus	0		S	sg g
peale	peale	0		K	
,	,			Z	
et	et	0		J	
olla	ole	a		V	da
oma	oma	0		P	sg g
õlgi	õlg	i		S	pl p
Tooma	Tooma	0		H	sg n
talusse	talu	sse		S	sg ill
veenud	####				
ja	ja	0		J	
sinna	sinna	0		D	
lakka	lakk	0		S	adt
pannud	pane	nud		V	nud
,	,			Z	
mis	mis	0		P	sg n
üle	üle	0		K	
I	I	0		Y	sg n
Tartu	Tartu	0		H	sg n
kihelkonna	kihelkond	0		S	sg g
kohus	kohus	0		S	sg n
luba	luba	0		V	o
andnud	and	nud		V	nud
ja	ja	0		J	
kui	kui	0		D	
   	kui	0		J	
teine	teine	0		O	sg n
     	teine	0		P	sg n
päev	päev	0		S	sg n
jälle	jälle	0		D	
läinud	mine	nud		V	nud
oma	oma	0		P	sg g
põhku	põhk	0		S	sg p
sinna	sinna	0		D	
Tooma	Tooma	0		H	sg n
talusse	talu	sse		S	sg ill
viima	vii	ma		V	ma
,	,			Z	
olnud	ole	nud		V	nud
Jüri	Jüri	0		H	sg n
Vaab	Vaab	0		H	sg n
oma	oma	0		P	sg g
tütrega	tütar	ga		S	sg kom
väravas	värav	s		S	sg in
vastas	vasta	s		V	s
ja	ja	0		J	
löönud	löö	nud		V	nud
siis	siis	0		D	
sealjuures	seal_juures	0		D	
Jüri	Jüri	0		H	sg n
Vaab	Vaab	0		H	sg n
3	3	0		N	?
korda	kord	0		S	sg p
juhivitsaga	juhi_vits	ga		S	sg kom
pähe	pea	0		S	adt
ja	ja	0		J	
selle	see	0		P	sg g
tütar	tütar	0		S	sg n
Leeno	Leeno	0		H	sg n
löönud	löö	nud		V	nud
temale	tema	le		P	sg all
roikaga	roigas	ga		S	sg kom
selga	selg	0		S	adt
,	,			Z	
nõuab	nõud	b		V	b
siis	siis	0		D	
valuraha	valu_raha	0		S	sg n
100	100	0		N	?
rubla	rubla	0		S	sg p
hõb	hõb			Y	
Jüri	Jüri	0		H	sg n
Vaabi	Vaab	0		H	sg g
käest	käsi	st		S	sg el
,	,			Z	
aga	aga	0		J	
tema	tema	0		P	sg n
ei	ei	0		V	neg
olla	ole	a		V	da
mitte	mitte	0		D	
Jüri	Jüri	0		H	sg n
Vaabi	Vaab	0		H	sg g
hanguga	hang	ga		S	sg kom
löönud	löö	nud		V	nud
,	,			Z	
nii	nii	0		D	
kui	kui	0		D	
   	kui	0		J	
see	see	0		P	sg n
üles	üles	0		D	
andnud	and	nud		V	nud
;	;			Z	
annab	and	b		V	b
tunnistuseks	tunnistus	ks		S	sg tr
ülesse	ülesse	0		D	
,	,			Z	
kes	kes	0		P	sg n
seda	see	da		P	sg p
pahandust	pahandus	t		S	sg p
on	ole	0		V	b
  	ole	0		V	vad
näinud	näge	nud		V	nud
,	,			Z	
need	see	d		P	pl n
on	ole	0		V	b
  	ole	0		V	vad
Jaan	Jaan	0		H	sg n
Viik	Viik	0		H	sg n
,	,			Z	
Marie	Marie	0		H	sg n
Viik	Viik	0		H	sg n
,	,			Z	
Mai	Mai	0		H	sg n
Martsen	Mart	0		H	sg g
,	,			Z	
Mart	Mart	0		H	sg n
Mauren	Mauren	0		H	sg n
ja	ja	0		J	
Ello	Ello	0		H	sg n
Pärn	Pärn	0		H	sg n
.	.			Z	
</s>					
<s>					
Jüri	Jüri	0		H	sg n
Vaab	Vaab	0		H	sg n
annab	and	b		V	b
tunnistuseks	tunnistus	ks		S	sg tr
ülesse	ülesse	0		D	
Mart	Mart	0		H	sg n
Tärn	Tärn	0		H	sg n
.	.			Z	
</s>					
<s>					
Jaan	Jaan	0		H	sg n
Viik	Viik	0		H	sg n
tunnistusmees	tunnistus_mees	0		S	sg n
ütleb	ütle	b		V	b
välja	välja	0		D	
,	,			Z	
et	et	0		J	
tema	tema	0		P	sg n
ei	ei	0		V	neg
ole	ole	0		V	o
seda	see	da		P	sg p
Jüri	Jüri	0		H	sg n
ja	ja	0		J	
Mart	Mart	0		H	sg n
Vaabi	Vaab	0		H	sg g
tüli	tüli	0		S	sg p
ja	ja	0		J	
peksmist	peksmine	t		S	sg p
mitte	mitte	0		D	
näinud	näge	nud		V	nud
,	,			Z	
vaid	vaid	0		J	
olla	ole	a		V	da
aga	aga	0		J	
kuulnud	kuul	nud		V	nud
,	,			Z	
Vaibide	####				
maja	maja	0		S	sg g
kohas	koha	s		S	sg in
     	koht	s		S	sg in
tänaval	tänav	l		S	sg ad
,	,			Z	
kui	kui	0		D	
   	kui	0		J	
Jüri	Jüri	0		H	sg n
ja	ja	0		J	
Mart	Mart	0		H	sg n
Vaab	Vaab	0		H	sg n
isekeskis	ise_keskis	0		D	
taplemisest	taple=mine	st		S	sg el
rääkinud	rääki	nud		V	nud
.	.			Z	
</s>					
<s>					
Marie	Marie	0		H	sg n
Viik	Viik	0		H	sg n
ütleb	ütle	b		V	b
välja	välja	0		D	
,	,			Z	
et	et	0		J	
tema	tema	0		P	sg n
näinud	näge	nud		V	nud
seda	see	da		P	sg p
kui	kui	0		D	
   	kui	0		J	
Jüri	Jüri	0		H	sg n
Vaab	Vaab	0		H	sg n
ja	ja	0		J	
Mart	Mart	0		H	sg n
Vaab	Vaab	0		H	sg n
tapelnud	taple	nud		V	nud
ja	ja	0		J	
Jüri	Jüri	0		H	sg n
Vaab	Vaab	0		H	sg n
löönud	löö	nud		V	nud
Mart	Mart	0		H	sg n
Vaabi	Vaab	0		H	sg g
esite	####				
ühe	üks	0		N	sg g
   	üks	0		P	sg g
puuga	puu	ga		S	sg kom
ja	ja	0		J	
siis	siis	0		D	
löönud	löö	nud		V	nud
pärast	pärast	0		K	
Mart	Mart	0		H	sg n
Vaab	Vaab	0		H	sg n
Jüri	Jüri	0		H	sg n
Vaabi	Vaab	0		H	sg g
heinahanguga	heina_hang	ga		S	sg kom
.	.			Z	
</s>					
<s>					
Mai	Mai	0		H	sg n
Martsen	Mart	0		H	sg g
üles	üles	0		D	
antud	and	tud		V	tud
tunnistus	tunnistus	0		S	sg n
ütleb	ütle	b		V	b
välja	välja	0		D	
niisama	nii_sama	0		D	
kui	kui	0		D	
   	kui	0		J	
eesnimetatud	ees_nimetatu	d		S	pl n
Marie	Marie	0		H	sg n
Viik	Viik	0		H	sg n
.	.			Z	
</s>					
<s>					
Mart	Mart	0		H	sg n
Tärn	Tärn	0		H	sg n
ütleb	ütle	b		V	b
välja	välja	0		D	
,	,			Z	
tema	tema	0		P	sg g
kuulnud	kuul	nud		V	nud
suurt	suur	t		A	sg p
kära	kära	0		S	sg n
Toma	Toma	0		H	sg n
talu	talu	0		S	sg g
õues	õu	s		S	sg in
ja	ja	0		J	
kui	kui	0		D	
   	kui	0		J	
läinud	mine	nud		V	nud
seda	see	da		P	sg p
sinna	sinna	0		D	
vaatama	vaata	ma		V	ma
,	,			Z	
siis	siis	0		J	
näinud	näge	nud		V	nud
,	,			Z	
kui	kui	0		D	
   	kui	0		J	
Mart	Mart	0		H	sg n
Vaab	Vaab	0		H	sg n
löönud	löö	nud		V	nud
ühe	üks	0		N	sg g
   	üks	0		P	sg g
heinahanguga	heina_hang	ga		S	sg kom
Jüri	Jüri	0		H	sg n
Vaabile	Vaab	le		H	sg all
pähe	pea	0		S	adt
,	,			Z	
nii	nii	0		D	
et	et	0		J	
selle	see	0		P	sg g
peast	pea	st		S	sg el
veri	veri	0		S	sg n
välja	välja	0		D	
jooksnud	jooks	nud		V	nud
,	,			Z	
see	see	0		P	sg n
sündinud	sündi	nud		V	nud
Jüri	Jüri	0		H	sg n
Vaabi	Vaab	0		H	sg g
hoovi	hoov	0		S	sg g
peal	peal	0		K	
ja	ja	0		J	
ka	ka	0		D	
veel	veel	0		D	
murdnud	murd	nud		V	nud
Mart	Mart	0		H	sg n
Vaab	Vaab	0		H	sg n
Jüri	Jüri	0		H	sg n
Vaabi	Vaab	0		H	sg g
tütre	tütar	0		S	sg g
Leeno	Leeno	0		H	sg n
sõrme	sõrm	0		S	sg g
ära	ära	0		D	
kõvere	####				
.	.			Z	
</s>					
<s>					
Otsus	otsus	0		S	sg n
:	:			Z	
see	see	0		P	sg n
asi	asi	0		S	sg n
jääb	jää	b		V	b
lähemast	lähem	st		C	sg el
kohtupäevast	kohtu_päev	st		S	sg el
pooleli	pooleli	0		D	
,	,			Z	
et	et	0		J	
tunnistus	tunnistus	0		S	sg n
Mart	Mart	0		H	sg n
Mauren	Mauren	0		H	sg n
ja	ja	0		J	
Ello	Ello	0		H	sg n
Tärn	Tärn	0		H	sg n
puuduvad	puudu	vad		V	vad
.	.			Z	
</s>					
