<s>					
Tulli	tull	0		S	sg g
ette	ette	0		K	
metsa	mets	0		S	sg g
herra	härra	0		S	sg n
Luhsing	Luhsing	0		H	sg n
ja	ja	0		J	
kaebas	kaeba	s		V	s
,	,			Z	
et	et	0		J	
Vällaotsa	Vällaotsa	0		H	sg n
metsavaht	metsa_vaht	0		S	sg n
Mats	Mats	0		H	sg n
Jaans	Jaans	0		H	sg n
,	,			Z	
olna	ole	na		V	vat
ülles	üles	0		D	
andnu	and=nu	0		S	sg n
,	,			Z	
et	et	0		J	
Kämmara	Kämmara	0		H	sg n
Peter	Peter	0		H	sg n
Sõrra	Sõrra	0		H	sg n
üks	üks	0		N	sg n
   	üks	0		P	sg n
kord	kord	0		S	sg n
12	12	0		N	?
ellajad	####				
,	,			Z	
ja	ja	0		J	
tõine	####				
kõrd	kord	0		S	sg n
3	3	0		N	?
ellajad	####				
hoijeto	####				
metsan	####				
on	ole	0		V	b
  	ole	0		V	vad
olnu	ole	nud		V	nud
,	,			Z	
nõudis	nõud	is		V	s
egga	ega	0		D	
ellaja	####				
päält	pealt	0		K	
üks	üks	0		N	sg n
   	üks	0		P	sg n
rubla	rubla	0		S	sg g
summa	summa	0		S	sg n
15	15	0		N	?
rbl	rbl	0		Y	
.	.			Z	
</s>					
<s>					
Tulli	tull	0		S	sg g
ette	ette	0		K	
metsavaht	metsa_vaht	0		S	sg n
Mats	Mats	0		H	sg n
Jaans	Jaans	0		H	sg n
ja	ja	0		J	
tunnist	tund	st		S	sg el
,	,			Z	
et	et	0		J	
Kammara	Kammara	0		H	sg n
Peter	Peter	0		H	sg n
Sõrra	Sõrra	0		H	sg n
ellajad	####				
2	2	0		N	?
kõrd	kord	0		S	sg n
metsan	####				
olnu	ole	nud		V	nud
ja	ja	0		J	
olna	ole	na		V	vat
temma	tema	0		P	sg n
neid	see	d		P	pl p
kinni	kinni	0		D	
võtnu	võt	nud		V	nud
.	.			Z	
</s>					
<s>					
Tulli	tull	0		S	sg g
ette	ette	0		K	
Kämmara	Kämmara	0		H	sg n
Peter	Peter	0		H	sg n
Sõrra	Sõrra	0		H	sg n
ja	ja	0		J	
vastas	vasta	s		V	s
,	,			Z	
et	et	0		J	
temmal	tema	l		P	sg ad
ei	ei	0		V	neg
olna	ole	na		V	vat
12	12	0		N	?
ellajad	####				
sugguki	####				
metsan	####				
olnu	ole	nud		V	nud
,	,			Z	
ja	ja	0		J	
kolm	kolm	0		N	sg n
olna	ole	na		V	vat
küll	küll	0		D	
üks	üks	0		N	sg n
   	üks	0		P	sg n
kõrd	kord	0		S	sg n
metsan	####				
olnu	ole	nud		V	nud
.	.			Z	
</s>					
<s>					
Otsus	otsus	0		S	sg n
:	:			Z	
et	et	0		J	
Jaan	Jaan	0		H	sg n
Reinholdi	Reinhold	0		H	sg g
naene	naine	0		S	sg n
tõisest	####				
Kohtu	kohus	0		S	sg g
päävast	####				
ette	ette	0		D	
tellida	telli	da		V	da
.	.			Z	
</s>					
<s>					
Se	Se	0		Y	sg n
otsus	otsus	0		S	sg n
sai	saa	i		V	s
nendel	tema	del		P	pl ad
kuulutud	kuulu	tud		V	tud
.	.			Z	
</s>					
