<s>					
Marri	Marri	0		H	sg n
Loritz	Loritz	0		H	sg n
olli	ole	i		V	s
mitto	####				
kõrda	####				
Koggokonna	Koggokonna	0		H	sg n
Kohtu	kohus	0		S	sg g
ette	ette	0		K	
tellitu	telli=tu	0		S	sg g
ja	ja	0		J	
mitte	mitte	0		D	
tulnu	tulnu	0		S	sg n
.	.			Z	
</s>					
<s>					
Moisteti	####				
:	:			Z	
selle	see	0		P	sg g
eest	eest	0		K	
24	24	0		N	?
tunnis	tund	s		S	sg in
vangi	vang	0		S	adt
.	.			Z	
</s>					
<s>					
Se	Se	0		Y	sg n
moistus	mõistus	0		S	sg n
sai	saa	i		V	s
kuulutud	kuulu	tud		V	tud
ja	ja	0		J	
läks	mine	s		V	s
kinni	kinni	0		D	
.	.			Z	
</s>					
