<s>					
Saiva	####				
nekrute	####				
asi	asi	0		S	sg n
seletetus	####				
mes	mis	0		P	sg n
neil	tema	l		P	pl ad
kellekiga	####				
tegemist	tegemine	t		S	sg p
om	ole	0		V	b
.	.			Z	
</s>					
<s>					
Nr	Nr	0		Y	sg n
1	1	0		N	?
Johan	Johan	0		H	sg n
Zernask	Zernask	0		H	sg n
ütel	ütle	0		V	s
et	et	0		J	
temal	tema	l		P	sg ad
kellekiga	####				
tegemist	tegemine	t		S	sg p
ei	ei	0		V	neg
ole	ole	0		V	o
.	.			Z	
</s>					
<s>					
Nr	Nr	0		Y	sg n
2	2	0		N	?
Jaan	Jaan	0		H	sg n
Parman	Parman	0		H	sg n
ütel	ütle	0		V	s
et	et	0		J	
temal	tema	l		P	sg ad
Iisak	Iisak	0		H	sg n
Rummaski	Rummaski	0		H	sg n
käest	käsi	st		S	sg el
7	7	0		N	?
rubla	rubla	0		S	sg p
hobese	hobune	0		S	sg g
raha	raha	0		S	sg p
saada	saa	da		V	da
om	ole	0		V	b
.	.			Z	
</s>					
<s>					
Kohus	kohus	0		S	sg n
mõist	####				
nink	ning	0		J	
selet	####				
seda	see	da		P	sg p
asja	asi	0		S	sg p
nink	ning	0		J	
jäi	jää	i		V	s
Jaanil	Jaan	l		H	sg ad
veel	veel	0		D	
Iisak	Iisak	0		H	sg n
Rummaski	Rummaski	0		H	sg n
käest	käsi	st		S	sg el
3	3	0		N	?
rubla	rubla	0		S	sg p
saada	saa	da		V	da
.	.			Z	
</s>					
<s>					
Nr	Nr	0		Y	sg n
3	3	0		N	?
Jaan	Jaan	0		H	sg n
Rämman	Rämman	0		H	sg n
ütel	ütle	0		V	s
et	et	0		J	
temal	tema	l		P	sg ad
midagi	miski	dagi		P	sg p
seletamist	seletamine	t		S	sg p
ei	ei	0		V	neg
ole	ole	0		V	o
.	.			Z	
</s>					
<s>					
Nr	Nr	0		Y	sg n
4	4	0		N	?
Johan	Johan	0		H	sg n
Vaitk	Vaitk	0		H	sg n
ütel	ütle	0		V	s
et	et	0		J	
temal	tema	l		P	sg ad
Vassil	Vassil	0		H	sg n
Himmise	Himmis	0		H	sg g
käest	käsi	st		S	sg el
saada	saa	da		V	da
om	ole	0		V	b
5	5	0		N	?
rubla	rubla	0		S	sg p
raha	raha	0		S	sg p
.	.			Z	
</s>					
<s>					
Nr	Nr	0		Y	sg n
5	5	0		N	?
Jakob	Jakob	0		H	sg n
Parmson	Parmson	0		H	sg n
ütel	ütle	0		V	s
et	et	0		J	
kellekiga	####				
midagi	miski	dagi		P	sg p
tegemist	tegemine	t		S	sg p
ei	ei	0		V	neg
ole	ole	0		V	o
.	.			Z	
</s>					
<s>					
Pääkohtumees	####				
M.	M.	0		Y	sg n
Musting	Musting	0		H	sg n
Abi	abi	0		S	sg n
Rein	Rein	0		H	sg n
Oinberg	Oinberg	0		H	sg n
,	,			Z	
Jakob	Jakob	0		H	sg n
Lepland	Lepland	0		H	sg n
</s>					
