<s>					
Kaivas	Kaivas	0		H	sg n
Hels	Hels	0		H	sg n
Oinats	Oinats	0		H	sg n
et	et	0		J	
Jüri	Jüri	0		H	sg n
Nedal	Nedal	0		H	sg n
om	ole	0		V	b
viina	viin	0		S	sg g
koa	####				
man	man	0		D	
tema	tema	0		P	sg g
poja	poeg	0		S	sg g
    	poja	0		S	sg g
kübara	kübar	0		S	sg g
ära	ära	0		D	
palutanu	palu_tanu	0		S	sg n
.	.			Z	
</s>					
<s>					
Ette	ette	0		D	
tulli	tule	i		V	s
Jüri	Jüri	0		H	sg n
Nedal	Nedal	0		H	sg n
ja	ja	0		H	sg n
ütel	ütle	0		V	s
et	et	0		J	
poiss	poiss	0		S	sg n
oles	oles	0		S	sg n
esi	esi	0		S	pl p
lubanu	luba	nud		V	nud
kübaraga	kübar	ga		S	sg kom
nii	nii	0		D	
tetta	####				
.	.			Z	
</s>					
<s>					
Kohus	kohus	0		S	sg n
mõist	####				
et	et	0		J	
Jüri	Jüri	0		H	sg n
poisi	poiss	0		S	sg g
kübara	kübar	0		S	sg g
ära	ära	0		D	
palutanu	palu_tanu	0		S	sg n
massab	maks	b		V	b
Jüri	Jüri	0		H	sg n
50	50	0		N	?
kop	kop	0		Y	?
see	see	0		P	sg n
kübara	kübar	0		S	sg g
eest	eest	0		K	
.	.			Z	
</s>					
