<s>					
Hanne	Hanne	0		H	sg n
Võikson	Võikson	0		H	sg n
ütel	ütle	0		V	s
et	et	0		J	
tema	tema	0		P	sg n
om	ole	0		V	b
oma	oma	0		P	sg g
poja	poeg	0		S	sg g
    	poja	0		S	sg g
1866	1866	0		N	?
märtsi	märts	0		S	sg g
kuul	kuul	0		S	sg n
Viidu	Viidu	0		H	sg n
Narustranki	Narustranki	0		H	sg n
manu	manu	0		K	
teenma	####				
andnu	and=nu	0		S	sg n
ja	ja	0		H	sg n
palk	palk	0		S	sg n
ollu	ole	lu		V	nud
kaubeldu	kaubel=du	0		S	sg n
1	1	0		N	?
vakk	vakk	0		S	sg n
rükki	####				
ja	ja	0		H	sg n
1	1	0		N	?
vakk	vakk	0		S	sg n
kesvi	kesv	i		S	pl p
.	.			Z	
</s>					
<s>					
Ja	ja	0		J	
pääraha	####				
ka	ka	0		D	
Viidu	Viidu	0		H	sg n
lubanu	luba	nud		V	nud
massa	maks	0		S	sg p
,	,			Z	
nüüd	nüüd	0		D	
ei	ei	0		V	neg
ole	ole	0		V	o
Viidu	Viidu	0		H	sg n
muud	muu	d		P	sg p
masnu	maks	nu		V	nud
kui	kui	0		D	
   	kui	0		J	
ennegi	ennegi	0		D	
2/3	2/3	0		N	?
vakka	vakk	0		S	adt
kesvi	kesv	i		S	pl p
.	.			Z	
</s>					
<s>					
Ette	ette	0		D	
tulli	tule	i		V	s
Viidu	Viidu	0		H	sg n
Narusktrank	Narustranki	0		H	sg n
ja	ja	0		H	sg n
ütel	ütle	0		V	s
et	et	0		J	
tema	tema	0		P	sg g
1	1	0		N	?
vakk	vakk	0		S	sg n
kesvi	kesv	i		S	pl p
ära	ära	0		D	
masnu	maks	nu		V	nud
ja	ja	0		H	sg n
röa	####				
om	ole	0		V	b
tema	tema	0		P	sg g
see	see	0		P	sg n
läbi	läbi	0		K	
andmata	and	mata		V	mata
jätnu	jät	nud		V	nud
,	,			Z	
et	et	0		J	
temal	tema	l		P	sg ad
ei	ei	0		V	neg
ole	ole	0		V	o
mitte	mitte	0		D	
poisi	poiss	0		S	sg g
eest	eest	0		K	
pääraha	####				
lepitu	lepi=tu	0		S	sg g
ollu	ole	lu		V	nud
.	.			Z	
</s>					
<s>					
Kohus	kohus	0		S	sg n
mõist	####				
et	et	0		J	
Vidu	Vidu	0		H	sg n
peab	pida	b		V	b
see	see	0		P	sg n
poisi	poiss	0		S	sg g
päraha	####				
ära	ära	0		D	
masma	maks	ma		V	ma
ja	ja	0		H	sg n
½	½	0		N	?
vakka	vakka	0		D	
rükki	####				
ka	ka	0		D	
veel	veel	0		D	
palgas	palk	s		S	sg in
.	.			Z	
</s>					
