<s>					
Kaivas	Kaivas	0		H	sg n
mõisavalitsus	mõisavalitsus	0		H	sg n
et	et	0		J	
tema	tema	0		P	sg n
om	ole	0		V	b
Johan	Johan	0		H	sg n
Linderi	Linderi	0		H	sg n
maamõõdja	####				
manu	manu	0		K	
töö	töö	0		S	sg g
mehes	mees	s		S	sg in
kaubelnu	kauple	nud		V	nud
2	2	0		N	?
rubla	rubla	0		S	sg p
kuu	kuu	0		S	sg g
eest	eest	0		K	
palka	palk	0		S	sg p
lubanu	luba	nud		V	nud
Johanil	Johan	l		H	sg ad
henda	ise	0		P	sg g
söögi	söök	0		S	sg g
pääl	peal	0		K	
nink	ning	0		J	
1	1	0		N	?
rubla	rubla	0		S	sg p
käe	käsi	0		S	sg g
raha	raha	0		S	sg p
Johanile	Johan	le		H	sg all
kätte	käsi	tte		S	adt
andnu	and=nu	0		S	sg n
.	.			Z	
</s>					
<s>					
Ja	ja	0		J	
nüüd	nüüd	0		D	
om	ole	0		V	b
4	4	0		N	?
nädalit	####				
Johanit	Johan	t		H	sg p
oodanu	ooda=nu	0		S	sg n
maamõõdja	####				
manu	manu	0		K	
ja	ja	0		H	sg n
Johan	Johan	0		H	sg n
ei	ei	0		V	neg
ole	ole	0		V	o
seeni	seen	i		S	pl p
ajani	aeg	ni		S	sg ter
veel	veel	0		D	
tullu	tule	nu		V	nud
.	.			Z	
</s>					
<s>					
Ja	ja	0		J	
nüüd	nüüd	0		D	
ütleb	ütle	b		V	b
Johan	Johan	0		H	sg n
et	et	0		J	
temast	tema	st		P	sg el
tulejat	tule=ja	t		S	sg p
ei	ei	0		V	neg
saa	saa	0		V	o
.	.			Z	
</s>					
<s>					
Kohus	kohus	0		S	sg n
mõist	####				
Johanile	Johan	le		H	sg all
kolme	kolm	0		N	sg g
süi	####				
eest	eest	0		K	
15	15	0		N	?
vitsa	vits	0		S	sg p
lööki	löök	0		S	sg p
.	.			Z	
</s>					
<s>					
1.	1.	0		O	?
</s>					
<s>					
Johan	Johan	0		H	sg n
ei	ei	0		V	neg
ole	ole	0		V	o
mitu	mitu	0		P	sg n
aastat	aasta	t		S	sg p
pääraha	####				
masnu	maks	nu		V	nud
.	.			Z	
</s>					
<s>					
2.	2.	0		O	?
</s>					
<s>					
Johan	Johan	0		H	sg n
om	ole	0		V	b
juudi	juut	0		S	sg g
varastanu	varasta	nud		V	nud
ja	ja	0		H	sg n
päälegi	####				
veel	veel	0		D	
pesnu	peks	nud		V	nud
.	.			Z	
</s>					
<s>					
3.	3.	0		O	?
et	et	0		J	
mõisavalitsuse	mõisa_valitsus	0		S	sg g
käest	käest	0		K	
käe	käsi	0		S	sg g
raha	raha	0		S	sg p
võtnu	võt	nud		V	nud
ja	ja	0		H	sg n
teenma	####				
es	ei	s		V	neg s
tule	tule	0		V	o
.	.			Z	
</s>					
