<s>					
Sai	Sai	i		H	sg n
kihelkonna	kihelkond	0		S	sg g
kohtu	kohus	0		S	sg g
käsu	käsk	0		S	sg g
pääle	peale	0		K	
aastal	aasta	l		S	sg ad
1866	1866	0		N	?
nr	nr	0		Y	?
55	55	0		N	?
Johan	Johan	0		H	sg n
Linderi	Linderi	0		H	sg n
kaibuse	####				
perast	pärast	0		D	
tunistaja	####				
Karl	Karl	0		H	sg n
Vaaks	Vaaks	0		H	sg n
keda	kes	da		P	sg p
Johan	Johan	0		H	sg n
Linder	Linder	0		H	sg n
mitte	mitte	0		D	
üles	üles	0		D	
es	ei	s		V	neg s
anna	and	0		V	o
üle	üle	0		D	
kulleldus	####				
.	.			Z	
</s>					
<s>					
Ette	ette	0		D	
tulli	tule	i		V	s
Karl	Karl	0		H	sg n
Vaaks	Vaaks	0		H	sg n
ja	ja	0		H	sg n
ütel	ütle	0		V	s
et	et	0		J	
tema	tema	0		P	sg g
kate	kate	0		S	sg n
hobesega	####				
1	1	0		N	?
päiv	####				
om	ole	0		V	b
tõrvasit	####				
ahju	ahi	0		S	sg g
manu	manu	0		K	
vedanu	veda	nud		V	nud
.	.			Z	
</s>					
<s>					
Kohus	kohus	0		S	sg n
mõist	####				
et	et	0		J	
Karl	Karl	0		H	sg n
Vaaks	Vaaks	0		H	sg n
ütel	ütle	0		V	s
kate	kate	0		S	sg n
hobesega	####				
1	1	0		N	?
päiv	####				
om	ole	0		V	b
tõrvasit	####				
vedanu	veda	nud		V	nud
,	,			Z	
arvati	arva	ti		V	ti
kate	kate	0		S	sg n
hobese	hobune	0		S	sg g
päiva	päev	0		S	sg g
eest	eest	0		K	
1	1	0		N	?
rubla	rubla	0		S	sg p
.	.			Z	
</s>					
<s>					
Et	et	0		J	
Johan	Johan	0		H	sg n
Linder	Linder	0		H	sg n
edimatse	####				
mõistmise	mõistmine	0		S	sg g
perra	järele	0		K	
1	1	0		N	?
rubla	rubla	0		S	sg p
60	60	0		N	?
kop	kop	0		Y	?
rohkem	rohkem	0		D	
olli	ole	i		V	s
saanu	saa	nud		V	nud
lätt	mine	t		V	b
1	1	0		N	?
rubla	rubla	0		S	sg p
maha	maha	0		D	
n	n	0		Y	?
.	.			Z	
om	ole	0		V	b
J.	J.	0		Y	sg n
Linder	Linder	0		H	sg n
veel	veel	0		D	
60	60	0		N	?
kop	kop	0		Y	?
rohkem	rohkem	0		D	
saanu	saa	nud		V	nud
.	.			Z	
</s>					
