<s>					
Kaivas	Kaivas	0		H	sg n
Jakob	Jakob	0		H	sg n
Paljung	Paljung	0		H	sg n
et	et	0		J	
Peeter	Peeter	0		H	sg n
Hanson	Hans	0		H	sg g
om	ole	0		V	b
teda	tema	da		P	sg p
mineva	minev	0		A	sg g
reedi	####				
nädali	####				
eest	eest	0		K	
vikati	vikat	0		S	sg g
löega	lüsi	ga		S	sg kom
löönu	löö	nud		V	nud
ja	ja	0		H	sg n
vangre	####				
redelt	####				
vasta	vasta	0		V	o
nii	nii	0		D	
löönu	löö	nud		V	nud
et	et	0		J	
ninast	nina	st		S	sg el
veri	veri	0		S	sg n
välja	välja	0		D	
om	ole	0		V	b
tullu	tule	nu		V	nud
,	,			Z	
see	see	0		P	sg n
eest	eest	0		K	
,	,			Z	
et	et	0		J	
Peeter	Peeter	0		H	sg n
om	ole	0		V	b
ütelnu	ütle	nud		V	nud
et	et	0		J	
Jakobi	Jakob	0		H	sg g
varss	varss	0		S	sg n
om	ole	0		V	b
tema	tema	0		P	sg g
kaara	####				
lännu	mine	nu		V	nud
.	.			Z	
</s>					
<s>					
Jakob	Jakob	0		H	sg n
Palsing	Palsing	0		H	sg n
nõus	nõus	0		D	
see	see	0		P	sg n
löömise	löömine	0		S	sg g
eest	eest	0		K	
6	6	0		N	?
rubla	rubla	0		S	sg p
.	.			Z	
</s>					
<s>					
Ette	ette	0		D	
tulli	tule	i		V	s
Peeter	Peeter	0		H	sg n
Hanson	Hans	0		H	sg g
ja	ja	0		H	sg n
ütel	ütle	0		V	s
et	et	0		J	
Jakob	Jakob	0		H	sg n
om	ole	0		V	b
keige	kõik 	0		P	sg g
suve	suvi	0		S	sg g
oma	oma	0		P	sg g
sitta	sitt	0		S	adt
vastse	vastne	0		A	sg g
krundi	krunt	0		S	sg g
pääle	peale	0		K	
vedanu	veda	nud		V	nud
ja	ja	0		H	sg n
varss	varss	0		S	sg n
om	ole	0		V	b
iks	iks	0		S	sg n
alati	alati	0		D	
kõrval	kõrval	0		K	
valla	valla	0		H	sg n
jalu	jalu	0		D	
Peetre	Peetre	0		H	sg n
vilja	vili	0		S	sg p
pidi	pida	i		V	s
käinu	käi	nud		V	nud
,	,			Z	
see	see	0		P	sg n
perast	pärast	0		D	
om	ole	0		V	b
Peeter	Peeter	0		H	sg n
Jakobit	Jakob	t		H	sg p
ennegi	ennegi	0		D	
tõuganu	tõuka	nud		V	nud
ent	ent	0		J	
mitte	mitte	0		D	
löönu	löö	nud		V	nud
.	.			Z	
</s>					
<s>					
Peeter	Peeter	0		H	sg n
nõus	nõus	0		D	
vilja	vili	0		S	sg g
söödmise	####				
eest	eest	0		K	
10	10	0		N	?
rubla	rubla	0		S	sg p
.	.			Z	
</s>					
<s>					
Kohus	kohus	0		S	sg n
mõist	####				
et	et	0		J	
J.	J.	0		Y	sg n
Palsing	Palsing	0		H	sg n
peab	pida	b		V	b
2	2	0		N	?
rubla	rubla	0		S	sg p
veel	veel	0		D	
perra	järele	0		D	
masma	maks	ma		V	ma
Peeter	Peeter	0		H	sg n
Hansonile	Hanson	le		H	sg all
ja	ja	0		H	sg n
sis	siis	0		D	
omma	oma	0		P	sg g
tasa	tasa	0		D	
.	.			Z	
</s>					
