<s>					
Kaivas	Kaivas	0		H	sg n
Peeter	Peeter	0		H	sg n
Parrind	Parrind	0		H	sg n
et	et	0		J	
see	see	0		P	sg n
27.	27.	0		O	?
okt	okt	0		Y	?
om	ole	0		V	b
tema	tema	0		P	sg g
poig	poeg	0		S	sg n
Hendrik	Hendrik	0		H	sg n
teda	tema	da		P	sg p
pesnu	peks	nud		V	nud
.	.			Z	
</s>					
<s>					
Hendrik	Hendrik	0		H	sg n
om	ole	0		V	b
hobese	hobune	0		S	sg g
ära	ära	0		D	
müünu	müü	nud		V	nud
mes	mis	0		P	sg n
neil	tema	l		P	pl ad
esaga	####				
kokko	kokku	0		D	
ostetu	oste=tu	0		S	sg n
ollu	ole	lu		V	nud
esa	####				
raha	raha	0		S	sg p
ollu	ole	lu		V	nud
selle	see	0		P	sg g
hobese	hobune	0		S	sg g
eest	eest	0		K	
antu	antud	0		A	sg g
5	5	0		N	?
rubla	rubla	0		S	sg g
ja	ja	0		H	sg n
Hendrikul	Hendrik	l		H	sg ad
10	10	0		N	?
rubla	rubla	0		S	sg p
.	.			Z	
</s>					
<s>					
Hendrik	Hendrik	0		H	sg n
om	ole	0		V	b
hobese	hobune	0		S	sg g
ära	ära	0		D	
müinu	müü	nud		V	nud
3	3	0		N	?
rubla	rubla	0		S	sg g
50	50	0		N	?
kop	kop	0		Y	?
eest	eest	0		K	
ja	ja	0		H	sg n
om	ole	0		V	b
henda	ise	0		P	sg g
ära	ära	0		D	
joonu	joo	nud		V	nud
sis	siis	0		D	
nakanu	hakka	nud		V	nud
oma	oma	0		P	sg g
naist	naine	t		S	sg p
pesma	####				
naine	naine	0		S	sg n
om	ole	0		V	b
pakku	pakk	0		S	sg p
saanu	saa	nud		V	nud
sis	siis	0		D	
nakanu	hakka	nud		V	nud
esa	####				
naist	naine	t		S	sg p
pesma	####				
,	,			Z	
esa	####				
om	ole	0		V	b
naisele	naine	le		S	sg all
appi	abi	0		S	adt
lännu	mine	nu		V	nud
see	see	0		P	sg n
pääle	peale	0		K	
om	ole	0		V	b
Hendrik	Hendrik	0		H	sg n
jälle	jälle	0		D	
esat	####				
pesma	####				
nakanu	hakka	nud		V	nud
nii	nii	0		D	
et	et	0		J	
esa	####				
pää	####				
ja	ja	0		H	sg n
suu	suu	0		S	sg g
katski	####				
pesnu	peks	nud		V	nud
,	,			Z	
mes	mis	0		P	sg n
ka	ka	0		D	
kohtu	kohus	0		S	sg g
een	esi	st		S	sg el
esa	####				
näidas	####				
ja	ja	0		H	sg n
irmsast	####				
veritse	veritse	0		V	o
olli	ole	i		V	s
.	.			Z	
</s>					
<s>					
Seda	see	da		P	sg p
hobese	hobune	0		S	sg g
raha	raha	0		S	sg p
om	ole	0		V	b
2	2	0		N	?
rubla	rubla	0		S	sg p
esa	####				
kätte	käsi	tte		S	adt
saanu	saa	nud		V	nud
ja	ja	0		H	sg n
1	1	0		N	?
rubla	rubla	0		S	sg g
50	50	0		N	?
kop	kop	0		Y	?
Hendriku	Hendrik	0		H	sg g
kätte	käsi	tte		S	adt
.	.			Z	
</s>					
<s>					
Ette	ette	0		D	
tulli	tule	i		V	s
Hendrik	Hendrik	0		H	sg n
Parrind	Parrind	0		H	sg n
ja	ja	0		H	sg n
ütel	ütle	0		V	s
et	et	0		J	
see	see	0		P	sg n
keig	####				
võlss	####				
om	ole	0		V	b
ja	ja	0		H	sg n
ütel	ütle	0		V	s
et	et	0		J	
esa	####				
teda	tema	da		P	sg p
oles	oles	0		S	sg n
taga	taga	0		K	
ajanu	aja	nud		V	nud
tema	tema	0		P	sg g
oles	oles	0		S	sg n
iks	iks	0		S	sg n
een	esi	st		S	sg el
joosknu	####				
ja	ja	0		H	sg n
esa	####				
nuijaga	####				
teda	tema	da		P	sg p
taga	taga	0		K	
ajanu	aja	nud		V	nud
.	.			Z	
</s>					
<s>					
Et	et	0		J	
tunnistust	tunnistus	t		S	sg p
es	ei	s		V	neg s
ole	ole	0		V	o
jäi	jää	i		V	s
see	see	0		P	sg n
asi	asi	0		S	sg n
seisma	seis	ma		V	ma
.	.			Z	
</s>					
