<s>					
Peeter	Peeter	0		H	sg n
Runinge	Runinge	0		H	sg n
varandus	varandus	0		S	sg n
tema	tema	0		P	sg g
poja	poeg	0		S	sg g
    	poja	0		S	sg g
Joosepiga	Jooseb	ga		H	sg kom
mes	mis	0		P	sg n
nr	nr	0		Y	?
14	14	0		N	?
sel	see	l		P	sg ad
13.	13.	0		O	?
märtsil	märts	l		S	sg ad
om	ole	0		V	b
üles	üles	0		D	
võedu	####				
sai	saa	i		V	s
neide	neid	e		S	pl p
vahel	vahel	0		D	
nii	nii	0		D	
see	see	0		P	sg n
jagu	jagu	0		S	sg n
tettus	####				
et	et	0		J	
Peeter	Peeter	0		H	sg n
saab	saa	b		V	b
poole	pool	0		N	sg g
oma	oma	0		P	sg g
väikse	väike	0		A	sg g
poja	poeg	0		S	sg g
    	poja	0		S	sg g
Jaaniga	Jaan	ga		H	sg kom
ja	ja	0		H	sg n
Joosepile	Joosep	le		H	sg all
saab	saa	b		V	b
ütsinda	####				
pool	pool	0		K	
,	,			Z	
see	see	0		P	sg n
perast	pärast	0		D	
saab	saa	b		V	b
Joosep	Joosep	0		H	sg n
ütsinda	####				
poole	poole	0		K	
hääd	####				
hendale	ise	le		P	sg all
et	et	0		J	
kui	kui	0		D	
   	kui	0		J	
tema	tema	0		P	sg g
esa	####				
Peeter	Peeter	0		H	sg n
peas	pea	s		S	sg in
vanas	vana	s		A	sg in
saama	saa	ma		V	ma
ehk	ehk	0		J	
ära	ära	0		D	
koolma	kool	ma		V	ma
sis	siis	0		D	
peab	pida	b		V	b
Joosep	Joosep	0		H	sg n
see	see	0		P	sg n
väikse	väike	0		A	sg g
velle	veli	0		S	sg g
eest	eest	0		K	
ka	ka	0		D	
hoold	####				
kandma	kand	ma		V	ma
.	.			Z	
</s>					
