<s>					
Mõtsa	Mõtsa	0		H	sg n
saksa	saksa	0		G	
kaibuse	####				
pääle	peale	0		K	
et	et	0		J	
Fritz	Fritz	0		H	sg n
Runhanson	Runhanson	0		H	sg n
om	ole	0		V	b
4	4	0		N	?
kuust	kuu	st		S	sg el
mõtsast	mets	st		S	sg el
äklilauvas	####				
ragunu	####				
.	.			Z	
</s>					
<s>					
Mõtsa	Mõtsa	0		H	sg n
saks	saks	0		S	sg n
nõus	nõus	0		D	
ega	ega	0		J	
puu	puu	0		S	sg g
eest	eest	0		K	
1	1	0		N	?
rubla	rubla	0		S	sg p
.	.			Z	
</s>					
<s>					
Ette	ette	0		D	
tulli	tule	i		V	s
Fritz	Fritz	0		H	sg n
Runhanson	Runhanson	0		H	sg n
ja	ja	0		H	sg n
es	ei	s		V	neg s
salga	salga	0		V	o
mitte	mitte	0		D	
nink	ning	0		J	
ütel	ütle	0		V	s
mõisa	mõis	0		S	sg g
maa	maa	0		S	sg g
äesteta	####				
ollu	ole	lu		V	nud
ja	ja	0		H	sg n
temal	tema	l		P	sg ad
äkli	####				
ei	ei	0		V	neg
ole	ole	0		V	o
ollu	ole	lu		V	nud
et	et	0		J	
tema	tema	0		P	sg g
häda	häda	0		S	sg n
perast	pärast	0		D	
seda	see	da		P	sg p
tennu	tege	nud		V	nud
.	.			Z	
</s>					
<s>					
Kohus	kohus	0		S	sg n
mõist	####				
et	et	0		J	
Fritz	Fritz	0		H	sg n
ka	ka	0		D	
esi	esi	0		S	sg n
es	ei	s		V	neg s
salga	salga	0		V	o
peab	pida	b		V	b
üle	üle	0		K	
4	4	0		N	?
puu	puu	0		S	sg g
3	3	0		N	?
rubla	rubla	0		S	sg p
trahvi	trahv	0		S	sg p
masma	maks	ma		V	ma
.	.			Z	
</s>					
