<s>					
Pallel	Pallel	0		H	sg n
Peedu	Peedu	0		H	sg n
Lepland	Lepland	0		H	sg n
seda	see	da		P	sg p
kogokonna	kogukond	0		S	sg g
kohut	kohus	t		S	sg p
et	et	0		J	
tema	tema	0		P	sg g
oles	oles	0		S	sg n
35	35	0		N	?
aasta	aasta	0		S	sg g
eest	eest	0		K	
,	,			Z	
kui	kui	0		D	
   	kui	0		J	
tema	tema	0		P	sg n
veel	veel	0		D	
peremees	pere_mees	0		S	sg n
olli	ole	i		V	s
sinna	sinna	0		D	
maja	maja	0		S	sg n
mes	mis	0		P	sg n
nüüd	nüüd	0		D	
tema	tema	0		P	sg g
poja	poeg	0		S	sg g
    	poja	0		S	sg g
Karli	Karli	0		H	sg n
käen	käsi	s		S	sg in
om	ole	0		V	b
Vene	Vene	0		H	sg n
maalt	maa	lt		S	sg abl
üte	üte	0		S	sg n
aida	ait	0		S	sg g
ostnu	ost	nud		V	nud
ja	ja	0		H	sg n
sinna	sinna	0		D	
üles	üles	0		D	
pandnu	pane	nud		V	nud
.	.			Z	
</s>					
<s>					
Et	et	0		J	
Peedu	Peedu	0		H	sg n
nüüd	nüüd	0		D	
pime	pime	0		A	sg n
sand	####				
om	ole	0		V	b
ja	ja	0		H	sg n
üttegi	üte	0	gi	S	sg g
pani	pane	i		V	s
paika	paik	0		S	adt
ei	ei	0		V	neg
ole	ole	0		V	o
ja	ja	0		H	sg n
muretata	####				
ei	ei	0		V	neg
jouva	####				
sis	siis	0		D	
pallep	####				
Peedu	Peedu	0		H	sg n
et	et	0		J	
temale	tema	le		P	sg all
see	see	0		P	sg n
aid	####				
poja	poeg	0		S	sg g
    	poja	0		S	sg g
Karli	Karli	0		H	sg n
käest	käsi	st		S	sg el
kätte	käsi	tte		S	adt
saas	####				
mes	mis	0		P	sg n
tema	tema	0		P	sg g
esi	esi	0		S	sg n
ostnu	ost	nud		V	nud
om	ole	0		V	b
.	.			Z	
</s>					
<s>					
Tunnistaja	tunnistaja	0		S	sg n
Jaan	Jaan	0		H	sg n
Lepland	Lepland	0		H	sg n
ütel	ütle	0		V	s
ka	ka	0		D	
õige	õige	0		A	sg n
olevat	ole	vat		V	vat
et	et	0		J	
Peedu	Peedu	0		H	sg n
see	see	0		P	sg n
aida	ait	0		S	sg g
ostnu	ost	nud		V	nud
om	ole	0		V	b
.	.			Z	
</s>					
<s>					
Kohus	kohus	0		S	sg n
mõist	####				
et	et	0		J	
Pedu	Pedu	0		H	sg n
peab	pida	b		V	b
oma	oma	0		P	sg g
aid	####				
kätte	käsi	tte		S	adt
saama	saa	ma		V	ma
.	.			Z	
</s>					
