<s>					
Kaivas	Kaivas	0		H	sg n
Rein	Rein	0		H	sg n
Simmuland	Simmuland	0		H	sg n
et	et	0		J	
Adu	Adu	0		H	sg n
Karpson	Karpson	0		H	sg n
om	ole	0		V	b
tema	tema	0		P	sg g
söögilauva	####				
manu	manu	0		K	
tullu	tule	nu		V	nud
ja	ja	0		H	sg n
pöksi	püks	0		S	pl n
maha	maha	0		D	
lasknu	lask	nud		V	nud
ja	ja	0		H	sg n
perse	perse	0		S	adt
lauva	####				
pääle	peale	0		K	
jaajanu	####				
ja	ja	0		H	sg n
ütelnu	ütle	nud		V	nud
söö	söö	0		V	o
nüüd	nüüd	0		D	
zeanägo	####				
,	,			Z	
sis	siis	0		D	
om	ole	0		V	b
Rein	Rein	0		H	sg n
teda	tema	da		P	sg p
tõuganu	tõuka	nud		V	nud
.	.			Z	
</s>					
<s>					
Ette	ette	0		D	
tulli	tule	i		V	s
Adu	Adu	0		H	sg n
Karpson	Karpson	0		H	sg n
ja	ja	0		H	sg n
ütel	ütle	0		V	s
et	et	0		J	
see	see	0		P	sg n
mitte	mitte	0		D	
õige	õige	0		A	sg n
ei	ei	0		V	neg
ole	ole	0		V	o
mes	mis	0		P	sg n
Rein	Rein	0		H	sg n
kõnelnu	kõnele	nud		V	nud
om	ole	0		V	b
,	,			Z	
ent	ent	0		J	
Rein	Rein	0		H	sg n
om	ole	0		V	b
teda	tema	da		P	sg p
enne	enne	0		K	
löönu	löö	nud		V	nud
.	.			Z	
</s>					
<s>					
Kumbgi	####				
kohtu	kohus	0		S	sg g
ette	ette	0		K	
es	ei	s		V	neg s
tule	tule	0		V	o
.	.			Z	
</s>					
