<s>					
Pallelsiva	####				
vallavanemb	####				
Paap	Paap	0		H	sg n
Lepman	Lepman	0		H	sg n
ja	ja	0		H	sg n
nõumees	nõu_mees	0		S	sg n
Jakob	Jakob	0		H	sg n
Parmak	Parmak	0		H	sg n
neide	neid	e		S	pl p
kaibuse	####				
asja	asi	0		S	sg g
see	see	0		P	sg n
mõisa	mõis	0		S	sg g
auvalikko	####				
peris	####				
herra	härra	0		S	sg n
vasta	vasta	0		V	o
protokolli	protokoll	0		S	sg g
raamatute	raamat	te		S	pl g
üles	üles	0		D	
võtta	võt	a		V	da
.	.			Z	
</s>					
<s>					
Ütel	Ütel	0		H	sg n
vallavanemb	####				
Paap	Paap	0		H	sg n
Lepman	Lepman	0		H	sg n
et	et	0		J	
see	see	0		P	sg n
mõisa	mõis	0		S	sg g
auvolik	####				
peris	####				
herra	härra	0		S	sg n
om	ole	0		V	b
teda	tema	da		P	sg p
pühapäiv	####				
sel	see	l		P	sg ad
17.	17.	0		O	?
s.k	####				
.	.			Z	
</s>					
<s>					
henda	ise	0		P	sg g
manu	manu	0		K	
kutsnu	####				
ja	ja	0		H	sg n
ütelnu	ütle	nud		V	nud
et	et	0		J	
eespaiv	####				
sel	see	l		P	sg ad
18.	18.	0		O	?
s.k	####				
.	.			Z	
</s>					
<s>					
saap	saa	b		V	b
selle	see	0		P	sg g
kogokonna	kogukond	0		S	sg g
kohtu	kohus	0		S	sg g
een	eest	0		K	
sinu	sina	0		P	sg g
maja	maja	0		S	sg g
kondrakt	####				
ette	ette	0		D	
loetus	loetu	s		S	sg in
,	,			Z	
ja	ja	0		H	sg n
lubanu	luba	nud		V	nud
kui	kui	0		D	
   	kui	0		J	
tema	tema	0		P	sg g
kondrakti	####				
(	(			Z	
va	va	0		A	
)	)			Z	
ilusaste	ilus_aste	0		S	sg g
vasta	vasta	0		V	o
võtab	võt	b		V	b
temaga	tema	ga		P	sg kom
õige	õige	0		A	sg g
odavaste	oda_vaste	0		S	sg g
leppi	lepp	i		S	pl p
.	.			Z	
</s>					
<s>					
Ülevan	####				
nimitetu	####				
vallavanemb	####				
om	ole	0		V	b
eespäiv	####				
nii	nii	0		D	
kauva	####				
kui	kui	0		D	
   	kui	0		J	
odanguni	####				
oodnu	####				
et	et	0		J	
nii	nii	0		D	
kui	kui	0		D	
   	kui	0		J	
lubanu	luba	nud		V	nud
olli	ole	i		V	s
,	,			Z	
kog	####				
.	.			Z	
</s>					
<s>					
kohtu	kohus	0		S	sg g
een	esi	st		S	sg el
temale	tema	le		P	sg all
kondrakti	####				
anda	and	a		V	da
nink	ning	0		J	
ei	ei	0		V	neg
ole	ole	0		V	o
keagi	####				
temale	tema	le		P	sg all
andma	and	ma		V	ma
,	,			Z	
sis	siis	0		D	
om	ole	0		V	b
tema	tema	0		P	sg g
kui	kui	0		D	
   	kui	0		J	
oma	oma	0		P	sg g
talitustega	talitus	tega		S	pl kom
valmis	valmis	0		D	
olli	ole	i		V	s
kodo	kodu	0		S	sg in
lännu	mine	nu		V	nud
,	,			Z	
sis	siis	0		D	
om	ole	0		V	b
herr	####				
temale	tema	le		P	sg all
pääkohtumehe	####				
Mihkli	Mihkli	0		H	sg n
Mustinge	Musting	0		H	sg g
perra	järele	0		K	
saadnu	####				
ja	ja	0		H	sg n
tagasi	tagasi	0		K	
kutsu	kutsu	0		V	o
lasknu	lask	nud		V	nud
,	,			Z	
P.	P.	0		Y	sg n
Lepman	Lepman	0		H	sg n
om	ole	0		V	b
tagasi	tagasi	0		K	
tullu	tule	nu		V	nud
ja	ja	0		H	sg n
herra	härra	0		S	sg g
käsu	käsk	0		S	sg g
pääle	peale	0		K	
manu	manu	0		K	
läänu	mine	nu		V	nud
,	,			Z	
ja	ja	0		H	sg n
ka	ka	0		D	
pääkoh	####				
.	.			Z	
</s>					
<s>					
M.	M.	0		Y	sg n
Musting	Musting	0		H	sg n
ja	ja	0		H	sg n
ka	ka	0		D	
abikoht	abi_koht	0		S	sg n
.	.			Z	
</s>					
<s>					
Jakob	Jakob	0		H	sg n
Lepland	Lepland	0		H	sg n
ning	ning	0		J	
Johan	Johan	0		H	sg n
Sepp	Sepp	0		H	sg n
nõumees	nõu_mees	0		S	sg n
Jakob	Jakob	0		H	sg n
Parmak	Parmak	0		H	sg n
temaga	tema	ga		P	sg kom
üten	ühes	0		D	
lännuva	####				
.	.			Z	
</s>					
<s>					
Sis	####				
om	ole	0		V	b
val	####				
.	.			Z	
</s>					
<s>					
vanb	####				
.	.			Z	
</s>					
<s>					
P.	P.	0		Y	sg n
Lepmanile	Lepman	le		H	sg all
kondrakt	####				
ette	ette	0		D	
loetu	loetu	0		S	sg n
,	,			Z	
nink	ning	0		J	
kusitu	####				
kas	kas	0		D	
tema	tema	0		P	sg g
oma	oma	0		P	sg g
maa	maa	0		S	sg g
kondrakti	####				
nii	nii	0		D	
tahab	taht	b		V	b
vasta	vasta	0		V	o
võtta	võt	a		V	da
,	,			Z	
sis	siis	0		D	
om	ole	0		V	b
P.	P.	0		Y	sg n
Lepman	Lepman	0		H	sg n
ütelnu	ütle	nud		V	nud
et	et	0		J	
nüüd	nüüd	0		D	
om	ole	0		V	b
jo	juba	0		D	
öö	öö	0		S	sg g
ja	ja	0		H	sg n
teije	####				
lubasite	luba	site		V	site
mulle	mina	lle		P	sg all
kog	####				
.	.			Z	
</s>					
<s>					
kohtu	kohus	0		S	sg g
een	esi	st		S	sg el
kondrakti	####				
anda	and	a		V	da
,	,			Z	
see	see	0		P	sg n
kondrakti	####				
perra	järele	0		D	
pea	pea	0		S	sg g
mina	mina	0		S	sg g
keik	kõik	0		P	sg n
täuveste	####				
käest	käsi	st		S	sg el
ära	ära	0		D	
andma	and	ma		V	ma
,	,			Z	
nii	nii	0		D	
kui	kui	0		D	
   	kui	0		J	
1865	1865	0		N	?
aastal	aasta	l		S	sg ad
es	ei	s		V	neg s
saa	saa	0		V	o
mina	mina	0		S	sg p
6	6	0		N	?
aasta	aasta	0		S	sg g
perast	pärast	0		D	
pean	pida	n		V	n
keik	kõik	0		P	sg n
tauveste	####				
käest	käsi	st		S	sg el
ära	ära	0		D	
andma	and	ma		V	ma
.	.			Z	
</s>					
<s>					
Ja	ja	0		J	
tahtnu	taht	nud		V	nud
herra	härra	0		S	sg g
tarest	tare	st		S	sg el
välja	välja	0		D	
tulla	tule	a		V	da
.	.			Z	
</s>					
<s>					
Sis	####				
om	ole	0		V	b
herr	####				
tullu	tule	nu		V	nud
ja	ja	0		H	sg n
P.	P.	0		Y	sg n
Lepmani	Lepman	0		H	sg g
rindu	rindu	0		D	
pidi	pidi	0		K	
võtnu	võt	nud		V	nud
ja	ja	0		H	sg n
raputanu	raputa=nu	0		S	sg n
nink	ning	0		J	
käsknu	####				
kaplu	####				
tuvva	####				
P.	P.	0		Y	sg n
Lepmani	Lepman	0		H	sg g
kinni	kinni	0		D	
keita	####				
,	,			Z	
sis	siis	0		D	
om	ole	0		V	b
kapla	####				
toodu	toodu	0		S	sg n
ja	ja	0		H	sg n
herr	####				
käsnu	käski	nud		V	nud
pääkoh	####				
.	.			Z	
</s>					
<s>					
M.	M.	0		Y	sg n
Mustingel	Musting	l		H	sg ad
P.	P.	0		Y	sg n
Lepmani	Lepman	0		H	sg g
kinni	kinni	0		D	
keita	####				
.	.			Z	
</s>					
<s>					
M.	M.	0		Y	sg n
Musting	Musting	0		H	sg n
ei	ei	0		V	neg
ole	ole	0		V	o
keitnu	####				
ja	ja	0		H	sg n
ütelnu	ütle	nud		V	nud
mina	mina	0		P	sg n
ole	ole	0		V	o
esi	esi	0		S	pl p
ka	ka	0		D	
nii	nii	0		D	
sama	sama	0		P	sg n
keitetava	####				
,	,			Z	
sis	siis	0		D	
om	ole	0		V	b
P.	P.	0		Y	sg n
Lepman	Lepman	0		H	sg n
keitmada	####				
jaanu	jää	nud		V	nud
.	.			Z	
</s>					
<s>					
Jakob	Jakob	0		H	sg n
Parmakut	Parmak	t		H	sg p
om	ole	0		V	b
ka	ka	0		D	
herr	####				
rinnust	rind	ust		S	pl el
võtnu	võt	nud		V	nud
ja	ja	0		H	sg n
visanu	visa=nu	0		S	sg n
.	.			Z	
</s>					
<s>					
Ja	ja	0		J	
pääle	peale	0		K	
too	too	0		P	sg n
om	ole	0		V	b
herr	####				
ütelnu	ütle	nud		V	nud
kas	kas	0		D	
mina	mina	0		S	sg n
või	või	0		J	
Kahkva	Kahkva	0		H	sg n
mõisa	mõis	0		S	sg g
kaota	kaota	0		V	o
,	,			Z	
P.	P.	0		Y	sg n
Lepman	Lepman	0		H	sg n
ja	ja	0		H	sg n
J.	J.	0		Y	sg n
Parmak	Parmak	0		H	sg n
ei	ei	0		V	neg
pea	pida	0		V	o
mitte	mitte	0		D	
üte	üte	0		S	sg n
vakamaad	vaka_maa	d		S	pl n
siist	####				
Kahkva	Kahkva	0		H	sg n
vallast	vallast	st		H	sg n
saama	saa	ma		V	ma
.	.			Z	
</s>					
<s>					
Pääkohtumees	####				
M.	M.	0		Y	sg n
Musting	Musting	0		H	sg n
ja	ja	0		H	sg n
abi	abi	0		S	sg g
kohtumees	kohtu_mees	0		S	sg n
J.	J.	0		Y	sg n
Lepland	Lepland	0		H	sg n
ütliva	####				
nii	nii	0		D	
õige	õige	0		A	sg n
olevad	olev	d		A	pl n
mes	mis	0		P	sg n
nema	tema	0		P	pl n
esi	esi	0		S	pl p
ka	ka	0		D	
omma	oma	0		P	sg g
nännu	näge	nu		V	nud
nii	nii	0		D	
ku	####				
ülevan	üleval	0		D	
kõneldu	kõneldu	0		S	sg n
om	ole	0		V	b
.	.			Z	
</s>					
<s>					
Pallel	Pallel	0		H	sg n
see	see	0		P	sg n
kog	####				
.	.			Z	
</s>					
<s>					
kohus	kohus	0		S	sg n
kihelkonna	kihelkond	0		S	sg g
kohtul	kohus	l		S	sg ad
seda	see	da		P	sg p
asja	asi	0		S	sg g
üle	üle	0		K	
kulelda	####				
.	.			Z	
</s>					
