<s>					
Kaivas	Kaivas	0		H	sg n
Peep	Peep	0		H	sg n
Lepmann	Lepmann	0		H	sg n
et	et	0		J	
temale	tema	le		P	sg all
om	ole	0		V	b
mõisa	mõis	0		S	sg g
poolest	poolest	0		K	
täämba	####				
veel	veel	0		D	
edimalt	####				
kuulutetu	####				
et	et	0		J	
tema	tema	0		P	sg g
maja	maja	0		S	sg g
kondrakt	####				
tahetavad	tahe=tav	d		A	pl n
murda	murd	a		V	da
mes	mis	0		P	sg n
temale	tema	le		P	sg all
märtsi	märts	0		S	sg g
kuul	kuu	l		S	sg ad
peris	####				
herra	härra	0		S	sg n
om	ole	0		V	b
lubanu	luba	nud		V	nud
et	et	0		J	
võib	või	b		V	b
vastse	vastne	0		A	sg g
rentnikuga	rentnik	ga		S	sg kom
leppi	lepp	i		S	pl p
ja	ja	0		H	sg n
tõist	####				
kõrda	####				
om	ole	0		V	b
herra	härra	0		S	sg n
sel	see	l		P	sg ad
18.	18.	0		O	?
aprillil	aprill	l		S	sg ad
ütelnu	ütle	nud		V	nud
et	et	0		J	
minu	mina	0		P	sg g
poolest	poolest	0		K	
om	ole	0		V	b
keelmata	####				
vastse	vastne	0		A	sg g
rentnikuga	rentnik	ga		S	sg kom
leppi	lepp	i		S	pl p
et	et	0		J	
kas	kas	0		D	
tema	tema	0		P	sg n
lepib	leppi	b		V	b
sinuga	sina	ga		P	sg kom
25	25	0		N	?
kop	kop	0		Y	?
ehk	ehk	0		J	
25	25	0		N	?
rubla	rubla	0		S	sg g
eest	eest	0		K	
ehk	ehk	0		D	
võtab	võt	b		V	b
sinu	sina	0		P	sg g
käest	käsi	st		S	sg el
mitu	mitu	0		P	sg n
sada	sada	0		N	sg n
.	.			Z	
</s>					
<s>					
See	see	0		P	sg n
pääle	peale	0		K	
om	ole	0		V	b
P.	P.	0		Y	sg n
Lepman	Lepman	0		H	sg n
vastsega	vastne	ga		S	sg kom
ära	ära	0		D	
lepnu	####				
ja	ja	0		H	sg n
välja	välja	0		D	
masnu	maks	nu		V	nud
,	,			Z	
ja	ja	0		H	sg n
nüüd	nüüd	0		D	
ei	ei	0		V	neg
taha	taht	0		V	o
herra	härra	0		S	sg n
mitte	mitte	0		D	
rahul	rahul	0		D	
olla	ole	a		V	da
ja	ja	0		H	sg n
tahab	taht	b		V	b
renti	rent	0		S	sg p
pääle	peale	0		K	
panda	panda	0		S	sg n
.	.			Z	
</s>					
<s>					
Kogokonna	Kogokonna	0		H	sg n
kohus	kohus	0		S	sg n
es	ei	s		V	neg s
või	või	0		J	
see	see	0		P	sg n
pääle	peale	0		K	
midagi	miski	dagi		P	sg p
mõista	mõist	a		V	da
ja	ja	0		H	sg n
arvab	arva	b		V	b
kui	kui	0		D	
   	kui	0		J	
herra	härra	0		S	sg n
lubanu	luba	nud		V	nud
om	ole	0		V	b
et	et	0		J	
sis	siis	0		D	
saa	saa	0		V	o
herra	härra	0		S	sg n
ka	ka	0		D	
renti	rent	0		S	sg p
pääle	peale	0		K	
pandma	####				
.	.			Z	
</s>					
