<s>					
Kaivas	Kaivas	0		H	sg n
Viido	Viidu	0		H	sg n
Simmulad	Simmulad	d		H	sg n
et	et	0		J	
kubijas	####				
Viido	Viidu	0		H	sg n
Ritsing	Ritsing	0		H	sg n
,	,			Z	
ja	ja	0		H	sg n
Hendrik	Hendrik	0		H	sg n
Leppind	Leppind	0		H	sg n
sel	see	l		P	sg ad
3.	3.	0		O	?
s	s	0		Y	?
.	.			Z	
k	k	0		Y	?
.	.			Z	
tema	tema	0		P	sg g
maija	####				
tulluva	####				
ja	ja	0		H	sg n
ütelnu	ütle	nud		V	nud
et	et	0		J	
neil	tema	l		P	pl ad
äkli	####				
om	ole	0		V	b
ära	ära	0		D	
kadunu	kadu	nud		V	nud
,	,			Z	
ja	ja	0		H	sg n
om	ole	0		V	b
keik	kõik	0		P	sg n
maja	maja	0		S	sg g
hooned	hoone	d		S	pl n
läbi	läbi	0		D	
otsnuva	####				
,	,			Z	
ja	ja	0		H	sg n
sis	siis	0		D	
mõtsa	mets	0		S	sg g
otsma	####				
lännuva	####				
,	,			Z	
ja	ja	0		H	sg n
kui	kui	0		D	
   	kui	0		J	
mõtsast	mets	st		S	sg el
om	ole	0		V	b
tagasi	tagasi	0		D	
tulluva	####				
,	,			Z	
sis	siis	0		D	
om	ole	0		V	b
kubijas	####				
ütelnu	ütle	nud		V	nud
Viido	Viidu	0		H	sg n
Simmulandi	Simmulad	0		H	sg g
naisele	naine	le		S	sg all
kui	kui	0		D	
   	kui	0		J	
teije	####				
enne	enne	0		D	
es	ei	s		V	neg s
mõista	mõist	a		V	da
kätte	käsi	tte		S	adt
anda	and	a		V	da
,	,			Z	
küll	küll	0		D	
viijas	viija	s		S	sg in
teije	####				
elaja	elajas	0		S	sg g
käest	käest	0		K	
kui	kui	0		D	
   	kui	0		J	
äkli	####				
kätte	käsi	tte		S	adt
saava	saav	0		A	sg g
.	.			Z	
</s>					
<s>					
Ja	ja	0		J	
V.	V.	0		Y	sg n
Simmulandi	Simmulad	0		H	sg g
naine	naine	0		S	sg n
om	ole	0		V	b
sis	siis	0		D	
väiga	väi	ga		S	sg kom
ära	ära	0		D	
heitinu	####				
,	,			Z	
ja	ja	0		H	sg n
om	ole	0		V	b
roos	roos	0		S	sg n
rinda	rind	0		S	sg p
löönu	löö	nud		V	nud
.	.			Z	
</s>					
<s>					
Ette	ette	0		D	
tulli	tule	i		V	s
Viido	Viidu	0		H	sg n
Ritsing	Ritsing	0		H	sg n
ja	ja	0		H	sg n
ütel	ütle	0		V	s
et	et	0		J	
Peeter	Peeter	0		H	sg n
Zernask	Zernask	0		H	sg n
om	ole	0		V	b
ütelnu	ütle	nud		V	nud
et	et	0		J	
nedal	####				
enne	enne	0		K	
äkli	####				
otsmist	otsmine	t		A	sg p
om	ole	0		V	b
jo	juba	0		D	
V.	V.	0		Y	sg n
Simmulandi	Simmulad	0		H	sg g
naisel	naine	l		S	sg ad
rind	rind	0		S	sg n
aige	####				
ollu	ole	lu		V	nud
.	.			Z	
</s>					
<s>					
Ette	ette	0		D	
tulli	tule	i		V	s
Peeter	Peeter	0		H	sg n
Zernask	Zernask	0		H	sg n
ja	ja	0		H	sg n
ütel	ütle	0		V	s
et	et	0		J	
sel	see	l		P	sg ad
samal	sama	l		P	sg ad
päival	päev 	l		S	sg ad
kui	kui	0		D	
   	kui	0		J	
äkle	####				
om	ole	0		V	b
otsitu	otsitud	0		A	sg g
om	ole	0		V	b
Viido	Viidu	0		H	sg n
Simmuland	Simmuland	0		H	sg n
tema	tema	0		P	sg g
poole	poole	0		K	
tullu	tule	nu		V	nud
ja	ja	0		H	sg n
pallelnu	palu	nud		V	nud
et	et	0		J	
Peeter	Peeter	0		H	sg n
tema	tema	0		P	sg g
naise	naine	0		S	sg g
rinna	rind	0		S	sg g
pääle	peale	0		K	
kirjutas	kirjuta	s		V	s
.	.			Z	
</s>					
<s>					
Ja	ja	0		J	
P.	P.	0		Y	sg n
Zernask	Zernask	0		H	sg n
ütel	ütle	0		V	s
et	et	0		J	
V.	V.	0		Y	sg n
Simmulandi	Simmulad	0		H	sg g
naise	naine	0		S	sg g
rind	rind	0		S	sg n
õige	õige	0		A	sg n
sagest	####				
seda	see	da		P	sg p
viisi	viis	0		S	sg p
aige	####				
om	ole	0		V	b
ollu	ole	lu		V	nud
.	.			Z	
</s>					
<s>					
Kaibaja	####				
enamb	enam	0		D	
kohut	kohus	t		S	sg p
es	ei	s		V	neg s
otsi	otsi	0		V	o
jäi	jää	i		V	s
see	see	0		P	sg n
asi	asi	0		S	sg n
saisma	####				
.	.			Z	
</s>					
