<s>					
Kaivas	Kaivas	0		H	sg n
Peeter	Peeter	0		H	sg n
Mälton	Mälton	0		H	sg n
et	et	0		J	
Peeter	Peeter	0		H	sg n
ja	ja	0		H	sg n
Hendrik	Hendrik	0		H	sg n
Vähk	Vähk	0		H	sg n
omma	oma	0		P	sg g
sel	see	l		P	sg ad
29.	29.	0		O	?
novembril	november	l		S	sg ad
hommugu	####				
tema	tema	0		P	sg g
käest	käest	0		K	
tema	tema	0		P	sg g
kolkmata	####				
linad	lina	d		S	pl n
31	31	0		N	?
kubu	kubu	0		S	sg n
mes	mis	0		P	sg n
tema	tema	0		P	sg g
tahtnu	taht	nud		V	nud
vija	####				
ja	ja	0		H	sg n
nee	see	d		P	pl n
nimitetu	####				
mehhe	####				
temal	tema	l		P	sg ad
suure	suur	0		A	sg g
tee	tee	0		S	sg g
pääl	peal	0		K	
nee	see	d		P	pl n
lina	lina	0		S	sg n
tema	tema	0		P	sg g
käest	käest	0		K	
ära	ära	0		D	
võtnu	võt	nud		V	nud
.	.			Z	
</s>					
<s>					
Ette	ette	0		D	
tulli	tule	i		V	s
Peeter	Peeter	0		H	sg n
Vähk	Vähk	0		H	sg n
ja	ja	0		H	sg n
ütel	ütle	0		V	s
et	et	0		J	
tema	tema	0		P	sg n
om	ole	0		V	b
nee	see	d		P	pl n
lina	lina	0		S	sg n
see	see	0		P	sg n
perast	pärast	0		D	
kinni	kinni	0		D	
pandnu	pane	nud		V	nud
et	et	0		J	
Peeter	Peeter	0		H	sg n
Mälton	Mälton	0		H	sg n
temale	tema	le		P	sg all
4	4	0		N	?
rubla	rubla	0		S	sg p
raha	raha	0		S	sg n
ja	ja	0		H	sg n
1/3	1/3	0		N	?
seermit	####				
võlgo	võlg	u		S	pl p
om	ole	0		V	b
ja	ja	0		H	sg n
Hendrik	Hendrik	0		H	sg n
Vähjale	Vähjale	0		H	sg n
P.	P.	0		Y	sg n
Mälton	Mälton	0		H	sg n
21	21	0		N	?
rubla	rubla	0		S	sg p
võlgo	võlg	u		S	pl p
om	ole	0		V	b
.	.			Z	
</s>					
<s>					
Adam	Adam	0		H	sg n
Mälton	Mälton	0		H	sg n
ütel	ütle	0		V	s
et	et	0		J	
Peeter	Peeter	0		H	sg n
om	ole	0		V	b
nee	see	d		P	pl n
lina	lina	0		S	sg n
16	16	0		N	?
kubu	kubu	0		S	sg p
tema	tema	0		P	sg g
käest	käest	0		K	
saanu	saa	nud		V	nud
.	.			Z	
</s>					
<s>					
Kohus	kohus	0		S	sg n
om	ole	0		V	b
nee	see	d		P	pl n
lina	lina	0		S	sg g
keelo	####				
alla	alla	0		D	
pandnu	pane	nud		V	nud
,	,			Z	
nii	nii	0		D	
kauges	kauge	s		A	sg in
kui	kui	0		D	
   	kui	0		J	
P.	P.	0		Y	sg n
Mälton	Mälton	0		H	sg n
oma	oma	0		P	sg g
võla	võlg	0		S	sg g
ära	ära	0		D	
massab	maks	b		V	b
.	.			Z	
</s>					
<s>					
Kohus	kohus	0		S	sg n
mõist	####				
et	et	0		J	
nee	see	d		P	pl n
lina	lina	0		S	sg n
ka	ka	0		D	
selle	see	0		P	sg g
perast	pärast	0		D	
võisiva	####				
keelu	keeld	0		S	sg g
alla	alla	0		K	
pantus	####				
saada	saa	da		V	da
et	et	0		J	
Peeter	Peeter	0		H	sg n
Mälton	Mälton	0		H	sg n
es	ei	s		V	neg s
või	või	0		D	
mitte	mitte	0		D	
põllo	####				
põhko	####				
Räpinale	Räpina	le		H	sg all
vija	####				
.	.			Z	
</s>					
<s>					
Ja	ja	0		J	
tõiselt	####				
et	et	0		J	
nee	see	d		P	pl n
lina	lina	0		S	sg n
om	ole	0		V	b
Adam	Adam	0		H	sg n
Mältoni	Mälton	0		H	sg g
maa	maa	0		S	sg g
pääl	pea	l		S	sg ad
kasunu	####				
kes	kes	0		P	sg n
esi	esi	0		S	sg n
oksjoni	oksjon	0		S	sg g
alla	alla	0		K	
om	ole	0		V	b
kirjutetu	####				
.	.			Z	
</s>					
