<s>					
Kaivas	Kaivas	0		H	sg n
Andri	Andri	0		H	sg n
Ülke	Ülke	0		H	sg n
Verioralt	Verioralt	lt		H	sg n
,	,			Z	
et	et	0		J	
Ado	Ado	0		H	sg n
ja	ja	0		H	sg n
Andri	Andri	0		H	sg n
Linder	Linder	0		H	sg n
om	ole	0		V	b
kevade	kevad	0		S	sg g
      	kevade	0		S	sg g
1867	1867	0		N	?
tema	tema	0		P	sg g
käest	käest	0		K	
10	10	0		N	?
rubla	rubla	0		S	sg p
raha	raha	0		S	sg g
lainanu	####				
see	see	0		P	sg n
pääle	peale	0		K	
et	et	0		J	
Andri	Andri	0		H	sg n
Linder	Linder	0		H	sg n
oles	oles	0		S	sg n
temale	tema	le		P	sg all
maaga	maa	ga		S	sg kom
seda	see	da		P	sg p
raha	raha	0		S	sg p
ära	ära	0		D	
tasunu	tasu=nu	0		S	sg n
ja	ja	0		H	sg n
Andri	Andri	0		H	sg n
Linder	Linder	0		H	sg n
ei	ei	0		V	neg
ole	ole	0		V	o
mitte	mitte	0		D	
maad	maa	d		S	sg p
ei	ei	0		V	neg
ka	ka	0		D	
raha	raha	0		S	sg g
tagasi	tagasi	0		K	
masnu	maks	nu		V	nud
.	.			Z	
</s>					
<s>					
Sel	sel	0		Y	?
12.	12.	0		O	?
veebruaril	veebruar	l		S	sg ad
tulli	tule	i		V	s
ette	ette	0		D	
Andri	Andri	0		H	sg n
Linder	Linder	0		H	sg n
ja	ja	0		H	sg n
ütel	ütle	0		V	s
et	et	0		J	
tema	tema	0		P	sg n
om	ole	0		V	b
A.	A.	0		Y	sg n
Ülkele	Ülke	le		H	sg all
sugisi	####				
rükki	####				
paknu	####				
ja	ja	0		H	sg n
A.	A.	0		Y	sg n
Ülke	Ülke	0		H	sg n
ei	ei	0		V	neg
ole	ole	0		V	o
võtnu	võt	nud		V	nud
ent	ent	0		J	
om	ole	0		V	b
ka	ka	0		D	
3	3	0		N	?
rubla	rubla	0		S	sg p
raha	raha	0		S	sg g
paknu	####				
ja	ja	0		H	sg n
A.	A.	0		Y	sg n
Ülke	Ülke	0		H	sg n
ei	ei	0		V	neg
ole	ole	0		V	o
ka	ka	0		D	
võtnu	võt	nud		V	nud
ent	ent	0		J	
om	ole	0		V	b
kõike	kõik	0		P	sg p
raha	raha	0		S	sg p
tahtnu	taht	nud		V	nud
,	,			Z	
ja	ja	0		H	sg n
nüüd	nüüd	0		D	
mass	mass	0		S	sg n
Andri	Andri	0		H	sg n
Linder	Linder	0		H	sg n
5	5	0		N	?
rubla	rubla	0		S	sg p
siin	siin	0		D	
kohtu	kohus	0		S	sg g
een	eest	0		K	
,	,			Z	
ära	ära	0		D	
ja	ja	0		H	sg n
jääb	jää	b		V	b
veel	veel	0		D	
5	5	0		N	?
rubla	rubla	0		S	sg p
võlgo	võlgu	0		D	
mes	mis	0		P	sg n
tema	tema	0		P	sg g
urbe	urve	0		S	sg g
päevas	päev	s		S	sg in
lubas	luba	s		V	s
ära	ära	0		D	
massa	maks	0		S	sg g
Andri	Andri	0		H	sg n
Ülkele	Ülke	le		H	sg all
.	.			Z	
</s>					
