<s>					
Kaivas	Kaivas	0		H	sg n
Peep	Peep	0		H	sg n
Simmulmani	Simmulman	0		H	sg g
naine	naine	0		S	sg n
Vijo	Vijo	0		H	sg n
et	et	0		J	
temal	tema	l		P	sg ad
om	ole	0		V	b
pööningilt	####				
4	4	0		N	?
zirpi	####				
ära	ära	0		D	
kadunu	kadu	nud		V	nud
ja	ja	0		H	sg n
neljapäiv	####				
om	ole	0		V	b
tema	tema	0		P	sg g
üts	üks	0		P	sg n
neist	see	st		P	pl el
kadunust	kadunu	st		S	sg el
zirpest	####				
Peeter	Peeter	0		H	sg n
Kristuvingi	Kristuvingi	0		H	sg n
tütriku	####				
käest	käsi	st		S	sg el
kätte	käsi	tte		S	adt
saanu	saa	nud		V	nud
,	,			Z	
sis	siis	0		D	
om	ole	0		V	b
P.	P.	0		Y	sg n
Kristuvingi	Kristuvingi	0		H	sg n
naine	naine	0		S	sg n
temale	tema	le		P	sg all
üles	üles	0		D	
tare	tare	0		S	sg n
pääle	peale	0		K	
tullu	tule	nu		V	nud
ja	ja	0		H	sg n
teda	tema	da		P	sg p
pesnu	peks	nud		V	nud
3	3	0		N	?
kõrd	kord	0		S	sg n
rusikuga	####				
löönu	löö	nud		V	nud
ja	ja	0		H	sg n
sängi	säng	0		S	sg p
vasta	vasta	0		V	o
tõuganu	tõuka	nud		V	nud
,	,			Z	
nink	ning	0		J	
Vijo	Vijo	0		H	sg n
om	ole	0		V	b
kaits	####				
päiva	päev	0		S	sg g
aige	####				
ollu	ole	lu		V	nud
.	.			Z	
</s>					
<s>					
Ette	ette	0		D	
tulli	tule	i		V	s
Peeter	Peeter	0		H	sg n
Kristvingi	Kristuvin	0		H	sg g
naine	naine	0		S	sg n
Lota	Lota	0		H	sg n
ja	ja	0		H	sg n
ütel	ütle	0		V	s
:	:			Z	
et	et	0		J	
tema	tema	0		P	sg n
om	ole	0		V	b
oma	oma	0		P	sg g
zirpi	####				
perra	järele	0		D	
üles	üles	0		D	
tarre	tare	0		S	adt
lännu	mine	nu		V	nud
mes	mis	0		P	sg n
Vijo	Vijo	0		H	sg n
om	ole	0		V	b
tema	tema	0		P	sg g
käest	käest	0		K	
ära	ära	0		D	
võtnu	võt	nud		V	nud
,	,			Z	
sis	siis	0		D	
om	ole	0		V	b
Vijo	Vijo	0		H	sg n
Zirpi	Zirpi	0		H	sg n
katski	####				
murdnu	murd	nud		V	nud
ja	ja	0		H	sg n
temale	tema	le		P	sg all
sälga	####				
visanu	visa=nu	0		S	sg g
see	see	0		P	sg n
pääle	peale	0		K	
om	ole	0		V	b
Lotta	####				
Vijo	Vijo	0		H	sg n
räti	rätt	0		S	sg g
pääst	####				
ära	ära	0		D	
tõmanu	####				
,	,			Z	
sis	siis	0		D	
om	ole	0		V	b
Vijo	Vijo	0		H	sg n
temale	tema	le		P	sg all
iks	iks	0		S	sg n
rusikitega	####				
sälga	####				
pesnu	peks	nud		V	nud
.	.			Z	
</s>					
<s>					
Ette	ette	0		D	
tulli	tule	i		V	s
Peeter	Peeter	0		H	sg n
Kristuvin	Kristuvin	0		H	sg n
ja	ja	0		H	sg n
ütel	ütle	0		V	s
et	et	0		J	
see	see	0		P	sg n
tema	tema	0		P	sg g
zirp	####				
om	ole	0		V	b
ollu	ole	lu		V	nud
mes	mis	0		P	sg n
Peep	Peep	0		H	sg n
Simmulmani	Simmulman	0		H	sg g
naine	naine	0		S	sg n
om	ole	0		V	b
ära	ära	0		D	
võtnu	võt	nud		V	nud
,	,			Z	
ja	ja	0		H	sg n
sel	see	l		P	sg ad
zirpil	####				
midagi	miski	dagi		P	sg p
märki	märk	0		S	sg p
küllen	####				
ei	ei	0		V	neg
ole	ole	0		V	o
8	8	0		N	?
aasta	aasta	0		S	sg g
eest	eest	0		K	
ostetu	oste=tu	0		S	sg n
ja	ja	0		H	sg n
löödu	löödud	0		A	sg g
hammastega	hammas	tega		S	pl kom
.	.			Z	
</s>					
<s>					
Tunistaja	Tunistaja	0		H	sg n
Joosep	Joosep	0		H	sg n
Krigoland	Krigoland	0		H	sg n
ütel	ütle	0		V	s
et	et	0		J	
tema	tema	0		P	sg n
om	ole	0		V	b
nannu	####				
kui	kui	0		D	
   	kui	0		J	
Peeter	Peeter	0		H	sg n
Kristuvingi	Kristuvingi	0		H	sg n
naine	naine	0		S	sg n
om	ole	0		V	b
Peep	Peep	0		H	sg n
Simmulmani	Simmulman	0		H	sg g
tarre	tare	0		S	adt
tullu	tule	nu		V	nud
ja	ja	0		H	sg n
P.	P.	0		Y	sg n
Simmulmani	Simmulman	0		H	sg g
naise	naine	0		S	sg g
käest	käest	0		K	
zirpi	####				
kisnu	####				
ja	ja	0		H	sg n
P.	P.	0		Y	sg n
Simmulmani	Simmulman	0		H	sg g
naine	naine	0		S	sg n
ei	ei	0		V	neg
ole	ole	0		V	o
zirpi	####				
andnu	and=nu	0		S	sg g
sis	siis	0		D	
om	ole	0		V	b
ära	ära	0		D	
lännu	mine	nu		V	nud
ja	ja	0		H	sg n
perast	pärast	0		D	
om	ole	0		V	b
P.	P.	0		Y	sg n
Kristuving	Kristu	0		H	sg g
jälle	jälle	0		D	
tullu	tule	nu		V	nud
ja	ja	0		H	sg n
tõrelnu	tõrele	nud		V	nud
ja	ja	0		H	sg n
ütelnu	ütle	nud		V	nud
kuis	kuis	0		D	
sina	sina	0		P	sg n
tohit	####				
minu	mina	0		P	sg g
zirpi	####				
ära	ära	0		D	
võtta	võt	a		V	da
.	.			Z	
</s>					
<s>					
Tunistaja	Tunistaja	0		H	sg n
Jaan	Jaan	0		H	sg n
Võikman	Võikman	0		H	sg n
ütel	ütle	0		V	s
,	,			Z	
et	et	0		J	
tema	tema	0		P	sg n
om	ole	0		V	b
nännu	näge	nu		V	nud
et	et	0		J	
Peeter	Peeter	0		H	sg n
Kristuving	Kristu	0		H	sg g
ja	ja	0		H	sg n
P.	P.	0		Y	sg n
</s>					
<s>					
K.	K.	0		Y	sg n
naine	naine	0		S	sg n
omma	oma	0		P	sg g
Peep	Peep	0		H	sg n
Simmulmani	Simmulman	0		H	sg g
naisega	naine	ga		S	sg kom
köögi	köök	0		S	sg g
trepi	trepp	0		S	sg g
pääl	peal	0		K	
tõrelnu	tõrele	nud		V	nud
ja	ja	0		H	sg n
Peetrel	Peeter	l		H	sg ad
om	ole	0		V	b
nui	nui	0		S	sg n
käen	käsi	s		S	sg in
ollu	ole	lu		V	nud
ja	ja	0		H	sg n
trepi	trepp	0		S	sg g
vasta	vasta	0		V	o
koputanu	koputa=nu	0		S	sg n
ja	ja	0		H	sg n
kui	kui	0		D	
   	kui	0		J	
om	ole	0		V	b
ära	ära	0		D	
lännuva	####				
sis	siis	0		D	
om	ole	0		V	b
Peeter	Peeter	0		H	sg n
Kristuving	Kristu	0		H	sg g
naine	naine	0		S	sg n
Peep	Peep	0		H	sg n
Simmulmani	Simmulman	0		H	sg g
naise	naine	0		S	sg g
pääst	####				
räti	rätt	0		S	sg g
tõmmanu	tõmba	nud		V	nud
,	,			Z	
P.	P.	0		Y	sg n
Simmulmani	Simmulman	0		H	sg g
naine	naine	0		S	sg n
om	ole	0		V	b
räti	rätt	0		S	sg g
kinni	kinni	0		D	
pidanu	pida	nud		V	nud
sis	siis	0		D	
om	ole	0		V	b
P.	P.	0		Y	sg n
</s>					
<s>					
K.	K.	0		Y	sg n
naine	naine	0		S	sg n
käe	käsi	0		S	sg g
pääle	peale	0		K	
löönu	löö	nud		V	nud
.	.			Z	
</s>					
<s>					
Kohus	kohus	0		S	sg n
mõist	####				
et	et	0		J	
Peeter	Peeter	0		H	sg n
Kristuving	Kristu	0		H	sg g
ütel	ütle	0		V	s
et	et	0		J	
tema	tema	0		P	sg g
zirpil	####				
midagi	miski	dagi		P	sg p
märki	märk	0		S	sg p
küllen	####				
ei	ei	0		V	neg
ole	ole	0		V	o
ja	ja	0		H	sg n
ommeti	####				
zirpil	####				
3	3	0		N	?
risti	rist	0		S	sg g
     	risti	0		S	sg g
pää	####				
küllen	####				
olli	ole	i		V	s
,	,			Z	
ei	ei	0		V	neg
ole	ole	0		V	o
see	see	0		P	sg n
zirp	####				
mitte	mitte	0		D	
P.	P.	0		Y	sg n
Kistuvingil	Kistuvingil	l		H	sg n
ja	ja	0		H	sg n
jääb	jää	b		V	b
Peep	Peep	0		H	sg n
Simmulmani	Simmulman	0		H	sg g
omas	oma	s		A	sg in
.	.			Z	
</s>					
<s>					
Ja	ja	0		J	
see	see	0		P	sg n
eest	eest	0		K	
et	et	0		J	
P.	P.	0		Y	sg n
Kristuving	Kristu	0		H	sg g
ja	ja	0		H	sg n
naine	naine	0		S	sg n
om	ole	0		V	b
üte	üte	0		S	sg n
rasejala	rase_jalg	0		S	sg g
naist	naine	t		S	sg p
riisnu	####				
ja	ja	0		H	sg n
ka	ka	0		D	
nuijaga	####				
ärkitanu	####				
saab	saa	b		V	b
Peeter	Peeter	0		H	sg n
Kristuving	Kristu	0		H	sg g
15	15	0		N	?
vitsa	vits	0		S	sg g
löögi	löök	0		S	sg g
ja	ja	0		H	sg n
peava	####				
see	see	0		P	sg n
P.	P.	0		Y	sg n
S.	S.	0		Y	sg n
naise	naine	0		S	sg g
rätt	rätt	0		S	sg n
ka	ka	0		D	
kätte	käsi	tte		S	adt
andma	and	ma		V	ma
.	.			Z	
</s>					
