<s>					
Kaivas	Kaivas	0		H	sg n
Mõtsasaks	Mõtsasaks	0		H	sg n
J.	J.	0		Y	sg n
Rosneck	Rosneck	0		H	sg n
et	et	0		J	
Peeter	Peeter	0		H	sg n
Kristuving	Kristu	0		H	sg g
om	ole	0		V	b
2	2	0		N	?
üte	üte	0		S	sg n
tollist	toll	st		S	sg el
lauda	laud	0		S	adt
varastanu	varasta	nud		V	nud
mõisa	mõis	0		S	sg g
murru	murd	0		S	sg g
päält	pea	lt		S	sg abl
.	.			Z	
</s>					
<s>					
Mõtsasaks	Mõtsasaks	0		H	sg n
nõus	nõus	0		D	
neide	neid	e		S	pl p
laude	####				
eest	eest	0		K	
96	96	0		N	?
kop	kop	0		Y	?
.	.			Z	
</s>					
<s>					
Ette	ette	0		D	
tulli	tule	i		V	s
Peeter	Peeter	0		H	sg n
Kristuving	Kristu	0		H	sg g
ja	ja	0		H	sg n
ütel	ütle	0		V	s
et	et	0		J	
kevaja	####				
kui	kui	0		D	
   	kui	0		J	
tema	tema	0		P	sg n
veel	veel	0		D	
karjus	karju	s		V	s
om	ole	0		V	b
ollu	ole	lu		V	nud
om	ole	0		V	b
temal	tema	l		P	sg ad
elajite	####				
palatist	palat	st		S	sg el
nee	see	d		P	pl n
lauva	####				
üle	üle	0		D	
jäänu	jää	nud		V	nud
ja	ja	0		H	sg n
tema	tema	0		P	sg n
om	ole	0		V	b
lauda	laut	0		S	sg g
pääle	peale	0		K	
pandnu	pane	nud		V	nud
.	.			Z	
</s>					
<s>					
Kohus	kohus	0		S	sg n
mõist	####				
et	et	0		J	
Peeter	Peeter	0		H	sg n
peab	pida	b		V	b
10	10	0		N	?
vitsa	vits	0		S	sg g
löögi	löök	0		S	sg g
ehk	ehk	0		J	
1	1	0		N	?
rubla	rubla	0		S	sg p
50	50	0		N	?
kop	kop	0		Y	?
raha	raha	0		S	sg p
trahvi	trahv	0		S	sg p
saama	saa	ma		V	ma
.	.			Z	
</s>					
<s>					
Mõtsasaks	Mõtsasaks	0		H	sg n
leppis	leppi	s		V	s
1	1	0		N	?
rubla	rubla	0		S	sg p
Peetrel	Peeter	l		H	sg ad
välja	välja	0		D	
massa	maks	0		S	adt
.	.			Z	
</s>					
<s>					
Sai	Sai	i		H	sg n
tärmin	tärmin	0		S	sg n
Petrele	Petrele	0		H	sg n
sahharipäivani	####				
antus	antud	s		A	sg in
.	.			Z	
</s>					
