<s>					
Kaivas	Kaivas	0		H	sg n
Mõisa	Mõisa	0		H	sg n
Sepp	Sepp	0		H	sg n
Daniel	Daniel	0		H	sg n
Märtman	Märtman	0		H	sg n
et	et	0		J	
mõisa	mõis	0		S	sg g
valitseija	####				
H.	H.	0		Y	sg n
Zärens	Zärens	0		H	sg n
om	ole	0		V	b
pooleterameiste	####				
sepa	sepp	0		S	sg g
töö	töö	0		S	sg g
eest	eest	0		K	
massa	maks	0		S	adt
lubanu	luba	nud		V	nud
ja	ja	0		H	sg n
oma	oma	0		P	sg g
käega	käsi	ga		S	sg kom
ristit	risti	t		S	sg p
manu	manu	0		K	
tennu	tege	nud		V	nud
kelle	kes	0		P	sg g
eest	eest	0		K	
tema	tema	0		P	sg n
vastutab	vastuta	b		V	b
,	,			Z	
nimelt	nimelt	0		D	
:	:			Z	
X	X	0		O	?
Karl	Karl	0		H	sg n
Villakov	Villakov	0		H	sg n
2	2	0		N	?
rubla	rubla	0		S	sg g
40	40	0		N	?
kop	kop	0		Y	?
</s>					
<s>					
X	X	0		O	?
Peep	Peep	0		H	sg n
Simmulman	Simmulman	0		H	sg n
70	70	0		N	?
kop	kop	0		Y	?
</s>					
<s>					
X	X	0		O	?
Peep	Peep	0		H	sg n
Brandt	Brandt	0		H	sg n
2	2	0		N	?
rubla	rubla	0		S	sg g
33	33	0		N	?
kop	kop	0		Y	?
</s>					
<s>					
X	X	0		O	?
Mihkel	Mihkel	0		H	sg n
Mändikese	Mändikese	0		H	sg n
70	70	0		N	?
kop	kop	0		Y	?
</s>					
<s>					
Ivvan	Ivvan	0		H	sg n
Ilm	Ilm	0		H	sg n
1	1	0		N	?
rubla	rubla	0		S	sg g
70	70	0		N	?
kop	kop	0		Y	?
</s>					
<s>					
Peep	Peep	0		H	sg n
Vija	Vija	0		H	sg n
1	1	0		N	?
rubla	rubla	0		S	sg g
70	70	0		N	?
kop	kop	0		Y	?
</s>					
<s>					
X	X	0		O	?
Andri	Andri	0		H	sg n
Linder	Linder	0		H	sg n
40	40	0		N	?
kop	kop	0		Y	?
</s>					
<s>					
Trangi	Trangi	0		H	sg n
Viido	Viidu	0		H	sg n
1	1	0		N	?
rubla	rubla	0		S	sg g
70	70	0		N	?
kop	kop	0		Y	?
</s>					
<s>					
X	X	0		O	?
Karl	Karl	0		H	sg n
Vaaks	Vaaks	0		H	sg n
2	2	0		N	?
rubla	rubla	0		S	sg g
5	5	0		N	?
kop	kop	0		Y	?
</s>					
<s>					
X	X	0		O	?
Vitrik	Vitrik	0		H	sg n
Jõks	Jõks	0		H	sg n
1	1	0		N	?
rubla	rubla	0		S	sg g
70	70	0		N	?
kop	kop	0		Y	?
</s>					
<s>					
Summa	summa	0		H	sg n
15	15	0		N	?
rubla	rubla	0		S	sg g
38	38	0		N	?
kop	kop	0		Y	?
</s>					
