<s>					
Kaivas	Kaivas	0		H	sg n
mõisavalitsus	mõisavalitsus	0		H	sg n
et	et	0		J	
sahhari	####				
laade	laad	e		S	pl p
aigo	####				
om	ole	0		V	b
Leppikese	Leppiko	0		H	sg g
rehest	rehi	st		S	sg el
üts	üks	0		P	sg n
lauvus	####				
rükki	####				
ära	ära	0		D	
rabatu	rabatud	0		A	sg g
mes	mis	0		P	sg n
pääle	peale	0		K	
rehepapp	rehe_papp	0		S	sg n
Viidu	Viidu	0		H	sg n
Simmuland	Simmuland	0		H	sg n
oles	oles	0		S	sg n
rehhelisi	####				
pallelnu	palu	nud		V	nud
et	et	0		J	
mitte	mitte	0		D	
seda	see	da		P	sg p
mõisale	mõis	le		S	sg all
üles	üles	0		D	
es	ei	s		V	neg s
annas	anna	s		S	sg in
.	.			Z	
</s>					
<s>					
Rehelise	reheline	0		S	sg g
ommava	####				
Adam	Adam	0		H	sg n
Malton	Malton	0		H	sg n
,	,			Z	
Villem	Villem	0		H	sg n
Jürgenson	Jürgenson	0		H	sg n
ja	ja	0		H	sg n
Peeter	Peeter	0		H	sg n
Kherthal	Kherthal	0		H	sg n
.	.			Z	
</s>					
<s>					
Ette	ette	0		D	
tulli	tule	i		V	s
rehepapa	rehe_papa	0		S	sg n
Viidu	Viidu	0		H	sg n
Simmuland	Simmuland	0		H	sg n
ja	ja	0		H	sg n
ütel	ütle	0		V	s
,	,			Z	
et	et	0		J	
mitte	mitte	0		D	
ei	ei	0		V	neg
ole	ole	0		V	o
kate	kate	0		S	sg n
lauvust	####				
ollu	ole	lu		V	nud
ära	ära	0		D	
rabatu	rabatud	0		A	sg g
,	,			Z	
om	ole	0		V	b
ennegi	ennegi	0		D	
üts	üks	0		P	sg n
vaits	####				
sälja	####				
täit	täis	t		A	sg p
rabatu	rabatud	0		A	sg g
ollu	ole	lu		V	nud
.	.			Z	
</s>					
<s>					
Tunnistaja	tunnistaja	0		S	sg n
Villem	Villem	0		H	sg n
Jürgenson	Jürgenson	0		H	sg n
ütel	ütle	0		V	s
et	et	0		J	
om	ole	0		V	b
küll	küll	0		D	
rabatusi	rabatu=s	i		S	pl p
vihke	vihk	e		S	pl p
sean	sead	n		V	n
ollu	ole	lu		V	nud
ja	ja	0		H	sg n
nema	tema	0		P	pl n
om	ole	0		V	b
rehepapile	rehe_papi	le		S	sg all
          	rehe_papp	le		S	sg all
seda	see	da		P	sg p
ütlenu	####				
,	,			Z	
sis	siis	0		D	
om	ole	0		V	b
rehepapp	rehe_papp	0		S	sg n
ütelnu	ütle	nud		V	nud
et	et	0		J	
tema	tema	0		P	sg n
om	ole	0		V	b
laadele	####				
lännu	mine	nu		V	nud
nii	nii	0		D	
kauva	####				
om	ole	0		V	b
paari	paar	0		N	sg g
sälja	####				
täüve	####				
osa	osa	0		S	sg p
ollu	ole	lu		V	nud
ära	ära	0		D	
rabatu	rabatud	0		A	sg g
.	.			Z	
</s>					
<s>					
Adam	Adam	0		H	sg n
Malton	Malton	0		H	sg n
ütel	ütle	0		V	s
,	,			Z	
ka	ka	0		D	
nii	nii	0		D	
sama	sama	0		P	sg n
kui	kui	0		D	
   	kui	0		J	
Villem	Villem	0		H	sg n
kõnelnu	kõnele	nud		V	nud
om	ole	0		V	b
.	.			Z	
</s>					
<s>					
Kohus	kohus	0		S	sg n
mõist	####				
et	et	0		J	
Viidu	Viidu	0		H	sg n
om	ole	0		V	b
ilma	ilma	0		K	
lubata	luba	ta		V	ta
laadele	####				
lännu	mine	nu		V	nud
massab	maks	b		V	b
2	2	0		N	?
rubla	rubla	0		S	sg p
trahvi	trahv	0		S	sg g
mõisale	mõis	le		S	sg all
kahjutasumise	kahju_tasumine	0		S	sg g
.	.			Z	
</s>					
