<s>					
Soldani	####				
naene	naine	0		S	sg n
Marri	Marri	0		H	sg n
Jersen	Jersen	0		H	sg n
Kaebtussen	Kaebtussen	0		H	sg n
vasto	####				
Jaak	Jaak	0		H	sg n
Pittes	Pittes	0		H	sg n
lehma	lehm	0		S	sg p
ülle	ülle	0		D	
talve	tali	0		S	sg g
     	talv	0		S	sg g
piddamisse	pidamine	se		S	adt
perrast	pärast	0		K	
moistis	mõist	is		V	s
se	see	0		P	sg n
Koggokonna	Koggokonna	0		H	sg n
Kohhus	Kohhus	0		H	sg n
Jaak	Jaak	0		H	sg n
Pittes	Pittes	0		H	sg n
massab	maks	b		V	b
oma	oma	0		P	sg g
lehma	lehm	0		S	sg p
ülle	ülle	0		D	
talve	tali	0		S	sg g
     	talv	0		S	sg g
piddamisse	pidamine	se		S	adt
eest	eest	0		K	
4	4	0		N	?
rbl	rbl	0		Y	
hõb	####				
Marri	Marri	0		H	sg n
Jerševile	Jerševile	0		H	sg n
8	8	0		N	?
päiva	päev	0		S	sg g
sehhen	####				
.	.			Z	
</s>					
<s>					
Se	Se	0		Y	sg n
moistus	mõistus	0		S	sg n
sai	saa	i		V	s
Kohto	kohus	0		S	sg g
Käijille	Käijille	0		H	sg n
säduslikkol	####				
visil	####				
Kuluteto	Kuluteto	0		H	sg n
.	.			Z	
</s>					
<s>					
Suremba	Suremba	0		H	sg n
Kohto	kohus	0		S	sg g
Käimine	käimine	0		S	sg n
es	ei	s		V	neg s
sa	sina	0		P	sg n
Jaak	Jaak	0		H	sg n
Pittesil	Pittes	l		H	sg ad
perra	perra	0		K	
anto	and	tu		V	tud
,	,			Z	
säl	seal	0		D	
se	see	0		P	sg n
Kohto	kohus	0		S	sg g
assi	ass	0		S	sg g
oma	oma	0		P	sg g
hinno	####				
perra	perra	0		K	
S.	S.	0		Y	sg n
Kohto	kohus	0		S	sg g
käimist	käimine	t		S	sg p
ei	ei	0		V	neg
lubba	luba	0		V	o
.	.			Z	
</s>					
