<s>					
Jaan	Jaan	0		H	sg n
Bergmanni	Bergmann	0		H	sg g
sullane	####				
Kusta	Kusta	0		H	sg n
Koddas	Koddas	0		H	sg n
,	,			Z	
lut	####				
.	.			Z	
</s>					
<s>					
usko	usk	0		S	sg p
tunnist	tund	st		S	sg el
Tio	Tio	0		H	sg n
Mäelook	Mäelook	0		H	sg n
olnu	ole	nud		V	nud
Kül	####				
Mai	Mai	0		H	sg n
Kuust	Kuust	0		H	sg n
seni	seni	0		D	
Kui	kui	0		D	
   	kui	0		J	
süggiseni	sügis	ni		S	sg ter
nende	see	de		P	pl g
tallol	####				
ellano	####				
ning	ning	0		J	
vahhel	####				
sögi	####				
vahhede	####				
Kaupa	kaup	0		S	sg p
Ka	ka	0		D	
perremehhe	####				
tenistussen	####				
olno	ole	nu		V	nud
,	,			Z	
ent	ent	0		J	
Konnagi	konn	0	gi	S	sg p
ei	ei	0		V	neg
olno	ole	nu		V	nud
terved	terve	d		A	pl n
päiva	päev	0		S	sg g
tenistussen	####				
olno	ole	nu		V	nud
.	.			Z	
</s>					
<s>					
Sel	see	l		P	sg ad
Korral	kord	l		S	sg ad
Kui	kui	0		D	
   	kui	0		J	
Kaebaja	Kaebaja	0		H	sg n
tallo	talu	sse		S	sg ill
töd	####				
tenno	tege	nu		V	nud
om	ole	0		V	b
Ka	ka	0		D	
perremehhe	####				
poolt	poolt	0		K	
süvva	####				
sano	saa	nu		V	nud
,	,			Z	
Linna	linn	0		S	sg g
Kakmisse	Kakmisse	sse		H	sg n
aegu	aeg	u		S	pl p
olno	ole	nu		V	nud
Tio	Tio	0		H	sg n
Mäelook	Mäelook	0		H	sg n
4	4	0		N	?
nädalid	####				
üsna	üsna	0		D	
ärra	ära	0		D	
olno	ole	nu		V	nud
.	.			Z	
</s>					
<s>					
Tio	Tio	0		H	sg n
Mäelook	Mäelook	0		H	sg n
essi	ise	0		P	sg n
and	and	0		S	sg n
ülles	üles	0		D	
et	et	0		J	
temma	tema	0		P	sg n
ning	ning	0		J	
perremees	perre_mees	0		S	sg n
Jaan	Jaan	0		H	sg n
Bergmanni	Bergmann	0		H	sg g
vahhel	####				
oma	oma	0		P	sg g
tenistusse	####				
ülle	ülle	0		D	
Kaupa	kaup	0		S	sg p
ei	ei	0		V	neg
olno	ole	nu		V	nud
mahha	maha	0		D	
tetto	tege	tu		V	tud
.	.			Z	
</s>					
<s>					
Perremees	perre_mees	0		S	sg n
Jaan	Jaan	0		H	sg n
Bergmann	Bergmann	0		H	sg n
olno	ole	nu		V	nud
teda	tema	da		P	sg p
terve	terve	0		A	sg n
suvve	####				
päle	peale	0		K	
tenistusse	####				
tahtno	####				
,	,			Z	
mes	mis	0		P	sg n
est	esi	st		S	sg el
4	4	0		N	?
vak	####				
vilja	vili	0		S	sg p
ja	ja	0		J	
1	1	0		N	?
pund	pund	0		S	sg n
linno	####				
lubbano	####				
,	,			Z	
ent	ent	0		J	
tema	tema	0		P	sg g
terve	terve	0		A	sg n
suvves	####				
ennast	ise	t		P	sg p
mitte	mitte	0		D	
tenistusse	####				
tahtno	####				
Kaubelda	Kaubelda	da		H	sg n
.	.			Z	
</s>					
<s>					
Kohto	kohus	0		S	sg g
Käijil	Käijil	0		H	sg n
es	ei	s		V	neg s
olle	ole	0		V	o
ennamb	####				
Keddagi	Keddagi	0		H	sg n
ülles	üles	0		D	
anda	and	a		V	da
.	.			Z	
</s>					
<s>					
Otsus	otsus	0		S	sg n
:	:			Z	
Säl	Säl	0		H	sg n
mitte	mitte	0		D	
eensaisva	####				
selletusse	selle_tuss	e		S	pl p
läbbi	läbi	0		K	
selgis	selgi	s		V	s
sano	saa	nu		V	nud
kui	kui	0		D	
   	kui	0		J	
paljo	palju	0		D	
päivi	####				
ehk	ehk	0		J	
Kui	kui	0		D	
   	kui	0		J	
paljo	palju	0		D	
rahha	raha	0		S	sg g
eest	eest	0		K	
Tio	Tio	0		H	sg n
Mäelook	Mäelook	0		H	sg n
töd	####				
olles	ole	es		V	des
tenno	tege	nu		V	nud
,	,			Z	
vait	vait	0		D	
tunnistajad	tunnistaja	d		S	pl n
ennegi	ennegi	0		D	
avvaldano	####				
et	et	0		J	
tema	tema	0		P	sg g
vahhel	####				
tenistussen	####				
Kevvadest	####				
süggiseni	sügis	ni		S	sg ter
olno	ole	nu		V	nud
vahhel	####				
tenistussest	####				
ärra	ära	0		D	
olno	ole	nu		V	nud
;	;			Z	
sis	siis	0		J	
om	ole	0		V	b
se	see	0		P	sg n
Koggokonna	Koggokonna	0		H	sg n
Kohhus	Kohhus	0		H	sg n
pool	pool	0		N	sg n
sest	sest	0		J	
Bergmani	Bergmann	0		H	sg n
poolt	poolt	0		K	
pakkoto	####				
terve	terve	0		A	sg n
suvve	####				
tenistusse	####				
hinnast	hind	st		S	sg el
s.o	s.o	0		Y	?
.	.			Z	
</s>					
<s>					
2	2	0		N	?
vakka	vakka	0		D	
vilja	vili	0		S	sg g
eest	eest	0		K	
4	4	0		N	?
rbl	rbl	0		Y	
ja	ja	0		J	
</s>					
<s>					
1/2	1/2	0		N	?
punna	pund	0		S	sg g
linnade	linn	de		S	pl g
eest	eest	0		K	
1	1	0		N	?
rbl	rbl	0		Y	
</s>					
<s>					
Summa	summa	0		S	sg n
5	5	0		N	?
rbl	rbl	0		Y	
</s>					
<s>					
Tio	Tio	0		H	sg n
Mäelook	Mäelook	0		H	sg n
häs	####				
arvano	####				
,	,			Z	
Kellest	kes	st		P	sg el
säl	seal	0		D	
2	2	0		N	?
rbl	rbl	0		Y	
Kaebajal	kaebaja	l		S	sg ad
jubba	juba	0		D	
käen	käsi	s		S	sg in
,	,			Z	
Jaan	Jaan	0		H	sg n
Bergmann	Bergmann	0		H	sg n
se	see	0		P	sg n
veel	veel	0		D	
puduv	####				
3	3	0		N	?
rbl	rbl	0		Y	
Kaebaja	Kaebaja	0		H	sg n
Tio	Tio	0		H	sg n
Mäelokale	####				
8	8	0		N	?
päiva	päev	0		S	sg g
sehhen	####				
välja	välja	0		D	
peab	pida	b		V	b
masma	maks	ma		V	ma
.	.			Z	
</s>					
<s>					
Se	Se	0		Y	sg n
3	3	0		N	?
rbl	rbl	0		Y	
sel	see	l		P	sg ad
5	5	0		N	?
Febr	####				
76	76	0		N	?
om	ole	0		V	b
Jaan	Jaan	0		H	sg n
Bergmann	Bergmann	0		H	sg n
ärra	ära	0		D	
masno	####				
ja	ja	0		J	
Tio	Tio	0		H	sg n
Mäelook	Mäelook	0		H	sg n
kätte	käsi	tte		S	adt
sano	saa	nu		V	nud
See	see	0		P	sg n
moistus	mõistus	0		S	sg n
sai	saa	i		V	s
Kohto	kohus	0		S	sg g
Käijile	Käijil	le		H	sg all
säduslikkol	####				
visil	####				
kuluteto	####				
.	.			Z	
</s>					
