<s>					
Johann	Johann	0		H	sg n
Närska	Närska	0		H	sg n
oma	oma	0		P	sg g
nõudmissega	####				
vasto	####				
Tio	Tio	0		H	sg n
Mäelook	Mäelook	0		H	sg n
vankre	####				
lahkmisse	lahk_miss	e		S	pl p
perrast	pärast	0		K	
rahho	####				
jäda	####				
sundi	sund	0		S	sg p
,	,			Z	
säl	seal	0		D	
Kaevatas	Kaevatas	0		H	sg n
Johann	Johann	0		H	sg n
Närska	Närska	0		H	sg n
enda	ise	0		P	sg g
,	,			Z	
temma	tema	0		P	sg n
essa	####				
ja	ja	0		J	
tema	tema	0		P	sg g
sõssara	####				
mehhe	mees	0		S	sg g
Kapposta	Kapposta	0		H	sg n
loome	loo	me		V	me
Tarto	Tarto	0		H	sg n
Linast	Linast	st		H	sg n
tono	too	nu		V	nud
ning	ning	0		J	
selle	see	0		P	sg g
Käimisse	käimine	se		S	adt
päl	peal	0		K	
se	see	0		P	sg n
vanker	vanker	0		S	sg n
ärra	ära	0		D	
laggono	####				
.	.			Z	
</s>					
<s>					
Se	Se	0		Y	sg n
moistus	mõistus	0		S	sg n
sai	saa	i		V	s
Kohto	kohus	0		S	sg g
Käijille	Käijille	0		H	sg n
säduslikkol	####				
kuluteto	####				
.	.			Z	
</s>					
