<s>					
Tavi	Tavi	0		H	sg n
Lust	Lust	0		H	sg n
Kavvildast	Kavvildast	st		H	sg n
v	v	0		Y	?
usko	usk	0		S	sg p
,	,			Z	
Kolmanda	kolmas	0		O	sg g
Kohto	kohus	0		S	sg g
Kässo	Kässo	0		H	sg n
Kirja	kiri	0		S	sg g
päle	peale	0		K	
ette	ette	0		K	
tulno	tule	nu		V	nud
,	,			Z	
tunnist	tund	st		S	sg el
,	,			Z	
tema	tema	0		P	sg n
ei	ei	0		V	neg
mälletanu	####				
sest	sest	0		J	
Kobbilusse	Kobbilusse	sse		H	sg n
Kõrtsi	Kõrtsi	0		H	sg n
tüllist	tüll	st		S	sg el
Peter	Peter	0		H	sg n
Korits	Korits	0		H	sg n
ja	ja	0		J	
Karl	Karl	0		H	sg n
Olt	Olt	0		H	sg n
vahhel	####				
mud	####				
,	,			Z	
et	et	0		J	
säl	seal	0		D	
Olt	Olt	0		H	sg n
ja	ja	0		J	
Korits	Korits	0		H	sg n
ütte	üte	0		S	sg g
enditse	####				
tülli	tülli	0		D	
perrast	pärast	0		K	
leppingud	####				
ei	ei	0		V	neg
sano	saa	nu		V	nud
olnu	ole	nud		V	nud
Korits	Korits	0		H	sg n
üttelno	ütle	nu		V	nud
:	:			Z	
Kui	kui	0		D	
   	kui	0		J	
Sinna	sinna	0		D	
(	(			Z	
Olt	Olt	0		H	sg n
)	)			Z	
Ka	ka	0		D	
mõnni	####				
Kolmeister	####				
olled	####				
,	,			Z	
Kae	kae	0		I	
sis	siis	0		J	
om	ole	0		V	b
(	(			Z	
se	see	0		P	sg n
maa	maa	0		S	sg n
M.	M.	0		Y	sg n
Nooden	Nooden	0		H	sg n
päle	peale	0		K	
näitatus	####				
-	-			Z	
Sino	Sino	0		H	sg n
Kolipois	Kolipois	0		H	sg n
,	,			Z	
ei	ei	0		V	neg
moista	####				
oma	oma	0		P	sg g
ninna	nina	0		S	adt
pühki	####				
,	,			Z	
Sinna	sinna	0		D	
olled	####				
Kui	kui	0		D	
   	kui	0		J	
mollo	####				
""""	""""			Z	
ning	ning	0		J	
Kui	kui	0		D	
   	kui	0		J	
Olt	Olt	0		H	sg n
vastano	####				
,	,			Z	
et	et	0		J	
tema	tema	0		P	sg n
mitte	mitte	0		D	
Kolmeister	####				
olnu	ole	nud		V	nud
,	,			Z	
vait	vait	0		D	
perremees	perre_mees	0		S	sg n
,	,			Z	
olno	ole	nu		V	nud
Korits	Korits	0		H	sg n
vastano	####				
:	:			Z	
Kui	kui	0		D	
   	kui	0		J	
minna	mine	a		V	da
olle	ole	0		V	o
Sinno	Sinno	0		H	sg n
tallo	talu	sse		S	sg ill
vallitseja	####				
,	,			Z	
üts	üks	0		N	sg n
ots	ots	0		S	sg n
Sul	sina	l		P	sg ad
peab	pida	b		V	b
ollema	####				
.	.			Z	
</s>					
<s>					
Päle	####				
se	see	0		P	sg n
olno	ole	nu		V	nud
Korits	Korits	0		H	sg n
Olti	Olti	0		H	sg n
emmisse	####				
puitses	puitne	s		A	sg in
nimmetano	####				
,	,			Z	
kedda	kes	da		P	sg p
ka	ka	0		D	
Kuint	####				
ei	ei	0		V	neg
putnu	####				
.	.			Z	
</s>					
<s>					
Olt	Olt	0		H	sg n
ei	ei	0		V	neg
olnu	ole	nud		V	nud
üttegi	üte	0	gi	S	sg g
roppo	####				
sõnna	####				
vastano	####				
.	.			Z	
</s>					
<s>					
Völmönder	Völmönder	0		H	sg n
Kasper	Kasp	0		H	sg g
Rodenberg	Rodenberg	0		H	sg n
ja	ja	0		J	
Päkohtomes	Päkohtomes	0		H	sg n
Toffer	Toffer	0		H	sg n
Kogger	Kogger	0		H	sg n
anniva	####				
ülles	üles	0		D	
,	,			Z	
et	et	0		J	
Karl	Karl	0		H	sg n
Olt	Olt	0		H	sg n
päle	peale	0		K	
selle	see	0		P	sg g
Kui	kui	0		D	
   	kui	0		J	
se	see	0		P	sg n
kui	kui	0		D	
   	kui	0		J	
tülli	tüli	0		S	adt
     	tüll	0		S	adt
sel	see	l		P	sg ad
15	15	0		N	?
Septembril	september	l		S	sg ad
nende	see	de		P	pl g
jurde	juurde	0		K	
tulno	tule	nu		V	nud
ning	ning	0		J	
Kaevano	Kaevano	0		H	sg n
,	,			Z	
et	et	0		J	
Peter	Peter	0		H	sg n
Korits	Korits	0		H	sg n
sel	see	l		P	sg ad
12	12	0		N	?
Septembril	september	l		S	sg ad
hommiko	####				
varra	####				
temma	tema	0		P	sg n
tallo	talu	sse		S	sg ill
tulno	tule	nu		V	nud
ning	ning	0		J	
oma	oma	0		P	sg g
sure	sure	0		V	o
loomi	loom	i		S	pl p
ja	ja	0		J	
ahvardamissega	####				
tema	tema	0		P	sg g
naese	naine	0		S	sg g
ja	ja	0		J	
latse	lats	e		S	pl p
ärra	ära	0		D	
heitutano	####				
,	,			Z	
et	et	0		J	
raske	raske	0		A	sg n
haiges	haige	s		S	sg in
jäno	jää	nu		V	nud
mes	mis	0		P	sg n
päle	peale	0		K	
nemma	####				
,	,			Z	
Rodenberg	Rodenberg	0		H	sg n
ja	ja	0		J	
Kogger	Kogger	0		H	sg n
Kaebajad	kaebaja	d		S	pl n
Kreis	kreis	0		S	sg n
Tohtri	tohter	0		S	sg g
jurde	juurde	0		K	
ja	ja	0		J	
Kui	kui	0		D	
   	kui	0		J	
Olt	Olt	0		H	sg n
sedda	see	da		P	sg p
voimato	####				
üttelno	ütle	nu		V	nud
olleva	ole	va		V	
Arro	Arro	0		H	sg n
herra	härra	0		S	sg g
jurde	juurde	0		K	
,	,			Z	
Kes	kes	0		P	sg n
tohter	tohter	0		S	sg n
om	ole	0		V	b
,	,			Z	
habbi	####				
käskno	####				
minna	mine	a		V	da
otsima	otsi	ma		V	ma
.	.			Z	
</s>					
<s>					
Naene	####				
ja	ja	0		J	
lats	lats	0		S	sg n
olno	ole	nu		V	nud
sel	see	l		P	sg ad
kõrral	####				
kui	kui	0		D	
   	kui	0		J	
Kaeman	Kaeman	0		H	sg n
Käino	Käino	0		H	sg n
,	,			Z	
sängin	####				
olno	ole	nu		V	nud
.	.			Z	
</s>					
<s>					
Otsus	otsus	0		S	sg n
:	:			Z	
Peter	Peter	0		H	sg n
Korits	Korits	0		H	sg n
massab	maks	b		V	b
2	2	0		N	?
rbl	rbl	0		Y	
Karl	Karl	0		H	sg n
Olti	Olti	0		H	sg n
häs	####				
rohhi	####				
rahha	raha	0		S	sg g
ja	ja	0		J	
1	1	0		N	?
rbl	rbl	0		Y	
valla	valla	0		H	sg n
ladiko	####				
trahvi	trahv	0		S	sg p
.	.			Z	
</s>					
<s>					
Se	Se	0		Y	sg n
moistus	mõistus	0		S	sg n
sai	saa	i		V	s
Kohto	kohus	0		S	sg g
Käijille	Käijille	0		H	sg n
säduslikkol	####				
visil	####				
kuluteto	####				
ja	ja	0		J	
oppusse	####				
lehhe	####				
Kätte	käsi	tte		S	adt
anto	and	tu		V	tud
.	.			Z	
</s>					
<s>					
Karl	Karl	0		H	sg n
Olt	Olt	0		H	sg n
and	and	0		S	sg n
ülles	üles	0		D	
et	et	0		J	
tema	tema	0		P	sg g
selle	see	0		P	sg g
otsussega	####				
rahho	####				
ei	ei	0		V	neg
olle	ole	0		V	o
vast	vast	0		D	
Kulud	kulg	d		S	pl n
     	kulu	d		S	pl n
Suremba	Suremba	0		H	sg n
Kohto	kohus	0		S	sg g
Käimist	Käimist	0		H	sg n
,	,			Z	
mes	mis	0		P	sg n
temal	tema	l		P	sg ad
ka	ka	0		D	
sitpoolt	####				
sel	see	l		P	sg ad
12.	12.	0		O	?
</s>					
<s>					
Detsembr	####				
s.a	s.a	0		Y	?
.	.			Z	
</s>					
<s>					
se	see	0		P	sg n
läbbi	läbi	0		K	
perra	perra	0		K	
sai	saa	i		V	s
anto	and	tu		V	tud
</s>					
