<s>					
Kaevas	Kaevas	0		H	sg n
Hendrik	Hendrik	0		H	sg n
Tammin	Tammin	0		H	sg n
tema	tema	0		P	sg n
olno	ole	nu		V	nud
Tavi	Tavi	0		H	sg n
Tikkopile	Tikkop	le		H	sg all
76	76	0		N	?
sülda	süld	0		S	sg p
valli	vall	0		S	adt
Kravi	Kravi	0		H	sg n
a	a	0		Y	?
6	6	0		N	?
kop	kop	0		Y	?
4	4	0		N	?
rbl	rbl	0		Y	
56	56	0		N	?
kop	kop	0		Y	?
ning	ning	0		J	
säl	seal	0		D	
Tavi	Tavi	0		H	sg n
Tikkop	Tikkop	0		H	sg n
sedda	see	da		P	sg p
rahha	raha	0		S	sg p
välja	välja	0		D	
ei	ei	0		V	neg
tahtnu	taht	nud		V	nud
massa	maks	0		S	adt
piddano	pida	nu		V	nud
Kohhud	kohus	d		S	sg p
palloma	####				
sedda	see	da		P	sg p
4.50	4.50	0		N	?
kop	kop	0		Y	?
välja	välja	0		D	
nõuda	nõud	a		V	da
.	.			Z	
</s>					
<s>					
Kaevatav	Kaevatav	0		H	sg n
Tavi	Tavi	0		H	sg n
Tikkop	Tikkop	0		H	sg n
vastas	vasta	s		V	s
tema	tema	0		P	sg g
olno	ole	nu		V	nud
se	see	0		P	sg n
Kravi	Kravi	0		H	sg n
lõikamisse	lõikamine	se		S	adt
Kaup	Kaup	0		H	sg n
oma	oma	0		P	sg g
nabri	####				
perremees	perre_mees	0		S	sg n
Andres	Andres	0		H	sg n
Vatsaga	Vatsa	ga		H	sg kom
üttel	üte	l		S	sg ad
nõul	nõu	l		S	sg ad
Hendr	Hendr	0		H	sg n
.	.			Z	
</s>					
<s>					
Taminaga	####				
tenno	tege	nu		V	nud
ning	ning	0		J	
olles	ole	es		V	des
se	see	0		P	sg n
Krav	####				
pidano	####				
pool	pool	0		N	sg n
pikkemb	####				
sama	sama	0		P	sg n
,	,			Z	
Kui	kui	0		D	
   	kui	0		J	
Kaebaja	Kaebaja	0		H	sg n
loikano	####				
.	.			Z	
</s>					
<s>					
Et	et	0		J	
nüd	nüüd	0		D	
Vatsa	Vatsa	0		H	sg n
selle	see	0		P	sg g
Kravi	Kravi	0		H	sg n
loikamisse	loikam	sse		S	sg ill
Kauba	kaup	0		S	sg g
selle	see	0		P	sg g
läbbi	läbi	0		K	
rikus	####				
et	et	0		J	
poolt	poolt	0		K	
Kravi	Kravi	0		H	sg n
ei	ei	0		V	neg
olle	ole	0		V	o
laskno	####				
loikada	####				
ei	ei	0		V	neg
voino	või	nu		V	nud
Ka	ka	0		D	
rahha	raha	0		S	sg g
massa	maks	0		S	adt
.	.			Z	
</s>					
<s>					
Andres	Andres	0		H	sg n
Vatsa	Vatsa	0		H	sg n
assemel	asemel	0		K	
olli	ole	i		V	s
poeg	poeg	0		S	sg n
Pärt	Pärt	0		H	sg n
tullo	####				
ning	ning	0		J	
lubbas	luba	s		V	s
tulleva	tulev	0		A	sg g
asta	####				
Ka	ka	0		D	
oma	oma	0		P	sg g
pool	pool	0		K	
Kravi	Kravi	0		H	sg n
ärra	ära	0		D	
loikata	####				
laske	lask	ke		V	ge
.	.			Z	
</s>					
<s>					
Otsus	otsus	0		S	sg n
:	:			Z	
Suima	Suima	0		H	sg n
Pärt	Pärt	0		H	sg n
Vatsa	Vatsa	0		H	sg n
massab	maks	b		V	b
pool	pool	0		S	sg n
Kravi	Kravi	0		H	sg n
rahha	raha	0		S	sg n
2	2	0		N	?
rbl	rbl	0		Y	
28	28	0		N	?
kop	kop	0		Y	?
ja	ja	0		J	
</s>					
<s>					
Tavi	Tavi	0		H	sg n
Tikkop	Tikkop	0		H	sg n
2	2	0		N	?
rbl	rbl	0		Y	
28	28	0		N	?
kop	kop	0		Y	?
</s>					
<s>					
Hendrik	Hendrik	0		H	sg n
Taminile	Tamingo	le		H	sg all
8	8	0		N	?
päiva	päev	0		S	sg g
sehhen	####				
välja	välja	0		D	
ja	ja	0		J	
lasseva	####				
ni	see	0		P	pl n
Kui	kui	0		D	
   	kui	0		J	
nende	tema	de		P	pl g
Kaup	Kaup	0		H	sg n
ollo	ole	nud		V	nud
teine	teine	0		O	sg n
     	teine	0		P	sg n
pool	pool	0		S	sg n
Kravi	Kravi	0		H	sg n
ärra	ära	0		D	
loikata	####				
tulleva	tulev	0		A	sg g
asta	####				
.	.			Z	
</s>					
<s>					
Se	Se	0		Y	sg n
moistus	mõistus	0		S	sg n
sai	saa	i		V	s
kohto	kohus	0		S	sg g
Käijille	Käijille	0		H	sg n
säduslikkol	####				
visil	####				
Kuluteto	Kuluteto	0		H	sg n
.	.			Z	
</s>					
<s>					
Sel	see	l		P	sg ad
9mal	####				
Märtsil	märts	l		S	sg ad
1878.	1878.	0		O	?
ära	ära	0		D	
masto	####				
Hendrik	Hendrik	0		H	sg n
Tamingo	Tamingo	0		H	sg n
kätte	käsi	tte		S	adt
ning	ning	0		J	
om	ole	0		V	b
seperra	####				
selle	see	0		P	sg g
nõudmine	nõudmine	0		S	sg n
tassa	####				
</s>					
