<s>					
Kaevas	Kaevas	0		H	sg n
naene	naine	0		S	sg n
Mili	Mili	0		H	sg n
Vaht	Vaht	0		H	sg n
,	,			Z	
temal	tema	l		P	sg ad
olnu	ole	nud		V	nud
tütroko	####				
polvest	####				
perremees	perre_mees	0		S	sg n
Jaan	Jaan	0		H	sg n
Sillaga	Sillaga	ga		H	sg n
Kats	Kats	0		H	sg n
last	laps	t		S	sg p
ütte	üte	0		S	sg g
latse	lats	e		S	pl p
toitmisse	toitmine	se		S	adt
eest	eest	0		K	
massno	####				
tema	tema	0		P	sg g
80	80	0		N	?
rbl	rbl	0		Y	
ent	ent	0		J	
toise	####				
latse	lats	e		S	pl p
ülles	üles	0		D	
piddamisses	####				
,	,			Z	
Kes	kes	0		P	sg n
2	2	0		N	?
asta	####				
eest	eest	0		K	
sünd	sünd	0		S	sg n
om	ole	0		V	b
ei	ei	0		D	
masno	####				
Jaan	Jaan	0		H	sg n
Sild	Sild	0		H	sg n
,	,			Z	
et	et	0		J	
kul	####				
ka	ka	0		D	
selle	see	0		P	sg g
latse	lats	e		S	pl p
essa	####				
om	ole	0		V	b
Keddagi	Keddagi	0		H	sg n
.	.			Z	
</s>					
<s>					
Kaebaja	Kaebaja	0		H	sg n
Mili	Mili	0		H	sg n
Vaht	Vaht	0		H	sg n
nõus	nõus	0		D	
ka	ka	0		D	
selle	see	0		P	sg g
toise	####				
latse	lats	e		S	pl p
ülles	üles	0		D	
piddamisses	####				
100	100	0		N	?
rbl	rbl	0		Y	
hõb	####				
.	.			Z	
</s>					
<s>					
Kaevatav	Kaevatav	0		H	sg n
Jaan	Jaan	0		H	sg n
Sild	Sild	0		H	sg n
vastas	vasta	s		V	s
tema	tema	0		P	sg n
ei	ei	0		V	neg
tedva	####				
sest	sest	0		J	
toisest	####				
latsest	####				
,	,			Z	
Keddagi	Keddagi	0		H	sg n
ei	ei	0		V	neg
olno	ole	nu		V	nud
ka	ka	0		D	
päle	peale	0		K	
se	see	0		P	sg n
kui	kui	0		D	
   	kui	0		J	
eddimatse	####				
latse	lats	e		S	pl p
perrast	pärast	0		K	
Kohto	kohus	0		S	sg g
alla	alla	0		K	
sano	saa	nu		V	nud
ennamb	####				
suggo	####				
Mili	Mili	0		H	sg n
Vahlbergi	Vahlberg	0		H	sg g
putno	####				
,	,			Z	
mis	mis	0		P	sg n
perrast	pärast	0		K	
temale	tema	le		P	sg all
Ka	ka	0		D	
Keddagi	Keddagi	0		H	sg n
massa	maks	0		S	adt
ei	ei	0		V	neg
voinu	####				
.	.			Z	
</s>					
<s>					
Ants	Ants	0		H	sg n
Põdder	Põdder	0		H	sg n
voino	või	nu		V	nud
tunnistada	tunnista	da		V	da
et	et	0		J	
mitte	mitte	0		D	
temma	tema	0		P	sg n
Sild	Sild	0		H	sg n
vait	vait	0		D	
Mili	Mili	0		H	sg n
enda	ise	0		P	sg g
nüdne	####				
mes	mis	0		P	sg n
Jaan	Jaan	0		H	sg n
vacht	####				
selle	see	0		P	sg g
toise	####				
latse	lats	e		S	pl p
essa	####				
olno	ole	nu		V	nud
.	.			Z	
</s>					
<s>					
Otsus	otsus	0		S	sg n
:	:			Z	
tulleva	tulev	0		A	sg g
Kohto	kohus	0		S	sg g
päivas	päev	s		S	sg tr
ette	ette	0		D	
tallitada	talita	da		V	da
Mili	Mili	0		H	sg n
Vacht	Vacht	0		H	sg n
,	,			Z	
Jaan	Jaan	0		H	sg n
Sild	Sild	0		H	sg n
ja	ja	0		J	
Ants	Ants	0		H	sg n
Põdder	Põdder	0		H	sg n
.	.			Z	
</s>					
<s>					
Lõppetus	lõppe=tus	0		S	sg n
leht	leht	0		S	sg n
24.	24.	0		O	?
</s>					
