<s>					
Kaebas	kaeba	s		V	s
Konon	Konon	0		H	sg n
Maksimov	Maksimov	0		H	sg n
Muscharov	Muscharev	0		H	sg n
ja	ja	0		J	
kaebas	kaeba	s		V	s
Vassilij	Vassilij	0		H	sg n
Mitrasanovi	Mitrifanov	0		H	sg g
peale	peale	0		K	
kes	kes	0		P	sg n
temmale	tema	le		P	sg all
250	250	0		N	?
Rubla	rubla	0		S	sg p
v鮨go	####				
olnud	ole	nud		V	nud
sest	sest	0		J	
rahhast	####				
120	120	0		N	?
Rubla	rubla	0		S	sg g
鋜ra	####				
maksnud	maks	nud		V	nud
ja	ja	0		J	
130	130	0		N	?
Rubla	rubla	0		S	sg g
v鮨gu	####				
j鋘ud	####				
.	.			Z	
</s>					
<s>					
ja	ja	0		J	
seddasamma	####				
n	n	0		Y	?
		0		Y	?
d	d	0		Y	?
ei	ei	0		V	neg
tahta	taht	a		V	da
鋜ra	####				
maksa	maks	0		V	o
.	.			Z	
</s>					
<s>					
Tulli	tull	0		S	sg g
ette	ette	0		K	
Eassilij	Eassilij	0		H	sg n
Mitrisanov	Mitrifanov	0		H	sg n
kis	kes	0		P	sg n
ette	ette	0		D	
andis	and	is		V	s
et	et	0		J	
temmal	tema	l		P	sg ad
黮le	####				
peal	peal	0		D	
290	290	0		N	?
Rubla	rubla	0		S	sg n
Konon	Konon	0		H	sg n
Maksimov	Maksimov	0		H	sg n
Muscharovil	####				
maksa	maks	0		V	o
olnud	ole	nud		V	nud
,	,			Z	
kellest	kes	st		P	sg el
temma	tema	0		P	sg g
all	all	0		K	
nimmitud	####				
summade	summ	de		S	pl g
       	summa	de		S	pl g
visi	####				
鋜ra	####				
maksnud	maks	nud		V	nud
:	:			Z	
essiminne	####				
kord	kord	0		D	
50	50	0		N	?
Rubla	rubla	0		S	sg g
tindi	tint	0		S	sg g
ahjo	####				
rendi	rent	0		S	sg g
40	40	0		N	?
Rubla	rubla	0		S	sg g
puhhast	puhas	t		A	sg p
rahha	raha	0		S	sg p
25	25	0		N	?
Rubla	rubla	0		S	sg g
Nikolna	####				
podi	####				
jures	juures	0		K	
25	25	0		N	?
Rubla	rubla	0		S	sg g
Tarkoviga	####				
ahjo	####				
rendi	rent	0		S	sg g
45	45	0		N	?
Rubla	rubla	0		S	sg g
ahhvnid	####				
45	45	0		N	?
Rubla	rubla	0		S	sg g
lattikuid	####				
20	20	0		N	?
Rubla	rubla	0		S	sg g
kontoris	kontor	s		S	sg in
m鮥stetud	####				
20	20	0		N	?
Rubla	rubla	0		S	sg n
Summa	Summa	0		H	sg n
270	270	0		N	?
Rubla	rubla	0		S	sg p
Kui	kui	0		D	
   	kui	0		J	
n	n	0		Y	?
		0		Y	?
d	d	0		Y	?
keik	kõik	0		P	sg n
v鮨g	####				
黮lepea	####				
290	290	0		N	?
Rubla	rubla	0		S	sg g
suur	suur	0		A	sg n
on	ole	0		V	b
  	ole	0		V	vad
olnud	ole	nud		V	nud
ja	ja	0		J	
sealt	sealt	0		D	
270	270	0		N	?
Rubla	rubla	0		S	sg g
鋜ra	####				
makstud	maks	tud		V	tud
,	,			Z	
siis	siis	0		J	
olleks	ole	ks		V	ks
Mitrifanofil	Mitrifanov	l		H	sg ad
keigest	####				
veel	veel	0		D	
20	20	0		N	?
rubla	rubla	0		S	sg p
maksa	maks	0		V	o
.	.			Z	
</s>					
<s>					
Tulli	tull	0		S	sg g
ette	ette	0		K	
Konon	Konon	0		H	sg n
Maksimov	Maksimov	0		H	sg n
Muscharev	Muscharev	0		H	sg n
kis	kes	0		P	sg n
ette	ette	0		D	
andis	and	is		V	s
,	,			Z	
et	et	0		J	
se	see	0		P	sg n
v鮨la	####				
tassuminne	####				
on	ole	0		V	b
  	ole	0		V	vad
Vassilij	Vassilij	0		H	sg n
Mitrifanovi	Mitrifanov	0		H	sg g
venna	vend	0		S	sg g
polt	polt	0		S	sg n
olnud	ole	nud		V	nud
kellega	kes	ga		P	sg kom
temmal	tema	l		P	sg ad
issi	issi	0		S	sg g
rehnung	rehnung	0		S	sg n
on	ole	0		V	b
  	ole	0		V	vad
olnud	ole	nud		V	nud
ja	ja	0		J	
ei	ei	0		V	neg
puduvad	####				
mitte	mitte	0		D	
selle	see	0		P	sg g
v鮨la	####				
summa	summa	0		S	sg n
jurde	juurde	0		D	
.	.			Z	
</s>					
<s>					
Peale	peale	0		K	
selle	see	0		P	sg g
ei	ei	0		V	neg
v鮥nud	####				
Vassilij	Vassilij	0		H	sg n
Mitrifanov	Mitrifanov	0		H	sg n
黨tegi	####				
tunnismeest	tunnis_mees	t		S	sg p
黮les	####				
anda	and	a		V	da
et	et	0		J	
temma	tema	0		P	sg g
nende	see	de		P	pl g
l鋌bi	####				
olleks	ole	ks		V	ks
v鮥nud	####				
sedda	see	da		P	sg p
t鮡ks	####				
tehha	tege	a		V	da
,	,			Z	
et	et	0		J	
temma	tema	0		P	sg g
omma	oma	0		P	sg g
黷lemisse	####				
j鋜rele	####				
on	ole	0		V	b
  	ole	0		V	vad
sedda	see	da		P	sg p
v鮨ga	####				
ommalt	####				
poolt	poolt	0		K	
鋜ra	####				
maksnud	maks	nud		V	nud
.	.			Z	
</s>					
<s>					
M鮥stetud	####				
:	:			Z	
Et	et	0		J	
Vassilij	Vassilij	0		H	sg n
Mitrifanov	Mitrifanov	0		H	sg n
omma	oma	0		P	sg g
v鮨la	####				
kirja	kiri	0		S	sg g
j鋜rele	####				
mis	mis	0		P	sg n
praegust	praegune	t		A	sg p
Konon	Konon	0		H	sg n
Maksimovi	Maksimov	0		H	sg g
Muscharovi	Muscharev	0		H	sg g
k鋏s	####				
on	ole	0		V	b
  	ole	0		V	vad
,	,			Z	
ja	ja	0		J	
kedda	kes	da		P	sg p
Vassilij	Vassilij	0		H	sg n
Mitrifanov	Mitrifanov	0		H	sg n
ommaks	####				
tunnistab	tunnista	b		V	b
keik	kõik	0		P	sg n
sedda	see	da		P	sg p
v鮨ga	####				
130	130	0		N	?
Ribla	####				
Konan	Konan	0		H	sg n
Maksimovi	Maksimov	0		H	sg g
Muscharovile	####				
2	2	0		N	?
n鋎dala	####				
perrast	pärast	0		K	
鋜ra	####				
maksab	maks	b		V	b
.	.			Z	
</s>					
<s>					
Kui	kui	0		D	
   	kui	0		J	
kohto	kohus	0		S	sg ill
k鋓jadele	####				
kulutud	kulu	tud		V	tud
T.R.S.R	T.R.S.R	0		Y	?
§	§	0		Y	?
3	3	0		N	?
ja	ja	0		J	
§	§	0		Y	?
4	4	0		N	?
mis	mis	0		P	sg n
peale	peale	0		K	
Vassilij	Vassilij	0		H	sg n
Mitrifanov	Mitrifanov	0		H	sg n
Protocolli	Protocolli	0		H	sg n
pallus	palu	s		V	s
ja	ja	0		J	
8	8	0		N	?
p鋠a	####				
sees	sees	0		K	
temmale	tema	le		P	sg all
sedda	see	da		P	sg p
samma	####				
sai	saa	i		V	s
lubbatud	luba	tud		V	tud
.	.			Z	
</s>					
