<s>					
Tulli	tull	0		S	sg g
ette	ette	0		K	
Karel	Karel	0		H	sg n
Läst	Läst	0		H	sg n
Allatskivilt	Allatskivilt	lt		H	sg n
ja	ja	0		J	
kaibas	kaeba	s		V	s
,	,			Z	
et	et	0		J	
temal	tema	l		P	sg ad
Matsvei	Matsvei	0		H	sg n
Mitri	Mitri	0		H	sg n
käest	käsi	st		S	sg el
2	2	0		N	?
Rubl	Rubl	0		H	sg n
95	95	0		N	?
kop	kop	0		Y	?
.	.			Z	
</s>					
<s>					
sada	sada	0		N	sg n
on	ole	0		V	b
  	ole	0		V	vad
,	,			Z	
mis	mis	0		P	sg n
Matsvei	Matsvei	0		H	sg n
ei	ei	0		V	neg
tahha	####				
ärra	ära	0		D	
maksta	maks	ta		V	da
.	.			Z	
</s>					
<s>					
Tulli	tull	0		S	sg g
ette	ette	0		K	
Matsvei	Matsvei	0		H	sg n
Mitri	Mitri	0		H	sg n
ja	ja	0		J	
ütles	ütle	s		V	s
se	see	0		P	sg n
võlg	võlg	0		S	sg n
õige	õige	0		A	sg n
ollevad	ole	vad		V	vat
.	.			Z	
</s>					
<s>					
Moistetud	mõist	tud		V	tud
.	.			Z	
</s>					
<s>					
Et	et	0		J	
Matsvei	Matsvei	0		H	sg n
Mitri	Mitri	0		H	sg n
peäb	####				
2	2	0		N	?
Rubl	Rubl	0		H	sg n
.	.			Z	
</s>					
<s>					
95	95	0		N	?
kop	kop	0		Y	?
Karel	Karel	0		H	sg n
Lastile	Lastile	0		H	sg n
kahheksa	kaheksa	0		N	sg g
päeva	päev	0		S	sg g
pärrast	pärast	0		K	
välja	välja	0		D	
maksma	maks	ma		V	ma
.	.			Z	
</s>					
