<s>					
Andres	Andres	0		H	sg n
Adamson	Adamson	0		H	sg n
oli	ole	i		V	s
kohtole	kohus	le		S	sg all
selle	see	0		P	sg g
viisiga	viis	ga		S	sg kom
kropp	ropp	0		A	sg n
et	et	0		J	
keelis	keel	is		S	pl in
kohto	kohus	0		S	sg g
liikmet	####				
kõnelemast	kõnele	mast		V	mast
ärä	ära	0		D	
.	.			Z	
</s>					
<s>					
Mõistus	mõistus	0		S	sg n
:	:			Z	
istub	istu	b		V	b
selle	see	0		P	sg g
peräst	pärast	0		K	
2	2	0		N	?
tunni	tund	0		S	sg g
kinni	kinni	0		D	
.	.			Z	
</s>					
