<s>					
Adomitarso	####				
Märt	Märt	0		H	sg n
Vassu	Vassu	0		H	sg n
oli	ole	i		V	s
Kalbose	Kalbose	0		H	sg n
metsast	mets	st		S	sg el
2	2	0		N	?
kaske	kask	0		S	sg p
:	:			Z	
1	1	0		N	?
kuiv	kuiv	0		A	sg n
teine	teine	0		O	sg n
     	teine	0		P	sg n
madand	####				
varastand	varasta	nud		V	nud
.	.			Z	
</s>					
<s>					
Mõistos	####				
:	:			Z	
maksab	maks	b		V	b
mõisale	mõis	le		S	sg all
80	80	0		N	?
kop	kop	0		Y	?
ja	ja	0		J	
maks	maks	0		S	sg n
mis	mis	0		P	sg n
ka	ka	0		D	
ära	ära	0		D	
.	.			Z	
</s>					
