<s>					
Andres	Andres	0		H	sg n
Almer	Almer	0		H	sg n
,	,			Z	
Ado	Ado	0		H	sg n
Kassik	Kassik	0		H	sg n
,	,			Z	
Tõnis	Tõnis	0		H	sg n
Tölp	Tölp	0		H	sg n
ja	ja	0		J	
Ado	Ado	0		H	sg n
Tangson	Tangson	0		H	sg n
olid	ole	id		V	sid
iga	iga	0		P	sg g
üks	üks	0		N	sg n
   	üks	0		P	sg n
1	1	0		N	?
koorma	koorem	0		S	sg g
ago	agu	0		S	sg n
Kõksi	Kõksi	0		H	sg n
metsast	mets	st		S	sg el
varastanod	varasta	nud		V	nud
.	.			Z	
</s>					
<s>					
Mõistos	####				
:	:			Z	
iga	iga	0		P	sg n
üks	üks	0		N	sg n
   	üks	0		P	sg n
maksab	maks	b		V	b
40	40	0		N	?
kop	kop	0		Y	?
ja	ja	0		J	
see	see	0		P	sg n
viimane	viimane	0		A	sg n
aga	aga	0		J	
maksab	maks	b		V	b
üksi	üksi	0		D	
50	50	0		N	?
kop	kop	0		Y	?
et	et	0		J	
tele	tele	0		S	sg g
rohkemb	####				
ago	agu	0		S	sg p
olla	ole	a		V	da
mõisale	mõis	le		S	sg all
.	.			Z	
</s>					
