<s>					
Mustla	Mustla	0		H	sg n
posti	post	0		S	sg g
pidaja	pidaja	0		S	sg n
Robensee	Robensee	0		H	sg n
tegi	tege	i		V	s
kohto	kohus	0		S	sg g
ees	ees	0		K	
oma	oma	0		P	sg g
posti	post	0		S	sg g
meestega	mees	tega		S	pl kom
,	,			Z	
nimelt	nimelt	0		D	
:	:			Z	
Kusta	Kusta	0		H	sg n
Juhanson	Juhanson	0		H	sg n
,	,			Z	
Andres	Andres	0		H	sg n
Lillimägi	Lillimägi	0		H	sg n
seda	see	da		P	sg p
lepinkut	####				
maha	maha	0		D	
,	,			Z	
et	et	0		J	
kui	kui	0		D	
   	kui	0		J	
posti	post	0		S	sg g
mehed	mees	d		S	pl n
tema	tema	0		P	sg g
käsko	käsk	0		S	adt
ei	ei	0		V	neg
täuda	####				
voib	või	b		V	b
kuni	kuni	0		J	
kolm	kolm	0		N	sg n
kõrd	kord	0		S	sg n
Robensee	Robensee	0		H	sg n
neid	tema	d		P	pl p
1	1	0		N	?
rublaga	rubla	ga		S	sg kom
trahvi	trahv	0		S	sg g
,	,			Z	
peale	peale	0		K	
trahvimise	trahvimine	0		S	sg g
veel	veel	0		D	
vasto	vastu	0		D	
panekut	panek	t		S	sg p
ette	ette	0		D	
tullen	####				
aga	aga	0		J	
annab	and	b		V	b
Robensee	Robensee	0		H	sg n
neid	tema	d		P	pl p
kohto	kohus	0		S	sg g
kätte	kätte	0		K	
trahvimiseks	trahvimine	ks		S	sg tr
.	.			Z	
</s>					
<s>					
Selle	see	0		P	sg g
lepingu	leping	0		S	sg g
olid	ole	id		V	sid
nimitud	####				
poisid	poiss	d		S	pl n
raho	rahu	0		S	sg n
mis	mis	0		P	sg n
oma	oma	0		P	sg g
kaega	kae	ga		S	sg kom
tehtud	tege	tud		V	tud
ristitega	####				
tunnistavad	tunnista	vad		V	vad
.	.			Z	
</s>					
