<s>					
Soldat	soldat	0		S	sg n
Hans	Hans	0		H	sg n
Abel	Abel	0		H	sg n
oli	ole	i		V	s
üte	üte	0		S	sg n
hobose	####				
mõisa	mõis	0		S	sg g
Kitsivelja	####				
metsa	mets	0		S	sg g
lasknud	lask	nud		V	nud
.	.			Z	
</s>					
<s>					
Mõistus	mõistus	0		S	sg n
:	:			Z	
istob	####				
ja	ja	0		J	
saje	saa	je		V	s
6	6	0		N	?
tunni	tund	0		S	sg g
kinni	kinni	0		D	
istma	####				
pantas	####				
.	.			Z	
</s>					
