<s>					
Karl	Karl	0		H	sg n
Purga	Purga	0		H	sg n
oli	ole	i		V	s
1	1	0		N	?
kuusk	kuusk	0		S	sg n
12	12	0		N	?
tolli	toll	0		S	sg g
;	;			Z	
mäda	mäda	0		S	sg g
Villemuse	Villemuse	0		H	sg n
metsast	mets	st		S	sg el
varastand	varasta	nud		V	nud
.	.			Z	
</s>					
<s>					
Mõistos	####				
:	:			Z	
maksab	maks	b		V	b
45	45	0		N	?
kop	kop	0		Y	?
3	3	0		N	?
päeva	päev	0		S	sg g
sees	sees	0		K	
mõisale	mõis	le		S	sg all
ära	ära	0		D	
.	.			Z	
</s>					
