<s>					
Märt	Märt	0		H	sg n
Viltman	Viltman	0		H	sg n
oli	ole	i		V	s
Kalbuse	Kalbuse	0		H	sg n
metsast	mets	st		S	sg el
rajonod	raiu	nud		V	nud
4	4	0		N	?
pedajad	pedajas	d		S	pl n
4-5	4-5	0		N	?
tolli	toll	0		S	sg g
tüvi	tüvi	0		S	sg n
mis	mis	0		P	sg n
ta	tema	0		P	sg n
es	ei	s		V	neg s
salga	salga	0		V	o
.	.			Z	
</s>					
<s>					
Mõistus	mõistus	0		S	sg n
:	:			Z	
maksab	maks	b		V	b
50	50	0		N	?
kop	kop	0		Y	?
mõisale	mõis	le		S	sg all
ja	ja	0		J	
maksis	maks	is		V	s
ka	ka	0		D	
ärä	ära	0		D	
.	.			Z	
</s>					
