<s>					
Villa	villa	0		S	sg n
Jüri	Jüri	0		H	sg n
Fluss	Fluss	0		H	sg n
saje	saa	je		V	s
ette	ette	0		D	
kutsutud	kutsu	tud		V	tud
ja	ja	0		J	
küsitud	küsi	tud		V	tud
kus	kus	0		D	
ta	tema	0		P	sg n
see	see	0		P	sg n
vangre	####				
pand	pand	0		S	sg n
,	,			Z	
mis	mis	0		P	sg n
soldat	soldat	0		S	sg n
Johan	Johan	0		H	sg n
Petersoni	Peterson	0		H	sg g
käest	käsi	st		S	sg el
tema	tema	0		P	sg g
võla	võlg	0		S	sg g
peräst	pärast	0		K	
kohtomehed	####				
ärä	ära	0		D	
võtnod	võt	nud		V	nud
ja	ja	0		J	
tema	tema	0		P	sg g
kätte	kätte	0		K	
kohtomaja	koht_omaja	0		S	sg n
juurdi	juurde	0		D	
tuvva	too	a		V	da
andnod	and	nud		V	nud
olid	ole	id		V	sid
ja	ja	0		J	
ta	tema	0		P	sg n
küsis	küsi	s		V	s
et	et	0		J	
enne	enne	0		K	
Viljandi	Viljandi	0		H	sg n
laata	laat	0		S	sg p
sel	see	l		P	sg ad
samal	sama	l		P	sg ad
korral	kord	l		S	sg ad
kui	kui	0		D	
   	kui	0		J	
vanger	####				
tema	tema	0		P	sg g
kätte	kätte	0		K	
antud	and	tud		V	tud
,	,			Z	
om	ole	m		V	b
see	see	0		P	sg n
vanger	####				
ühes	ühes	0		K	
tema	tema	0		P	sg g
oma	oma	0		P	sg g
hobosega	hobune	ga		S	sg kom
seeni	seen	i		S	pl p
ärä	ära	0		D	
varastedut	####				
kui	kui	0		D	
   	kui	0		J	
ta	tema	0		P	sg g
Mukko	####				
kõrtsis	kõrts	s		S	sg in
sees	sees	0		K	
käind	käi	nud		V	nud
.	.			Z	
</s>					
<s>					
Oma	oma	0		P	sg g
hobose	####				
olla	ole	a		V	da
ta	tema	0		P	sg g
sealt	sealt	0		D	
talust	talu	st		S	sg el
kuse	kusi	0		S	sg g
soldat	soldat	0		S	sg n
elap	ela	b		V	b
,	,			Z	
teisel	teine	l		O	sg ad
      	teine	l		P	sg ad
paeval	päev	l		S	sg ad
homago	####				
talo	talu	0		S	sg g
poisi	poiss	0		S	sg g
käest	käest	0		K	
kätte	kätte	0		K	
saand	saa	nd		V	nud
aga	aga	0		J	
vangert	####				
mitte	mitte	0		D	
.	.			Z	
</s>					
<s>					
Peräst	####				
seda	see	da		P	sg p
on	ole	0		V	b
  	ole	0		V	vad
soldat	soldat	0		S	sg n
Joh	Joh	0		H	sg n
Peterson	Peterson	0		H	sg n
temale	tema	le		P	sg all
ütelnud	ütle	nud		V	nud
et	et	0		J	
seda	see	da		P	sg p
vangert	####				
Viljandi	Viljandi	0		H	sg n
laata	laat	0		S	adt
ärä	ära	0		D	
müünod	müü	nud		V	nud
olevad	olev	d		A	pl n
.	.			Z	
</s>					
<s>					
Sold	####				
.	.			Z	
</s>					
<s>					
Joh	Joh	0		H	sg n
.	.			Z	
</s>					
<s>					
Peterson	Peterson	0		H	sg n
ette	ette	0		D	
kutsotud	####				
kostis	kost	is		V	s
kohto	kohus	0		S	sg g
mehed	mees	d		S	pl n
olla	ole	a		V	da
tema	tema	0		P	sg g
vangri	####				
Viljandi	Viljandi	0		H	sg n
laadas	laat	s		S	sg in
ärä	ära	0		D	
müünd	müü	nud		V	nud
ja	ja	0		J	
nimelt	nimelt	0		D	
,	,			Z	
kohtomees	kohtu_mees	0		S	sg n
Hans	Hans	0		H	sg n
Utso	Utso	0		H	sg n
ja	ja	0		J	
Jaak	Jaak	0		H	sg n
Mütt	Mütt	0		H	sg n
,	,			Z	
mis	mis	0		P	sg n
ta	tema	0		P	sg g
kohto	kohus	0		S	sg g
teatuseks	teatu=s	ks		S	sg tr
üksi	üksi	0		D	
kõnel	kõne	l		S	sg ad
ja	ja	0		J	
selges	selge	s		A	sg in
ei	ei	0		V	neg
või	või	0		J	
teha	tege	a		V	da
.	.			Z	
</s>					
<s>					
Tibina	####				
peremees	pere_mees	0		S	sg n
Ado	Ado	0		H	sg n
Hansson	Hans	0		H	sg g
tunnist	tund	st		S	sg el
et	et	0		J	
Kõrve	Kõrve	0		H	sg n
Hans	Hans	0		H	sg n
on	ole	0		V	b
  	ole	0		V	vad
temale	tema	le		P	sg all
kõnelnod	kõnele	nud		V	nud
,	,			Z	
et	et	0		J	
see	see	0		P	sg n
soldat	soldat	0		S	sg n
Joh	Joh	0		H	sg n
Peterson	Peterson	0		H	sg n
temaga	tema	ga		P	sg kom
Viljandi	Viljandi	0		H	sg n
laatas	####				
vangert	####				
vahetada	vaheta	da		V	da
tahtnud	taht	nud		V	nud
.	.			Z	
</s>					
<s>					
Mõistus	mõistus	0		S	sg n
:	:			Z	
1	1	0		N	?
)	)			Z	
soldat	soldat	0		S	sg n
Joh	Joh	0		H	sg n
Peterson	Peterson	0		H	sg n
istub	istu	b		V	b
kohtomehe	####				
teotamise	teota=mine	0		S	sg g
eest	eest	0		K	
48	48	0		N	?
tunni	tund	0		S	sg g
kinni	kinni	0		D	
ja	ja	0		J	
2	2	0		N	?
)	)			Z	
vangre	####				
asi	asi	0		S	sg n
jääb	jää	b		V	b
seeni	seen	i		S	pl p
pooleli	pooleli	0		D	
kuni	kuni	0		K	
Kõrve	Kõrve	0		H	sg n
Hans	Hans	0		H	sg n
ette	ette	0		D	
talitud	tali=tu	d		A	pl n
saab	saa	b		V	b
.	.			Z	
</s>					
