<s>					
Mõisavalitsus	mõisa_valitsus	0		S	sg n
kaebas	kaeba	s		V	s
et	et	0		J	
Köksi	Köksi	0		H	sg n
peremees	pere_mees	0		S	sg n
Tõnis	Tõnis	0		H	sg n
Ronnimus	Ronnimus	0		H	sg n
oli	ole	i		V	s
mõisa	mõis	0		S	sg g
Kitsivelja	####				
kaso	kasu	0		S	sg g
metsa	mets	0		S	sg p
lasknod	lask	nud		V	nud
sel	see	l		P	sg ad
14.	14.	0		O	?
oktoobril	oktoober	l		S	sg ad
72	72	0		N	?
elaja	elajas	0		S	sg g
kari	kari	0		S	sg n
</s>					
<s>					
sel	see	l		P	sg ad
25.	25.	0		O	?
oktoobril	oktoober	l		S	sg ad
72	72	0		N	?
4	4	0		N	?
hobost	####				
</s>					
<s>					
sel	see	l		P	sg ad
8.	8.	0		O	?
septembril	september	l		S	sg ad
72	72	0		N	?
3	3	0		N	?
hobost	####				
</s>					
<s>					
Neid	see	d		P	pl p
olla	ole	a		V	da
metsavaht	metsa_vaht	0		S	sg n
Märt	Märt	0		H	sg n
Liller	Liller	0		H	sg n
välja	välja	0		D	
ajanod	aja	nud		V	nud
ja	ja	0		J	
võivad	või	vad		V	vad
sest	sest	0		J	
tunnistust	tunnistus	t		S	sg p
anda	and	a		V	da
.	.			Z	
</s>					
<s>					
Tõnis	Tõnis	0		H	sg n
Ronnimus	Ronnimus	0		H	sg n
ette	ette	0		D	
kutsotud	####				
kostse	kost	se		V	s
tema	tema	0		P	sg g
kari	kari	0		S	sg n
ei	ei	0		V	neg
ka	ka	0		D	
hobosed	####				
ei	ei	0		V	neg
ole	ole	0		V	o
senna	senna	0		S	sg g
puttonod	####				
.	.			Z	
</s>					
<s>					
Metsavaht	metsa_vaht	0		S	sg n
Mert	Mert	0		H	sg n
Liller	Liller	0		H	sg n
tunnist	tund	st		S	sg el
et	et	0		J	
ja	ja	0		J	
nenda	nõnda	0		D	
olnod	ole	nud		V	nud
om	ole	m		V	b
kui	kui	0		D	
   	kui	0		J	
peal	peal	0		D	
kaebatud	kaeva	tud		V	tud
,	,			Z	
kinni	kinni	0		D	
pantiks	####				
ei	ei	0		V	neg
ole	ole	0		V	o
ta	tema	0		P	sg g
kedagi	keegi	dagi		P	sg p
võtnod	võt	nud		V	nud
.	.			Z	
</s>					
<s>					
Et	et	0		J	
eloja	####				
kari	kari	0		S	sg g
sees	sees	0		K	
olnod	ole	nud		V	nud
seda	see	da		P	sg p
voivad	####				
tunnistada	tunnista	da		V	da
Köksi	Köksi	0		H	sg n
poisi	poiss	0		S	sg g
Märt	Märt	0		H	sg n
Kukk	Kukk	0		H	sg n
ja	ja	0		J	
Jaak	Jaak	0		H	sg n
Lõhmus	Lõhmus	0		H	sg n
nii	nii	0		D	
kui	kui	0		D	
   	kui	0		J	
ka	ka	0		D	
Jaan	Jaan	0		H	sg n
Almer	Almer	0		H	sg n
(	(			Z	
vide	####				
prot	####				
nr	nr	0		Y	?
112	112	0		N	?
,	,			Z	
nr	nr	0		Y	?
</s>					
<s>					
140	140	0		N	?
)	)			Z	
Mõistus	mõistus	0		S	sg n
:	:			Z	
Jääb	jää	b		V	b
poolele	pool	le		S	sg all
kuni	kuni	0		K	
tunnistaja	tunnistaja	0		S	sg g
ärä	ära	0		D	
kuulatus	kuula=tu	s		S	sg in
saavad	saa	vad		V	vad
.	.			Z	
</s>					
