<s>					
Reile	Reile	0		H	sg n
Hans	Hans	0		H	sg n
Rull	Rull	0		H	sg n
oli	ole	i		V	s
kohtole	kohus	le		S	sg all
kropp	ropp	0		A	sg n
mis	mis	0		P	sg n
peale	peale	0		K	
Mõistedi	Mõistedi	0		H	sg n
:	:			Z	
teda	tema	da		P	sg p
6	6	0		N	?
tunni	tund	0		S	sg g
kinni	kinni	0		D	
panna	pane	a		V	da
ja	ja	0		J	
saje	saa	je		V	s
ka	ka	0		D	
kinni	kinni	0		D	
pantud	####				
.	.			Z	
</s>					
