<s>					
Jaak	Jaak	0		H	sg n
Sakk	Sakk	0		H	sg n
oli	ole	i		V	s
kohto	kohus	0		S	sg g
ees	ees	0		K	
kropp	ropp	0		A	sg n
ja	ja	0		J	
selle	see	0		P	sg g
eest	eest	0		K	
mõistedi	####				
temale	tema	le		P	sg all
15	15	0		N	?
vitsa	vits	0		S	sg p
löögi	löök	0		S	sg g
ja	ja	0		J	
said	saa	id		V	sid
ka	ka	0		D	
ärä	ära	0		D	
antud	and	tud		V	tud
.	.			Z	
</s>					
