<s>					
Kaldrema	Kaldrema	0		H	sg n
Hans	Hans	0		H	sg n
Jurgens	Jurgens	0		H	sg n
oli	ole	i		V	s
Kitsivelja	####				
metsast	mets	st		S	sg el
1	1	0		N	?
koorm	####				
hage	hage	0		V	o
varastanod	varasta	nud		V	nud
.	.			Z	
</s>					
<s>					
Mõistus	mõistus	0		S	sg n
:	:			Z	
maksab	maks	b		V	b
30	30	0		N	?
kop	kop	0		Y	?
ja	ja	0		J	
maksis	maks	is		V	s
ka	ka	0		D	
ärä	ära	0		D	
.	.			Z	
</s>					
