<s>					
Soldat	soldat	0		S	sg n
Laur	Laur	0		H	sg n
Laurisson	Laurisson	0		H	sg n
võttis	võt	is		V	s
sel	see	l		P	sg ad
19.	19.	0		O	?
märtsil	märts	l		S	sg ad
kohtole	kohus	le		S	sg all
teda	tema	da		P	sg p
kinni	kinni	0		D	
panemise	panemine	0		S	sg g
juures	juures	0		K	
puuga	puu	ga		S	sg kom
vasto	vastu	0		D	
,	,			Z	
selle	see	0		P	sg g
eest	eest	0		K	
mõistedi	####				
teda	tema	da		P	sg p
48	48	0		N	?
tunni	tund	0		S	sg g
jelle	####				
kinni	kinni	0		D	
istoma	####				
ja	ja	0		J	
saje	saa	je		V	s
ka	ka	0		D	
kini	####				
pantud	####				
.	.			Z	
</s>					
