<s>					
Kaibas	kaeba	s		V	s
Pastaku	Pastaku	0		H	sg n
Peeter	Peeter	0		H	sg n
Pastak	Pastako	0		H	sg n
et	et	0		J	
tema	tema	0		P	sg g
andno	####				
Johann	Johann	0		H	sg n
Sassile	Sass	le		H	sg all
12	12	0		N	?
rbl	rbl	0		Y	
49	49	0		N	?
kop	kop	0		Y	?
võlgu	võlg	u		S	pl p
ja	ja	0		H	sg n
millgi	####				
kombel	komme	l		S	sg ad
nüüd	nüüd	0		D	
seda	see	da		P	sg p
raha	raha	0		S	sg p
temal	tema	l		P	sg ad
ära	ära	0		D	
ei	ei	0		V	neg
massvat	####				
!	!			Z	
</s>					
<s>					
Johann	Johann	0		H	sg n
Sass	Sass	0		H	sg n
sai	saa	i		V	s
ette	ette	0		D	
kutsutus	kutsutu	s		S	sg in
nink	ning	0		J	
masse	mass	e		S	pl p
neide	neid	e		S	pl p
lepimise	####				
perra	järele	0		D	
8	8	0		N	?
rbl	rbl	0		Y	
ära	ära	0		D	
ja	ja	0		H	sg n
massap	####				
veel	veel	0		D	
varsti	varsti	0		D	
4	4	0		N	?
49	49	0		N	?
kop	kop	0		Y	?
perra	järele	0		D	
!	!			Z	
</s>					
