<s>					
Kaivasiva	####				
kolm	kolm	0		N	sg n
Laguja	lagu=ja	0		S	sg g
külaperemeest	küla_pere_mees	t		S	sg p
Johann	Johann	0		H	sg n
Tiido	Tiido	0		H	sg n
,	,			Z	
Johann	Johann	0		H	sg n
Sass	Sass	0		H	sg n
ja	ja	0		H	sg n
Johann	Johann	0		H	sg n
Tiilik	Tiilik	0		H	sg n
;	;			Z	
et	et	0		J	
Illi	Illi	0		H	sg n
mõtsavaht	####				
Johann	Johann	0		H	sg n
Luik	Luik	0		H	sg n
om	ole	0		V	b
neide	neid	e		S	pl p
jõeveeritse	####				
hainamaa	####				
hädala	####				
ära	ära	0		D	
söötnu	sööt	nud		V	nud
kust	kust	0		D	
nema	tema	0		P	pl n
ikkes	ike	s		S	sg in
iga	iga	0		P	sg g
aasta	aasta	0		S	sg g
3	3	0		N	?
koormat	koorem	t		S	sg p
hainu	####				
om	ole	0		V	b
saanuva	####				
!	!			Z	
</s>					
<s>					
andseva	####				
tunnistajas	tunnistaja	s		S	sg in
Jaan	Jaan	0		H	sg n
Leppik	Leppik	0		H	sg n
ja	ja	0		H	sg n
ka	ka	0		D	
Kriisa	Kriisa	0		H	sg n
Jaan	Jaan	0		H	sg n
Tigase	Tigane	0		H	sg n
!	!			Z	
</s>					
<s>					
nink	ning	0		J	
voivat	####				
ka	ka	0		D	
esi	esi	0		S	sg n
täitsast	####				
tunnistada	tunnista	da		V	da
,	,			Z	
et	et	0		J	
nema	tema	0		P	pl n
mittu	####				
kõrd	kord	0		S	sg n
om	ole	0		V	b
karja	kari	0		S	sg g
jõeveerest	jõe_veer	st		S	sg el
          	jõe_veere	st		S	sg el
välja	välja	0		D	
ajanuva	####				
Mõtsavaht	Mõtsavaht	0		H	sg n
Johann	Johann	0		H	sg n
Luik	Luik	0		H	sg n
sai	saa	i		V	s
ette	ette	0		D	
kutsutus	kutsutu	s		S	sg in
nink	ning	0		J	
ütles	ütle	s		V	s
küsimise	küsimine	0		S	sg g
pääle	peale	0		D	
!	!			Z	
</s>					
<s>					
et	et	0		J	
tema	tema	0		P	sg n
olevat	ole	vat		V	vat
oma	oma	0		P	sg g
karja	kari	0		S	sg g
laste	laps	te		S	pl g
käest	käest	0		K	
küsinu	küsi	nud		V	nud
:	:			Z	
""""	""""			Z	
Et	Et	0		H	sg n
kas	kas	0		D	
teie	sina	0		P	pl n
olete	ole	te		V	te
neide	neid	e		S	pl p
haina	hai	na		S	sg es
maa	maa	0		S	sg g
pääle	peale	0		D	
karja	kari	0		S	sg g
lasknute	lask=nu	te		S	pl g
!	!			Z	
</s>					
<s>					
ent	ent	0		J	
nema	tema	0		P	pl n
olevat	ole	vat		V	vat
üttelnu	ütle	nu		V	nud
sellest	see	st		P	sg el
mitte	mitte	0		D	
midagi	miski	dagi		P	sg p
teedvat	tead	vat		V	vat
!	!			Z	
</s>					
<s>					
rohkemb	rohkem	0		D	
es	ei	s		V	neg s
ütle	ütle	0		V	o
tema	tema	0		P	sg g
ennamb	####				
midagi	miski	dagi		P	sg p
teedvad	tead	vad		V	vat
.	.			Z	
</s>					
<s>					
Otsus	otsus	0		S	sg n
.	.			Z	
</s>					
<s>					
Neid	see	d		P	pl p
tunnistaijt	####				
es	ei	s		V	neg s
ole	ole	0		V	o
mitte	mitte	0		D	
siia	siia	0		D	
kohtu	kohus	0		S	sg g
ette	ette	0		K	
tullu	tule	u		V	nud
!	!			Z	
</s>					
<s>					
siis	siis	0		D	
mõistse	####				
see	see	0		P	sg n
kogokonna	kogu_kond	0		S	sg g
kohus	kohus	0		H	sg n
selle	see	0		P	sg g
asja	asi	0		S	sg p
tühjas	tühi	s		A	sg in
,	,			Z	
selleperast	####				
et	et	0		J	
mitte	mitte	0		D	
sääduse	####				
mees	mees	0		S	sg n
neide	neid	e		S	pl p
haina	hai	na		S	sg es
maa	maa	0		S	sg g
söötmisele	söötmine	le		S	sg all
siis	siis	0		D	
ei	ei	0		V	neg
ole	ole	0		V	o
viidu	vii=du	0		S	sg n
;	;			Z	
kui	kui	0		D	
   	kui	0		J	
mõtsavahi	####				
kari	kari	0		S	sg g
om	ole	0		V	b
hainamaa	####				
ära	ära	0		D	
söönu	söö	nud		V	nud
!	!			Z	
</s>					
<s>					
otsus	otsus	0		S	sg n
sai	saa	i		V	s
igal	iga	l		P	sg ad
üttel	üte	l		S	sg ad
kõrraga	####				
kuulutetus	####				
!	!			Z	
</s>					
