<s>					
Kaibas	kaeba	s		V	s
Jaak	Jaak	0		H	sg n
Kotkas	Kotkas	0		H	sg n
et	et	0		J	
Mihkel	Mihkel	0		H	sg n
Tigane	Tigane	0		H	sg n
ei	ei	0		V	neg
masvat	####				
mitte	mitte	0		D	
tema	tema	0		P	sg g
võlga	võlg	0		S	sg p
21	21	0		N	?
rbl	rbl	0		Y	
ära	ära	0		D	
palus	palu	s		V	s
et	et	0		J	
kohus	kohus	0		H	sg n
tema	tema	0		P	sg g
asja	asi	0		S	sg p
seletas	seleta	s		V	s
!	!			Z	
</s>					
<s>					
Mihkel	Mihkel	0		H	sg n
Tigane	Tigane	0		H	sg n
sai	saa	i		V	s
ette	ette	0		D	
kutsustus	####				
nink	ning	0		J	
ütles	ütle	s		V	s
et	et	0		J	
tema	tema	0		P	sg n
ollev	ole	v		V	vat
kül	küll	0		D	
võtnu	võt	nud		V	nud
ja	ja	0		H	sg n
ei	ei	0		V	neg
jõudvat	jõud	vat		V	vat
mitte	mitte	0		D	
seda	see	da		P	sg p
raha	raha	0		S	sg p
ära	ära	0		D	
massa	maks	a		V	da
.	.			Z	
</s>					
<s>					
Otsus	otsus	0		S	sg n
Kohus	Kohus	0		H	sg n
mõistis	mõist	is		V	s
et	et	0		J	
Mihkel	Mihkel	0		H	sg n
Tigane	Tigane	0		H	sg n
peap	pida	b		V	b
Jaak	Jaak	0		H	sg n
Kotkal	Kotka	l		H	sg ad
21	21	0		N	?
rbl	rbl	0		Y	
ses	see	s		P	sg in
23	23	0		N	?
Aprillis	aprill	s		S	sg in
1882	1882	0		N	?
sisse	sisse	0		D	
massma	maks	ma		V	ma
seda	see	da		P	sg p
kinnitap	kinnita	b		V	b
kogokonnakohus	####				
.	.			Z	
</s>					
