<s>					
Ette	ette	0		D	
tulli	tule	i		V	s
Carl	Carl	0		H	sg n
Domberg	Domberg	0		H	sg n
nink	ning	0		J	
palus	palu	s		V	s
Brottocolli	Brottocolli	0		H	sg n
üles	üles	0		D	
panna	pane	a		V	da
!	!			Z	
</s>					
<s>					
Et	Et	0		H	sg n
nii	nii	0		D	
kui	kui	0		D	
   	kui	0		J	
tema	tema	0		P	sg g
poig	poeg	0		S	sg n
Johann	Johann	0		H	sg n
Domberg	Domberg	0		H	sg n
väga	väga	0		D	
koer	koer	0		S	sg n
om	ole	0		V	b
nink	ning	0		J	
sääduse	####				
vasta	vasta	0		V	o
oma	oma	0		P	sg g
esa	####				
vasta	vasta	0		V	o
pattup	####				
!	!			Z	
</s>					
<s>					
nink	ning	0		J	
palup	palu	b		V	b
nüüd	nüüd	0		D	
et	et	0		J	
kui	kui	0		D	
   	kui	0		J	
tema	tema	0		P	sg g
poig	poeg	0		S	sg n
jälle	jälle	0		D	
essa	####				
nakap	####				
pessma	####				
!	!			Z	
</s>					
<s>					
et	et	0		J	
siis	siis	0		J	
temale	tema	le		P	sg all
võis	või	s		V	s
25	25	0		N	?
vitsa	vits	0		S	sg g
lööki	löök	0		S	sg p
antus	antud	s		A	sg in
:	:			Z	
Otsus	otsus	0		S	sg n
.	.			Z	
</s>					
<s>					
Seda	see	da		P	sg p
kinnitap	kinnita	b		V	b
Kogokonna	Kogokonna	0		H	sg n
Kohus	Kohus	0		H	sg n
ka	ka	0		D	
;	;			Z	
et	et	0		J	
kui	kui	0		D	
   	kui	0		J	
Johann	Johann	0		H	sg n
Domberg	Domberg	0		H	sg n
jälle	jälle	0		D	
essaga	####				
nakap	####				
tüli	tüli	0		S	sg p
tegema	tege	ma		V	ma
;	;			Z	
võib	või	b		V	b
ega	ega	0		J	
kõrd	kord	0		S	sg n
selle	see	0		P	sg g
Brottocolli	Brottocolli	0		H	sg n
pääle	peale	0		D	
Johann	Johann	0		H	sg n
Domberg	Domberg	0		H	sg n
25	25	0		N	?
vitsa	vits	0		S	sg g
lööki	löök	0		S	sg p
ära	ära	0		D	
anda	and	a		V	da
</s>					
