<s>					
Kaibas	kaeba	s		V	s
Jaan	Jaan	0		H	sg n
Tigane	Tigane	0		H	sg n
!	!			Z	
</s>					
<s>					
et	et	0		J	
Johann	Johann	0		H	sg n
Lepik	Lepik	0		H	sg n
Tartost	Tartost	st		H	sg n
om	ole	0		V	b
Jaan	Jaan	0		H	sg n
Tigast	Tigane	t		H	sg p
petnu	pet	nud		V	nud
!	!			Z	
</s>					
<s>					
niida	niit	0		V	o
et	et	0		J	
kui	kui	0		D	
   	kui	0		J	
Jaan	Jaan	0		H	sg n
Tigase	Tigane	0		H	sg n
hobuse	hobune	0		S	sg g
oluva	####				
ära	ära	0		D	
varastetu	####				
ja	ja	0		H	sg n
lubanu	luba	nud		V	nud
siis	siis	0		D	
tema	tema	0		P	sg g
Johann	Johann	0		H	sg n
Lepik	Lepik	0		H	sg n
Jaan	Jaan	0		H	sg n
Tigase	Tigane	0		H	sg n
hobuse	hobune	0		S	sg g
kätte	kätte	0		K	
juhatad	juhata	d		V	d
et	et	0		J	
tema	tema	0		P	sg n
teedvat	tead	vat		V	vat
kus	kus	0		D	
nee	see	d		P	pl n
hobuse	hobune	0		S	sg g
olevat	olev	t		A	sg p
,	,			Z	
Selle	see	0		P	sg g
pääle	peale	0		D	
andno	####				
siis	siis	0		D	
Jaan	Jaan	0		H	sg n
Tigane	Tigane	0		H	sg n
temale	tema	le		P	sg all
15	15	0		N	?
rbl	rbl	0		Y	
raha	raha	0		S	sg n
ja	ja	0		H	sg n
ka	ka	0		D	
jäänu	jää	nud		V	nud
üts	üks	0		N	sg n
   	üks	0		P	sg n
kask	kask	0		S	sg n
tema	tema	0		P	sg g
kätte	kätte	0		K	
25	25	0		N	?
rbl	rbl	0		Y	
väärt	väärt	0		A	
ja	ja	0		H	sg n
vöö	vöö	0		S	sg n
1	1	0		N	?
rbl	rbl	0		Y	
.	.			Z	
</s>					
<s>					
ja	ja	0		H	sg n
nõudse	####				
nüüd	nüüd	0		D	
Jaan	Jaan	0		H	sg n
Tigane	Tigane	0		H	sg n
tema	tema	0		P	sg g
käest	käest	0		K	
üle	üle	0		K	
jala	jalg	0		S	sg g
vaiva	####				
ja	ja	0		H	sg n
hobuse	hobune	0		S	sg g
sõidu	sõit	0		S	sg g
70	70	0		N	?
rbl	rbl	0		Y	
ja	ja	0		H	sg n
palub	palu	b		V	b
ommetegi	####				
teeda	####				
saada	saa	da		V	da
mis	mis	0		P	sg n
perast	pärast	0		D	
Johann	Johann	0		H	sg n
Lepik	Lepik	0		H	sg n
teda	tema	da		P	sg p
nii	nii	0		D	
om	ole	0		V	b
petnu	pet	nud		V	nud
!	!			Z	
</s>					
<s>					
Johann	Johann	0		H	sg n
Lepik	Lepik	0		H	sg n
sai	saa	i		V	s
ette	ette	0		D	
kutsutus	kutsutu	s		S	sg in
nink	ning	0		J	
vastas	vasta	s		V	s
:	:			Z	
Et	Et	0		H	sg n
tema	tema	0		P	sg n
midagi	miski	dagi		P	sg p
sellest	see	st		P	sg el
Jaan	Jaan	0		H	sg n
Tigase	Tigane	0		H	sg n
nõudmisest	nõudmine	st		S	sg el
ei	ei	0		V	neg
teedvat	tead	vat		V	vat
ei	ei	0		V	neg
sellest	see	st		P	sg el
kaskast	####				
ei	ei	0		V	neg
ka	ka	0		D	
sellest	see	st		P	sg el
rahast	raha	st		S	sg el
!	!			Z	
</s>					
<s>					
Tunnistaja	tunnistaja	0		S	sg n
Mihkel	Mihkel	0		H	sg n
Võsso	Võsso	0		H	sg n
sai	saa	i		V	s
ette	ette	0		D	
kutsutus	kutsutu	s		S	sg in
nink	ning	0		J	
ütles	ütle	s		V	s
;	;			Z	
et	et	0		J	
perast	pärane	t		A	sg p
neide	neid	e		S	pl p
hobuse	hobune	0		S	sg g
otsmist	otsmine	t		A	sg p
nõudnu	nõud	nud		V	nud
Jaan	Jaan	0		H	sg n
Tigane	Tigane	0		H	sg n
Johann	Johann	0		H	sg n
Lepiku	Lepik	0		H	sg g
käest	käsi	st		S	sg el
oma	oma	0		P	sg g
kaskat	####				
vööd	vöö	d		S	sg p
ja	ja	0		H	sg n
raha	raha	0		S	sg p
!	!			Z	
</s>					
<s>					
ja	ja	0		H	sg n
siis	siis	0		J	
üttelnu	ütle	nu		V	nud
Johan	Johan	0		H	sg n
Lepik	Lepik	0		H	sg n
Jaan	Jaan	0		H	sg n
Tigasele	Tigase	le		H	sg all
et	et	0		J	
tema	tema	0		P	sg n
saa	saa	0		V	o
kiik	kiik	0		S	sg n
oma	oma	0		P	sg g
kraam	kraam	0		S	sg n
kätte	käsi	tte		S	adt
niikui	####				
kulld	####				
!	!			Z	
</s>					
<s>					
Otsus	otsus	0		S	sg n
.	.			Z	
</s>					
<s>					
Et	Et	0		H	sg n
Johann	Johann	0		H	sg n
Lepik	Lepik	0		H	sg n
esi	esi	0		S	sg n
om	ole	0		V	b
lubanu	luba	nud		V	nud
Mihkel	Mihkel	0		H	sg n
Võsso	Võsso	0		H	sg n
kuulmisen	####				
kiik	kiik	0		S	sg n
nee	see	d		P	pl n
nimitetu	####				
kraam	kraam	0		S	sg n
Jaan	Jaan	0		H	sg n
Tigase	Tigane	0		H	sg n
kätte	käsi	tte		S	adt
annda	####				
!	!			Z	
</s>					
<s>					
peap	pida	b		V	b
Johann	Johann	0		H	sg n
Leppik	Leppik	0		H	sg n
Jaan	Jaan	0		H	sg n
Tigasele	Tigase	le		H	sg all
tema	tema	0		P	sg g
kaska	####				
ja	ja	0		H	sg n
vöö	vöö	0		S	sg g
eest	eest	0		K	
kokko	####				
26	26	0		N	?
rbl	rbl	0		Y	
8	8	0		N	?
päiva	päev	0		S	sg g
sehen	####				
välja	välja	0		D	
massma	maks	ma		V	ma
.	.			Z	
</s>					
<s>					
nii	nii	0		D	
sammute	sammu	te		V	te
ka	ka	0		D	
see	see	0		P	sg n
võetu	võetud	0		A	sg g
raha	raha	0		S	sg p
15	15	0		N	?
rbl	rbl	0		Y	
.	.			Z	
</s>					
<s>					
Otsus	otsus	0		S	sg n
sai	saa	i		V	s
mõlembile	####				
ette	ette	0		D	
kuulutetus	####				
!	!			Z	
</s>					
