<s>					
II	II	0		O	?
Metsa	mets	0		S	sg g
herra	härra	0		S	sg g
akti	akt	0		S	sg g
pääle	peale	0		D	
saiva	####				
ka	ka	0		D	
Karl	Karl	0		H	sg n
Speek	Speek	0		H	sg n
ja	ja	0		H	sg n
Ants	Ants	0		H	sg n
Armsohn	Armsohn	0		H	sg n
ära	ära	0		D	
kulletu	####				
ja	ja	0		H	sg n
ütliva	####				
et	et	0		J	
nema	tema	0		P	pl n
mitte	mitte	0		D	
kroono	####				
metsast	mets	st		S	sg el
kumbgi	####				
1/8	1/8	0		N	?
kupik	####				
salda	####				
veikeisi	####				
kuive	####				
pedajid	####				
ei	ei	0		V	neg
ollev	ole	v		V	vat
varastanu	varasta	nud		V	nud
ja	ja	0		H	sg n
sellest	see	st		P	sg el
midagi	miski	dagi		P	sg p
ei	ei	0		V	neg
teedvad	tead	vad		V	vat
!	!			Z	
</s>					
<s>					
Metsa	mets	0		S	sg g
vaht	vaht	0		S	sg n
Peeter	Peeter	0		H	sg n
Märtin	Märtin	0		H	sg n
sai	saa	i		V	s
ette	ette	0		D	
kutsutus	kutsutu	s		S	sg in
ja	ja	0		H	sg n
ütles	ütle	s		V	s
:	:			Z	
Et	Et	0		H	sg n
tema	tema	0		P	sg g
neid	see	d		P	pl p
mõlembid	####				
kroono	####				
metsas	mets	s		S	sg in
kätte	käsi	tte		S	adt
saanu	saa	nud		V	nud
!	!			Z	
</s>					
<s>					
kui	kui	0		D	
   	kui	0		J	
nema	tema	0		P	pl n
mõtsan	####				
ragonuva	####				
Otsus	otsus	0		S	sg n
!	!			Z	
</s>					
<s>					
Et	Et	0		H	sg n
õiget	õige	t		A	sg p
tunnistust	tunnistus	t		S	sg p
ei	ei	0		V	neg
ole	ole	0		V	o
kas	kas	0		D	
nema	tema	0		P	pl n
kroono	####				
metsast	mets	st		S	sg el
om	ole	0		V	b
toonuva	####				
või	või	0		J	
mitte	mitte	0		D	
saap	saa	p		V	b
see	see	0		P	sg n
asi	asi	0		S	sg n
siist	####				
poolt	poolt	0		K	
tühjas	tühi	s		A	sg in
mõistetus	mõiste=tu	s		S	sg in
!	!			Z	
</s>					
<s>					
otsus	otsus	0		S	sg n
sai	saa	i		V	s
mõlembile	####				
ette	ette	0		D	
kuulutetus	####				
.	.			Z	
</s>					
