<s>					
Ette	ette	0		D	
tulli	tule	i		V	s
selle	see	0		P	sg g
Kogokonna	Kogokonna	0		H	sg n
liige	liige	0		S	sg n
Mihkel	Mihkel	0		H	sg n
Ramm	Ramm	0		H	sg n
,	,			Z	
Jüri	Jüri	0		H	sg n
poig	poeg	0		S	sg n
!	!			Z	
</s>					
<s>					
nink	ning	0		J	
palles	####				
oma	oma	0		P	sg g
(	(			Z	
kai	kai	0		S	sg g
)	)			Z	
bust	####				
veel	veel	0		D	
meelde	meel	de		S	adt
tuletada	tuleta	da		V	da
!	!			Z	
</s>					
<s>					
Et	Et	0		H	sg n
nii	nii	0		D	
kui	kui	0		D	
   	kui	0		J	
tema	tema	0		P	sg g
selle	see	0		P	sg g
Brottocolli	Brottocolli	0		H	sg n
pääle	peale	0		D	
sest	sest	0		J	
1878	1878	0		N	?
,	,			Z	
sel	see	l		P	sg ad
13	13	0		N	?
Febroar	####				
.	.			Z	
</s>					
<s>					
Nr	Nr	0		Y	sg n
12.	12.	0		O	?
olevat	ole	vat		V	vat
rehe	rehi	0		S	sg g
loo	lood	0		S	sg g
   	loog	0		S	sg g
   	lugu	0		S	sg g
päält	pealt	0		K	
maha	maha	0		D	
sadanu	sada	nud		V	nud
ja	ja	0		H	sg n
ka	ka	0		D	
siis	siis	0		D	
juba	juba	0		D	
koolisklemise	####				
ehk	ehk	0		J	
Lange	Lange	0		H	sg n
tõbe	tõbi	0		S	sg p
sisse	sisse	0		D	
jäänu	jää	nud		V	nud
!	!			Z	
</s>					
<s>					
mis	mis	0		P	sg n
ka	ka	0		D	
kõik	kõik	0		P	sg n
tema	tema	0		P	sg g
talo	talu	0		S	sg g
Varimoisa	####				
peremees	pere_mees	0		S	sg n
Jaan	Jaan	0		H	sg n
Soosaar	Soosaar	0		H	sg n
oma	oma	0		P	sg g
perega	pere	ga		S	sg kom
võivat	või	vat		V	vat
tunnistada	tunnista	da		V	da
.	.			Z	
</s>					
<s>					
Otsus	otsus	0		S	sg n
!	!			Z	
</s>					
<s>					
Et	Et	0		H	sg n
Mihkel	Mihkel	0		H	sg n
Ramm	Ramm	0		H	sg n
täitsaste	####				
sel	see	l		P	sg ad
1878	1878	0		N	?
aastal	aasta	l		S	sg ad
om	ole	0		V	b
Rehe	rehi	0		S	sg g
loo	lood	0		S	sg g
   	loog	0		S	sg g
   	lugu	0		S	sg g
päält	pealt	0		K	
maha	maha	0		D	
sadanu	sada	nud		V	nud
ja	ja	0		H	sg n
nüüd	nüüd	0		D	
ka	ka	0		D	
praego	praegu	0		D	
sest	sest	0		J	
1878	1878	0		N	?
aastast	aasta	st		S	sg el
om	ole	0		V	b
Lange	Lange	0		H	sg n
tõbe	tõbi	0		S	sg p
sisse	sisse	0		D	
jäänu	jää	nud		V	nud
nii	nii	0		D	
et	et	0		J	
temast	tema	st		P	sg el
töö	töö	0		S	sg g
tegijad	tegija	d		S	pl n
ei	ei	0		V	neg
ole	ole	0		V	o
!	!			Z	
</s>					
<s>					
seda	see	da		P	sg p
tunnistap	tunnista	p		V	b
selle	see	0		P	sg g
aigne	####				
kogokonna	kogu_kond	0		S	sg g
kohus	kohus	0		H	sg n
!	!			Z	
</s>					
