<s>					
Kaibas	kaeba	s		V	s
Hans	Hans	0		H	sg n
Kotkas	Kotkas	0		H	sg n
;	;			Z	
Et	Et	0		H	sg n
üttel	üte	l		S	sg ad
ööl	öö	l		S	sg ad
sel	see	l		P	sg ad
24	24	0		N	?
Janoar	####				
pühaba	####				
ööse	öös	e		S	pl p
varastetutema	####				
kambrist	kamber	st		S	sg el
2	2	0		N	?
puuda	puud	0		S	sg g
linnu	lind	0		S	sg g
ära	ära	0		D	
!	!			Z	
</s>					
<s>					
nink	ning	0		J	
nüüd	nüüd	0		D	
olevad	olev	d		A	pl n
tema	tema	0		P	sg g
Endrik	Endrik	0		H	sg n
Kotkas	Kotkas	0		H	sg n
,	,			Z	
Johann	Johann	0		H	sg n
Võsso	Võsso	0		H	sg n
ja	ja	0		H	sg n
kohtumees	kohtu_mees	0		S	sg n
peeter	####				
Soonberg	Soonberg	0		H	sg n
neid	see	d		P	pl p
linnu	linn	u		S	pl p
varga	varas	0		S	sg g
Jüri	Jüri	0		H	sg n
Elia	Elia	0		H	sg n
käest	käsi	st		S	sg el
kätte	käsi	tte		S	adt
saanu	saa	nud		V	nud
!	!			Z	
</s>					
<s>					
palus	palu	s		V	s
et	et	0		J	
kohus	kohus	0		H	sg n
tema	tema	0		P	sg g
asja	asi	0		S	sg p
ära	ära	0		D	
seletas	seleta	s		V	s
ja	ja	0		H	sg n
tema	tema	0		P	sg g
vaiva	####				
10	10	0		N	?
rbl	rbl	0		Y	
ja	ja	0		H	sg n
nee	see	d		P	pl n
linna	linn	0		S	sg p
temale	tema	le		P	sg all
ära	ära	0		D	
mõistas	####				
.	.			Z	
</s>					
<s>					
Otsus	otsus	0		S	sg n
.	.			Z	
</s>					
<s>					
Et	Et	0		H	sg n
Jüri	Jüri	0		H	sg n
Elias	Elia	0		H	sg g
kes	kes	0		P	sg n
Vara	vara	0		S	sg g
valla	valla	0		H	sg n
kogokonna	kogu_kond	0		S	sg g
liige	liige	0		S	sg n
nee	see	d		P	pl n
linna	linn	0		S	sg g
2	2	0		N	?
puuda	puud	0		S	adt
Uderna	Uderna	0		H	sg n
kaupmehe	kaup_mees	0		S	sg g
Biilbergil	####				
om	ole	0		V	b
ära	ära	0		D	
müünu	müü	nud		V	nud
,	,			Z	
mis	mis	0		P	sg n
tema	tema	0		P	sg g
essi	ise	0		P	sg n
Vallavanemba	Vallavanemba	0		H	sg n
Peeter	Peeter	0		H	sg n
Ruusa	Ruusa	0		H	sg n
,	,			Z	
Kohtomees	####				
Jaan	Jaan	0		H	sg n
Soosaar	Soosaar	0		H	sg n
kohtomees	kohtu_mees	0		S	sg n
Peeter	Peeter	0		H	sg n
Soonberg	Soonberg	0		H	sg n
ja	ja	0		H	sg n
Johann	Johann	0		H	sg n
Võsso	Võsso	0		H	sg n
manu	manu	0		K	
olekin	####				
!	!			Z	
</s>					
<s>					
om	ole	0		V	b
üles	üles	0		D	
tunnistanu	tunnista	nud		V	nud
!	!			Z	
</s>					
<s>					
om	ole	0		V	b
selle	see	0		P	sg g
kohto	kohus	0		S	
poolt	poolt	0		K	
moistetu	mõist	tud		V	tud
et	et	0		J	
Vara	Vara	0		H	sg g
valla	valla	0		H	sg n
kogokonna	kogu_kond	0		S	sg g
liige	liige	0		S	sg n
Jüri	Jüri	0		H	sg n
Elias	Elia	0		H	sg g
peap	pida	b		V	b
Hans	Hans	0		H	sg n
Kotkal	Kotka	l		H	sg ad
8te	####				
rbl	rbl	0		Y	
ära	ära	0		D	
massma	maks	ma		V	ma
sest	sest	0		J	
päivast	####				
sija	####				
ära	ära	0		D	
massma	maks	ma		V	ma
!	!			Z	
</s>					
<s>					
Ja	ja	0		J	
saap	saa	p		V	b
selle	see	0		P	sg g
kogokonna	kogu_kond	0		S	sg g
kohto	kohus	0		S	
poolt	poolt	0		K	
oma	oma	0		P	sg g
trahvis	trahvi	s		V	s
25	25	0		N	?
katskümmend	####				
viis	vii	s		V	s
vitsa	vits	0		S	sg g
lööki	löök	0		S	sg p
!	!			Z	
</s>					
<s>					
Ja	ja	0		J	
saap	saa	p		V	b
tema	tema	0		P	sg g
ka	ka	0		D	
Jüri	Jüri	0		H	sg n
Elis	Elis	0		H	sg n
omma	ole	0		V	vad
valda	vald	0		S	adt
Vara	vara	0		S	sg g
ära	ära	0		D	
saadetus	saadetud	s		A	sg in
!	!			Z	
</s>					
<s>					
sest	sest	0		J	
et	et	0		J	
see	see	0		P	sg n
kogokonna	kogu_kond	0		S	sg g
kohus	kohus	0		H	sg n
nii	nii	0		D	
sugust	sugune	t		A	sg p
varast	varas	t		S	sg p
oma	oma	0		P	sg g
volikonnan	####				
ei	ei	0		V	neg
talu	talu	0		V	o
.	.			Z	
</s>					
<s>					
Otsus	otsus	0		S	sg n
sai	saa	i		V	s
ette	ette	0		D	
kuulutetus	####				
vargal	varas	l		S	sg ad
Jüri	Jüri	0		H	sg n
Elial	Elia	l		H	sg ad
ka	ka	0		D	
Hans	Hans	0		H	sg n
Kotkal	Kotka	l		H	sg ad
.	.			Z	
</s>					
