<s>					
Ette	ette	0		D	
tulli	tule	i		V	s
Tigase	Tigane	0		H	sg n
mõtsa	mets	0		S	sg g
vaht	vaht	0		S	sg n
Peeter	Peeter	0		H	sg n
Märtin	Märtin	0		H	sg n
nink	ning	0		J	
kaibas	kaeba	s		V	s
!	!			Z	
</s>					
<s>					
Et	Et	0		H	sg n
tema	tema	0		P	sg g
leüdno	####				
Karl	Karl	0		H	sg n
Speek	Speek	0		H	sg n
kroono	####				
mõtsast	mets	st		S	sg el
ja	ja	0		H	sg n
ragonu	####				
noori	noor	i		A	pl p
pedajaid	pedajas	id		S	pl p
!	!			Z	
</s>					
<s>					
Ent	ent	0		J	
kui	kui	0		D	
   	kui	0		J	
tema	tema	0		P	sg g
Carl	Carl	0		H	sg n
Speek	Speek	0		H	sg n
'	’			H	
iga	iga	0		P	sg n
om	ole	0		V	b
kõnelnu	kõnele	nud		V	nud
ja	ja	0		H	sg n
teda	tema	da		P	sg p
mõtsast	mets	st		S	sg el
välja	välja	0		D	
ajanu	aja	nud		V	nud
!	!			Z	
</s>					
<s>					
Selle	sell	e		S	pl p
pääle	peale	0		D	
tullu	tule	u		V	nud
Carl	Carl	0		H	sg n
Speek	Speek	0		H	sg n
tõine	teine	0		P	sg n
pois	poi	s		S	sg in
ehk	ehk	0		D	
sulane	sulane	0		S	sg n
Hans	Hans	0		H	sg n
Harmson	Harmson	0		H	sg n
nink	ning	0		J	
see	see	0		P	sg n
ahvardanu	####				
teda	tema	da		P	sg p
ära	ära	0		D	
tapa	tapp	0		S	sg g
ja	ja	0		H	sg n
üttelnu	ütle	nu		V	nud
!	!			Z	
</s>					
<s>					
Et	Et	0		H	sg n
mõtsavaht	####				
ei	ei	0		V	neg
tohtvat	####				
enamb	enam	0		D	
sugugi	sugugi	0		D	
kroono	####				
mõtsa	mets	0		S	sg p
tulla	tule	a		V	da
!	!			Z	
</s>					
<s>					
mis	mis	0		P	sg n
pääle	peale	0		D	
siis	siis	0		J	
nema	tema	0		P	pl n
mõtsa	mets	0		S	sg g
vahile	vaht	le		S	sg all
kohalt	koha	lt		S	sg abl
      	koht	lt		S	sg abl
ära	ära	0		D	
tappvat	####				
!	!			Z	
</s>					
<s>					
Otsus	otsus	0		S	sg n
.	.			Z	
</s>					
<s>					
et	et	0		J	
Carl	Carl	0		H	sg n
Speek	Speek	0		H	sg n
ja	ja	0		H	sg n
Hans	Hans	0		H	sg n
Harmsohn	Harmson	0		H	sg g
mitte	mitte	0		D	
kohto	kohus	0		S	
een	ees	0		K	
ei	ei	0		V	neg
ole	ole	0		V	o
olno	####				
!	!			Z	
</s>					
<s>					
saava	saav	0		A	sg g
tõises	####				
kohto	kohus	0		S	
päivas	####				
kutsutus	kutsutu	s		S	sg in
nink	ning	0		J	
see	see	0		P	sg n
asi	asi	0		S	sg n
ära	ära	0		D	
seletetus	seleta	tus		V	tud tr
!	!			Z	
</s>					
