<s>					
Jaan	Jaan	0		H	sg n
Tigane	Tigane	0		H	sg n
tulli	tule	i		V	s
Kogogonna	Kogokona	0		H	sg g
Kohto	kohus	0		S	sg g
ette	ette	0		D	
nink	ning	0		J	
pallos	####				
allandligult	####				
nimmetetu	####				
kohut	kohus	t		S	sg p
,	,			Z	
et	et	0		J	
seda	see	da		P	sg p
temma	tema	0		P	sg g
asja	asi	0		S	sg p
keda	kes	da		P	sg p
temma	tema	0		P	sg n
om	ole	0		V	b
möda	####				
länno	####				
Märzi	####				
kuul	kuu	l		S	sg ad
1881	1881	0		N	?
aastal	aasta	l		S	sg ad
sisse	sisse	0		D	
Kaivanu	kai_vana	u		S	pl p
et	et	0		J	
Lesk	lesk	0		S	sg n
naine	naine	0		S	sg n
Lena	Lena	0		H	sg n
Tadolder	Tadoldre	0		H	sg n
om	ole	0		V	b
ühe	üks	0		N	sg g
   	üks	0		P	sg g
nasse	####				
juttu	jutt	0		S	sg p
välja	välja	0		D	
ajanu	aja	nud		V	nud
,	,			Z	
et	et	0		J	
Jaan	Jaan	0		H	sg n
Tigane	Tigane	0		H	sg n
temaka	####				
olles	ole	es		V	des
ütte	üte	0		S	sg g
ellanu	####				
,	,			Z	
nink	ning	0		J	
nüüd	nüüd	0		D	
seeni	seen	i		S	pl p
ajani	aeg	ni		S	sg ter
ei	ei	0		V	neg
ollev	ole	v		V	vat
Kogokona	Kogokona	0		H	sg n
Kohus	Kohus	0		H	sg n
seda	see	da		P	sg p
Lena	Lena	0		H	sg n
Tadoldred	Tadolder	d		H	sg g
Kohto	kohus	0		S	sg g
ette	ette	0		K	
tallitanu	talita	nud		V	nud
et	et	0		J	
ni	nii	0		D	
sugune	sugune	0		A	sg n
assi	ass	0		S	sg g
olles	ole	es		V	des
pidinu	####				
Kohto	kohus	0		S	sg g
een	ees	0		K	
selletetu	####				
ollema	####				
mis	mis	0		P	sg n
Jaan	Jaan	0		H	sg n
Tigane	Tigane	0		H	sg n
ommalt	####				
poolt	poolt	0		K	
vaivat	####				
hennast	henna	st		S	sg el
sest	sest	0		J	
nimitetust	####				
trotsmisest	####				
pri	####				
ollos	####				
mis	mis	0		P	sg n
ennamb	####				
kui	kui	0		D	
   	kui	0		J	
500	500	0		N	?
sada	sada	0		N	sg n
rubla	rubla	0		S	sg g
eest	eest	0		K	
ei	ei	0		V	neg
ollev	ole	v		V	vat
tema	tema	0		P	sg g
kuulnu	kuul	nud		V	nud
selle	see	0		P	sg g
tões	tõde	s		S	sg in
    	tõsi	s		S	sg in
tegemises	tegemine	s		S	sg in
andis	and	is		V	s
Jaan	Jaan	0		H	sg n
Tigane	Tigane	0		H	sg n
ülles	üles	0		D	
kes	kes	0		P	sg n
Lena	Lena	0		H	sg n
Tadaltraka	Tadaltraka	0		H	sg n
ollev	ole	v		V	vat
ütte	üte	0		S	sg g
ellanu	####				
pangodist	####				
Mihkel	Mihkel	0		H	sg n
Kiis	Kiis	0		H	sg n
,	,			Z	
mis	mis	0		P	sg n
ka	ka	0		D	
nüüd	nüüd	0		D	
Kiigel	Kiigel	0		H	sg n
Vallal	Vallal	0		H	sg n
selgest	selge	st		A	sg el
teeda	####				
ollev	ole	v		V	vat
kes	kes	0		P	sg n
Jaan	Jaan	0		H	sg n
Tigasele	Tigase	le		H	sg all
ollev	ole	v		V	vat
esi	esi	0		S	sg n
selgest	selge	st		A	sg el
ärra	ära	0		D	
Kõnnelnu	####				
,	,			Z	
et	et	0		J	
nemma	####				
ollev	ole	v		V	vat
ühe	üks	0		N	sg g
   	üks	0		P	sg g
Vigguri	vigur	0		S	sg g
perrast	pärast	0		K	
seda	see	da		P	sg p
juttu	jutt	0		S	sg p
tema	tema	0		P	sg g
päle	pea	le		S	sg all
välja	välja	0		D	
ajanu	aja	nud		V	nud
mis	mis	0		P	sg n
Jaan	Jaan	0		H	sg n
Tigane	Tigane	0		H	sg n
arvab	arva	b		V	b
et	et	0		J	
Mihkel	Mihkel	0		H	sg n
Kiis	Kiis	0		H	sg n
ei	ei	0		V	neg
sa	sina	0		P	sg n
vist	vist	0		D	
Kogokonna	Kogokonna	0		H	sg n
Kohto	kohus	0		S	sg g
een	ees	0		K	
ärra	ära	0		D	
salgama	salga	ma		V	ma
mis	mis	0		P	sg n
ta	tema	0		P	sg n
mitte	mitte	0		D	
allamban	####				
kohton	####				
Lena	Lena	0		H	sg n
nink	ning	0		J	
Mihkel	Mihkel	0		H	sg n
Kiik	Kiik	0		H	sg n
ei	ei	0		V	neg
vaivat	####				
kui	kui	0		D	
   	kui	0		J	
vandumise	vandumine	0		S	sg g
läbi	läbi	0		K	
ärra	ära	0		D	
sallata	####				
seda	see	da		P	sg p
asja	asi	0		S	sg p
vaivat	####				
veel	veel	0		D	
mannu	manu	0		K	
tunnistata	tunnista	ta		V	ta
nimmelt	nimelt	0		D	
säält	####				
Leena	Leena	0		H	sg n
tallost	tall_ost	0		S	sg n
Tüdruk	tüdruk	0		S	sg n
An	An	0		Y	sg n
Küllaots	Küllaots	0		H	sg n
emma	####				
Triin	Triin	0		H	sg n
,	,			Z	
ja	ja	0		H	sg n
Mihkel	Mihkel	0		H	sg n
Sirk	Sirk	0		H	sg n
kellel	kes	l		P	sg ad
Mihkel	Mihkel	0		H	sg n
Kiisk	Kiisk	0		H	sg n
ollev	ole	v		V	vat
selgest	selge	st		A	sg el
välja	välja	0		D	
kõnnelnu	####				
Otsus	otsus	0		S	sg n
et	et	0		J	
se	see	0		P	sg n
assi	ass	0		S	sg g
tõtte	tõsi	tte		S	adt
om	ole	0		V	b
et	et	0		J	
Jaan	Jaan	0		H	sg n
Tigane	Tigane	0		H	sg n
om	ole	0		V	b
tahtnu	taht	nud		V	nud
ammo	####				
seda	see	da		P	sg p
asja	asi	0		S	sg p
Kohto	kohus	0		S	sg g
een	ees	0		K	
selges	selge	s		A	sg in
tetta	tege	a		V	da
,	,			Z	
ent	ent	0		J	
Lena	Lena	0		H	sg n
Tatolder	Tatolder	0		H	sg n
ei	ei	0		V	neg
olle	ole	0		V	o
mitte	mitte	0		D	
kohto	kohus	0		S	
ette	ette	0		D	
seeni	seen	i		S	pl p
ajani	aeg	ni		S	sg ter
kässode	####				
pääle	peale	0		D	
tulnu	tulnu	0		S	sg n
,	,			Z	
saab	saa	b		V	b
nüüd	nüüd	0		D	
een	ees	0		K	
tullevas	####				
Kohto	kohus	0		S	sg g
päivas	####				
vahi	vaht	0		S	sg g
al	al	0		Y	?
sija	####				
tallitus	talli=tus	0		S	sg n
otsus	otsus	0		S	sg n
sai	saa	i		V	s
Jaan	Jaan	0		H	sg n
Tigasel	Tigane	l		H	sg ad
kulutud	kulu	tud		V	tud
.	.			Z	
</s>					
