<s>					
Hans	Hans	0		H	sg n
Speek	Speek	0		H	sg n
kätte	käsi	tte		S	adt
sai	saa	i		V	s
Hindrik	Hindrik	0		H	sg n
Kitsbergi	Kitsbergi	0		H	sg n
palka	palk	0		S	sg p
9	9	0		N	?
rbl	rbl	0		Y	
kinni	kinni	0		D	
keeletus	keeletus	0		S	sg n
,	,			Z	
mis	mis	0		P	sg n
mõtso	####				
trahvi	trahv	0		S	sg g
ses	see	s		P	sg in
2	2	0		N	?
November	November	0		H	sg n
.	.			Z	
</s>					
<s>					
s.a	s.a	0		Y	?
.	.			Z	
</s>					
<s>					
saap	saa	p		V	b
II	II	0		O	?
Tarto	Tarto	0		H	sg n
Kihelkonda	kihelkond	0		S	adt
ära	ära	0		D	
maksetud	makse=tu	d		A	pl n
!	!			Z	
</s>					
<s>					
Ja	ja	0		J	
lubas	luba	s		V	s
Hans	Hans	0		H	sg n
Speek	Speek	0		H	sg n
esi	esi	0		S	pl p
ka	ka	0		D	
seda	see	da		P	sg p
kinni	kinni	0		D	
hoida	hoid	a		V	da
!	!			Z	
</s>					
