<s>					
Kaibas	kaeba	s		V	s
Roelast	Roelast	st		H	sg n
Madis	Madis	0		H	sg n
Jõgi	Jõgi	0		H	sg n
;	;			Z	
Et	Et	0		H	sg n
Jüri	Jüri	0		H	sg n
Leppik	Leppik	0		H	sg n
mitte	mitte	0		D	
tema	tema	0		P	sg g
hobust	hobune	t		S	sg p
kätte	käsi	tte		S	adt
ei	ei	0		V	neg
anna	and	0		V	o
mis	mis	0		P	sg n
keiserlik	keiserlik	0		A	sg n
Tarto	Tarto	0		H	sg n
Kreiskohus	Kreiskohus	0		H	sg n
ka	ka	0		D	
temale	tema	le		P	sg all
juba	juba	0		D	
seda	see	da		P	sg p
hobust	hobune	t		S	sg p
kätte	käsi	tte		S	adt
mõistnu	mõist	nud		V	nud
ollo	ole	o		V	nud
.	.			Z	
</s>					
<s>					
Palus	palu	s		S	sg in
et	et	0		J	
kohus	kohus	0		H	sg n
tema	tema	0		P	sg g
asja	asi	0		S	sg p
ära	ära	0		D	
seletas	seleta	s		V	s
!	!			Z	
</s>					
<s>					
Ja	ja	0		J	
nõudse	####				
oma	oma	0		P	sg g
vaeva	vaev	0		S	sg p
ja	ja	0		H	sg n
oma	oma	0		P	sg g
hobuse	hobune	0		S	sg g
pidamise	pidamine	0		S	sg g
ette	ette	0		K	
150	150	0		N	?
rbl	rbl	0		Y	
mis	mis	0		P	sg n
pääle	peale	0		D	
tema	tema	0		P	sg g
nüüd	nüüd	0		D	
igavetse	####				
kahjo	####				
sisse	sisse	0		D	
ollev	ole	v		V	vat
jäänud	jää	nud		V	nud
!	!			Z	
</s>					
<s>					
Jüri	Jüri	0		H	sg n
Leppik	Leppik	0		H	sg n
ütles	ütle	s		V	s
oma	oma	0		P	sg g
ette	ette	0		D	
kutsumise	kutsumine	0		S	sg g
pääle	peale	0		D	
!	!			Z	
</s>					
<s>					
Et	Et	0		H	sg n
see	see	0		P	sg n
tema	tema	0		P	sg g
hobune	hobune	0		S	sg n
ollev	ole	v		V	vat
mis	mis	0		P	sg n
tunnistuste	tunnistus	te		S	pl g
pääle	peale	0		D	
tema	tema	0		P	sg g
hobuses	hobune	s		S	sg in
om	ole	0		V	b
jäänu	jää	nud		V	nud
ja	ja	0		H	sg n
nõudse	####				
veel	veel	0		D	
110	110	0		N	?
rbl	rbl	0		Y	
Mari	Mari	0		H	sg n
Jõgi	Jõgi	0		H	sg n
kaist	kai	st		S	sg el
oma	oma	0		P	sg g
vankri	vanker	0		S	sg g
ja	ja	0		H	sg n
hobuse	hobune	0		S	sg g
riistu	riist	u		S	pl p
ette	ette	0		D	
mis	mis	0		P	sg n
ka	ka	0		D	
tol	too	l		P	sg ad
kõrr	####				
hobusega	hobune	ga		S	sg kom
ütten	ühes	0		D	
ära	ära	0		D	
varastetu	####				
!	!			Z	
</s>					
<s>					
andse	and	se		V	s
tunnistajis	####				
:	:			Z	
""""	""""			Z	
nii	nii	0		D	
kui	kui	0		D	
   	kui	0		J	
vana	vana	0		A	sg n
Brottocolli	Brottocolli	0		H	sg n
sest	sest	0		J	
saisge	####				
.	.			Z	
</s>					
<s>					
Otsus	otsus	0		S	sg n
.	.			Z	
</s>					
<s>					
Jääp	jää	b		V	b
tõises	####				
kohto	kohus	0		S	
päivas	####				
ja	ja	0		H	sg n
saava	saav	0		A	sg g
ka	ka	0		D	
nee	see	d		P	pl n
tunnistaja	tunnistaja	0		S	sg g
siija	####				
tallitetus	####				
:	:			Z	
</s>					
