<s>					
Tuli	tule	i		V	s
ette	ette	0		D	
Kadri	Kadri	0		H	sg n
Priks	Priks	0		H	sg n
oma	oma	0		P	sg g
käsiniku	käsinik	0		S	sg g
Mihkel	Mihkel	0		H	sg n
Trikkandiga	Trikkandiga	0		H	sg n
ja	ja	0		J	
kaebas	kaeba	s		V	s
,	,			Z	
et	et	0		J	
August	August	0		H	sg n
Birn	Birn	0		H	sg n
olema	ole	ma		V	ma
temaga	tema	ga		P	sg kom
kokku	kokku	0		D	
elanud	ela	nud		V	nud
,	,			Z	
mis-peale	mis-pea	le		S	sg all
temal	tema	l		P	sg ad
Kadri	Kadri	0		H	sg n
Priksil	Priks	l		H	sg ad
poeg	poeg	0		S	sg n
laps	laps	0		S	sg n
sündinud	sündi	nud		V	nud
,	,			Z	
kes	kes	0		P	sg n
nüid	####				
juba	juba	0		D	
ligi	ligi	0		K	
kahe	kaks	0		N	sg g
aastane	aastane	0		A	sg n
olla	ole	a		V	da
,	,			Z	
ning	ning	0		J	
nöudis	nõud	is		V	s
August	August	0		H	sg n
Birni	Birni	0		H	sg n
käist	käis	t		S	sg p
selle	see	0		P	sg g
lapse	laps	0		S	sg g
kasvatamise	kasvatamine	0		S	sg g
abi	abi	0		S	sg n
120	120	0		N	?
Rbl	Rbl	0		H	sg n
.	.			Z	
</s>					
<s>					
Tuli	tule	i		V	s
ette	ette	0		D	
August	August	0		H	sg n
Birn	Birn	0		H	sg n
ja	ja	0		J	
vastas	vasta	s		V	s
,	,			Z	
et	et	0		J	
kui	kui	0		D	
   	kui	0		J	
tema	tema	0		P	sg g
Kadri	Kadri	0		H	sg n
Priksiga	Priks	ga		H	sg kom
kokko	####				
ellanud	####				
,	,			Z	
olema	ole	ma		V	ma
tema	tema	0		P	sg g
iga	iga	0		P	sg g
kord	kord	0		S	sg n
Kadri	Kadri	0		H	sg n
Priksil	Priks	l		H	sg ad
selle	see	0		P	sg g
eest	eest	0		K	
maksnud	maks	nud		V	nud
,	,			Z	
ning	ning	0		J	
ei	ei	0		V	neg
lubanud	luba	nud		V	nud
mingisugust	mingi_sugune	t		P	sg p
abi	abi	0		S	sg p
,	,			Z	
selle	see	0		P	sg g
Kadri	Kadri	0		H	sg n
Priksi	Priks	0		H	sg g
lapse	laps	0		S	sg g
kasvatamiseks	kasvatamine	ks		S	sg tr
.	.			Z	
</s>					
<s>					
Möisteti	####				
:	:			Z	
Et	Et	0		H	sg n
August	August	0		H	sg n
Birn	Birn	0		H	sg n
ise	ise	0		P	sg n
tunnistab	tunnista	b		V	b
,	,			Z	
et	et	0		J	
tema	tema	0		P	sg g
iga	iga	0		P	sg g
kord	kord	0		S	sg n
,	,			Z	
kui	kui	0		D	
   	kui	0		J	
tema	tema	0		P	sg g
Kadri	Kadri	0		H	sg n
Priksiga	Priks	ga		H	sg kom
on	ole	0		V	b
  	ole	0		V	vad
kokko	####				
ellanud	####				
,	,			Z	
selle	see	0		P	sg g
eest	eest	0		K	
maksnud	maks	nud		V	nud
olla	ole	a		V	da
,	,			Z	
on	ole	0		V	b
  	ole	0		V	vad
töeks	####				
arvata	arva	ta		V	da
,	,			Z	
et	et	0		J	
August	August	0		H	sg n
Birn	Birn	0		H	sg n
Kadri	Kadri	0		H	sg n
Priksiga	Priks	ga		H	sg kom
kokko	####				
elanud	ela	nud		V	nud
on	ole	0		V	b
  	ole	0		V	vad
,	,			Z	
ning	ning	0		J	
peab	pida	b		V	b
selle	see	0		P	sg g
pärast	pärast	0		K	
August	August	0		H	sg n
Birn	Birn	0		H	sg n
Kadri	Kadri	0		H	sg n
Priksil	Priks	l		H	sg ad
lapse	laps	0		S	sg g
kasvatamisel	kasvatamine	l		S	sg ad
abi	abi	0		S	sg p
andma	and	ma		V	ma
,	,			Z	
iga	iga	0		P	sg n
aasta	aasta	0		S	sg n
5	5	0		N	?
Rbl	Rbl	0		H	sg n
kuni	kuni	0		K	
10	10	0		N	?
aastani	aasta	ni		S	sg ter
se	see	0		P	sg n
on	ole	0		V	b
  	ole	0		V	vad
50	50	0		N	?
Rbl	Rbl	0		H	sg n
.	.			Z	
</s>					
<s>					
Se	Se	0		Y	sg n
möistus	####				
sai	saa	i		V	s
kohtu	kohus	0		S	sg g
käijadel	####				
seäduslikult	####				
kuulutud	kuulu	tud		V	tud
,	,			Z	
ja	ja	0		J	
suurema	suurem	0		C	sg g
kohtu	kohus	0		S	sg g
käimine	käimine	0		S	sg n
seletud	seletu	d		V	d
,	,			Z	
ei	ei	0		V	neg
olnud	ole	nud		V	nud
Kadri	Kadri	0		H	sg n
Priks	Priks	0		H	sg n
rahul	rahul	0		D	
,	,			Z	
ning	ning	0		J	
sai	saa	i		V	s
tema	tema	0		P	sg g
oppus	####				
leht	leht	0		S	sg n
välja	välja	0		D	
antud	and	tud		V	tud
.	.			Z	
</s>					
