<s>					
Prottokolli	####				
peale	peale	0		K	
,	,			Z	
sest	sest	0		J	
27.	27.	0		O	?
</s>					
<s>					
Vebruarist	####				
s.a	s.a	0		Y	?
.	.			Z	
</s>					
<s>					
Kustav	Kustav	0		H	sg n
Soome	Soome	0		H	sg n
kaebuse	kaebus	0		S	sg g
asjas	asi	s		S	sg in
,	,			Z	
vasto	vastu	0		D	
Jüri	Jüri	0		H	sg n
Birk	Birk	0		H	sg n
ja	ja	0		J	
Märt	Märt	0		H	sg n
Äint	Äint	0		H	sg n
nöudmise	####				
pärast	pärast	0		D	
.	.			Z	
</s>					
<s>					
Tuli	tule	i		V	s
ette	ette	0		D	
Jüri	Jüri	0		H	sg n
Birk	Birk	0		H	sg n
ja	ja	0		J	
vastas	vasta	s		V	s
,	,			Z	
et	et	0		J	
tema	tema	0		P	sg n
olema	ole	ma		V	ma
kül	küll	0		D	
K.	K.	0		Y	sg n
</s>					
<s>					
Soome	Soome	0		H	sg n
hobuse	hobune	0		S	sg g
hommiku	hommik	0		S	sg g
enese	ise	0		P	sg g
reia	reig	0		S	sg g
alla	alla	0		K	
ajada	aja	da		V	da
lasknud	lask	nud		V	nud
,	,			Z	
ning	ning	0		J	
ei	ei	0		V	neg
ole	ole	0		V	o
ka	ka	0		D	
K.	K.	0		Y	sg n
Soomel	Soome	l		H	sg ad
sugugi	sugugi	0		D	
hobust	hobune	t		S	sg p
keelanud	keela	nud		V	nud
ära	ära	0		D	
vimast	####				
,	,			Z	
vaid	vaid	0		J	
kui	kui	0		D	
   	kui	0		J	
K.	K.	0		Y	sg n
</s>					
<s>					
Soome	Soome	0		H	sg n
minna	mine	a		V	da
tahtnud	taht	nud		V	nud
Ja	ja	0		J	
M.	M.	0		Y	sg n
Äint	Äint	0		H	sg n
temale	tema	le		P	sg all
vasto	vastu	0		D	
läinud	mine	nud		V	nud
,	,			Z	
ütteldes	ütle	des		V	des
:	:			Z	
enne	enne	0		K	
sa	sina	0		P	sg n
ei	ei	0		V	neg
päese	####				
,	,			Z	
kui	kui	0		D	
   	kui	0		J	
maksa	maks	0		S	sg g
rehnungi	rehnung	0		S	sg g
ära	ära	0		D	
,	,			Z	
olema	ole	ma		V	ma
K.	K.	0		Y	sg n
</s>					
<s>					
Soome	Soome	0		H	sg n
M.	M.	0		Y	sg n
Äinti	Äint	0		H	sg g
vasto	vastu	0		D	
ust	uks	t		S	sg p
lükkanud	lükka	nud		V	nud
ja	ja	0		J	
se	see	0		P	sg n
peäle	peale	0		K	
rindupidi	rindu_pidi	0		D	
kokko	####				
läinuvad	####				
,	,			Z	
kuna	kuna	0		J	
tema	tema	0		P	sg g
Jüri	Jüri	0		H	sg n
Birk	Birk	0		H	sg n
nende	tema	de		P	pl g
vahele	vahele	0		K	
läinud	mine	nud		V	nud
,	,			Z	
ja	ja	0		J	
neid	see	d		P	pl p
ära	ära	0		D	
lahutanud	lahuta	nud		V	nud
.	.			Z	
</s>					
<s>					
Tuli	tule	i		V	s
ette	ette	0		D	
Mari	Mari	0		H	sg n
Birk	Birk	0		H	sg n
Jüri	Jüri	0		H	sg n
Birki	Birk	0		H	sg g
ema	ema	0		S	sg n
ja	ja	0		J	
vastas	vasta	s		V	s
,	,			Z	
et	et	0		J	
tema	tema	0		P	sg n
muud	muu	d		P	sg p
ei	ei	0		D	
olema	ole	ma		V	ma
näinud	näge	nud		V	nud
,	,			Z	
kui	kui	0		D	
   	kui	0		J	
K.	K.	0		Y	sg n
</s>					
<s>					
?	?			Z	
oome	oom	e		S	pl p
metsast	mets	st		S	sg el
tulnud	tule	nud		V	nud
ja	ja	0		J	
M.	M.	0		Y	sg n
Äint	Äint	0		H	sg n
ka	ka	0		D	
järel	järel	0		D	
,	,			Z	
ning	ning	0		J	
olema	ole	ma		V	ma
tuas	####				
K.	K.	0		Y	sg n
</s>					
<s>					
Soome	Soome	0		H	sg n
M.	M.	0		Y	sg n
Äinti	Äint	0		H	sg g
lükkanud	lükka	nud		V	nud
,	,			Z	
mis	mis	0		P	sg n
peale	peale	0		K	
M.	M.	0		Y	sg n
Äint	Äint	0		H	sg n
K.	K.	0		Y	sg n
</s>					
<s>					
Soome	Soome	0		H	sg n
rinnust	rind	ust		S	pl el
kinni	kinni	0		D	
tömmanud	tõmba	nud		V	nud
ja	ja	0		J	
kiskuma	kisku	ma		V	ma
läinuvad	####				
,	,			Z	
kuna	kuna	0		J	
tema	tema	0		P	sg g
Mari	Mari	0		H	sg n
Birk	Birk	0		H	sg n
sealt	sealt	0		D	
juurest	juurest	0		K	
ära	ära	0		D	
läinud	mine	nud		V	nud
.	.			Z	
</s>					
<s>					
Otsus	otsus	0		S	sg n
:	:			Z	
Et	Et	0		H	sg n
kaebaja	kaebaja	0		S	sg n
K.	K.	0		Y	sg n
</s>					
<s>					
Soome	Soome	0		H	sg n
oma	oma	0		P	sg g
hobuse	hobune	0		S	sg g
kinni	kinni	0		D	
pidamise	pidamine	0		S	sg g
eest	eest	0		K	
,	,			Z	
Jüri	Jüri	0		H	sg n
Birki	Birk	0		H	sg g
käest	käsi	st		S	sg el
350	350	0		N	?
Rbl	Rbl	0		H	sg n
.	.			Z	
</s>					
<s>					
ja	ja	0		J	
kiskumise	kiskumine	0		S	sg g
eest	eest	0		K	
,	,			Z	
M.	M.	0		Y	sg n
Äinti	Äint	0		H	sg g
käest	käsi	st		S	sg el
50	50	0		N	?
Rbl	Rbl	0		H	sg n
.	.			Z	
</s>					
<s>					
nöuab	####				
,	,			Z	
ning	ning	0		J	
jälle	jälle	0		D	
Märt	Märt	0		H	sg n
Äint	Äint	0		H	sg n
ennast	ise	t		P	sg p
kiskumise	kiskumine	0		S	sg g
eest	eest	0		K	
K.	K.	0		Y	sg n
</s>					
<s>					
Soome	Soome	0		H	sg n
käest	käsi	st		S	sg el
500	500	0		N	?
Rbl	Rbl	0		H	sg n
.	.			Z	
</s>					
<s>					
nöuab	####				
,	,			Z	
ning	ning	0		J	
mölemilt	####				
poolt	poolt	0		K	
need	see	d		P	pl n
nöudmised	####				
liigsuured	liig_suur	d		A	pl n
on	ole	0		V	b
  	ole	0		V	vad
,	,			Z	
saab	saa	b		V	b
sest	sest	0		J	
prottokollist	####				
üks	üks	0		N	sg n
   	üks	0		P	sg n
ära	ära	0		D	
kiri	kiri	0		S	sg n
Keiserliku	Keiserliku	0		H	sg n
Tartu	Tartu	0		H	sg n
Silla	Silla	0		H	sg n
Kohtule	Kohtule	0		H	sg n
,	,			Z	
selle	see	0		P	sg g
palvega	palve	ga		S	sg kom
,	,			Z	
et	et	0		J	
üleval	üleval	0		D	
nimetud	nimetu	d		A	pl n
kohtu	kohus	0		S	sg g
osi	osa	i		S	pl p
möistuse	####				
alla	alla	0		D	
vötta	võt	a		V	da
.	.			Z	
</s>					
<s>					
Se	Se	0		Y	sg n
otsus	otsus	0		S	sg n
sai	saa	i		V	s
kohtu	kohus	0		S	sg g
käijadel	####				
kuulutud	kuulu	tud		V	tud
.	.			Z	
</s>					
