<s>					
Vallavanem	valla_vanem	0		S	sg n
Jaan	Jaan	0		H	sg n
Veedler	Veedler	0		H	sg n
andis	and	is		V	s
üles	üles	0		D	
,	,			Z	
et	et	0		J	
Hoone	hoone	0		S	sg g
talu	talu	0		S	sg g
peal	peal	0		K	
olema	ole	ma		V	ma
3	3	0		N	?
tünni	tünn	0		S	adt
ja	ja	0		J	
6	6	0		N	?
kar	####				
.	.			Z	
</s>					
<s>					
Kaero	####				
völus	####				
,	,			Z	
aga	aga	0		J	
Hoone	hoone	0		S	sg g
peremees	pere_mees	0		S	sg n
ei	ei	0		V	neg
tahtma	taht	ma		V	ma
seda	see	da		P	sg p
mitte	mitte	0		D	
maksa	maks	0		V	o
,	,			Z	
palus	palu	s		V	s
,	,			Z	
et	et	0		J	
kohus	kohus	0		S	sg n
seda	see	da		P	sg p
sisse	sisse	0		D	
nöuaks	####				
.	.			Z	
</s>					
<s>					
Tuli	tule	i		V	s
ette	ette	0		D	
Hoone	hoone	0		S	sg g
talu	talu	0		S	sg g
peremees	pere_mees	0		S	sg n
Juhan	Juhan	0		H	sg n
Uus	Uus	0		H	sg n
ja	ja	0		J	
vastas	vasta	s		V	s
;	;			Z	
et	et	0		J	
tema	tema	0		P	sg n
ei	ei	0		V	neg
ole	ole	0		V	o
mitte	mitte	0		D	
seda	see	da		P	sg p
vilja	vili	0		S	sg p
magasist	magas	st		S	sg el
välja	välja	0		D	
vötnud	võt	nud		V	nud
,	,			Z	
vaid	vaid	0		J	
Sae	Sae	0		H	sg n
Jüri	Jüri	0		H	sg n
Priks	Priks	0		H	sg n
:	:			Z	
sest	sest	0		J	
et	et	0		J	
kui	kui	0		D	
   	kui	0		J	
Jüri	Jüri	0		H	sg n
Priks	Priks	0		H	sg n
tema	tema	0		P	sg g
koha	koha	0		S	sg g
    	koht	0		S	sg g
peal	peal	0		K	
Honel	Honel	0		H	sg n
olnud	ole	nud		V	nud
,	,			Z	
siis	siis	0		J	
olema	ole	ma		V	ma
Jüri	Jüri	0		H	sg n
Priks	Priks	0		H	sg n
seda	see	da		P	sg p
vilja	vili	0		S	sg p
magasist	magas	st		S	sg el
välja	välja	0		D	
vötnud	võt	nud		V	nud
.	.			Z	
</s>					
<s>					
Sae	Sae	0		H	sg n
Jüri	Jüri	0		H	sg n
Priks	Priks	0		H	sg n
vastas	vasta	s		V	s
,	,			Z	
et	et	0		J	
tema	tema	0		P	sg n
ei	ei	0		V	neg
tea	tead	0		V	o
sest	see	st		P	sg el
midagi	miski	dagi		P	sg p
.	.			Z	
</s>					
<s>					
Möisteti	####				
:	:			Z	
Et	Et	0		H	sg n
sel	see	l		P	sg ad
völal	####				
mitte	mitte	0		D	
aasta	aasta	0		S	sg g
vanadust	vanadus	t		S	sg p
juures	juures	0		K	
ei	ei	0		V	neg
ole	ole	0		V	o
märgitud	märki	tud		V	tud
,	,			Z	
aga	aga	0		J	
kahe	kaks	0		N	sg g
nime	nimi	0		S	sg g
peal	peal	0		K	
se	see	0		P	sg n
völg	####				
on	ole	0		V	b
  	ole	0		V	vad
,	,			Z	
peavad	pida	vad		V	vad
Jüri	Jüri	0		H	sg n
Priks	Priks	0		H	sg n
ja	ja	0		J	
Juhan	Juhan	0		H	sg n
Uus	Uus	0		H	sg n
se	see	0		P	sg n
3	3	0		N	?
tünni	tünn	0		S	adt
ja	ja	0		J	
6	6	0		N	?
kas	kas	0		D	
.	.			Z	
</s>					
<s>					
Kaero	####				
pooleks	pooleks	0		D	
,	,			Z	
ühe	üks	0		N	sg g
   	üks	0		P	sg g
nädala	nädal	0		S	sg g
sees	sees	0		K	
ära	ära	0		D	
maksma	maks	ma		V	ma
.	.			Z	
</s>					
<s>					
Se	Se	0		Y	sg n
möistus	####				
sai	saa	i		V	s
kuulutud	kuulu	tud		V	tud
.	.			Z	
</s>					
<s>					
[	[			Z	
Ääremarkus	####				
:	:			Z	
Sisse	sisse	0		D	
makstud	maks	tud		V	tud
]	]			Z	
</s>					
