<s>					
Protokoli	Protokoli	0		H	sg n
peäle	peale	0		K	
23	23	0		N	?
Aprillil	aprill	l		S	sg ad
s.a	s.a	0		Y	?
.	.			Z	
</s>					
<s>					
Jaan	Jaan	0		H	sg n
Truus	Truus	0		H	sg n
kaebuse	kaebus	0		S	sg g
asjas	asi	s		S	sg in
vasto	vastu	0		D	
Mari	Mari	0		H	sg n
Hirsch	Hirsch	0		H	sg n
tühja	tühi	0		A	sg p
juttu	jutt	0		S	sg p
pärast	pärast	0		K	
tuli	tule	i		V	s
ette	ette	0		D	
Mari	Mari	0		H	sg n
Uus	Uus	0		H	sg n
ja	ja	0		J	
vastast	vastast	0		D	
,	,			Z	
et	et	0		J	
Mari	Mari	0		H	sg n
Hirsch	Hirsch	0		H	sg n
olema	ole	ma		V	ma
seda	see	da		P	sg p
tühja	tühi	0		A	sg p
juttu	jutt	0		S	sg p
nende	see	de		P	pl g
hoone	hoone	0		S	sg g
talu	talu	0		S	sg g
väravas	värav	s		S	sg in
könelnud	####				
.	.			Z	
</s>					
<s>					
Tuli	tule	i		V	s
ette	ette	0		D	
Kadri	Kadri	0		H	sg n
Kiipsaar	Kiipsaar	0		H	sg n
ja	ja	0		J	
vastas	vasta	s		V	s
,	,			Z	
et	et	0		J	
tema	tema	0		P	sg n
muud	muu	d		P	sg p
ei	ei	0		D	
teadma	tead	ma		V	ma
,	,			Z	
kui	kui	0		D	
   	kui	0		J	
Mari	Mari	0		H	sg n
Hirsch	Hirsch	0		H	sg n
olema	ole	ma		V	ma
tee	tee	0		S	sg g
peal	peal	0		K	
rääkinud	rääki	nud		V	nud
,	,			Z	
""""	""""			Z	
et	et	0		J	
minu	mina	0		P	sg g
isa	isa	0		S	sg n
Könneles	Könneles	0		H	sg n
,	,			Z	
et	et	0		J	
kas	kas	0		D	
vöi	või	0		J	
minu	mina	0		P	sg g
alas	ala	s		S	sg in
mingu	mine	gu		V	gu
praegu	praegu	0		D	
pooleks	pooleks	0		D	
,	,			Z	
aga	aga	0		J	
Jaan	Jaan	0		H	sg n
Truus	Truus	0		H	sg n
könneles	####				
seda	see	da		P	sg p
juttu	jutt	0		S	sg p
mulle	mina	lle		P	sg all
selle	see	0		P	sg g
Peter	Peter	0		H	sg n
Hirschil	Hirsch	l		H	sg ad
.	.			Z	
</s>					
<s>					
Tuli	tule	i		V	s
ette	ette	0		D	
Peter	Peter	0		H	sg n
Hirsch	Hirsch	0		H	sg n
ja	ja	0		J	
vastas	vasta	s		V	s
,	,			Z	
et	et	0		J	
Jaan	Jaan	0		H	sg n
Truus	Truus	0		H	sg n
olema	ole	ma		V	ma
kül	küll	0		D	
nenda	nõnda	0		D	
moodu	####				
rääkinud	rääki	nud		V	nud
,	,			Z	
aga	aga	0		J	
nime	nimi	0		S	sg p
ei	ei	0		V	neg
ole	ole	0		V	o
mitte	mitte	0		D	
nimetanuvad	####				
,	,			Z	
kes	kes	0		P	sg n
seda	see	da		P	sg p
viisi	viis	0		S	sg p
om	ole	0		V	b
  	ole	0		V	vad
teinuvad	####				
,	,			Z	
mis	mis	0		P	sg n
Jaan	Jaan	0		H	sg n
Truus	Truus	0		H	sg n
ise	ise	0		P	sg n
ka	ka	0		D	
ei	ei	0		V	neg
salganud	####				
,	,			Z	
et	et	0		J	
olema	ole	ma		V	ma
kül	küll	0		D	
nenda	nõnda	0		D	
mudu	####				
seppikoias	####				
vallatanuvad	####				
,	,			Z	
aga	aga	0		J	
ei	ei	0		V	neg
kellegi	keegi	gi		P	sg g
trotsiks	trots	ks		S	sg tr
.	.			Z	
</s>					
<s>					
Möisteti	####				
:	:			Z	
Et	Et	0		H	sg n
Mari	Mari	0		H	sg n
Hirsch	Hirsch	0		H	sg n
tunnistuste	tunnistus	te		S	pl g
järgi	järgi	0		K	
seda	see	da		P	sg p
tühja	tühi	0		A	sg p
juttu	jutt	0		S	sg p
Jaan	Jaan	0		H	sg n
Truusi	Truus	0		H	sg g
peäle	peale	0		K	
on	ole	0		V	b
  	ole	0		V	vad
rääkinud	rääki	nud		V	nud
,	,			Z	
maksab	maks	b		V	b
Mari	Mari	0		H	sg n
Hirsch	Hirsch	0		H	sg n
2	2	0		N	?
Rbl	Rbl	0		H	sg n
trahvi	trahv	0		S	sg g
vaeste	vaene	te		S	pl g
laadiku	laadik	0		S	sg g
kolme	kolm	0		N	sg g
nädala	nädal	0		S	sg g
sees	sees	0		K	
.	.			Z	
</s>					
<s>					
Se	Se	0		Y	sg n
möistus	####				
sai	saa	i		V	s
kuulutud	kuulu	tud		V	tud
.	.			Z	
</s>					
<s>					
[	[			Z	
Ääremärkus	ääre_märkus	0		S	sg n
:	:			Z	
Sisse	sisse	0		D	
maksetud	makse=tu	d		A	pl n
9.	9.	0		O	?
</s>					
<s>					
Sept	Sept	0		Y	?
1885	1885	0		N	?
aast	####				
.]	.			Z	
</s>					
