<s>					
Tuli	tule	i		V	s
ette	ette	0		D	
Vatti	vatt	0		S	adt
talu	talu	0		S	sg g
peremees	pere_mees	0		S	sg n
Karl	Karl	0		H	sg n
Kool	Kool	0		H	sg n
ja	ja	0		J	
kaebas	kaeba	s		V	s
,	,			Z	
et	et	0		J	
temal	tema	l		P	sg ad
olema	ole	ma		V	ma
Jaan	Jaan	0		H	sg n
Liivaku	Liivak	0		H	sg g
kääst	####				
saada	saa	da		V	da
2	2	0		N	?
tünni	tünn	0		S	adt
odre	oder	i		S	pl p
.	.			Z	
</s>					
<s>					
Tuli	tule	i		V	s
ette	ette	0		D	
Jaan	Jaan	0		H	sg n
Liivak	Liivak	0		H	sg n
ja	ja	0		J	
vastas	vasta	s		V	s
,	,			Z	
et	et	0		J	
tösi	####				
olema	ole	ma		V	ma
küll	küll	0		D	
.	.			Z	
</s>					
<s>					
Otsus	otsus	0		S	sg n
:	:			Z	
Et	Et	0		H	sg n
Jaan	Jaan	0		H	sg n
Liivak	Liivak	0		H	sg n
peab	pida	b		V	b
2	2	0		N	?
tünni	tünn	0		S	adt
odre	oder	i		S	pl p
kolme	kolm	0		N	sg g
nädala	nädal	0		S	sg g
sees	sees	0		K	
Karl	Karl	0		H	sg n
Koolil	Kool	l		H	sg ad
ära	ära	0		D	
maksma	maks	ma		V	ma
.	.			Z	
</s>					
<s>					
Se	Se	0		Y	sg n
otsus	otsus	0		S	sg n
sai	saa	i		V	s
kuulutud	kuulu	tud		V	tud
.	.			Z	
</s>					
