<s>					
Protokolli	protokoll	0		S	sg g
peale	peale	0		D	
7.	7.	0		O	?
Mail	mai	l		S	sg ad
s.a	s.a	0		Y	?
.	.			Z	
</s>					
<s>					
Juhan	Juhan	0		H	sg n
Kohl	Kohl	0		H	sg n
kaebuse	kaebus	0		S	sg g
asjas	asi	s		S	sg in
,	,			Z	
vasto	vastu	0		D	
Juhan	Juhan	0		H	sg n
Truus	Truus	0		H	sg n
-	-			Z	
teenistuse	teenistus	0		S	sg g
nöudmise	####				
pärast	pärast	0		K	
,	,			Z	
tuli	tule	i		V	s
ette	ette	0		D	
Hans	Hans	0		H	sg n
Laurson	Laurson	0		H	sg n
ja	ja	0		J	
tunnistas	tunnista	s		V	s
,	,			Z	
et	et	0		J	
tösi	####				
olna	ole	nud		V	nud
kül	küll	0		D	
,	,			Z	
et	et	0		J	
pois-Juhan	pois-Juhan	0		H	sg n
Truus	Truus	0		H	sg n
,	,			Z	
peremees-Juhan	pere_mees-Juhan	0		H	sg n
Kohliga	Kohliga	ga		H	sg n
teenistuse	teenistus	0		S	sg g
kaupa	kaupa	0		K	
teinud	tege	nud		V	nud
,	,			Z	
ning	ning	0		J	
30	30	0		N	?
Rbl	Rbl	0		H	sg n
.	.			Z	
</s>					
<s>					
palkaks	palka	ks		V	ks
kaupelnud	####				
aastas	aasta	s		S	sg in
ja	ja	0		J	
1	1	0		N	?
Rbl	Rbl	0		H	sg n
.	.			Z	
</s>					
<s>					
käsi	käsi	0		S	sg n
raha	raha	0		S	sg g
peremees	pere_mees	0		S	sg n
Juhan	Juhan	0		H	sg n
Kohli	Kohl	0		H	sg g
käest	käsi	st		S	sg el
saanud	saa	nud		V	nud
,	,			Z	
ning	ning	0		J	
pois-J	poi+s-J	0		Y	?
.	.			Z	
Truusi	Truus	0		H	sg g
purjus-olemist	purjus-olem	st		S	sg el
ei	ei	0		V	neg
ole	ole	0		V	o
tema	tema	0		P	sg g
näinud	näge	nud		V	nud
.	.			Z	
</s>					
<s>					
Otsus	otsus	0		S	sg n
:	:			Z	
Et	Et	0		H	sg n
puudus	puudu	s		V	s
olev	olev	0		A	sg n
tunnistaja	tunnistaja	0		S	sg g
metsavaht	metsa_vaht	0		S	sg n
Jaan	Jaan	0		H	sg n
Liivak	Liivak	0		H	sg n
ja	ja	0		J	
Juhan	Juhan	0		H	sg n
Truus	Truus	0		H	sg n
ise	ise	0		P	sg n
Varamöist	Varamöist	st		H	sg n
ette	ette	0		D	
tellida	telli	da		V	da
-	-			Z	
Se	Se	0		Y	sg n
otsus	otsus	0		S	sg n
sai	saa	i		V	s
kuulutud	kuulu	tud		V	tud
.	.			Z	
</s>					
