<s>					
Kutsuti	kutsu	ti		V	ti
ette	ette	0		D	
Laiva	Laiva	0		H	sg n
möisa	####				
telliskivi	tellis_kivi	0		S	sg n
tegia	tegija	0		S	sg n
Jüri	Jüri	0		H	sg n
Priks	Priks	0		H	sg n
,	,			Z	
kelle	kes	0		P	sg g
juures	juures	0		K	
kohtu	kohus	0		S	sg g
järel	järel	0		K	
vaatamise	vaatamine	0		S	sg g
all	all	0		K	
Jüri	Jüri	0		H	sg n
Priks	Priks	0		H	sg n
ja	ja	0		J	
Adam	Adam	0		H	sg n
Kohl	Kohl	0		H	sg n
teenivad	teeni	vad		V	vad
ning	ning	0		J	
kohus	kohus	0		S	sg n
küsis	küsi	s		V	s
,	,			Z	
kuida	kuidas	0		D	
viisi	viis	0		S	sg g
nemad	tema	d		P	pl n
teenivad	teeni	vad		V	vad
,	,			Z	
ja	ja	0		J	
kui	kui	0		D	
   	kui	0		J	
paljo	####				
nemad	tema	d		P	pl n
kumbgi	####				
palka	palk	0		S	sg p
saavad	saa	vad		V	vad
,	,			Z	
Jüri	Jüri	0		H	sg n
Priks	Priks	0		H	sg n
vastas	vasta	s		V	s
,	,			Z	
et	et	0		J	
Adam	Adam	0		H	sg n
Kohl	Kohl	0		H	sg n
saab	saa	b		V	b
32	32	0		N	?
Kop	Kop	0		H	sg n
.	.			Z	
</s>					
<s>					
Ja	ja	0		J	
Jüri	Jüri	0		H	sg n
Priks	Priks	0		H	sg n
40	40	0		N	?
Kop	Kop	0		H	sg n
päävapalka	####				
,	,			Z	
ning	ning	0		J	
teenivad	teeni	vad		V	vad
mölemad	####				
,	,			Z	
kuni	kuni	0		J	
Mihkli	Mihkel	0		H	sg g
      	Mihkli	0		H	sg g
päävani	####				
s.a	s.a	0		Y	?
.	.			Z	
</s>					
<s>					
Otsus	otsus	0		S	sg n
:	:			Z	
Et	Et	0		H	sg n
Jüri	Jüri	0		H	sg n
Priks	Priks	0		H	sg n
peab	pida	b		V	b
nende	tema	de		P	pl g
mölemade	####				
poiste	poiss	te		S	pl g
palkad	palka	d		V	d
kuni	kuni	0		K	
Mihkli	mihkel	0		A	sg g
päevani	päev	ni		S	sg ter
kinni	kinni	0		D	
pidama	pida	ma		V	ma
,	,			Z	
ehk	ehk	0		J	
kui	kui	0		D	
   	kui	0		J	
nemad	tema	d		P	pl n
tema	tema	0		P	sg g
teenistusest	teenistus	st		S	sg el
peaksivad	####				
enne	enne	0		K	
Mihkli	mihkel	0		S	sg g
pääva	####				
ära	ära	0		D	
minema	mine	ma		V	ma
,	,			Z	
kohe	kohe	0		D	
seda	see	da		P	sg p
siis	siis	0		D	
kohtule	kohus	le		S	sg all
teada	tead	a		V	da
andma	and	ma		V	ma
.	.			Z	
</s>					
<s>					
Se	Se	0		Y	sg n
otsus	otsus	0		S	sg n
sai	saa	i		V	s
kuulutud	kuulu	tud		V	tud
.	.			Z	
</s>					
