<s>					
Tuli	tule	i		V	s
ette	ette	0		D	
Laiva	Laiva	0		H	sg n
möisast	####				
poole	pool	0		S	sg g
tera	tera	0		S	sg p
mees	mees	0		S	sg n
Aleksander	Aleksander	0		H	sg n
Mannus	Mannus	0		H	sg n
,	,			Z	
ja	ja	0		J	
kaebas	kaeba	s		V	s
,	,			Z	
et	et	0		J	
nimatud	####				
möisa	####				
rehepap	####				
Hans	Hans	0		H	sg n
Lübek	Lübek	0		H	sg n
olema	ole	ma		V	ma
möisa	####				
viljast	vili	st		S	sg el
kaks	kaks	0		N	sg n
peakotti	pea_kott	0		S	sg p
täit	täis	t		A	sg p
kaeru	kaer	u		S	pl p
Mihkel	Mihkel	0		H	sg n
Raud	Raud	0		H	sg n
'	’			H	
al	al	0		Y	?
annud	and	nud		0	nud
,	,			Z	
tunnistajad	tunnistaja	d		S	pl n
,	,			Z	
kes	kes	0		P	sg n
seda	see	da		P	sg p
näinuvad	näge	nuvad		V	nuvad
,	,			Z	
olema	ole	ma		V	ma
tema	tema	0		P	sg g
poia	####				
naene	naine	0		S	sg n
Triinu	Triinu	0		H	sg n
Mannus	Mannus	0		H	sg n
ja	ja	0		J	
Mihkel	Mihkel	0		H	sg n
Briks	Briks	0		H	sg n
Pöltsamalt	Pöltsamalt	lt		H	sg n
.	.			Z	
</s>					
<s>					
Otsus	otsus	0		S	sg n
:	:			Z	
Et	Et	0		H	sg n
tunnistajad	tunnistaja	d		S	pl n
,	,			Z	
Triinu	Triinu	0		H	sg n
Mannus	Mannus	0		H	sg n
ja	ja	0		J	
Mihkel	Mihkel	0		H	sg n
Priks	Priks	0		H	sg n
Pöltsamalt	Pöltsamalt	lt		H	sg n
ette	ette	0		D	
tellida	telli	da		V	da
.	.			Z	
</s>					
<s>					
Se	Se	0		Y	sg n
otsus	otsus	0		S	sg n
sai	saa	i		V	s
kuulutud	kuulu	tud		V	tud
.	.			Z	
</s>					
