<s>					
Tuli	tule	i		V	s
ette	ette	0		D	
Juhan	Juhan	0		H	sg n
Kool	Kool	0		H	sg n
Annusse	Annusse	sse		H	sg n
talu	talu	0		S	sg g
peremees	pere_mees	0		S	sg n
ja	ja	0		J	
kaebas	kaeba	s		V	s
,	,			Z	
et	et	0		J	
temal	tema	l		P	sg ad
olema	ole	ma		V	ma
Jaan	Jaan	0		H	sg n
Liivaku	Liivak	0		H	sg g
kääst	####				
saada	saa	da		V	da
2	2	0		N	?
vaka	vakk	0		S	sg g
odre	oder	i		S	pl p
ja	ja	0		J	
1	1	0		N	?
rbl	rbl	0		Y	
.	.			Z	
</s>					
<s>					
raha	raha	0		S	sg g
juures	juures	0		K	
Töno	Töno	0		H	sg n
Korknopel	Korknopel	0		H	sg n
ja	ja	0		J	
Märt	Märt	0		H	sg n
Prants	Prants	0		H	sg n
.	.			Z	
</s>					
<s>					
Tuli	tule	i		V	s
ette	ette	0		D	
Jaan	Jaan	0		H	sg n
Liivak	Liivak	0		H	sg n
ja	ja	0		J	
vastas	vasta	s		V	s
,	,			Z	
et	et	0		J	
temal	tema	l		P	sg ad
ei	ei	0		V	neg
olema	ole	ma		V	ma
midagi	miski	dagi		P	sg p
Juhan	Juhan	0		H	sg n
Kohliga	Kohliga	ga		H	sg n
völgu	####				
.	.			Z	
</s>					
<s>					
Otsus	otsus	0		S	sg n
:	:			Z	
Et	Et	0		H	sg n
tunnistajad	tunnistaja	d		S	pl n
Töno	Töno	0		H	sg n
Korknopel	Korknopel	0		H	sg n
ja	ja	0		J	
Märt	Märt	0		H	sg n
Prants	Prants	0		H	sg n
ette	ette	0		D	
tellida	telli	da		V	da
.	.			Z	
</s>					
<s>					
Se	Se	0		Y	sg n
otsus	otsus	0		S	sg n
sai	saa	i		V	s
kuulutud	kuulu	tud		V	tud
.	.			Z	
</s>					
