<s>					
Tuli	tule	i		V	s
ette	ette	0		D	
Tartus	Tartus	s		H	sg n
Schrammi	####				
kauplusest	kauplus	st		S	sg el
sell	sell	0		S	sg n
Hirst	Hirst	0		H	sg n
,	,			Z	
kes	kes	0		P	sg n
nimetud	nimetu	d		A	pl n
kauplusest	kauplus	st		S	sg el
volitud	voli=tu	d		A	pl n
oli	ole	i		V	s
,	,			Z	
ja	ja	0		J	
kaebas	kaeba	s		V	s
,	,			Z	
et	et	0		J	
Laiva	Laiva	0		H	sg n
körtsi	####				
mees	mees	0		S	sg n
Jaan	Jaan	0		H	sg n
Kabel	Kabel	0		H	sg n
olla	ole	a		V	da
28	28	0		N	?
rbl	rbl	0		Y	
Schrammi	####				
kaupluses	kauplus	s		S	sg in
völgu	####				
,	,			Z	
ja	ja	0		J	
palus	palu	s		V	s
,	,			Z	
et	et	0		J	
kohus	kohus	0		S	sg n
seda	see	da		P	sg p
sisse	sisse	0		D	
nöuaks	####				
körtsimehe	####				
Jaan	Jaan	0		H	sg n
Kabeli	Kabel	0		H	sg g
kääst	####				
.	.			Z	
</s>					
<s>					
Otsus	otsus	0		S	sg n
:	:			Z	
Et	Et	0		H	sg n
Jaan	Jaan	0		H	sg n
Kabel	Kabel	0		H	sg n
ette	ette	0		D	
tellida	telli	da		V	da
.	.			Z	
</s>					
<s>					
Se	Se	0		Y	sg n
otsus	otsus	0		S	sg n
sai	saa	i		V	s
kuulutud	kuulu	tud		V	tud
.	.			Z	
</s>					
