<s>					
Tuli	tule	i		V	s
ette	ette	0		D	
Karel	Karel	0		H	sg n
Lübek	Lübek	0		H	sg n
Mägra	Mägra	0		H	sg n
talu	talu	0		S	sg g
peremehe	pere_mees	0		S	sg g
poeg	poeg	0		S	sg n
ja	ja	0		J	
kaebas	kaeba	s		V	s
et	et	0		J	
tema	tema	0		P	sg g
isa	isa	0		S	sg n
,	,			Z	
kes	kes	0		P	sg n
peale	peale	0		K	
63	63	0		N	?
aastad	aasta	d		S	pl n
vana	vana	0		A	sg n
ja	ja	0		J	
väga	väga	0		D	
haige	haige	0		A	sg n
on	ole	0		V	b
  	ole	0		V	vad
,	,			Z	
olema	ole	ma		V	ma
sep	####				
Peter	Peter	0		H	sg n
Hirschi	Hirsch	0		H	sg g
juurde	juurde	0		K	
viinud	vii	nud		V	nud
,	,			Z	
vankre	####				
,	,			Z	
saani	saan	0		S	sg g
ja	ja	0		J	
adra	ader	0		S	sg g
rautamise	rauta=mine	0		S	sg g
tarvis	tarvis	0		D	
kaks	kaks	0		N	sg n
raud	raud	0		S	sg n
vankre	####				
telge	telg	0		S	sg p
,	,			Z	
kolm	kolm	0		N	sg n
latti	latt	0		S	sg p
rauda	raud	0		S	sg p
ja	ja	0		J	
ühe	üks	0		N	sg g
   	üks	0		P	sg g
suure	suur	0		A	sg g
adra	ader	0		S	sg g
puuvärki	puu_värk	0		S	sg p
,	,			Z	
aga	aga	0		J	
sep	####				
Peter	Peter	0		H	sg n
Hirsch	Hirsch	0		H	sg n
olema	ole	ma		V	ma
sest	sest	0		J	
kraamist	kraam	st		S	sg el
ära	ära	0		D	
pruukinud	pruuki	nud		V	nud
:	:			Z	
üks-latt	üks-latt	0		S	sg n
rauda	raud	0		S	sg p
43	43	0		N	?
naela	nael	0		S	sg p
raske	raske	0		A	sg n
,	,			Z	
kaks	kaks	0		N	sg n
vankre	####				
telge	telg	0		S	sg p
ja	ja	0		J	
adra	ader	0		S	sg g
puuvärk	puu_värk	0		S	sg n
,	,			Z	
ning	ning	0		J	
nöudis	nõud	is		V	s
selle	see	0		P	sg g
ära	ära	0		D	
pruugitud	pruuki	tud		V	tud
kraami	kraam	0		S	sg g
eest	eest	0		K	
Peter	Peter	0		H	sg n
Hirschi	Hirsch	0		H	sg g
käest	käsi	st		S	sg el
,	,			Z	
54	54	0		N	?
Rbl	Rbl	0		H	sg n
.	.			Z	
</s>					
<s>					
3	3	0		N	?
Kop	Kop	0		H	sg n
.	.			Z	
</s>					
<s>					
Tunnistajad	tunnistaja	d		S	pl n
,	,			Z	
kes	kes	0		P	sg n
seda	see	da		P	sg p
nimetud	nimetu	d		A	pl n
krami	####				
sep	####				
Peter	Peter	0		H	sg n
Hirschi	Hirsch	0		H	sg g
juures	juures	0		K	
on	ole	0		V	b
  	ole	0		V	vad
näinud	näge	nud		V	nud
ja	ja	0		J	
kellele	kes	le		P	sg all
Peter	Peter	0		H	sg n
Hirsch	Hirsch	0		H	sg n
ise	ise	0		P	sg n
on	ole	0		V	b
  	ole	0		V	vad
üttelnud	ütle	nud		V	nud
,	,			Z	
et	et	0		J	
se	see	0		P	sg n
kraam	kraam	0		S	sg n
Mägra	Mägra	0		H	sg n
talu	talu	0		S	sg g
peremehe	pere_mees	0		S	sg g
Mihkel	Mihkel	0		H	sg n
Lübeki	Lübek	0		H	sg g
omandus	omandus	0		S	sg n
on	ole	0		V	b
  	ole	0		V	vad
,	,			Z	
olema	ole	ma		V	ma
Karel	Karel	0		H	sg n
Pagi	Pagi	0		H	sg n
ja	ja	0		J	
Hans	Hans	0		H	sg n
Laurson	Laurson	0		H	sg n
.	.			Z	
</s>					
<s>					
Tuli	tule	i		V	s
ette	ette	0		D	
sep	####				
Peter	Peter	0		H	sg n
Hirsch	Hirsch	0		H	sg n
ja	ja	0		J	
vastas	vasta	s		V	s
,	,			Z	
selle	see	0		P	sg g
Karel	Karel	0		H	sg n
Lübek	Lübek	0		H	sg n
nöudmise	####				
peäle	peale	0		K	
,	,			Z	
et	et	0		J	
tema	tema	0		P	sg g
neist	see	st		P	pl el
telgedest	telg	dest		S	pl el
midagi	miski	dagi		P	sg p
ei	ei	0		V	neg
teadma	tead	ma		V	ma
,	,			Z	
aga	aga	0		J	
vaua	####				
latti	latt	0		S	adt
ja	ja	0		J	
adra	ader	0		S	sg g
puuvärki	puu_värk	0		S	sg p
eest	eest	0		K	
saab	saa	b		V	b
temma	tema	0		P	sg g
vastolik	####				
olema	ole	ma		V	ma
.	.			Z	
</s>					
<s>					
Otsus	otsus	0		S	sg n
:	:			Z	
Et	Et	0		H	sg n
tunnistajad	tunnistaja	d		S	pl n
,	,			Z	
Karel	Karel	0		H	sg n
Pägi	Pägi	0		H	sg n
ja	ja	0		J	
Hans	Hans	0		H	sg n
Laurson	Laurson	0		H	sg n
ette	ette	0		D	
tellida	telli	da		V	da
.	.			Z	
</s>					
<s>					
Se	Se	0		Y	sg n
otsus	otsus	0		S	sg n
sai	saa	i		V	s
kuulutatud	kuuluta	tud		V	tud
.	.			Z	
</s>					
