<s>					
Protokolli	protokoll	0		S	sg g
peäle	peale	0		K	
sel	see	l		P	sg ad
13.	13.	0		O	?
Märtsil	märts	l		S	sg ad
s.a	s.a	0		Y	?
.	.			Z	
</s>					
<s>					
Kadri	Kadri	0		H	sg n
Kahl	Kahl	0		H	sg n
kaebuse	kaebus	0		S	sg g
asjas	asi	s		S	sg in
,	,			Z	
vasto	vastu	0		D	
peremees	pere_mees	0		S	sg n
Jüri	Jüri	0		H	sg n
Priks	Priks	0		H	sg n
palka	palk	0		S	sg p
nöudmise	####				
pärast	pärast	0		K	
,	,			Z	
tuli	tule	i		V	s
ette	ette	0		D	
Jüri	Jüri	0		H	sg n
Priks	Priks	0		H	sg n
ja	ja	0		J	
vastas	vasta	s		V	s
,	,			Z	
et	et	0		J	
tema	tema	0		P	sg n
ei	ei	0		V	neg
olema	ole	ma		V	ma
mitte	mitte	0		D	
Kadri	Kadri	0		H	sg n
Kahliga	Kahl	ga		H	sg kom
kaupa	kaupa	0		K	
teinud	tege	nud		V	nud
,	,			Z	
ning	ning	0		J	
tema	tema	0		P	sg g
muud	muu	d		P	sg p
ei	ei	0		V	neg
teadma	tead	ma		V	ma
kui	kui	0		D	
   	kui	0		J	
tema	tema	0		P	sg g
naene	naine	0		S	sg n
üttelnud	ütle	nud		V	nud
temal	tema	l		P	sg ad
,	,			Z	
et	et	0		J	
tüdruk	tüdruk	0		S	sg n
Kadri	Kadri	0		H	sg n
Kahl	Kahl	0		H	sg n
Saama	saam	0		S	sg g
palka	palk	0		S	sg p
20	20	0		N	?
Rbl	Rbl	0		H	sg n
.	.			Z	
</s>					
<s>					
raha	raha	0		S	sg n
,	,			Z	
1	1	0		N	?
Jakki	jakk	0		S	sg p
ja	ja	0		J	
1	1	0		N	?
undvuk	####				
,	,			Z	
ning	ning	0		J	
tema	tema	0		P	sg g
peremees	pere_mees	0		S	sg n
Jüri	Jüri	0		H	sg n
Priks	Priks	0		H	sg n
maksaks	maks	ks		V	ks
seda	see	da		P	sg p
puuduvat	puuduv	t		A	sg p
palka	palk	0		S	sg p
temal	tema	l		P	sg ad
Kadri	Kadri	0		H	sg n
Kahlil	Kahl	l		H	sg ad
välja	välja	0		D	
,	,			Z	
aga	aga	0		J	
tema	tema	0		P	sg g
Kadri	Kadri	0		H	sg n
Kahl	Kahl	0		H	sg n
olema	ole	ma		V	ma
14	14	0		N	?
nädalad	nädal	d		S	pl n
enne	enne	0		K	
aasta	aasta	0		S	sg g
täis-saamist	täis-saamine	t		S	sg p
teenistusest	teenistus	st		S	sg el
ära	ära	0		D	
läinud	mine	nud		V	nud
ning	ning	0		J	
selle	see	0		P	sg g
pärast	pärast	0		K	
ei	ei	0		V	neg
maksma	maks	ma		V	ma
tema	tema	0		P	sg g
Kadri	Kadri	0		H	sg n
Kahlil	Kahl	l		H	sg ad
mitte	mitte	0		D	
seda	see	da		P	sg p
sees	sees	0		D	
olevad	olev	d		A	pl n
palka	palk	0		S	sg p
kätte	käsi	tte		S	adt
,	,			Z	
enne	enne	0		D	
kohus	kohus	0		S	sg n
seda	see	da		P	sg p
selletab	####				
.	.			Z	
</s>					
<s>					
Otsus	otsus	0		S	sg n
:	:			Z	
Et	Et	0		H	sg n
perenaene	####				
Kadri	Kadri	0		H	sg n
Priks	Priks	0		H	sg n
ette	ette	0		D	
tellida	telli	da		V	da
.	.			Z	
</s>					
<s>					
Se	Se	0		Y	sg n
otsus	otsus	0		S	sg n
sai	saa	i		V	s
kuulutud	kuulu	tud		V	tud
.	.			Z	
</s>					
