<s>					
Tuli	tule	i		V	s
ette	ette	0		D	
Mägra	Mägra	0		H	sg n
talu	talu	0		V	o
ostetud	ost	tud		V	tud
koha	koha	0		S	sg g
    	koht	0		S	sg g
peremees	pere_mees	0		S	sg n
Karl	Karl	0		H	sg n
Lübek	Lübek	0		H	sg n
ja	ja	0		J	
kaebas	kaeba	s		V	s
,	,			Z	
et	et	0		J	
tema	tema	0		P	sg g
künnud	####				
oma	oma	0		P	sg g
välja	välja	0		D	
pääl	pea	l		S	sg ad
ja	ja	0		J	
üks	üks	0		N	sg n
   	üks	0		P	sg n
jännes	####				
jooksnud	jooks	nud		V	nud
metsast	mets	st		S	sg el
välja	välja	0		D	
,	,			Z	
tema	tema	0		P	sg g
vötnud	võt	nud		V	nud
püssi	püss	0		S	sg p
ja	ja	0		J	
läinud	mine	nud		V	nud
metsa	mets	0		S	sg g
äärde	äärde	0		K	
kus	kus	0		D	
metsavaht	metsa_vaht	0		S	sg n
Karl	Karl	0		H	sg n
Lööper	Lööper	0		H	sg n
selle	see	0		P	sg g
jännesse	####				
pääle	pea	le		S	sg all
lasta	lask	ta		V	da
tahtnud	taht	nud		V	nud
,	,			Z	
tema	tema	0		P	sg g
Karl	Karl	0		H	sg n
Lübekil	Lübek	l		H	sg ad
olnud	ole	nud		V	nud
teine	teine	0		O	sg n
     	teine	0		P	sg n
püssiraud	püssi_raud	0		S	sg n
täislaaditud	täis_laadi=tud	0		A	sg n
ja	ja	0		J	
lasknud	lask	nud		V	nud
sellega	see	ga		P	sg kom
jännese	jänn_ese	0		S	sg n
maha	maha	0		D	
,	,			Z	
mis	mis	0		P	sg n
Karl	Karl	0		H	sg n
Lööprele	Lööper	le		H	sg all
saanud	saa	nud		V	nud
,	,			Z	
pääle	pea	le		S	sg all
selle	see	0		P	sg g
vötnud	võt	nud		V	nud
metsavaht	metsa_vaht	0		S	sg n
Karl	Karl	0		H	sg n
Lööper	Lööper	0		H	sg n
tema	tema	0		P	sg g
kääst	####				
püssi	püss	0		S	sg g
ära	ära	0		D	
,	,			Z	
palus	palu	s		V	s
,	,			Z	
et	et	0		J	
kohus	kohus	0		S	sg n
seda	see	da		P	sg p
püssi	püss	0		S	sg p
temale	tema	le		P	sg all
tagasi	tagasi	0		D	
laseks	lask	ks		V	ks
anda	and	a		V	da
.	.			Z	
</s>					
<s>					
Tuli	tule	i		V	s
ette	ette	0		D	
Karl	Karl	0		H	sg n
Lööper	Lööper	0		H	sg n
ja	ja	0		J	
vastas	vasta	s		V	s
,	,			Z	
et	et	0		J	
tösi	####				
olna	ole	nud		V	nud
kül	küll	0		D	
,	,			Z	
mis	mis	0		P	sg n
Karl	Karl	0		H	sg n
Lübek	Lübek	0		H	sg n
olla	ole	a		V	da
kaebanud	kaeva	nud		V	nud
,	,			Z	
sest	sest	0		J	
tema	tema	0		P	sg n
olla	ole	a		V	da
seda	see	da		P	sg p
metsa	mets	0		S	sg g
valitsuse	valitsus	0		S	sg g
käso	####				
pääle	pea	le		S	sg all
teinud	tege	nud		V	nud
ja	ja	0		J	
ka	ka	0		D	
püssi	püss	0		S	sg p
metsa	mets	0		S	sg g
valitsuse	valitsus	0		S	sg g
kätte	kätte	0		K	
viinud	vii	nud		V	nud
.	.			Z	
</s>					
<s>					
Otsus	otsus	0		S	sg n
:	:			Z	
Et	Et	0		H	sg n
Karl	Karl	0		H	sg n
Lübek	Lübek	0		H	sg n
peab	pida	b		V	b
teiseks	teiseks	0		D	
kohtu	kohus	0		S	sg g
päävaks	####				
oma	oma	0		P	sg g
ostetud	ost	tud		V	tud
Mägra	Mägra	0		H	sg n
talu	talu	0		S	sg g
koha	koha	0		S	sg g
    	koht	0		S	sg g
kontrahti	kontraht	0		S	adt
ette	ette	0		D	
tooma	too	ma		V	ma
,	,			Z	
kust	kust	0		D	
näha	näge	a		V	da
vöib	####				
,	,			Z	
kas	kas	0		D	
Karl	Karl	0		H	sg n
Lübekil	Lübek	l		H	sg ad
kontrahti	kontraht	0		S	sg p
järgi	järgi	0		K	
jahi	jaht	0		S	sg g
öigust	####				
on	ole	0		V	b
  	ole	0		V	vad
.	.			Z	
</s>					
<s>					
Se	Se	0		Y	sg n
otsus	otsus	0		S	sg n
sai	saa	i		V	s
kuulutud	kuulu	tud		V	tud
.	.			Z	
</s>					
