<s>					
Tuli	tule	i		V	s
ette	ette	0		D	
Jüri	Jüri	0		H	sg n
Kukk	Kukk	0		H	sg n
ja	ja	0		J	
kaebas	kaeba	s		V	s
,	,			Z	
et	et	0		J	
Jüri	Jüri	0		H	sg n
Priks	Priks	0		H	sg n
,	,			Z	
kivitegia	####				
,	,			Z	
kelle	kes	0		P	sg g
juures	juures	0		K	
tena	####				
suve	suvi	0		S	sg g
pääl	pea	l		S	sg ad
teenunud	####				
,	,			Z	
olema	ole	ma		V	ma
tema	tema	0		P	sg g
palkast	####				
1	1	0		N	?
rbl	rbl	0		Y	
.	.			Z	
</s>					
<s>					
70	70	0		N	?
kop	kop	0		Y	?
.	.			Z	
</s>					
<s>					
kinni	kinni	0		D	
vötnud	võt	nud		V	nud
,	,			Z	
et	et	0		J	
tema	tema	0		P	sg g
Jüri	Jüri	0		H	sg n
Kukk	Kukk	0		H	sg n
ühel	üks	l		N	sg ad
    	üks	l		P	sg ad
pühapääval	####				
ja	ja	0		J	
teisel	teine	l		O	sg ad
      	teine	l		P	sg ad
aripääval	####				
tema	tema	0		P	sg g
ende	enne	0		S	sg g
Jüri	Jüri	0		H	sg n
Priksi	Priks	0		H	sg g
lubaga	####				
oma	oma	0		P	sg g
sugulase	sugulane	0		S	sg g
mattusel	####				
olla	ole	a		V	da
olnud	ole	nud		V	nud
,	,			Z	
ning	ning	0		J	
Jüri	Jüri	0		H	sg n
Priks	Priks	0		H	sg n
üttelnud	ütle	nud		V	nud
veel	veel	0		D	
temale	tema	le		P	sg all
alvad	####				
sönad	####				
körtsi	####				
juures	juures	0		K	
,	,			Z	
mis	mis	0		P	sg n
Jaan	Jaan	0		H	sg n
Laurson	Laurson	0		H	sg n
,	,			Z	
Töno	Töno	0		H	sg n
Reimund	Reimund	0		H	sg n
ja	ja	0		J	
Kusta	Kusta	0		H	sg n
Reimund	Reimund	0		H	sg n
olla	ole	a		V	da
kuulnuvad	####				
,	,			Z	
palus	palu	s		V	s
,	,			Z	
et	et	0		J	
kohus	kohus	0		S	sg n
tema	tema	0		P	sg g
kinni	kinni	0		D	
peetud	pida	tud		V	tud
völg	####				
tagasi	tagasi	0		D	
möistaks	####				
ja	ja	0		J	
Jüri	Jüri	0		H	sg n
Priksi	Priks	0		H	sg g
alva	####				
sönade	####				
eest	eest	0		K	
trahviks	trahvi	ks		V	ks
.	.			Z	
</s>					
<s>					
Otsus	otsus	0		S	sg n
:	:			Z	
Et	Et	0		H	sg n
Jüri	Jüri	0		H	sg n
Priks	Priks	0		H	sg n
ja	ja	0		J	
tunnistajad	tunnistaja	d		S	pl n
Jaan	Jaan	0		H	sg n
Laurson	Laurson	0		H	sg n
,	,			Z	
Töno	Töno	0		H	sg n
Reimund	Reimund	0		H	sg n
ja	ja	0		J	
Kusta	Kusta	0		H	sg n
Reimund	Reimund	0		H	sg n
ette	ette	0		D	
tellida	telli	da		V	da
.	.			Z	
</s>					
<s>					
Se	Se	0		Y	sg n
otsus	otsus	0		S	sg n
sai	saa	i		V	s
kuulutud	kuulu	tud		V	tud
.	.			Z	
</s>					
