<s>					
Tuli	tule	i		V	s
ette	ette	0		D	
Kristjan	Kristjan	0		H	sg n
Bensa	Bensa	0		H	sg n
ja	ja	0		J	
kaebas	kaeba	s		V	s
,	,			Z	
et	et	0		J	
tema	tema	0		P	sg n
seda	see	da		P	sg p
temale	tema	le		P	sg all
protokollis	protokoll	s		S	sg in
9.	9.	0		O	?
Septembril	september	l		S	sg ad
s.a	s.a	0		Y	?
.	.			Z	
</s>					
<s>					
no	no	0		I	
56	56	0		N	?
all	all	0		K	
möistetud	####				
summa	summa	0		S	sg n
5	5	0		N	?
rbl	rbl	0		Y	
.	.			Z	
</s>					
<s>					
Jaan	Jaan	0		H	sg n
Pruuli	Pruul	0		H	sg g
hääks	####				
mitte	mitte	0		D	
maksa	maks	0		V	o
ei	ei	0		V	neg
vöina	vöö	ina		S	pl es
,	,			Z	
sest	sest	0		J	
kui	kui	0		D	
   	kui	0		J	
tema	tema	0		P	sg g
oma	oma	0		P	sg g
uusi	uus	i		A	pl p
saapaid	saabas	id		S	pl p
Jaan	Jaan	0		H	sg n
Pruuli	Pruul	0		H	sg g
juurest	juurest	0		K	
ära	ära	0		D	
tooma	too	ma		V	ma
läinud	mine	nud		V	nud
,	,			Z	
siis	siis	0		D	
olnuvad	ole	nuvad		V	nuvad
temal	tema	l		P	sg ad
Johan	Johan	0		H	sg n
Reinholdi	Reinhold	0		H	sg g
uued	uus	d		A	pl n
saapad	saabas	d		S	pl n
jalas	jalg	s		S	sg in
,	,			Z	
pannud	pane	nud		V	nud
J.	J.	0		Y	sg n
Pruul	Pruul	0		H	sg n
juurest	juurest	0		K	
oma	oma	0		P	sg g
uued	uus	d		A	pl n
saapad	saabas	d		S	pl n
,	,			Z	
mis	mis	0		P	sg n
J.	J.	0		Y	sg n
Pruul	Pruul	0		H	sg n
valmis	valmis	0		D	
teinud	tege	nud		V	nud
jalga	jalg	0		S	sg p
ja	ja	0		J	
jätnud	jät	nud		V	nud
need	see	d		P	pl n
Joh	Joh	0		H	sg n
.	.			Z	
</s>					
<s>					
Reinholdi	Reinhold	0		H	sg g
saapad	saabas	d		S	pl n
senna	senna	0		S	sg n
,	,			Z	
aga	aga	0		J	
need	see	d		P	pl n
uued	uus	d		A	pl n
saapad	saabas	d		S	pl n
,	,			Z	
mis	mis	0		P	sg n
tema	tema	0		P	sg g
J.	J.	0		Y	sg n
Pruulil	Pruul	l		H	sg ad
teha	tege	a		V	da
askis	####				
ja	ja	0		J	
siis	siis	0		D	
jalga	jalga	0		D	
pani	pane	i		V	s
,	,			Z	
olnuvad	ole	nuvad		V	nuvad
mädast	mäda	st		A	sg el
nahast	nahk	st		S	sg el
tehtud	tege	tud		V	tud
,	,			Z	
nii	nii	0		D	
et	et	0		J	
juba	juba	0		D	
esimesel	esimene	l		O	sg ad
pääval	####				
katki	katki	0		D	
rebestanudvad	####				
ning	ning	0		J	
lähnud	mine	nud		V	nud
pärast	pärast	0		K	
neid	see	d		P	pl p
Joh	Joh	0		H	sg n
.	.			Z	
</s>					
<s>					
Reinholdi	Reinhold	0		H	sg g
saapaid	saabas	id		S	pl p
Jaan	Jaan	0		H	sg n
Pruuli	Pruul	0		H	sg g
juurest	juurest	0		K	
ära	ära	0		D	
tooma	too	ma		V	ma
ja	ja	0		J	
Jaan	Jaan	0		H	sg n
Pruul	Pruul	0		H	sg n
annud	and	nud		0	nud
temale	tema	le		P	sg all
paljad	paljas	d		A	pl n
sääred	säär	d		S	pl n
tagasi	tagasi	0		D	
.	.			Z	
</s>					
<s>					
Joh	Joh	0		H	sg n
.	.			Z	
</s>					
<s>					
Reinhold	Reinhold	0		H	sg n
ei	ei	0		V	neg
ole	ole	0		V	o
neid	see	d		P	pl p
sääri	säär	i		S	pl p
mitte	mitte	0		D	
vasto	vastu	0		D	
vötnud	võt	nud		V	nud
,	,			Z	
vaid	vaid	0		D	
nöudnud	nõud	nud		V	nud
oma	oma	0		P	sg g
saapaid	saabas	id		S	pl p
ja	ja	0		J	
pidanud	pida	nud		V	nud
tema	tema	0		P	sg g
palkast	####				
kinni	kinni	0		D	
5	5	0		N	?
rbl	rbl	0		Y	
.	.			Z	
</s>					
<s>					
Et	Et	0		H	sg n
saapad	saabas	d		S	pl n
mädast	mäda	st		A	sg el
nahast	nahk	st		S	sg el
tehtud	tege	tud		V	tud
olivad	####				
ja	ja	0		J	
löhki	####				
rebenesivad	####				
,	,			Z	
tunnistama	tunnista	ma		V	ma
Joh	Joh	0		H	sg n
.	.			Z	
</s>					
<s>					
Reinhold	Reinhold	0		H	sg n
ja	ja	0		J	
Jüri	Jüri	0		H	sg n
Kiipsaar	Kiipsaar	0		H	sg n
mölemad	####				
Käreverest	Käreverest	st		H	sg n
.	.			Z	
</s>					
<s>					
Tuli	tule	i		V	s
ette	ette	0		D	
Johan	Johan	0		H	sg n
Reinhold	Reinhold	0		H	sg n
ja	ja	0		J	
vastas	vasta	s		V	s
,	,			Z	
et	et	0		J	
Kristjan	Kristjan	0		H	sg n
Bensa	Bensa	0		H	sg n
palunud	palu	nud		V	nud
tema	tema	0		P	sg g
kääst	####				
saapid	####				
jalga	jalg	0		S	adt
,	,			Z	
et	et	0		J	
oma	oma	0		P	sg g
uue	uus	0		A	sg g
saapasdele	####				
Jaan	Jaan	0		H	sg n
Pruuli	Pruul	0		H	sg g
juure	juur	0		S	sg g
järgi	järgi	0		K	
minna	mine	a		V	da
,	,			Z	
tema	tema	0		P	sg n
Joh	Joh	0		H	sg n
.	.			Z	
</s>					
<s>					
Reinhold	Reinhold	0		H	sg n
annud	and	nud		0	nud
omad	oma	d		P	pl n
uued	uus	d		A	pl n
6	6	0		N	?
rbl	rbl	0		Y	
.	.			Z	
</s>					
<s>					
väärt	väärt	0		A	
saapad	saabas	d		S	pl n
Kristjan	Kristjan	0		H	sg n
Bensale	Bensa	le		H	sg all
jalga	jalg	0		S	sg p
,	,			Z	
aga	aga	0		J	
Kristjan	Kristjan	0		H	sg n
Bensa	Bensa	0		H	sg n
ei	ei	0		V	neg
ole	ole	0		V	o
temale	tema	le		P	sg all
neid	see	d		P	pl p
saapaid	saabas	id		S	pl p
mitte	mitte	0		D	
tagasi	tagasi	0		D	
toonud	too	nud		V	nud
ja	ja	0		J	
tema	tema	0		P	sg g
pidanud	pida	nud		V	nud
Pensa	Pensa	0		H	sg n
palka	palk	0		S	sg p
nende	tema	de		P	pl g
saapasde	####				
eest	eest	0		K	
kinni	kinni	0		D	
5	5	0		N	?
rbl	rbl	0		Y	
.	.			Z	
</s>					
<s>					
ning	ning	0		J	
näinud	näge	nud		V	nud
seda	see	da		P	sg p
ka	ka	0		D	
kül	küll	0		D	
,	,			Z	
et	et	0		J	
Kristjan	Kristjan	0		H	sg n
Bensa	Bensa	0		H	sg n
katkirebenenud	katki_rebene=nud	0		A	sg n
uue	uus	0		A	sg g
saapasdega	####				
kodu	kodu	0		S	sg g
tulnud	tule	nud		V	nud
ja	ja	0		J	
üttelnud	ütle	nud		V	nud
,	,			Z	
et	et	0		J	
praego	####				
töin	töin	0		S	sg n
king	king	0		S	sg n
sep	####				
.	.			Z	
</s>					
<s>					
Jaan	Jaan	0		H	sg n
Bruuli	Bruuli	0		H	sg n
juurest	juurest	0		K	
ja	ja	0		J	
nüid	####				
on	ole	0		V	b
  	ole	0		V	vad
purud	puru	d		S	pl n
.	.			Z	
</s>					
<s>					
Tuli	tule	i		V	s
ette	ette	0		D	
Jüri	Jüri	0		H	sg n
Kiipsaar	Kiipsaar	0		H	sg n
Käreverest	Käreverest	st		H	sg n
ja	ja	0		J	
tunnistas	tunnista	s		V	s
,	,			Z	
et	et	0		J	
Kristjan	Kristjan	0		H	sg n
Bensa	Bensa	0		H	sg n
on	ole	0		V	b
  	ole	0		V	vad
tulnud	tule	nud		V	nud
ja	ja	0		J	
näidanud	näita	nud		V	nud
,	,			Z	
et	et	0		J	
mölemad	####				
saapad	saabas	d		S	pl n
mis	mis	0		P	sg n
tal	tema	l		P	sg ad
jalas	jalg	s		S	sg in
olnuvad	ole	nuvad		V	nuvad
penahad	####				
löhki	####				
ja	ja	0		J	
üttelnud	ütle	nud		V	nud
,	,			Z	
et	et	0		J	
praego	####				
kingsepa	king_sepp	0		S	sg g
Jaan	Jaan	0		H	sg n
Pruuli	Pruul	0		H	sg g
kääst	####				
töin	töin	0		S	sg n
.	.			Z	
</s>					
<s>					
Otsus	otsus	0		S	sg n
:	:			Z	
Et	Et	0		H	sg n
Jaan	Jaan	0		H	sg n
Pruul	Pruul	0		H	sg n
ette	ette	0		D	
tellida	telli	da		V	da
.	.			Z	
</s>					
<s>					
Se	Se	0		Y	sg n
otsus	otsus	0		S	sg n
sai	saa	i		V	s
kuulutud	kuulu	tud		V	tud
.	.			Z	
</s>					
