<s>					
Protokolli	protokoll	0		S	sg g
pääle	pea	le		S	sg all
1.	1.	0		O	?
Juulil	juuli	l		S	sg ad
s.a	s.a	0		Y	?
.	.			Z	
</s>					
<s>					
no	no	0		I	
.	.			Z	
</s>					
<s>					
44	44	0		N	?
all	all	0		K	
valla	valla	0		H	sg n
vanem	vanem	0		S	sg n
Jaan	Jaan	0		H	sg n
Veedleri	Veedler	0		H	sg g
kaebuse	kaebus	0		S	sg g
asjas	asi	s		S	sg in
,	,			Z	
vasto	vastu	0		D	
Karl	Karl	0		H	sg n
Lübek	Lübek	0		H	sg n
pääraha	####				
kviitungide	####				
andmise	andmine	0		S	sg g
pärast	pärast	0		K	
tuli	tule	i		V	s
ette	ette	0		D	
Karl	Karl	0		H	sg n
Lübek	Lübek	0		H	sg n
ja	ja	0		J	
vastas	vasta	s		V	s
,	,			Z	
et	et	0		J	
kus	kus	0		D	
kviitungil	kviitung	l		S	sg ad
tema	tema	0		P	sg g
nimi	nimi	0		S	sg n
valla	valla	0		H	sg n
tempiga	temp_iga	0		S	sg n
all	all	0		D	
seisab	seis	b		V	b
,	,			Z	
seda	see	da		P	sg p
tema	tema	0		P	sg n
maksab	maks	b		V	b
olma	####				
vasto	vastu	0		D	
panemata	pane	mata		V	mata
,	,			Z	
aga	aga	0		J	
kus	kus	0		D	
tema	tema	0		P	sg g
kviitung	kviitung	0		S	sg n
mitte	mitte	0		D	
ei	ei	0		V	neg
ole	ole	0		V	o
seda	see	da		P	sg p
tema	tema	0		P	sg n
ei	ei	0		V	neg
vötta	võt	a		V	da
oma	oma	0		P	sg g
pääle	peale	0		K	
vastotada	####				
.	.			Z	
</s>					
<s>					
Möisteti	####				
:	:			Z	
Et	Et	0		H	sg n
Jüri	Jüri	0		H	sg n
Truus	Truus	0		H	sg n
on	ole	0		V	b
  	ole	0		V	vad
üleval	üleval	0		D	
nimetud	nimetu	d		A	pl n
protokollis	protokoll	s		S	sg in
seisav	####				
pääraha	####				
summa	summa	0		S	sg n
4	4	0		N	?
rbl	rbl	0		Y	
.	.			Z	
</s>					
<s>					
84	84	0		N	?
kop	kop	0		Y	?
.	.			Z	
</s>					
<s>					
ise	ise	0		P	sg n
ära	ära	0		D	
maksnud	maks	nud		V	nud
,	,			Z	
siis	siis	0		J	
peab	pida	b		V	b
Karl	Karl	0		H	sg n
Lübek	Lübek	0		H	sg n
se	see	0		P	sg n
ülejäädav	üle_jäädav	0		A	sg n
pääraha	####				
suma	suma	0		V	o
61	61	0		N	?
rbl	rbl	0		Y	
.	.			Z	
</s>					
<s>					
69	69	0		N	?
kop	kop	0		Y	?
.	.			Z	
</s>					
<s>					
kolme	kolm	0		N	sg g
nädala	nädal	0		S	sg g
sees	sees	0		K	
ära	ära	0		D	
maksma	maks	ma		V	ma
.	.			Z	
</s>					
<s>					
Se	Se	0		Y	sg n
möistus	####				
sai	saa	i		V	s
kohtu	kohus	0		S	sg g
käijadel	####				
sääduslikult	####				
kuulutud	kuulu	tud		V	tud
,	,			Z	
ei	ei	0		V	neg
olnud	ole	nud		V	nud
Karl	Karl	0		H	sg n
Lübek	Lübek	0		H	sg n
rahul	rahul	0		D	
ja	ja	0		J	
sai	saa	i		V	s
temale	tema	le		P	sg all
öppus	####				
leht	leht	0		S	sg n
välja	välja	0		D	
antud	and	tud		V	tud
.	.			Z	
</s>					
