<s>					
Tuli	tule	i		V	s
ette	ette	0		D	
Juhan	Juhan	0		H	sg n
Arand	Arand	0		H	sg n
ja	ja	0		J	
kaebas	kaeba	s		V	s
,	,			Z	
et	et	0		J	
Jüri	Jüri	0		H	sg n
pääval	####				
olema	ole	ma		V	ma
Peeter	Peeter	0		H	sg n
Puha	Puha	0		H	sg n
Jaan	Jaan	0		H	sg n
Staup	Staup	0		H	sg n
ja	ja	0		J	
Hans	Hans	0		H	sg n
Pensa	Pensa	0		H	sg n
Käreverest	Käreverest	st		H	sg n
teda	tema	da		P	sg p
körtsis	####				
peksnuvad	peks	nud		V	nud
rusikadega	####				
ning	ning	0		J	
tema	tema	0		P	sg g
pea	pea	0		S	sg n
valutama	valu	tama		V	tama
        	valuta	ma		V	ma
nüid	####				
sellest	see	st		P	sg el
peksust	peks	st		S	sg el
ja	ja	0		J	
lubanud	luba	nud		V	nud
Peeter	Peeter	0		H	sg n
Puha	Puha	0		H	sg n
teda	tema	da		P	sg p
veel	veel	0		D	
peksa	peks	0		V	o
,	,			Z	
mis	mis	0		P	sg n
Juhan	Juhan	0		H	sg n
Staup	Staup	0		H	sg n
ka	ka	0		D	
kuulnud	kuul	nud		V	nud
.	.			Z	
</s>					
<s>					
Tuli	tule	i		V	s
ette	ette	0		D	
Peeter	Peeter	0		H	sg n
Puha	Puha	0		H	sg n
ja	ja	0		J	
vastas	vasta	s		V	s
,	,			Z	
et	et	0		J	
tema	tema	0		P	sg n
ei	ei	0		V	neg
olema	ole	ma		V	ma
Juhan	Juhan	0		H	sg n
Arandid	Arand	d		H	sg g
peksnud	peks	nud		V	nud
ega	ega	0		J	
ähvardanud	ähvarda	nud		V	nud
,	,			Z	
ning	ning	0		J	
temal	tema	l		P	sg ad
ei	ei	0		V	neg
olema	ole	ma		V	ma
midagi	miski	dagi		P	sg p
tegemist	tegemine	t		S	sg p
Juhan	Juhan	0		H	sg n
Arandiga	Arand	ga		H	sg kom
.	.			Z	
</s>					
<s>					
Otsus	otsus	0		S	sg n
:	:			Z	
Et	Et	0		H	sg n
Hans	Hans	0		H	sg n
Pensa	Pensa	0		H	sg n
Käreverest	Käreverest	st		H	sg n
Jaan	Jaan	0		H	sg n
Staup	Staup	0		H	sg n
ja	ja	0		J	
Juhan	Juhan	0		H	sg n
Staup	Staup	0		H	sg n
ette	ette	0		D	
tellida	telli	da		V	da
.	.			Z	
</s>					
<s>					
Se	Se	0		Y	sg n
otsus	otsus	0		S	sg n
sai	saa	i		V	s
kuulutud	kuulu	tud		V	tud
.	.			Z	
</s>					
