<s>					
Vallavalitsus	valla_valitsus	0		S	sg n
om	ole	0		V	b
teeda	####				
saanu	saa	nud		V	nud
,	,			Z	
et	et	0		J	
Hans	Hans	0		H	sg n
Herm	Herm	0		H	sg n
ja	ja	0		J	
Jaan	Jaan	0		H	sg n
Herm	Herm	0		H	sg n
omma	ole	0		V	vad
laadel	laat	l		S	sg ad
kävven	####				
jälle	jälle	0		D	
varastanu	varasta	nud		V	nud
nii	nii	0		D	
kui	kui	0		D	
   	kui	0		J	
neid	tema	d		P	pl p
jo	juhi	0		D	
mitu	mitu	0		P	sg n
kõrd	kord	0		S	sg n
keeletu	keeletu	0		A	sg n
om	ole	0		V	b
.	.			Z	
</s>					
<s>					
Sis	####				
om	ole	0		V	b
see	see	0		P	sg n
asi	asi	0		S	sg n
jälle	jälle	0		D	
kogokonna	kogukond	0		S	sg g
kohto	kohus	0		S	sg g
ette	ette	0		K	
antu	antud	0		A	sg g
.	.			Z	
</s>					
<s>					
Hans	Hans	0		H	sg n
Herm	Herm	0		H	sg n
om	ole	0		V	b
ette	ette	0		D	
kutsutu	kutsutu	0		S	sg n
.	.			Z	
</s>					
<s>					
Tema	tema	0		P	sg n
ütlep	ütle	p		V	b
:	:			Z	
Mina	mina	0		P	sg n
laadal	laat	l		S	sg ad
es	ei	s		V	neg s
ole	ole	0		V	o
.	.			Z	
</s>					
<s>					
Perast	####				
es	ei	s		V	neg s
voi	või	0		V	o
tema	tema	0		P	sg n
salata	salga	ta		V	da
,	,			Z	
et	et	0		J	
tema	tema	0		P	sg g
laadel	laat	l		S	sg ad
ei	ei	0		V	neg
ole	ole	0		V	o
olnu	ole	nud		V	nud
,	,			Z	
nink	ning	0		J	
päälegi	####				
tuli	tule	i		V	s
avalikos	####				
,	,			Z	
et	et	0		J	
nema	tema	0		P	pl n
jälle	jälle	0		D	
üte	üte	0		S	sg n
Vastse-Koiola	Vastse-Koiola	0		H	sg n
mehe	mees	0		S	sg g
kraami	kraam	0		S	sg p
omma	ole	0		V	vad
varastanu	varasta	nud		V	nud
.	.			Z	
</s>					
<s>					
Moistm	####				
.	.			Z	
</s>					
<s>					
Kohus	kohus	0		S	sg n
om	ole	0		V	b
moistnu	mõist	nud		V	nud
,	,			Z	
et	et	0		J	
nema	tema	0		P	pl n
alati	alati	0		D	
,	,			Z	
ikkes	ike	s		S	sg in
varastava	varastav	0		A	sg g
nink	ning	0		J	
üttege	####				
manitsust	manitsus	t		S	sg p
ei	ei	0		V	neg
hooli	hooli	0		V	o
;	;			Z	
saap	saa	p		V	b
tema	tema	0		P	sg n
25	25	0		N	?
vitsa	vits	0		S	sg g
lööki	löök	0		S	sg p
.	.			Z	
</s>					
<s>					
Et	et	0		J	
neide	neid	e		S	pl p
esa	####				
Johann	Johann	0		H	sg n
Herm	Herm	0		H	sg n
ka	ka	0		D	
selle	see	0		P	sg g
varguse	vargus	0		S	sg g
man	man	0		K	
om	ole	0		V	b
olnu	ole	nud		V	nud
nink	ning	0		J	
üten	####				
salanu	salga	nud		V	nud
ja	ja	0		J	
käknu	####				
,	,			Z	
sis	siis	0		D	
om	ole	0		V	b
kohus	kohus	0		S	sg n
teda	tema	da		P	sg p
ka	ka	0		D	
ette	ette	0		D	
kutsnu	####				
,	,			Z	
nink	ning	0		J	
löudnu	####				
,	,			Z	
et	et	0		J	
tema	tema	0		P	sg g
sel	see	l		P	sg ad
varguse	vargus	0		S	sg g
man	man	0		D	
niisama	nii_sama	0		D	
süüdlane	süüdlane	0		S	sg n
om	ole	0		V	b
.	.			Z	
</s>					
<s>					
Sis	####				
om	ole	0		V	b
kohus	kohus	0		S	sg n
temale	tema	le		P	sg all
moistnu	mõist	nud		V	nud
,	,			Z	
et	et	0		J	
tema	tema	0		P	sg n
saap	saa	p		V	b
20	20	0		N	?
vitsa	vits	0		S	sg g
lööki	löök	0		S	sg p
.	.			Z	
</s>					
<s>					
[	[			Z	
kohtumeeste	kohtu_mees	te		S	pl g
allkirjad	all_kiri	d		S	pl n
]	]			Z	
Johann	Johann	0		H	sg n
Himma	Himma	0		H	sg n
om	ole	0		V	b
ütelnu	ütle	nud		V	nud
et	et	0		J	
tema	tema	0		P	sg g
ütsinda	####				
laadele	####				
om	ole	0		V	b
lännu	mine	nu		V	nud
.	.			Z	
</s>					
<s>					
Adam	Adam	0		H	sg n
Tisler	Tisler	0		H	sg n
ütlep	ütle	p		V	b
Jaan	Jaan	0		H	sg n
Herm	Herm	0		H	sg n
istse	####				
Vintso	####				
kõrtsi	kõrts	0		S	adt
Johanil	Johann	l		H	sg ad
pääle	peale	0		K	
.	.			Z	
</s>					
<s>					
Veel	veel	0		D	
om	ole	0		V	b
Johann	Johann	0		H	sg n
Himma	Himma	0		H	sg n
ütelnu	ütle	nud		V	nud
,	,			Z	
et	et	0		J	
temal	tema	l		P	sg ad
mitte	mitte	0		D	
enamb	enam	0		D	
kraami	kraam	0		S	sg p
es	ei	s		V	neg s
ole	ole	0		V	o
tuvva	too	va		V	da
kui	kui	0		D	
   	kui	0		J	
see	see	0		P	sg n
mes	mis	0		P	sg n
enne	enne	0		K	
kirjotedu	####				
olli	ole	li		V	s
.	.			Z	
</s>					
<s>					
Perast	####				
ütel	ütle	s		V	s
tema	tema	0		P	sg g
sis	siis	0		D	
jälle	jälle	0		D	
,	,			Z	
et	et	0		J	
mino	mina	0		P	sg g
pääl	pea	l		S	sg ad
olli	ole	li		V	s
veel	veel	0		D	
2	2	0		N	?
suitse	suits	e		S	pl p
.	.			Z	
</s>					
<s>					
Kui	kui	0		D	
   	kui	0		J	
Erastvere	Erastvere	0		H	sg n
mehe	mees	0		S	sg g
meid	mina	d		P	pl p
läbi	läbi	0		D	
otseva	####				
,	,			Z	
sis	siis	0		D	
es	ei	s		V	neg s
ole	ole	0		V	o
Jaan	Jaan	0		H	sg n
Herm	Herm	0		H	sg n
mino	mina	0		P	sg g
man	man	0		K	
,	,			Z	
muud	muu	d		P	sg p
kui	kui	0		D	
   	kui	0		J	
Johann	Johann	0		H	sg n
Rammolüüs	Rammolüüs	0		H	sg n
nink	ning	0		J	
üts	üks	0		N	sg n
Väimela	Väimela	0		H	sg n
mees	mees	0		S	sg n
.	.			Z	
</s>					
<s>					
Mina	mina	0		P	sg n
es	ei	s		V	neg s
tija	tead	0		V	o
sest	sest	0		J	
särgist	särk	st		S	sg el
midage	####				
ei	ei	0		V	neg
ole	ole	0		V	o
ka	ka	0		D	
teda	tema	da		P	sg p
nännu	näge	nud		V	nud
,	,			Z	
kui	kui	0		D	
   	kui	0		J	
Jaan	Jaan	0		H	sg n
Herm	Herm	0		H	sg n
teda	tema	da		P	sg p
om	ole	0		V	b
varastanu	varasta	nud		V	nud
,	,			Z	
sis	siis	0		D	
voip	####				
tema	tema	0		P	sg g
ka	ka	0		D	
esi	esi	0		S	sg n
teeda	####				
anda	and	a		V	da
kos	kus	0		D	
ta	tema	0		P	sg n
teda	tema	da		P	sg p
om	ole	0		V	b
pandnu	pane	nud		V	nud
.	.			Z	
</s>					
<s>					
Veel	veel	0		D	
tunnistap	tunnista	b		V	b
Jaan	Jaan	0		H	sg n
Herm	Herm	0		H	sg n
et	et	0		J	
tema	tema	0		P	sg n
ka	ka	0		D	
Johann	Johann	0		H	sg n
Himmale	Himma	le		H	sg all
2	2	0		N	?
suitse	suits	e		S	pl p
,	,			Z	
üts	üks	0		N	sg n
tükk	tükk	0		S	sg n
rauda	raud	0		S	sg p
ja	ja	0		J	
üts	üks	0		N	sg n
kasuk	####				
om	ole	0		V	b
andnu	and=nu	0		S	sg n
.	.			Z	
</s>					
<s>					
Et	et	0		J	
neil	see	l		P	pl ad
tunnistusil	tunnistus	il		S	pl ad
õiget	õige	t		A	sg p
põhja	põhi	0		S	sg p
ega	ega	0		J	
jõudo	####				
ei	ei	0		V	neg
ole	ole	0		V	o
,	,			Z	
selleperast	sellepärast	0		D	
ei	ei	0		V	neg
saa	saa	0		V	o
kohus	kohus	0		S	sg n
veel	veel	0		D	
mitte	mitte	0		D	
otsust	otsus	t		S	sg p
anda	and	a		V	da
sel	see	l		P	sg ad
kõrral	####				
.	.			Z	
</s>					
