<s>					
Kaib	Kaib	0		H	sg n
:	:			Z	
Moisa	Moisa	0		H	sg n
herra	härra	0		S	sg n
om	ole	0		V	b
kaibanu	kaeba	nu		V	nud
,	,			Z	
et	et	0		J	
väiko-maa	####				
pidaja	pidaja	0		S	sg n
Peeter	Peeter	0		H	sg n
Müürsep	Müürsep	0		H	sg n
om	ole	0		V	b
lina	lina	0		S	sg g
viijen	####				
moisa	mõis	0		S	sg g
puid	puu	id		S	pl p
müünu	müü	nud		V	nud
.	.			Z	
</s>					
<s>					
Peeter	Peeter	0		H	sg n
Müürsep	Müürsep	0		H	sg n
om	ole	0		V	b
ette	ette	0		D	
kutsutu	kutsutu	0		S	sg n
,	,			Z	
tema	tema	0		P	sg n
ei	ei	0		V	neg
voi	või	0		V	o
oma	oma	0		P	sg g
kurju	kurju	0		V	o
tööd	töö	d		S	sg p
salata	salga	ta		V	da
:	:			Z	
Selleperast	####				
om	ole	0		V	b
kohus	kohus	0		S	sg n
moistnu	mõist	nud		V	nud
,	,			Z	
et	et	0		J	
Peeter	Peeter	0		H	sg n
Müürsep	Müürsep	0		H	sg n
saap	saa	p		V	b
15	15	0		N	?
vitsa	vits	0		S	sg g
lööki	löök	0		S	sg p
.	.			Z	
</s>					
