<s>					
Kaibam	####				
.	.			Z	
</s>					
<s>					
Thomas	Thomas	0		H	sg n
Posle	Posle	0		H	sg n
om	ole	0		V	b
kaibanu	kaeba	nu		V	nud
,	,			Z	
et	et	0		J	
Adam	Adam	0		H	sg n
Tisler	Tisler	0		H	sg n
om	ole	0		V	b
kiige	kiik	0		S	sg g
paremba	####				
röa	####				
võtnu	võt	nud		V	nud
,	,			Z	
sest	sest	0		J	
mes	mis	0		P	sg n
temal	tema	l		P	sg ad
lubatu	lubatu	0		A	sg n
oli	ole	i		V	s
.	.			Z	
</s>					
<s>					
Mõistm	####				
.	.			Z	
</s>					
<s>					
Kohus	kohus	0		S	sg n
om	ole	0		V	b
Moistnu	####				
:	:			Z	
Adam	Adam	0		H	sg n
Tisler	Tisler	0		H	sg n
peap	pida	b		V	b
1	1	0		N	?
½	½	0		N	?
rubla	rubla	0		S	sg p
hõb	####				
Thomas	Thomas	0		H	sg n
Postile	Postile	0		H	sg n
masma	maks	ma		V	ma
.	.			Z	
</s>					
<s>					
Pää	Pää	0		H	sg n
kohtomees	kohtu_mees	0		S	sg n
V.	V.	0		Y	sg n
Kehrberg	Kehrberg	0		H	sg n
J.	J.	0		Y	sg n
Kehrberg	Kehrberg	0		H	sg n
kirjotaja	kirjotaja	0		H	sg n
</s>					
