<s>					
Kaibam	####				
:	:			Z	
Moisa	Moisa	0		H	sg n
herra	härra	0		S	sg n
om	ole	0		V	b
kaibanu	kaeba	nu		V	nud
,	,			Z	
et	et	0		J	
Michel	Michel	0		H	sg n
Võitra	Võitra	0		H	sg n
häbemata	häbemata	0		D	
viisil	viis	l		S	sg ad
ropo	####				
suuga	suu	ga		S	sg kom
moisa	mõis	0		S	sg g
herra	härra	0		S	sg g
ja	ja	0		J	
meid	mina	d		P	pl p
inimesi	inimene	i		S	pl p
vasta	vasta	0		V	o
om	ole	0		V	b
olnu	ole	nud		V	nud
nink	ning	0		J	
sõimanu	sõima	nud		V	nud
.	.			Z	
</s>					
<s>					
Michel	Michel	0		H	sg n
Võitra	Võitra	0		H	sg n
om	ole	0		V	b
ette	ette	0		D	
kutsutu	kutsutu	0		S	sg n
,	,			Z	
tema	tema	0		P	sg n
ei	ei	0		V	neg
või	või	0		V	o
seda	see	da		P	sg p
salata	salga	ta		V	da
,	,			Z	
enge	####				
ütlep	ütle	p		V	b
:	:			Z	
""""	""""			Z	
Mina	mina	0		P	sg n
küll	küll	0		D	
pahandusega	pahandus	ga		S	sg kom
ole	ole	0		V	o
halvaste	####				
kõnelnu	kõnele	nud		V	nud
"."""	"."""			Z	
</s>					
<s>					
Moistm	####				
:	:			Z	
Kohus	kohus	0		S	sg n
om	ole	0		V	b
moistnu	mõist	nud		V	nud
:	:			Z	
Michel	Michel	0		H	sg n
Võitra	Võitra	0		H	sg n
saap	saa	p		V	b
niisugutse	####				
häbemata	häbemata	0		D	
suu	suu	0		S	sg g
pruukimise	pruukimine	0		S	sg g
eest	eest	0		K	
15	15	0		N	?
vitsa	vits	0		S	sg p
lööki	löök	0		S	sg p
.	.			Z	
</s>					
<s>					
Pää	Pää	0		H	sg n
kohtomees	kohtu_mees	0		S	sg n
V.	V.	0		Y	sg n
Kehrberg	Kehrberg	0		H	sg n
Kohtomees	####				
J.	J.	0		Y	sg n
Pollak	Pollak	0		H	sg n
J.	J.	0		Y	sg n
Kehrberg	Kehrberg	0		H	sg n
kirjotaja	kirjotaja	0		H	sg n
</s>					
