<s>					
Ette	ette	0		D	
om	ole	0		V	b
tulnu	tulnu	0		S	sg n
Leno	Leno	0		H	sg n
Aigro	Aigru	0		H	sg n
Jõksi	Jõksi	0		H	sg n
valla	valla	0		H	sg n
inimene	inimene	0		S	sg n
,	,			Z	
kes	kes	0		P	sg n
Joosu	Joosu	0		H	sg n
vallan	####				
Adam	Adam	0		H	sg n
Armoliko	Armolik	0		H	sg g
man	man	0		K	
teenistusen	####				
om	ole	0		V	b
,	,			Z	
nink	ning	0		J	
kaibas	kaeba	s		V	s
et	et	0		J	
peremees	pere_mees	0		S	sg n
teda	tema	da		P	sg p
om	ole	0		V	b
teenistusest	teenistus	st		S	sg el
ära	ära	0		D	
ajanu	aja	nud		V	nud
,	,			Z	
selleperast	sellepärast	0		D	
et	et	0		J	
tema	tema	0		P	sg n
mõni	mõni	0		P	sg n
kõrd	kord	0		S	sg n
haige	haige	0		A	sg g
om	ole	0		V	b
olnu	ole	nud		V	nud
.	.			Z	
</s>					
<s>					
Adam	Adam	0		H	sg n
Armolik	Armolik	0		H	sg n
om	ole	0		V	b
ette	ette	0		D	
kutsutu	kutsutu	0		S	sg n
,	,			Z	
tema	tema	0		P	sg n
ütlep	ütle	p		V	b
:	:			Z	
Kuis	kuis	0		D	
mina	mina	0		S	sg n
teda	tema	da		P	sg p
voi	või	0		V	o
pidada	pida	da		V	da
tema	tema	0		P	sg g
ei	ei	0		V	neg
taha	taht	0		V	o
sõna	sõna	0		S	sg p
kuulda	kuul	da		V	da
nink	ning	0		J	
panep	pane	b		V	b
hennast	henna	st		S	sg el
alati	alati	0		D	
haiges	haige	s		S	sg in
kuna	kuna	0		J	
üles	üles	0		D	
aja	aeg	0		S	sg g
,	,			Z	
sis	siis	0		D	
ei	ei	0		V	neg
tule	tule	0		V	o
üles	üles	0		D	
;	;			Z	
selleperast	sellepärast	0		D	
mina	mina	0		P	sg n
sis	siis	0		D	
ütli	ütle	i		V	sin
:	:			Z	
kui	kui	0		D	
   	kui	0		J	
sina	sina	0		P	sg n
tööd	töö	d		S	sg p
ei	ei	0		V	neg
taha	taht	0		V	o
tetta	tege	ta		V	da
sis	siis	0		D	
mina	mina	0		S	sg p
ei	ei	0		V	neg
taha	taht	0		V	o
sino	####				
enamb	enam	0		D	
pidada	pida	da		V	da
,	,			Z	
sis	siis	0		D	
voit	####				
sina	sina	0		P	sg n
minost	####				
minnä	####				
.	.			Z	
</s>					
<s>					
Lena	Lena	0		H	sg n
Aigru	Aigru	0		H	sg n
om	ole	0		V	b
pallelnu	palu	nud		V	nud
,	,			Z	
et	et	0		J	
tema	tema	0		P	sg n
tahap	taht	b		V	b
hää	####				
meelega	meelega	0		D	
prii	prii	0		A	sg n
jääda	jää	da		V	da
kui	kui	0		D	
   	kui	0		J	
peremees	pere_mees	0		S	sg n
teda	tema	da		P	sg p
jätap	jät	b		V	b
.	.			Z	
</s>					
<s>					
Adam	Adam	0		H	sg n
Armolik	Armolik	0		H	sg n
ütlep	ütle	p		V	b
ega	ega	0		J	
mina	mina	0		S	sg n
teda	tema	da		P	sg p
küll	küll	0		D	
ei	ei	0		V	neg
keela	keela	0		V	o
kui	kui	0		D	
   	kui	0		J	
ennege	####				
kohto	kohus	0		S	sg g
üle	üle	0		K	
kullemise	kull_emis	0		S	sg g
läbi	läbi	0		K	
,	,			Z	
et	et	0		J	
minol	####				
perast	pärast	0		D	
süüdi	süüdi	0		D	
ei	ei	0		V	neg
tule	tule	0		V	o
.	.			Z	
</s>					
<s>					
Kohus	kohus	0		S	sg n
om	ole	0		V	b
ka	ka	0		D	
luba	luba	0		S	sg n
andnu	and=nu	0		S	sg n
,	,			Z	
et	et	0		J	
nema	tema	0		P	pl n
voiva	####				
tõine	teine	0		O	sg n
tõist	teine	t		P	sg p
vallale	vald	le		S	sg all
jääda	jää	da		V	da
.	.			Z	
</s>					
<s>					
Adam	Adam	0		H	sg n
peap	pida	b		V	b
4	4	0		N	?
rubla	rubla	0		S	sg g
hõb	####				
tütrikole	####				
palka	palk	0		S	sg p
välja	välja	0		D	
masma	maks	ma		V	ma
.	.			Z	
</s>					
<s>					
Pää	Pää	0		H	sg n
kohtomees	kohtu_mees	0		S	sg n
V.	V.	0		Y	sg n
Kehrberg	Kehrberg	0		H	sg n
Kohtomees	####				
M.	M.	0		Y	sg n
Torrop	Torrop	0		H	sg n
J.	J.	0		Y	sg n
Kehrberg	Kehrberg	0		H	sg n
kirjotaja	kirjotaja	0		H	sg n
</s>					
