<s>					
Et	et	0		J	
Gustav	Gustav	0		H	sg n
Pusep	Pusep	0		H	sg n
,	,			Z	
kes	kes	0		P	sg n
kogokonna-kohto	kogukonna_kohus	0		S	sg g
käsko	####				
om	ole	0		V	b
saanu	saa	nud		V	nud
,	,			Z	
Karaski	karask	0		S	sg g
kogokonna	kogukond	0		S	sg g
kohto	kohus	0		S	sg g
mano	manu	0		K	
minnä	####				
,	,			Z	
ent	ent	0		J	
ei	ei	0		V	neg
ole	ole	0		V	o
seda	see	da		P	sg p
käsko	####				
mitte	mitte	0		D	
täütnu	####				
.	.			Z	
</s>					
<s>					
Sis	####				
om	ole	0		V	b
kohus	kohus	0		S	sg n
moistnu	mõist	nud		V	nud
,	,			Z	
et	et	0		J	
Gustav	Gustav	0		H	sg n
Pusep	Pusep	0		H	sg n
peap	pida	b		V	b
1	1	0		N	?
rubla	rubla	0		S	sg p
trahvi	trahv	0		S	sg p
masma	maks	ma		V	ma
Erastvere	Erastvere	0		H	sg n
kogokonna	kogukond	0		S	sg g
vaeste	vaene	te		S	pl g
laadiko	####				
.	.			Z	
</s>					
