<s>					
Moisa	Moisa	0		H	sg n
kantnik	kantnik	0		S	sg n
Jaan	Jaan	0		H	sg n
Ollesk	Ollesk	0		H	sg n
om	ole	0		V	b
ette	ette	0		D	
tulnu	tulnu	0		S	sg n
nink	ning	0		J	
pallelnu	palu	nud		V	nud
,	,			Z	
et	et	0		J	
tema	tema	0		P	sg g
poig	poeg	0		S	sg n
Peep	Peep	0		H	sg n
Ollesk	Ollesk	0		H	sg n
tema	tema	0		P	sg g
asemele	asemele	0		K	
peremehes	pere_mees	s		S	sg in
saas	####				
kinnitedus	####				
,	,			Z	
sest	sest	0		J	
et	et	0		J	
tema	tema	0		P	sg g
esi	esi	0		S	sg n
tervisest	tervis	st		S	sg el
kohalt	koha	lt		S	sg abl
      	koht	lt		S	sg abl
vigatses	####				
om	ole	0		V	b
saanu	saa	nud		V	nud
.	.			Z	
</s>					
<s>					
Vallavalitsus	valla_valitsus	0		S	sg n
om	ole	0		V	b
moisavalitsuse	mõisa_valitsus	0		S	sg g
lubaga	####				
tema	tema	0		P	sg g
palvet	palve	t		S	sg p
kuulda	kuul	da		V	da
võtnu	võt	nud		V	nud
nink	ning	0		J	
Peep	Peep	0		H	sg n
Olleskid	Ollesk	d		H	sg g
selle	see	0		P	sg g
moisa	mõis	0		S	sg g
maa	maa	0		S	sg g
peremehes	pere_mees	s		S	sg in
kinnitanu	kinnita	nud		V	nud
,	,			Z	
mes	mis	0		P	sg n
tema	tema	0		P	sg g
esa	####				
enne	enne	0		K	
olli	ole	li		V	s
pidanu	pida	nud		V	nud
.	.			Z	
</s>					
<s>					
Ent	ent	0		J	
et	et	0		J	
temal	tema	l		P	sg ad
selle	see	0		P	sg g
tarvis	tarvis	0		K	
ka	ka	0		D	
oma	oma	0		P	sg g
varandus	varandus	0		S	sg n
saas	####				
selleperast	sellepärast	0		D	
annap	and	b		V	b
esa	####				
temale	tema	le		P	sg all
jaos	jagu	s		S	sg in
:	:			Z	
1	1	0		N	?
hobene	####				
,	,			Z	
2	2	0		N	?
lehma	lehm	0		S	sg p
,	,			Z	
2	2	0		N	?
lammast	lammas	t		S	sg p
,	,			Z	
2	2	0		N	?
ziga	####				
,	,			Z	
1	1	0		N	?
raud-vedamise	raud-vedamine	0		S	sg g
vanker	vanker	0		S	sg n
,	,			Z	
4	4	0		N	?
vakka	vakka	0		D	
kaaro	####				
,	,			Z	
2	2	0		N	?
vakka	vakka	0		D	
kesvi	kesv	i		S	pl p
ja	ja	0		J	
2	2	0		N	?
vakka	vakka	0		D	
linaseemnit	####				
.	.			Z	
</s>					
<s>					
Pääle	peale	0		K	
selle	see	0		P	sg g
lubap	luba	p		V	b
Peeter	Peeter	0		H	sg n
Ollesk	Ollesk	0		H	sg n
,	,			Z	
et	et	0		J	
tema	tema	0		P	sg g
sest	sest	0		J	
ajast	aeg	st		S	sg el
kiik	kiik	0		S	sg n
massut	####				
ja	ja	0		J	
sündmuset	####				
tahap	taht	b		V	b
henda	ise	0		P	sg g
pääle	peale	0		K	
võtta	võt	a		V	da
ja	ja	0		J	
vastutada	vastuta	da		V	da
,	,			Z	
mes	mis	0		P	sg n
kike	####				
moisa	mõis	0		S	sg g
maa	maa	0		S	sg g
pidajide	####				
käest	käsi	st		S	sg el
moisa	mõis	0		S	sg g
ehk	ehk	0		J	
valla	valla	0		H	sg n
poolt	poolt	0		K	
sääduse	####				
perra	perra	0		K	
nõvvetas	####				
.	.			Z	
</s>					
<s>					
Seda	see	da		P	sg p
leppingut	####				
tunnistava	tunnista=v	0		A	sg g
tõttes	####				
ja	ja	0		J	
kinnitava	kinnitav	0		A	sg g
oma	oma	0		P	sg g
käega	käsi	ga		S	sg kom
:	:			Z	
Maja	maja	0		S	sg g
andja	andja	0		S	sg n
Jaan	Jaan	0		H	sg n
Olleks	Ollesk	0		H	sg n
,	,			Z	
maja	maja	0		S	sg g
võtja	võtja	0		S	sg n
Peep	Peep	0		H	sg n
Ollesk	Ollesk	0		H	sg n
.	.			Z	
</s>					
<s>					
Vallavanemb	####				
A.	A.	0		Y	sg n
Ritzar	Ritzar	0		H	sg n
Pää	Pää	0		H	sg n
kohtomees	kohtu_mees	0		S	sg n
V.	V.	0		Y	sg n
Kehrberg	Kehrberg	0		H	sg n
Kohtomees	####				
J.	J.	0		Y	sg n
Pollak	Pollak	0		H	sg n
,	,			Z	
A.	A.	0		Y	sg n
Tisler	Tisler	0		H	sg n
J.	J.	0		Y	sg n
Kehrberg	Kehrberg	0		H	sg n
kirjotaja	kirjotaja	0		H	sg n
</s>					
