<s>					
Joosu	Joosu	0		H	sg n
valla	valla	0		H	sg n
endine	endine	0		A	sg n
Thoma	Thoma	0		H	sg n
maja	maja	0		S	sg g
peremees	pere_mees	0		S	sg n
Ado	Ado	0		H	sg n
Villand	Villem	0		H	sg g
ja	ja	0		J	
nüüdne	nüüdne	0		A	sg n
maja	maja	0		S	sg g
võtja	võtja	0		S	sg n
Jaan	Jaan	0		H	sg n
Rumme	Rumme	0		H	sg n
omma	ole	0		V	vad
ette	ette	0		D	
tulnu	tulnu	0		S	sg n
nink	ning	0		J	
lepnu	####				
maja	maja	0		S	sg g
eest	eest	0		K	
välja	välja	0		D	
masmise	####				
üle	üle	0		D	
seda	see	da		P	sg p
viisi	viis	0		S	sg p
:	:			Z	
Jaan	Jaan	0		H	sg n
Rumme	Rumme	0		H	sg n
massap	####				
Ado	Ado	0		H	sg n
Villandile	Villand	le		H	sg all
selle	see	0		P	sg g
maja	maja	0		S	sg g
välja	välja	0		D	
minemise	minemine	0		S	sg g
eest	eest	0		K	
nink	ning	0		J	
neido	####				
ehituste	ehitus	te		S	pl g
eest	eest	0		K	
ja	ja	0		J	
ussede	####				
nink	ning	0		J	
aknate	####				
eest	eest	0		K	
mes	mis	0		P	sg n
sääl	siga	l		S	sg ad
ennegi	ennegi	0		D	
üle	üle	0		K	
kiige	kiige	0		S	sg n
om	ole	0		V	b
23	23	0		N	?
rubla	rubla	0		S	sg p
50	50	0		N	?
kop	kop	0		Y	?
niida	niit	0		V	o
,	,			Z	
et	et	0		J	
siis	siis	0		D	
Ado	Ado	0		H	sg n
Villandil	Villand	l		H	sg ad
säält	####				
enamb	enam	0		D	
üttegi	üte	0	gi	S	sg g
nõudmist	nõudmine	t		S	sg p
ei	ei	0		V	neg
ole	ole	0		V	o
,	,			Z	
nink	ning	0		J	
see	see	0		P	sg n
mes	mis	0		P	sg n
sääl	siga	l		S	sg ad
majan	####				
ehitetu	####				
ehk	ehk	0		J	
mano	manu	0		K	
panto	####				
om	ole	0		V	b
,	,			Z	
nüüd	nüüd	0		D	
Jaan	Jaan	0		H	sg n
Rumme	Rumme	0		H	sg n
varandus	varandus	0		S	sg n
om	ole	0		V	b
.	.			Z	
</s>					
<s>					
Seda	see	da		P	sg p
lepingut	leping	t		S	sg p
tunnistava	tunnista=v	0		A	sg g
oma	oma	0		P	sg g
käe	käsi	0		S	sg g
alla	alla	0		K	
panemisega	panemine	ga		S	sg kom
tõtes	tõsi	tes		S	pl in
Ado	Ado	0		H	sg n
Villand	Villem	0		H	sg g
,	,			Z	
Jaan	Jaan	0		H	sg n
Rammo	Rammo	0		H	sg n
.	.			Z	
</s>					
<s>					
Pää	Pää	0		H	sg n
kohtomees	kohtu_mees	0		S	sg n
V.	V.	0		Y	sg n
Kehrberg	Kehrberg	0		H	sg n
Vöörmonder	####				
H.	H.	0		Y	sg n
Saks	Saks	0		H	sg n
J.	J.	0		Y	sg n
Kehrberg	Kehrberg	0		H	sg n
kirjotaja	kirjotaja	0		H	sg n
</s>					
