<s>					
Kaibam	####				
.	.			Z	
</s>					
<s>					
Jaan	Jaan	0		H	sg n
Hakmann	Hakmann	0		H	sg n
om	ole	0		V	b
kaibanu	kaeba	nu		V	nud
,	,			Z	
et	et	0		J	
tema	tema	0		P	sg g
esa	####				
Johann	Johann	0		H	sg n
,	,			Z	
kellega	kes	ga		P	sg kom
tema	tema	0		P	sg g
üten	####				
majan	####				
elap	ela	b		V	b
teda	tema	da		P	sg p
om	ole	0		V	b
pesnu	peks	nud		V	nud
.	.			Z	
</s>					
<s>					
Jaan	Jaan	0		H	sg n
Hakmann	Hakmann	0		H	sg n
ütlep	ütle	p		V	b
,	,			Z	
et	et	0		J	
Jaan	Jaan	0		H	sg n
Lang	Lang	0		H	sg n
seda	see	da		P	sg p
om	ole	0		V	b
nännu	näge	nud		V	nud
nink	ning	0		J	
Jaan	Jaan	0		H	sg n
Tontsikersna	Tontsikersna	0		H	sg n
ka	ka	0		D	
veel	veel	0		D	
peraotsa	####				
seda	see	da		P	sg p
tüli	tüli	0		S	sg p
nägema	näge	ma		V	ma
om	ole	0		V	b
saanu	saa	nud		V	nud
.	.			Z	
</s>					
<s>					
Johann	Johann	0		H	sg n
Hakmann	Hakmann	0		H	sg n
om	ole	0		V	b
ette	ette	0		D	
kutsutu	kutsutu	0		S	sg n
,	,			Z	
tema	tema	0		P	sg n
ütlep	ütle	p		V	b
:	:			Z	
""""	""""			Z	
Mina	mina	0		P	sg n
ei	ei	0		V	neg
ole	ole	0		V	o
teda	tema	da		P	sg p
mitte	mitte	0		D	
löönu	löö	nud		V	nud
,	,			Z	
enge	####				
tema	tema	0		P	sg n
om	ole	0		V	b
küll	küll	0		D	
mino	mina	0		P	sg g
löönu	löö	nud		V	nud
,	,			Z	
sest	sest	0		J	
mina	mina	0		S	sg n
lätsi	lätsi	0		V	o
teda	tema	da		P	sg p
kambrest	####				
välja	välja	0		D	
kutsma	####				
,	,			Z	
tema	tema	0		P	sg g
lehm	lehm	0		S	sg n
olli	ole	li		V	s
kapstin	####				
,	,			Z	
tema	tema	0		P	sg g
võtse	####				
raud	raud	0		S	sg n
vigla	vigel	0		S	sg g
ja	ja	0		J	
leije	####				
sellega	see	ga		P	sg kom
minole	####				
sellega	see	ga		P	sg kom
,	,			Z	
niida	niit	0		V	o
et	et	0		J	
mina	mina	0		P	sg n
maha	maha	0		D	
kukkusin	kukku	sin		V	sin
,	,			Z	
siis	siis	0		J	
tulli	tule	i		V	s
minole	####				
veel	veel	0		D	
jalgoga	jalg_oga	0		S	sg g
pääle	peale	0		K	
,	,			Z	
perast	pärast	0		D	
saije	saa	ie		V	s
mina	mina	0		S	sg n
ka	ka	0		D	
veel	veel	0		D	
alt	alt	0		D	
üles	üles	0		D	
"."""	"."""			Z	
</s>					
<s>					
Tunnistaja	tunnistaja	0		S	sg n
:	:			Z	
Jaan	Jaan	0		H	sg n
Lang	Lang	0		H	sg n
om	ole	0		V	b
ette	ette	0		D	
kutsutu	kutsutu	0		S	sg n
,	,			Z	
tema	tema	0		P	sg n
ütlep	ütle	p		V	b
:	:			Z	
Mina	mina	0		P	sg n
seda	see	da		P	sg p
ede	####				
otsa	otsa	0		D	
küll	küll	0		D	
es	ei	s		V	neg s
näe	näge	0		V	o
,	,			Z	
ent	ent	0		J	
kui	kui	0		D	
   	kui	0		J	
ma	mina	0		P	sg n
näije	####				
,	,			Z	
siis	siis	0		J	
olli	ole	li		V	s
vanal	vana	l		S	sg ad
Johanil	Johann	l		H	sg ad
Jaan	Jaan	0		H	sg n
kate	kate	0		S	sg n
käega	käsi	ga		S	sg kom
hiussist	####				
kinni	kinni	0		D	
ja	ja	0		J	
Johanni	Johann	0		H	sg g
naine	naine	0		S	sg n
ka	ka	0		D	
,	,			Z	
nink	ning	0		J	
mõlemba	####				
pessiva	####				
Jaani	Jaan	0		H	sg g
,	,			Z	
siis	siis	0		J	
lätsi	lätsi	0		V	o
mina	mina	0		S	sg p
alla	alla	0		D	
ja	ja	0		J	
kutsi	kuts	0		S	sg g
Jaani	Jaan	0		H	sg g
naise	naine	0		S	sg g
taremano	####				
,	,			Z	
see	see	0		P	sg n
kiskse	####				
vana	vana	0		A	sg g
Johani	Johan	0		H	sg g
käe	käsi	0		S	sg g
Jaani	Jaan	0		H	sg g
hiussist	####				
ära	ära	0		D	
,	,			Z	
perast	pärast	0		D	
tulli	tule	i		V	s
Jaan	Jaan	0		H	sg n
Tontsikersna	Tontsikersna	0		H	sg n
,	,			Z	
see	see	0		P	sg n
lahot	####				
neid	see	d		P	pl p
ära	ära	0		D	
.	.			Z	
</s>					
<s>					
Jaan	Jaan	0		H	sg n
Tontsikersna	Tontsikersna	0		H	sg n
om	ole	0		V	b
ette	ette	0		D	
kutsutu	kutsutu	0		S	sg n
,	,			Z	
tema	tema	0		P	sg n
ütlep	ütle	p		V	b
:	:			Z	
""""	""""			Z	
Sääl	####				
tõssi	####				
hirmus	hirmus	0		A	sg n
kära	kära	0		S	sg n
,	,			Z	
mina	mina	0		S	sg n
lätsi	lätsi	0		V	o
sinna	sinna	0		D	
siis	siis	0		D	
oliva	ole	iva		V	sid
tõine	teine	0		O	sg n
tõisel	####				
hiussist	####				
kinni	kinni	0		D	
,	,			Z	
mina	mina	0		S	sg g
lahoti	####				
neid	see	d		P	pl p
koost	koost	0		D	
ära	ära	0		D	
,	,			Z	
muud	muu	d		P	sg p
mina	mina	0		P	sg n
ei	ei	0		V	neg
tija	tead	0		V	o
"."""	"."""			Z	
</s>					
<s>					
Moistm	####				
:	:			Z	
Et	et	0		J	
Johann	Johann	0		H	sg n
Hakmann	Hakmann	0		H	sg n
jo	juhi	0		D	
mitu	mitu	0		P	sg n
kõrda	####				
niisugutse	####				
larmiga	####				
een	esi	st		S	sg el
om	ole	0		V	b
olnu	ole	nud		V	nud
,	,			Z	
nink	ning	0		J	
ikkes	ike	s		S	sg in
ütestke	####				
manitsust	manitsus	t		S	sg p
ei	ei	0		V	neg
ole	ole	0		V	o
hoolinu	hooli=nu	0		S	sg n
nink	ning	0		J	
niisamute	####				
nüüd	nüüd	0		D	
ka	ka	0		D	
seda	see	da		P	sg p
tapelust	tape_lust	0		S	sg n
om	ole	0		V	b
tennu	tege	nud		V	nud
,	,			Z	
siis	siis	0		J	
om	ole	0		V	b
kohus	kohus	0		S	sg n
temale	tema	le		P	sg all
moistnu	mõist	nud		V	nud
20	20	0		N	?
vitsa	vits	0		S	sg g
lööki	löök	0		S	sg p
.	.			Z	
</s>					
<s>					
Pää	Pää	0		H	sg n
kohtomees	kohtu_mees	0		S	sg n
V.	V.	0		Y	sg n
Kehrberg	Kehrberg	0		H	sg n
Kohtomees	####				
Michel	Michel	0		H	sg n
Torop	Torop	0		H	sg n
,	,			Z	
Jüri	Jüri	0		H	sg n
Pollak	Pollak	0		H	sg n
J.	J.	0		Y	sg n
Kehrberg	Kehrberg	0		H	sg n
kirjotaja	kirjotaja	0		H	sg n
</s>					
