<s>					
Kaibus	####				
.	.			Z	
</s>					
<s>					
Vallavanemb	####				
om	ole	0		V	b
kaibanu	kaeba	nu		V	nud
,	,			Z	
et	et	0		J	
tema	tema	0		P	sg g
Johann	Johann	0		H	sg n
Poiole	Poio	le		H	sg all
käsk	käsk	0		S	sg n
om	ole	0		V	b
andnu	and=nu	0		S	sg n
,	,			Z	
et	et	0		J	
tema	tema	0		P	sg n
peap	pida	b		V	b
sel	see	l		P	sg ad
23.	23.	0		O	?
detsembril	detsember	l		S	sg ad
kogokonna	kogukond	0		S	sg g
kohto	kohus	0		S	sg g
ette	ette	0		K	
tulema	tule	ma		V	ma
,	,			Z	
ent	ent	0		J	
tema	tema	0		P	sg n
ei	ei	0		V	neg
ole	ole	0		V	o
mitte	mitte	0		D	
tulnu	tulnu	0		S	sg n
,	,			Z	
selleperast	sellepärast	0		D	
pidi	pida	i		V	s
vöörmonder	####				
Hans	Hans	0		H	sg n
Saks	Saks	0		H	sg n
temale	tema	le		P	sg all
perra	perra	0		K	
sõitma	sõit	ma		V	ma
.	.			Z	
</s>					
<s>					
Johann	Johann	0		H	sg n
Poio	Poio	0		H	sg n
om	ole	0		V	b
ette	ette	0		D	
kutsutu	kutsutu	0		S	sg n
tema	tema	0		P	sg n
ütlep	ütle	p		V	b
:	:			Z	
Mina	mina	0		P	sg n
seda	see	da		P	sg p
käsko	####				
ole	ole	0		V	o
küll	küll	0		D	
saanu	saa	nud		V	nud
,	,			Z	
ent	ent	0		J	
vallavanemb	####				
ütel	ütle	s		V	s
minole	####				
jälle	jälle	0		D	
tõine	teine	0		O	sg n
kõrd	kord	0		S	sg n
,	,			Z	
et	et	0		J	
pääle	peale	0		K	
pühade	püha	de		S	pl g
see	see	0		P	sg n
eespäival	####				
peap	pida	b		V	b
tulema	tule	ma		V	ma
.	.			Z	
</s>					
<s>					
Vallavanemb	####				
ütlep	ütle	p		V	b
,	,			Z	
mina	mina	0		P	sg n
ütli	ütle	i		V	sin
,	,			Z	
et	et	0		J	
sel	see	l		P	sg ad
eespäival	####				
peat	####				
sina	sina	0		S	sg n
Pragi	Pragi	0		H	sg n
vallavalitsusele	valla_valitsus	le		S	sg all
pääraha	####				
ära	ära	0		D	
masma	maks	ma		V	ma
nink	ning	0		J	
säält	####				
kvitung	####				
vasta	vasta	0		V	o
tooma	too	ma		V	ma
.	.			Z	
</s>					
<s>					
Moistm	####				
:	:			Z	
Et	et	0		J	
Johann	Johann	0		H	sg n
Poio	Poio	0		H	sg n
sõnakuulmata	sõna_kuul=mata	0		A	
om	ole	0		V	b
nink	ning	0		J	
päälegi	####				
võlsiga	####				
henda	ise	0		P	sg g
vabandap	vabanda	b		V	b
,	,			Z	
saap	saa	p		V	b
tema	tema	0		P	sg n
20	20	0		N	?
vitsa	vits	0		S	sg g
lööki	löök	0		S	sg p
.	.			Z	
</s>					
<s>					
Pää	Pää	0		H	sg n
kohtomees	kohtu_mees	0		S	sg n
V.	V.	0		Y	sg n
Kehrberg	Kehrberg	0		H	sg n
Kohtom	Kohtom	0		H	sg n
M.	M.	0		Y	sg n
Torrop	Torrop	0		H	sg n
Johann	Johann	0		H	sg n
Poio	Poio	0		H	sg n
om	ole	0		V	b
ette	ette	0		D	
kutsutu	kutsutu	0		S	sg n
,	,			Z	
temale	tema	le		P	sg all
see	see	0		P	sg n
protokoll	protokoll	0		S	sg n
ette	ette	0		D	
loetu	loetu	0		S	sg n
ja	ja	0		J	
sellega	see	ga		P	sg kom
üten	####				
ka	ka	0		D	
suuremba	####				
kohto	kohus	0		S	sg g
käümise	####				
üle	üle	0		K	
seletust	seletus	t		S	sg p
antu	antud	0		A	sg g
.	.			Z	
</s>					
