<s>					
Tuli	tuli	0		S	sg n
ette	ette	0		H	sg n
Derfeldeni	Derfeldeni	0		H	sg n
herra	härra	0		S	sg n
,	,			Z	
ning	ning	0		J	
kaebas	kaeba	s		V	s
siin	siin	0		D	
,	,			Z	
et	et	0		J	
Raudsepa	Raudsepa	0		H	sg n
Märt	Märt	0		H	sg n
Laitus	Laitus	0		H	sg n
kevadisel	kevadine	l		A	sg ad
rendi	rent	0		S	sg g
makso	####				
terminil	termin	l		S	sg ad
54	54	0		N	?
rubla	rubla	0		S	sg p
83	83	0		N	?
kop	kop	0		Y	?
renti	rent	0		S	sg p
võlgo	võlg	u		S	pl p
jaanud	####				
,	,			Z	
ning	ning	0		J	
selle	see	0		P	sg g
pääle	pea	le		S	sg all
kohut	kohus	t		S	sg p
palub	palu	b		V	b
,	,			Z	
seda	see	da		P	sg p
raha	raha	0		S	sg p
riisumise	riisumine	0		S	sg g
kombel	kombel	0		K	
sisse	sisse	0		D	
nõuda	nõud	a		V	da
,	,			Z	
ning	ning	0		J	
kontrahti	kontraht	0		S	adt
lahutust	lahutus	t		S	sg p
1874	1874	0		N	?
a	a	0		Y	?
.	.			Z	
jüri	####				
päeval	päev	l		S	sg ad
teha	tege	a		V	da
.	.			Z	
</s>					
<s>					
Märt	Märt	0		H	sg n
Laitus	Laitus	0		H	sg n
ette	ette	0		H	sg n
kutsutud	kutsu	tud		V	tud
,	,			Z	
ning	ning	0		J	
andis	and	is		V	s
siin	siin	0		D	
üles	üles	0		D	
,	,			Z	
et	et	0		J	
temal	tema	l		P	sg ad
küll	küll	0		D	
see	see	0		P	sg n
eel	eel	0		K	
nimetud	nimetu	d		A	pl n
rendi	rent	0		S	sg g
summa	summ	0		S	sg g
     	summa	0		S	sg g
võlgo	võlg	u		S	pl p
jäänud	jää	nud		V	nud
,	,			Z	
ja	ja	0		J	
praegugi	praegu	0	gi	D	
maksa	maks	0		V	o
ei	ei	0		D	
jõudvad	jõudev	d		A	pl n
,	,			Z	
ning	ning	0		J	
kannata	kannata	0		V	o
palub	palu	b		V	b
.	.			Z	
</s>					
<s>					
Sel	sel	0		Y	?
7.	7.	0		O	?
juunil	juuni	l		S	sg ad
.	.			Z	
</s>					
<s>					
Kohto	kohus	0		S	sg g
tellimise	tellimine	0		S	sg g
peale	peale	0		K	
ette	ette	0		H	sg n
tulnud	tule	nud		V	nud
,	,			Z	
von	####				
Derfeldeni	Derfeldeni	0		H	sg n
herra	härra	0		S	sg g
ja	ja	0		J	
Märt	Märt	0		H	sg n
Laitus	Laitus	0		H	sg n
ning	ning	0		J	
andis	and	is		V	s
siin	siin	0		D	
üles	üles	0		D	
et	et	0		J	
temal	tema	l		P	sg ad
midagi	miski	dagi		P	sg p
rendi	rent	0		S	sg g
makso	####				
termini	termin	0		S	sg g
üleminemise	üle_minemine	0		S	sg g
vabandust	vabandus	t		S	sg p
ei	ei	0		V	neg
olevad	olev	d		A	pl n
,	,			Z	
ja	ja	0		J	
lasti	lask	ti		V	ti
selle	see	0		P	sg g
peale	peale	0		K	
kohto	kohus	0		S	sg g
käiad	käi	d		S	pl n
siit	siit	0		D	
välja	välja	0		D	
minna	mine	a		V	da
,	,			Z	
ning	ning	0		J	
ühendasid	ühenda	sid		V	sid
endid	ise	d		P	pl p
keik	kõik	0		P	pl n
selle	see	0		P	sg g
kohto	kohus	0		S	sg g
koos	koos	0		D	
olevad	olev	d		A	pl n
liikmed	liige	d		S	pl n
,	,			Z	
selle	see	0		P	sg g
põhja	põhi	0		S	sg g
peale	peale	0		K	
et	et	0		J	
M.	M.	0		Y	sg n
Laituse	Laitus	0		H	sg g
kontrahtis	####				
nimelt	nimelt	0		D	
üles	üles	0		D	
pantud	####				
""""	""""			Z	
kui	kui	0		D	
   	kui	0		J	
ta	tema	0		P	sg n
ühe	üks	0		N	sg g
   	üks	0		P	sg g
neist	tema	st		P	pl el
punktidest	punkt	dest		S	pl el
täitmata	täit	mata		V	mata
jätab	jät	b		V	b
,	,			Z	
siis	siis	0		J	
kohe	kohe	0		D	
kontraht	kontraht	0		S	sg n
lahutud	lahutu	d		V	d
saab	saa	b		V	b
","""	","""			Z	
selle	see	0		P	sg g
otsuse	otsus	0		S	sg g
andmisele	andmine	le		S	sg all
et	et	0		J	
Märt	Märt	0		H	sg n
Laituse	Laitus	0		H	sg g
käest	käsi	st		S	sg el
see	see	0		P	sg n
võlgo	võlg	u		S	pl p
jäänud	jää	nud		V	nud
rent	rent	0		S	sg n
jalamaid	jala_maid	0		D	
sisse	sisse	0		D	
riisuda	riisu	da		V	da
,	,			Z	
ning	ning	0		J	
tema	tema	0		P	sg g
rendi	rent	0		S	sg g
kontraht	kontraht	0		S	sg n
,	,			Z	
punkt	punkt	0		S	sg n
7.	7.	0		O	?
järele	järele	0		K	
(	(			Z	
rendi	rent	0		S	sg g
kontrahtis	####				
)	)			Z	
1874.	1874.	0		O	?
a	a	0		Y	?
.	.			Z	
jüri	####				
päeval	päev	l		S	sg ad
selle	see	0		P	sg g
kohto	kohus	0		S	sg g
poolt	poolt	0		K	
lohutud	lohutu	d		A	pl n
       	lohutu	d		V	d
saaks	saa	ks		V	ks
!	!			Z	
</s>					
<s>					
Õ.N	####				
.	.			Z	
</s>					
