<s>					
Tulid	tule	id		V	sid
ette	ette	0		H	sg n
Tohver	Tohver	0		H	sg n
Judra	Judra	0		H	sg n
pärijate	pärija	te		S	pl g
vöörmündrid	vöörmünder	d		S	pl n
Jaan	Jaan	0		H	sg n
Ruusmann	Ruusmann	0		H	sg n
ja	ja	0		J	
Hans	Hans	0		H	sg n
Peks	Peks	0		H	sg n
,	,			Z	
ning	ning	0		J	
kaebasid	kaeba	sid		V	sid
siin	siin	0		D	
et	et	0		J	
Karl	Karl	0		H	sg n
Juder	Juder	0		H	sg n
,	,			Z	
Tohver	Tohver	0		H	sg n
Judra	Judra	0		H	sg n
pärijatel	pärija	tel		S	pl ad
3	3	0		N	?
vakka	vakka	0		D	
rükkid	####				
,	,			Z	
1/3	1/3	0		N	?
vakka	vakka	0		D	
ernid	####				
,	,			Z	
üks	üks	0		N	sg n
   	üks	0		P	sg n
1	1	0		N	?
1/2	1/2	0		N	?
aastane	aastane	0		A	sg n
siga	siga	0		S	sg n
ning	ning	0		J	
6	6	0		N	?
rubla	rubla	0		S	sg p
2	2	0		N	?
kop	kop	0		Y	?
raha	raha	0		S	sg n
võlgo	võlgu	0		D	
olevad	olev	d		A	pl n
,	,			Z	
ning	ning	0		J	
neid	see	d		P	pl p
kätte	käsi	tte		S	adt
tasuda	tasu	da		V	da
nõuavad	nõud	vad		V	vad
,	,			Z	
ning	ning	0		J	
selle	see	0		P	sg g
üle	üle	0		K	
ka	ka	0		D	
kohto	kohus	0		S	sg g
seletust	seletus	t		S	sg p
paluvad	palu	vad		V	vad
.	.			Z	
</s>					
<s>					
Karl	Karl	0		H	sg n
Juder	Juder	0		H	sg n
sai	saa	i		V	s
selle	see	0		P	sg g
peale	peale	0		K	
ette	ette	0		H	sg n
kutsutud	kutsu	tud		V	tud
,	,			Z	
ning	ning	0		J	
andis	and	is		V	s
siin	siin	0		D	
üles	üles	0		D	
,	,			Z	
et	et	0		J	
see	see	0		P	sg n
nõudmine	nõudmine	0		S	sg n
küll	küll	0		D	
nenda	nõnda	0		D	
õige	õige	0		A	sg n
olevad	olev	d		A	pl n
,	,			Z	
tema	tema	0		P	sg g
olla	ole	a		V	da
aga	aga	0		J	
juba	juba	0		D	
need	see	d		P	pl n
3	3	0		N	?
vakka	vakka	0		D	
rükkid	####				
ning	ning	0		J	
1/3	1/3	0		N	?
vakka	vakk	0		S	adt
ube	uba	e		S	pl p
lese	lesk	0		S	sg g
kätte	kätte	0		K	
ära	ära	0		D	
maksnud	maks	nud		V	nud
,	,			Z	
olla	ole	a		V	da
aga	aga	0		J	
oma	oma	0		P	sg g
kadunud	kadu	nud		V	nud
poia	####				
pärijate	pärija	te		S	pl g
käest	käest	0		K	
ka	ka	0		D	
nõudmise	nõudmine	0		S	sg g
,	,			Z	
ja	ja	0		J	
nimelt	nimelt	0		D	
matuste	matus	te		S	pl g
kulo	####				
:	:			Z	
40	40	0		N	?
eeringud	####				
1	1	0		N	?
rubla	rubla	0		S	sg g
60	60	0		N	?
kop	kop	0		Y	?
</s>					
<s>					
tule	tuli	0		S	sg g
tikke	tikk	e		S	pl p
5	5	0		N	?
kop	kop	0		Y	?
</s>					
<s>					
6	6	0		N	?
naela	nael	0		S	sg g
palm	palm	0		S	sg n
küünlid	####				
1	1	0		N	?
rubla	rubla	0		S	sg g
44	44	0		N	?
kop	kop	0		Y	?
</s>					
<s>					
50	50	0		N	?
sigarid	sigar	d		S	pl n
50	50	0		N	?
kop	kop	0		Y	?
</s>					
<s>					
50	50	0		N	?
sigarid	sigar	d		S	pl n
1	1	0		N	?
rubla	rubla	0		S	sg g
35	35	0		N	?
kop	kop	0		Y	?
</s>					
<s>					
22	22	0		N	?
1/4	1/4	0		N	?
naela	nael	0		S	sg p
suhkrut	suhkur	t		S	sg p
5	5	0		N	?
rubla	rubla	0		S	sg p
34	34	0		N	?
kop	kop	0		Y	?
</s>					
<s>					
3	3	0		N	?
pakki	pakk	0		S	sg p
pabiros	####				
34	34	0		N	?
kop	kop	0		Y	?
</s>					
<s>					
4	4	0		N	?
naela	nael	0		S	sg g
kohvi	kohv	0		S	sg p
1	1	0		N	?
rubla	rubla	0		S	sg p
60	60	0		N	?
kop	kop	0		Y	?
</s>					
<s>					
1/2	1/2	0		N	?
naela	nael	0		S	sg g
teed	tee	d		S	sg p
1	1	0		N	?
rubla	rubla	0		S	sg g
</s>					
<s>					
1/2	1/2	0		N	?
naela	nael	0		S	sg g
liimi	liim	0		S	adt
20	20	0		N	?
kop	kop	0		Y	?
</s>					
<s>					
1/2	1/2	0		N	?
naela	nael	0		S	sg g
lakki	lakk	0		S	adt
40	40	0		N	?
kop	kop	0		Y	?
</s>					
<s>					
1/4	1/4	0		N	?
naela	nael	0		S	sg g
5	5	0		N	?
kop	kop	0		Y	?
</s>					
<s>					
1/2	1/2	0		N	?
naela	nael	0		S	sg g
lakki	lakk	0		S	adt
40	40	0		N	?
kop	kop	0		Y	?
</s>					
<s>					
4	4	0		N	?
kruvi	kruvi	0		S	sg g
16	16	0		N	?
kop	kop	0		Y	?
</s>					
<s>					
1	1	0		N	?
tõhu	tõhk	0		S	sg g
nahk	nahk	0		S	sg n
1	1	0		N	?
rubla	rubla	0		S	sg g
75	75	0		N	?
kop	kop	0		Y	?
</s>					
<s>					
100	100	0		N	?
toopi	toop	0		S	adt
olut	####				
3	3	0		N	?
rubla	rubla	0		S	sg g
</s>					
<s>					
1	1	0		N	?
korv	korv	0		S	sg n
Pojast	poeg	st		S	sg el
      	poja	st		S	sg el
1	1	0		N	?
rubla	rubla	0		S	sg p
75	75	0		N	?
kop	kop	0		Y	?
</s>					
<s>					
1	1	0		N	?
toop	toop	0		S	sg n
Allasch	Allasch	0		H	sg n
1	1	0		N	?
rubla	rubla	0		S	sg g
25	25	0		N	?
kop	kop	0		Y	?
</s>					
<s>					
2	2	0		N	?
toopi	toop	0		S	adt
toppelt	####				
kümmelt	####				
1	1	0		N	?
rubla	rubla	0		S	sg g
20	20	0		N	?
kop	kop	0		Y	?
</s>					
<s>					
1	1	0		N	?
toop	toop	0		S	sg n
viina	viin	0		S	sg p
50	50	0		N	?
kop	kop	0		Y	?
</s>					
<s>					
2	2	0		N	?
naela	nael	0		S	sg g
sigarid	sigar	d		S	pl n
20	20	0		N	?
kop	kop	0		Y	?
</s>					
<s>					
4	4	0		N	?
sülda	süld	0		S	sg p
puid	puu	id		S	pl p
4	4	0		N	?
rubla	rubla	0		S	sg p
5	5	0		N	?
kop	kop	0		Y	?
</s>					
<s>					
Kirsto	####				
tegemine	tegemine	0		S	sg n
3	3	0		N	?
rubla	rubla	0		S	sg p
</s>					
<s>					
Aua	aua	0		S	sg g
raha	raha	0		S	sg g
1	1	0		N	?
rubla	rubla	0		S	sg g
</s>					
<s>					
Õpetajal	õpetaja	l		S	sg ad
3	3	0		N	?
rubla	rubla	0		S	sg p
</s>					
<s>					
Kella	kell	0		S	sg g
lööjal	löö=ja	l		S	sg ad
45	45	0		N	?
kop	kop	0		Y	?
</s>					
<s>					
1/2	1/2	0		N	?
punast	punane	t		A	sg p
nahka	nahk	0		S	sg p
65	65	0		N	?
kop	kop	0		Y	?
</s>					
<s>					
1/2	1/2	0		N	?
pütti	pütt	0		S	sg p
räime	räim	0		S	sg g
6	6	0		N	?
rubla	rubla	0		S	sg g
50	50	0		N	?
kop	kop	0		Y	?
</s>					
<s>					
1/2	1/2	0		N	?
toopi	toop	0		S	adt
eli	####				
14	14	0		N	?
kop	kop	0		Y	?
</s>					
<s>					
poistel	poiss	tel		S	pl ad
käeraha	käe_raha	0		S	sg n
2	2	0		N	?
rubla	rubla	0		S	sg g
</s>					
<s>					
poial	####				
kingad	king	d		S	pl n
75	75	0		N	?
kop	kop	0		Y	?
</s>					
<s>					
Rätsepal	Rätsepal	l		H	sg n
makset	makse	t		S	sg p
5	5	0		N	?
riide	riie	0		S	sg g
eest	eest	0		K	
1	1	0		N	?
rubla	rubla	0		S	sg p
40	40	0		N	?
kop	kop	0		Y	?
20	20	0		N	?
?	?			Z	
</s>					
<s>					
jahu	jahu	0		S	sg g
1	1	0		N	?
rubla	rubla	0		S	sg g
50	50	0		N	?
kop	kop	0		Y	?
</s>					
<s>					
1/2	1/2	0		N	?
pütti	pütt	0		S	sg p
soola	sool	0		S	sg p
3	3	0		N	?
rubla	rubla	0		S	sg p
75	75	0		N	?
kop	kop	0		Y	?
</s>					
<s>					
4	4	0		N	?
sülda	süld	0		S	adt
kõiva	####				
puid	puu	id		S	pl p
4	4	0		N	?
rubla	rubla	0		S	sg p
12	12	0		N	?
kop	kop	0		Y	?
</s>					
<s>					
1	1	0		N	?
toobri	toober	0		S	sg g
35	35	0		N	?
kop	kop	0		Y	?
</s>					
<s>					
2	2	0		N	?
pangi	pan	0	gi	S	sg n
36	36	0		N	?
kop	kop	0		Y	?
</s>					
<s>					
Tohter	tohter	0		S	sg n
Druartil	####				
68	68	0		N	?
kop	kop	0		Y	?
</s>					
<s>					
Parkmeistril	park_meister	l		S	sg ad
30	30	0		N	?
kop	kop	0		Y	?
</s>					
<s>					
Tohtri	tohter	0		S	sg g
Thealil	####				
60	60	0		N	?
kop	kop	0		Y	?
</s>					
<s>					
Silgi	Silgi	0		H	sg n
taaleri	####				
raha	raha	0		S	sg p
1	1	0		N	?
rubla	rubla	0		S	sg p
3	3	0		N	?
kop	kop	0		Y	?
</s>					
<s>					
Tütrokul	####				
palka	palk	0		S	sg p
1	1	0		N	?
rubla	rubla	0		S	sg g
</s>					
<s>					
10	10	0		N	?
puuda	puud	0		S	sg g
jipsi	####				
1	1	0		N	?
rubla	rubla	0		S	sg g
</s>					
<s>					
pääraha	####				
maks	maks	0		S	sg n
2	2	0		N	?
rubla	rubla	0		S	sg g
50	50	0		N	?
kop	kop	0		Y	?
</s>					
<s>					
sala	sala	0		D	
raha	raha	0		S	sg g
20	20	0		N	?
rubla	rubla	0		S	sg g
50	50	0		N	?
kop	kop	0		Y	?
</s>					
<s>					
Pääle	####				
selle	see	0		P	sg g
olla	ole	a		V	da
Tohver	Tohver	0		H	sg n
veel	veel	0		D	
tema	tema	0		P	sg g
käest	käest	0		K	
laenanud	laena	nud		V	nud
,	,			Z	
</s>					
<s>					
soola	sool	0		S	sg p
80	80	0		N	?
naela	nael	0		S	sg p
</s>					
<s>					
Matuste	matus	te		S	pl g
pääle	peale	0		K	
soola	sool	0		S	sg p
30	30	0		N	?
naela	nael	0		S	sg p
</s>					
<s>					
pärast	pärast	0		K	
soola	sool	0		S	sg p
20	20	0		N	?
naela	nael	0		S	sg p
</s>					
<s>					
naha	nahk	0		S	sg g
peksjal	peks=ja	l		S	sg ad
6	6	0		N	?
</s>					
<s>					
räime	räim	0		S	sg g
30	30	0		N	?
naela	nael	0		S	sg g
</s>					
<s>					
niso	####				
1	1	0		N	?
vakk	vakk	0		S	sg n
</s>					
<s>					
linaseemet	lina_seeme	t		S	sg p
1	1	0		N	?
vakk	vakk	0		S	sg n
</s>					
<s>					
tange	tang	e		S	pl p
     	tangid	e		S	pl p
1/3	1/3	0		N	?
vakka	vakk	0		S	adt
</s>					
<s>					
1	1	0		N	?
tuur	tuur	0		S	sg n
</s>					
