<s>					
Kui	kui	0		D	
   	kui	0		J	
Jaan	Jaan	0		H	sg n
Thuul	Thuul	0		H	sg n
Ado	Ado	0		H	sg n
Sirrol	Sirrol	0		H	sg n
kaebtuse	####				
asus	asu	s		V	s
,	,			Z	
selle	see	0		P	sg g
kohto	kohus	0		S	sg g
otsust	otsus	t		S	sg p
ei	ei	0		V	neg
ole	ole	0		V	o
täitnud	täit	nud		V	nud
,	,			Z	
sai	saa	i		V	s
mõistetud	mõist	tud		V	tud
,	,			Z	
""""	""""			Z	
et	et	0		J	
Jaan	Jaan	0		H	sg n
Thuule	Thuul	le		H	sg all
varandus	varandus	0		S	sg n
kinni	kinni	0		D	
panna	pane	a		V	da
ning	ning	0		J	
pääle	pea	le		S	sg all
selle	see	0		P	sg g
riisumise	riisumine	0		S	sg g
alla	alla	0		K	
sääda	####				
"."""	"."""			Z	
</s>					
