<s>					
Jaak	Jaak	0		H	sg n
Tõhk	Tõhk	0		H	sg n
tuli	tule	i		V	s
ette	ette	0		H	sg n
,	,			Z	
ning	ning	0		J	
kaebas	kaeba	s		V	s
siin	siin	0		D	
,	,			Z	
et	et	0		J	
Jaan	Jaan	0		H	sg n
Purga	Purga	0		H	sg n
temal	tema	l		P	sg ad
ennast	ise	t		P	sg p
poisis	poiss	s		S	sg in
tellinud	telli	nud		V	nud
,	,			Z	
ja	ja	0		J	
nüüd	nüüd	0		D	
jälle	jälle	0		D	
teistele	teine	tele		O	pl all
        	teine	tele		P	pl all
ennast	ise	t		P	sg p
kaubelnud	kauple	nud		V	nud
,	,			Z	
ja	ja	0		J	
temale	tema	le		P	sg all
mitte	mitte	0		D	
enam	enam	0		D	
ei	ei	0		V	neg
tulevad	tule	vad		V	vad
,	,			Z	
ning	ning	0		J	
selle	see	0		P	sg g
üle	üle	0		K	
kohto	kohus	0		S	sg g
abi	abi	0		S	sg p
,	,			Z	
seledust	####				
ja	ja	0		J	
otsust	otsus	t		S	sg p
palub	palu	b		V	b
.	.			Z	
</s>					
<s>					
Jaan	Jaan	0		H	sg n
Purga	Purga	0		H	sg n
ette	ette	0		H	sg n
kutsutud	kutsu	tud		V	tud
,	,			Z	
ning	ning	0		J	
andis	and	is		V	s
siin	siin	0		D	
üles	üles	0		D	
,	,			Z	
et	et	0		J	
tema	tema	0		P	sg n
enne	enne	0		K	
nekruti	nekrut	0		S	sg g
loosimist	loosimine	t		S	sg p
juba	juba	0		D	
ennast	ise	t		P	sg p
Tõhu	Tõhu	0		H	sg n
juure	juur	0		S	sg g
teenistuse	teenistus	0		S	sg g
tinginud	tingi	nud		V	nud
,	,			Z	
Pärnus	Pärnu	s		H	sg in
minemine	minemine	0		S	sg n
teda	tema	da		P	sg p
sellest	see	st		P	sg el
kaubast	kaup	st		S	sg el
aga	aga	0		J	
ära	ära	0		D	
seganud	sega	nud		V	nud
,	,			Z	
ja	ja	0		J	
vahepeal	vahe_peal	0		D	
Õmbleja	Õmbleja	0		H	sg n
Tõnisel	Tõnis	l		H	sg ad
kaubelnud	kauple	nud		V	nud
,	,			Z	
ning	ning	0		J	
keige	kõige	0		D	
viimati	viimati	0		D	
jälle	jälle	0		D	
Tõhu	Tõhu	0		H	sg n
juure	juur	0		S	sg g
tellinud	telli	nud		V	nud
.	.			Z	
</s>					
<s>					
Johan	Johan	0		H	sg n
Sild	Sild	0		H	sg n
kui	kui	0		D	
   	kui	0		J	
tunnistaja	tunnistaja	0		S	sg n
ette	ette	0		H	sg n
kutsut	kutsu	t		S	sg p
,	,			Z	
ning	ning	0		J	
andis	and	is		V	s
siin	siin	0		D	
üles	üles	0		D	
,	,			Z	
et	et	0		J	
Jaan	Jaan	0		H	sg n
Purga	Purga	0		H	sg n
märti	####				
ja	ja	0		J	
kadri	kadri	0		S	sg g
päeva	päev	0		S	sg g
vahel	vahel	0		K	
juba	juba	0		D	
ennast	ise	t		P	sg p
Jaan	Jaan	0		H	sg n
Tõhu	Tõhu	0		H	sg n
juure	juur	0		S	sg g
poisis	poiss	s		S	sg in
kaubelnud	kauple	nud		V	nud
,	,			Z	
ja	ja	0		J	
selle	see	0		P	sg g
peale	peale	0		K	
käeraha	käe_raha	0		S	sg p
võtnud	võt	nud		V	nud
,	,			Z	
pääle	pea	le		S	sg all
nekrutist	nekrut	st		S	sg el
tagasi	tagasi	0		D	
tulemise	tulemine	0		S	sg g
aga	aga	0		J	
Õmbleja	Õmbleja	0		H	sg n
Tõnise	Tõnis	0		H	sg g
juure	juur	0		S	sg g
ennast	ise	t		P	sg p
olla	ole	a		V	da
kaubelnud	kauple	nud		V	nud
,	,			Z	
ning	ning	0		J	
keige	kõige	0		D	
viimati	viimati	0		D	
jälle	jälle	0		D	
Tõhule	tõhk	le		S	sg all
kaubelnud	kauple	nud		V	nud
,	,			Z	
ja	ja	0		J	
10	10	0		N	?
rubla	rubla	0		S	sg p
taganemist	taganemine	t		S	sg p
lubanud	luba	nud		V	nud
,	,			Z	
kui	kui	0		D	
   	kui	0		J	
tulemata	tule	mata		V	mata
jäävad	jää	vad		V	vad
.	.			Z	
</s>					
<s>					
Sel	sel	0		Y	?
3.	3.	0		O	?
mail	mai	l		S	sg ad
s.a	s.a	0		Y	?
olid	ole	id		V	sid
ette	ette	0		H	sg n
tulnud	tule	nud		V	nud
,	,			Z	
tunnistaja	tunnistaja	0		S	sg n
Andres	Andres	0		H	sg n
Unt	Unt	0		H	sg n
,	,			Z	
ning	ning	0		J	
andis	and	is		V	s
siin	siin	0		D	
üles	üles	0		D	
,	,			Z	
et	et	0		J	
Jaan	Jaan	0		H	sg n
Purga	Purga	0		H	sg n
ennast	ise	t		P	sg p
küll	küll	0		D	
Tõhu	Tõhu	0		H	sg n
juure	juur	0		S	sg g
tellinud	telli	nud		V	nud
,	,			Z	
ja	ja	0		J	
käeraha	käe_raha	0		S	sg n
võtnud	võt	nud		V	nud
.	.			Z	
</s>					
<s>					
Sel	sel	0		Y	?
7.	7.	0		O	?
juunil	juuni	l		S	sg ad
,	,			Z	
tellimise	tellimine	0		S	sg g
peale	peale	0		K	
olid	ole	id		V	sid
ette	ette	0		H	sg n
tulnud	tule	nud		V	nud
Jaak	Jaak	0		H	sg n
Tõhk	Tõhk	0		H	sg n
,	,			Z	
Tõnis	Tõnis	0		H	sg n
Mägi	Mägi	0		H	sg n
,	,			Z	
ning	ning	0		J	
andis	and	is		V	s
T.	T.	0		Y	sg n
</s>					
<s>					
Mägi	Mägi	0		H	sg n
siin	siin	0		D	
üles	üles	0		D	
,	,			Z	
et	et	0		J	
tema	tema	0		P	sg n
ka	ka	0		D	
Jaan	Jaan	0		H	sg n
Purgad	Purga	d		H	sg g
enesele	ise	le		P	sg all
nõuab	nõud	b		V	b
,	,			Z	
et	et	0		J	
ta	tema	0		P	sg n
tema	tema	0		P	sg g
teenistusest	teenistus	st		S	sg el
ära	ära	0		D	
olla	ole	a		V	da
põgenud	####				
.	.			Z	
</s>					
<s>					
Jaan	Jaan	0		H	sg n
Purga	Purga	0		H	sg n
andis	and	is		V	s
siin	siin	0		D	
üles	üles	0		D	
,	,			Z	
et	et	0		J	
tema	tema	0		P	sg n
küll	küll	0		D	
Jaak	Jaak	0		H	sg n
Tõhu	Tõhu	0		H	sg n
teise	teine	0		O	sg g
     	teine	0		P	sg g
kordse	kordne	0		S	sg g
palga	palk	0		S	sg g
peale	peale	0		K	
10	10	0		N	?
rubla	rubla	0		S	sg p
taganemist	taganemine	t		S	sg p
leppinud	leppi	nud		V	nud
,	,			Z	
ja	ja	0		J	
T.	T.	0		Y	sg n
</s>					
<s>					
Mägi	Mägi	0		H	sg n
juurest	juurest	0		K	
selle	see	0		P	sg g
pärast	pärast	0		K	
ära	ära	0		D	
läinud	mine	nud		V	nud
,	,			Z	
et	et	0		J	
sant	sant	0		A	sg n
söök	söök	0		S	sg n
olnud	ole	nud		V	nud
.	.			Z	
</s>					
<s>					
Kohto	kohus	0		S	sg g
nõudmise	nõudmine	0		S	sg g
peale	peale	0		K	
ei	ei	0		V	neg
olnud	ole	nud		V	nud
,	,			Z	
kaebatul	####				
midagi	miski	dagi		P	sg p
teenistuse	teenistus	0		S	sg g
maha	maha	0		D	
jätmise	jätmine	0		S	sg g
asja	asi	0		S	sg p
siia	siia	0		D	
üles	üles	0		D	
anda	and	a		V	da
ja	ja	0		J	
andis	and	is		V	s
niihästi	nii_hästi	0		D	
T.	T.	0		Y	sg n
</s>					
<s>					
Mägi	Mägi	0		H	sg n
kui	kui	0		D	
   	kui	0		J	
ka	ka	0		D	
Jaan	Jaan	0		H	sg n
Purga	Purga	0		H	sg n
siin	siin	0		D	
üles	üles	0		D	
,	,			Z	
et	et	0		J	
nende	tema	de		P	pl g
vahel	vahel	0		K	
lepitud	leppi	tud		V	tud
palk	palk	0		S	sg n
olnud	ole	nud		V	nud
,	,			Z	
sularaha	sula_raha	0		S	sg n
25	25	0		N	?
rubla	rubla	0		S	sg g
</s>					
<s>					
6	6	0		N	?
vakka	vakk	0		S	adt
vilja	vili	0		S	sg p
ehk	ehk	0		D	
15	15	0		N	?
rubla	rubla	0		S	sg g
</s>					
<s>					
1	1	0		N	?
kasuk	####				
ehk	ehk	0		D	
5	5	0		N	?
rubla	rubla	0		S	sg g
</s>					
<s>					
3	3	0		N	?
amet	amet	0		S	sg n
2	2	0		N	?
rubla	rubla	0		S	sg g
25	25	0		N	?
kop	kop	0		Y	?
</s>					
<s>					
3	3	0		N	?
p	p	0		Y	?
.	.			Z	
pükse	püks	e		S	pl p
2	2	0		N	?
rubla	rubla	0		S	sg p
25	25	0		N	?
kop	kop	0		Y	?
</s>					
<s>					
3	3	0		N	?
p	p	0		Y	?
.	.			Z	
sukke	####				
50	50	0		N	?
kop	kop	0		Y	?
</s>					
<s>					
2	2	0		N	?
p	p	0		Y	?
.	.			Z	
kindid	####				
50	50	0		N	?
kop	kop	0		Y	?
</s>					
<s>					
2	2	0		N	?
p	p	0		Y	?
.	.			Z	
pastlid	####				
1	1	0		N	?
rubla	rubla	0		S	sg g
</s>					
<s>					
Summa	summa	0		S	sg n
50	50	0		N	?
rubla	rubla	0		S	sg g
50	50	0		N	?
kop	kop	0		Y	?
</s>					
<s>					
Tõnis	Tõnis	0		H	sg n
Mägi	Mägi	0		H	sg n
nimetas	nimeta	s		V	s
veel	veel	0		D	
siin	siin	0		D	
,	,			Z	
et	et	0		J	
tema	tema	0		P	sg g
Jaan	Jaan	0		H	sg n
Purgal	Purga	l		H	sg ad
1	1	0		N	?
rubla	rubla	0		S	sg p
käeraha	käe_raha	0		S	sg g
ning	ning	0		J	
3	3	0		N	?
rubla	rubla	0		S	sg p
laenanud	laena	nud		V	nud
ja	ja	0		J	
seda	see	da		P	sg p
ka	ka	0		D	
kätte	käsi	tte		S	adt
nõuab	nõud	b		V	b
.	.			Z	
</s>					
<s>					
Purga	Purga	0		H	sg n
nimetas	nimeta	s		V	s
selle	see	0		P	sg g
õige	õige	0		A	sg n
olevad	olev	d		A	pl n
.	.			Z	
</s>					
<s>					
Selle	see	0		P	sg g
peale	peale	0		K	
lasti	lask	ti		V	ti
kohto	kohus	0		S	sg g
käiad	käi	d		S	pl n
siit	siit	0		D	
välja	välja	0		D	
minna	mine	a		V	da
ning	ning	0		J	
ühendasid	ühenda	sid		V	sid
endid	ise	d		P	pl p
keik	kõik	0		P	pl n
selle	see	0		P	sg g
kohto	kohus	0		S	sg g
liikmed	liige	d		S	pl n
selle	see	0		P	sg g
otsuse	otsus	0		S	sg g
andmisele	andmine	le		S	sg all
.	.			Z	
</s>					
<s>					
""""	""""			Z	
Jaan	Jaan	0		H	sg n
Purga	Purga	0		H	sg n
ilma	ilma	0		K	
põhjata	põhi	ta		S	sg ab
teenistuse	teenistus	0		S	sg g
maha	maha	0		D	
jätmise	jätmine	0		S	sg g
pärast	pärast	0		K	
Tõnis	Tõnis	0		H	sg n
Mägil	Mägi	l		H	sg ad
50	50	0		N	?
rubla	rubla	0		S	sg p
50	50	0		N	?
kop	kop	0		Y	?
tasumist	tasumine	t		S	sg p
,	,			Z	
ning	ning	0		J	
need	see	d		P	pl n
1	1	0		N	?
rubla	rubla	0		S	sg g
vasto	vastu	0		K	
voetud	voe=tu	d		A	pl n
käeraha	käe_raha	0		S	sg g
ja	ja	0		J	
3	3	0		N	?
rubla	rubla	0		S	sg p
laenatud	laena	tud		V	tud
raha	raha	0		S	sg p
nendasama	nõnda_sama	0		D	
ka	ka	0		D	
oma	oma	0		P	sg g
leppimise	leppimine	0		S	sg g
põhjuses	põhjus	s		S	sg in
Jaak	Jaak	0		H	sg n
Tõhul	Tõhul	0		H	sg n
10	10	0		N	?
rubla	rubla	0		S	sg p
ning	ning	0		J	
1	1	0		N	?
rubla	rubla	0		S	sg p
trahvi	trahv	0		S	sg g
raha	raha	0		S	sg g
kaksipidi	kaksi_pidi	0		D	
kauplemise	kauplemine	0		S	sg g
pärast	pärast	0		K	
,	,			Z	
Uue	Uue	0		H	sg n
Suislepa	Suislepa	0		H	sg n
vaeste	vaene	te		S	pl g
laekasse	laegas	sse		S	sg ill
4	4	0		N	?
nädali	####				
aia	aed	0		S	sg g
sees	sees	0		K	
sest	sest	0		J	
otsuse	otsus	0		S	sg g
andmi	####				
.	.			Z	
</s>					
<s>					
arvata	arva	ta		V	da
maksaks	maks	ks		V	ks
"."""	"."""			Z	
</s>					
<s>					
Õ.N	####				
.	.			Z	
</s>					
