<s>					
Silgi	Silgi	0		H	sg n
maia	maja	0		S	sg g
vöörmündrid	vöörmünder	d		S	pl n
Hans	Hans	0		H	sg n
Peks	Peks	0		H	sg n
,	,			Z	
Karl	Karl	0		H	sg n
Juder	Juder	0		H	sg n
ja	ja	0		J	
H.	H.	0		Y	sg n
Kärik	Kärik	0		H	sg n
tulid	tule	id		V	sid
ette	ette	0		H	sg n
,	,			Z	
ning	ning	0		J	
tegid	tege	id		V	sid
siin	siin	0		D	
maha	maha	0		D	
,	,			Z	
et	et	0		J	
teisepäev	teise_päev	0		S	sg n
Silgi	Silgi	0		H	sg n
maia	maja	0		S	sg g
linad	lina	d		S	pl n
ära	ära	0		D	
müütud	####				
saavad	saa	vad		V	vad
.	.			Z	
</s>					
<s>					
Astusid	astu	sid		V	sid
ära	ära	0		D	
.	.			Z	
</s>					
