<s>					
Alexander	Alex	0		H	sg g
Limeon	Limeon	0		H	sg n
kaebas	kaeba	s		V	s
,	,			Z	
et	et	0		J	
Jaan	Jaan	0		H	sg n
Märtson	Märtson	0		H	sg n
temal	tema	l		P	sg ad
100	100	0		N	?
rubla	rubla	0		S	sg p
pealt	pealt	0		D	
kümne	kümme	0		N	sg g
kuu	kuu	0		S	sg g
eest	eest	0		K	
5	5	0		N	?
rubla	rubla	0		S	sg p
intressi	intress	0		S	sg p
võlgo	võlgu	0		D	
olevad	olev	d		A	pl n
,	,			Z	
ja	ja	0		J	
kätte	käsi	tte		S	adt
nõuab	nõud	b		V	b
.	.			Z	
</s>					
<s>					
Jaan	Jaan	0		H	sg n
Märtson	Märtson	0		H	sg n
ette	ette	0		H	sg n
kutsutud	kutsu	tud		V	tud
,	,			Z	
ning	ning	0		J	
seletas	seleta	s		V	s
siin	siin	0		D	
,	,			Z	
et	et	0		J	
protsendi	protsent	0		S	sg g
makso	####				
aeg	aeg	0		S	sg n
alles	alles	0		D	
ees	ees	0		D	
olevad	olev	d		A	pl n
,	,			Z	
ja	ja	0		J	
enne	enne	0		K	
maksa	maks	0		S	sg p
ei	ei	0		V	neg
tahtvad	tahtev	d		A	pl n
.	.			Z	
</s>					
<s>					
Alex	Alex	0		H	sg n
Limeon	Limeon	0		H	sg n
rääkis	rääki	s		V	s
,	,			Z	
et	et	0		J	
100	100	0		N	?
rubla	rubla	0		S	sg p
kätte	käsi	tte		S	adt
saanud	saa	nud		V	nud
sel	see	l		P	sg ad
10	10	0		N	?
veebr	veebr	0		Y	?
.	.			Z	
</s>					
<s>					
73.	73.	0		O	?
</s>					
<s>					
Sai	saa	i		H	s
mõistetud	mõist	tud		V	tud
,	,			Z	
et	et	0		J	
Jaan	Jaan	0		H	sg n
Märtson	Märtson	0		H	sg n
see	see	0		P	sg n
eel	eel	0		K	
nimetud	nimetu	d		A	pl n
protsent	protsent	0		S	sg n
4	4	0		N	?
rubla	rubla	0		S	sg g
50	50	0		N	?
kop	kop	0		Y	?
8	8	0		N	?
p.s	####				
.	.			Z	
A.	A.	0		Y	sg n
Limeonil	####				
ära	ära	0		D	
maksaks	maks	ks		V	ks
.	.			Z	
</s>					
