<s>					
Jaak	Jaak	0		H	sg n
Tõhk	Tõhk	0		H	sg n
tuli	tule	i		V	s
ette	ette	0		H	sg n
ning	ning	0		J	
kaebas	kaeba	s		V	s
siin	siin	0		D	
,	,			Z	
et	et	0		J	
kadunud	kadu	nud		V	nud
Ligemetsa	Ligemetsa	0		H	sg n
Peedo	Peedo	0		H	sg n
Jaakson	Jaakson	0		H	sg n
temal	tema	l		P	sg ad
2	2	0		N	?
vakka	vakka	0		D	
lina	lina	0		S	sg g
seemete	####				
eest	eest	0		K	
10	10	0		N	?
rubla	rubla	0		S	sg p
võlgo	võlgu	0		D	
olevad	olev	d		A	pl n
ning	ning	0		J	
ära	ära	0		D	
ei	ei	0		V	neg
maksvad	maksev	d		A	pl n
,	,			Z	
ja	ja	0		J	
nüüd	nüüd	0		D	
kohto	kohus	0		S	sg g
läbi	läbi	0		K	
kätte	käsi	tte		S	adt
nõuab	nõud	b		V	b
.	.			Z	
</s>					
<s>					
Peedo	Peedo	0		H	sg n
Jaaksoni	Jaakson	0		H	sg g
pärijate	pärija	te		S	pl g
vöörmünder	vöörmünder	0		S	sg n
Johan	Johan	0		H	sg n
Jaakson	Jaakson	0		H	sg n
ette	ette	0		H	sg n
tellitud	telli	tud		V	tud
,	,			Z	
ning	ning	0		J	
andis	and	is		V	s
siin	siin	0		D	
üles	üles	0		D	
,	,			Z	
et	et	0		J	
tema	tema	0		P	sg g
sest	sest	0		J	
kedagi	keegi	dagi		P	sg p
ei	ei	0		V	neg
teadvad	teadev	d		A	pl n
.	.			Z	
</s>					
<s>					
Jaan	Jaan	0		H	sg n
Märtson	Märtson	0		H	sg n
tunnistas	tunnista	s		V	s
,	,			Z	
et	et	0		J	
kadunud	kadu	nud		V	nud
Peedo	Peedo	0		H	sg n
temal	tema	l		P	sg ad
ütelnud	ütle	nud		V	nud
,	,			Z	
et	et	0		J	
4	4	0		N	?
rubla	rubla	0		S	sg p
vakk	vakk	0		S	sg n
olnud	ole	nud		V	nud
,	,			Z	
ja	ja	0		J	
1	1	0		N	?
rubla	rubla	0		S	sg p
kaera	kaer	0		S	sg g
eest	eest	0		K	
minevad	minev	d		A	pl n
maha	maha	0		D	
siis	siis	0		D	
olla	ole	a		V	da
7	7	0		N	?
rubla	rubla	0		S	sg p
maksu	maks	0		S	sg p
.	.			Z	
</s>					
<s>					
Jaan	Jaan	0		H	sg n
Udsar	Udsar	0		H	sg n
tunnistas	tunnista	s		V	s
,	,			Z	
et	et	0		J	
Peedo	Peedo	0		H	sg n
Jaakson	Jaakson	0		H	sg n
kaebaja	kaebaja	0		S	sg g
käest	käest	0		K	
küll	küll	0		D	
2	2	0		N	?
vakka	vakka	0		D	
viinud	vii	nud		V	nud
,	,			Z	
ning	ning	0		J	
450	450	0		N	?
kop	kop	0		Y	?
vakka	vakka	0		D	
olnud	ole	nud		V	nud
.	.			Z	
</s>					
<s>					
Sai	saa	i		H	s
mõistetud	mõist	tud		V	tud
,	,			Z	
et	et	0		J	
Peedo	Peedo	0		H	sg n
Jaaksoni	Jaakson	0		H	sg g
pärijate	pärija	te		S	pl g
vöörmündrid	vöörmünder	d		S	pl n
need	see	d		P	pl n
nõetavad	nõeta	vad		V	vad
9	9	0		N	?
rubla	rubla	0		S	sg p
tunnistuse	tunnistus	0		S	sg g
põhja	põhi	0		S	sg g
peale	peale	0		K	
ära	ära	0		D	
maksavad	maks	vad		V	vad
14	14	0		N	?
päeva	päev	0		S	sg g
sees	sees	0		K	
s	s	0		Y	?
.	.			Z	
ots	ots	0		S	sg n
.	.			Z	
</s>					
<s>					
andm	andm	0		Y	?
.	.			Z	
</s>					
<s>					
arvata	arva	ta		V	da
.	.			Z	
</s>					
