<s>					
Kui	kui	0		D	
   	kui	0		J	
Jaan	Jaan	0		H	sg n
Toom	Toom	0		H	sg n
selle	see	0		P	sg g
kohto	kohus	0		S	sg g
panemise	panemine	0		S	sg g
juures	juures	0		K	
vargist	####				
ära	ära	0		D	
oli	ole	i		V	s
karanud	karga	nud		V	nud
,	,			Z	
ja	ja	0		J	
ukse	uks	0		S	sg g
lahti	lahti	0		D	
lükanud	lükka	nud		V	nud
,	,			Z	
ja	ja	0		J	
kohto	kohus	0		S	sg g
otsimise	otsimine	0		S	sg g
peale	peale	0		K	
eest	eest	0		K	
ära	ära	0		D	
põgenes	põgene	s		V	s
,	,			Z	
sai	saa	i		V	s
tema	tema	0		P	sg g
selle	see	0		P	sg g
süi	####				
pärast	pärast	0		K	
ette	ette	0		H	sg n
kutsutud	kutsu	tud		V	tud
,	,			Z	
ning	ning	0		J	
mõistetud	mõist	tud		V	tud
:	:			Z	
""""	""""			Z	
et	et	0		J	
Jaan	Jaan	0		H	sg n
Toom	Toom	0		H	sg n
selle	see	0		P	sg g
süi	####				
pärast	pärast	0		D	
20	20	0		N	?
lööki	löök	0		S	sg p
vitso	####				
saaks	saa	ks		V	ks
"."""	"."""			Z	
</s>					
