<s>					
Hans	Hans	0		H	sg n
Seero	Seero	0		H	sg n
kaebas	kaeba	s		V	s
,	,			Z	
et	et	0		J	
Karl	Karl	0		H	sg n
Sõlg	Sõlg	0		H	sg n
teda	tema	da		P	sg p
13	13	0		N	?
rubla	rubla	0		S	sg p
vargas	varas	s		S	sg in
teinud	tege	nud		V	nud
,	,			Z	
ja	ja	0		J	
tema	tema	0		P	sg g
juures	juures	0		K	
otsimas	otsi	mas		V	mas
käinud	käi	nud		V	nud
.	.			Z	
</s>					
<s>					
Karl	Karl	0		H	sg n
Sõlg	Sõlg	0		H	sg n
rääkis	rääki	s		V	s
,	,			Z	
et	et	0		J	
temal	tema	l		P	sg ad
kadunud	kadu	nud		V	nud
ja	ja	0		J	
tema	tema	0		P	sg g
ka	ka	0		D	
otsinud	otsi	nud		V	nud
.	.			Z	
</s>					
<s>					
Mõisteti	mõist	ti		V	ti
:	:			Z	
Hans	Hans	0		H	sg n
Seero	Seero	0		H	sg n
kaebtus	####				
tühjaks	tühi	ks		A	sg tr
arvata	arva	ta		V	da
puuduliko	puudulik	0		A	sg g
nõudmise	nõudmine	0		S	sg g
põhja	põhi	0		S	sg g
pärast	pärast	0		K	
.	.			Z	
</s>					
