<s>					
Kohto	kohus	0		S	sg g
tellimise	tellimine	0		S	sg g
peale	peale	0		K	
olid	ole	id		V	sid
ette	ette	0		H	sg n
tulnud	tule	nud		V	nud
,	,			Z	
Johan	Johan	0		H	sg n
Ruusmann	Ruusmann	0		H	sg n
,	,			Z	
Jaan	Jaan	0		H	sg n
Udsar	Udsar	0		H	sg n
ja	ja	0		J	
Hans	Hans	0		H	sg n
Märtson	Märtson	0		H	sg n
,	,			Z	
ning	ning	0		J	
sai	saa	i		V	s
Jaan	Jaan	0		H	sg n
Udsare	Udsar	0		H	sg g
palk	palk	0		S	sg n
H.	H.	0		Y	sg n
Märtsoni	Märt	0		H	sg g
kätte	käsi	tte		S	adt
J.	J.	0		Y	sg n
Ruusmanni	Ruusmann	0		H	sg g
kindlaks	kindel	ks		A	sg tr
jäänud	jää	nud		V	nud
võla	võlg	0		S	sg g
nõudmise	nõudmine	0		S	sg g
tasumiseks	tasumine	ks		S	sg tr
kinni	kinni	0		D	
pantud	####				
ja	ja	0		J	
nimelt	nimelt	0		D	
2	2	0		N	?
1/2	1/2	0		N	?
vakka	vakka	0		D	
rükkid	####				
7	7	0		N	?
rubla	rubla	0		S	sg g
50	50	0		N	?
kop	kop	0		Y	?
</s>					
<s>					
1	1	0		N	?
1/4	1/4	0		N	?
vakka	vakk	0		S	adt
kesvi	kesv	i		S	pl p
3	3	0		N	?
rubla	rubla	0		S	sg p
</s>					
