<s>					
Kohto	kohus	0		S	sg g
nõudmise	nõudmine	0		S	sg g
peale	peale	0		K	
oli	ole	i		V	s
ette	ette	0		H	sg n
tulnud	tule	nud		V	nud
Johan	Johan	0		H	sg n
Nops	Nops	0		H	sg n
ja	ja	0		J	
andis	and	is		V	s
siin	siin	0		D	
üles	üles	0		D	
,	,			Z	
et	et	0		J	
Jaan	Jaan	0		H	sg n
Purri	Purri	0		H	sg n
palka	palk	0		S	sg p
tema	tema	0		P	sg g
käes	käes	0		K	
mette	mesi	tte		S	adt
enam	enam	0		D	
sees	sees	0		D	
ei	ei	0		V	neg
olevad	olev	d		A	pl n
,	,			Z	
Andres	Andres	0		H	sg n
Until	Until	0		H	sg n
aga	aga	0		J	
kuni	kuni	0		K	
15	15	0		N	?
rublani	rubla	ni		S	sg ter
veel	veel	0		D	
saada	saa	da		V	da
olla	ole	a		V	da
.	.			Z	
</s>					
