<s>					
Uue	Uue	0		H	sg n
Suislepa	Suislepa	0		H	sg n
mõisavallits	mõis_aval_lits	0		A	sg n
.	.			Z	
</s>					
<s>					
kaebas	kaeba	s		V	s
,	,			Z	
et	et	0		J	
Hans	Hans	0		H	sg n
Tätta	Tätta	0		H	sg n
2	2	0		N	?
hobust	hobune	t		S	sg p
mõisa	mõis	0		S	sg g
noore	noor	0		A	sg g
metsas	mets	s		S	sg in
olnud	ole	nud		V	nud
,	,			Z	
5.	5.	0		O	?
aug	aug	0		Y	?
.	.			Z	
</s>					
<s>					
Hans	Hans	0		H	sg n
Tätta	Tätta	0		H	sg n
nimetas	nimeta	s		V	s
,	,			Z	
et	et	0		J	
ta	tema	0		P	sg n
ei	ei	0		V	neg
teadvad	teadev	d		A	pl n
.	.			Z	
</s>					
<s>					
Metsavaht	metsa_vaht	0		S	sg n
R.	R.	0		Y	sg n
Reichenberg	Reichenberg	0		H	sg n
tun	####				
.	.			Z	
</s>					
<s>					
et	et	0		J	
on	ole	0		V	b
  	ole	0		V	vad
olnud	ole	nud		V	nud
.	.			Z	
</s>					
<s>					
Sai	saa	i		H	s
mõistetud	mõist	tud		V	tud
,	,			Z	
et	et	0		J	
Hans	Hans	0		H	sg n
Tätta	Tätta	0		H	sg n
60	60	0		N	?
kop	kop	0		Y	?
14	14	0		N	?
p	p	0		Y	?
.	.			Z	
sees	sees	0		K	
ära	ära	0		D	
maksab	maks	b		V	b
.	.			Z	
</s>					
