<s>					
22.03.1874	22.03.1874	0		N	?
:	:			Z	
30	30	0		N	?
</s>					
<s>					
Johan	Johan	0		H	sg n
Nops	Nops	0		H	sg n
tuli	tule	i		V	s
ette	ette	0		H	sg n
ja	ja	0		J	
kaebas	kaeba	s		V	s
siin	siin	0		D	
,	,			Z	
et	et	0		J	
Märt	Märt	0		H	sg n
Janus	Janus	s		H	sg n
teenistusest	teenistus	st		S	sg el
ilma	ilma	0		D	
üles	üles	0		D	
ütlemata	ütlemata	0		D	
ära	ära	0		D	
läinud	mine	nud		V	nud
,	,			Z	
ja	ja	0		J	
selle	see	0		P	sg g
üle	üle	0		K	
kohut	kohus	t		S	sg p
palub	palu	b		V	b
,	,			Z	
et	et	0		J	
ta	tema	0		P	sg g
oma	oma	0		P	sg g
teener	teener	0		S	sg n
jälle	jälle	0		D	
tagasi	tagasi	0		D	
saaks	saa	ks		V	ks
.	.			Z	
</s>					
<s>					
Märt	Märt	0		H	sg n
Janus	Janus	s		H	sg n
sai	saa	i		V	s
selle	see	0		P	sg g
pääle	pea	le		S	sg all
ette	ette	0		H	sg n
kutsutud	kutsu	tud		V	tud
ja	ja	0		J	
andis	and	is		V	s
siin	siin	0		D	
üles	üles	0		D	
,	,			Z	
et	et	0		J	
tema	tema	0		P	sg n
sui	sui	0		D	
lina	lina	0		S	sg g
kakkumise	####				
aial	aed	l		S	sg ad
juba	juba	0		D	
üles	üles	0		D	
ütelnud	ütle	nud		V	nud
teise	teine	0		O	sg g
     	teine	0		P	sg g
poisiga	poiss	ga		S	sg kom
ja	ja	0		J	
selle	see	0		P	sg g
põhja	põhi	0		S	sg g
pääle	peale	0		K	
ka	ka	0		D	
ära	ära	0		D	
läinud	mine	nud		V	nud
.	.			Z	
</s>					
<s>					
Sel	sel	0		Y	?
12.	12.	0		O	?
aprillil	aprill	l		S	sg ad
oli	ole	i		V	s
ette	ette	0		H	sg n
tulnud	tule	nud		V	nud
tunnistaja	tunnistaja	0		S	sg n
Jaak	Jaak	0		H	sg n
Napritson	Napritson	0		H	sg n
,	,			Z	
ja	ja	0		J	
andis	and	is		V	s
siin	siin	0		D	
üles	üles	0		D	
et	et	0		J	
Johan	Johan	0		H	sg n
Nops	Nops	0		H	sg n
poistele	poiss	tele		S	pl all
tellimise	tellimine	0		S	sg g
päeval	päev	l		S	sg ad
ütelnud	ütle	nud		V	nud
,	,			Z	
tekke	teke	0		S	sg g
mis	mis	0		P	sg n
teie	sina	0		P	pl n
tahate	taht	te		V	te
.	.			Z	
</s>					
