<s>					
Jaan	Jaan	0		H	sg n
Tuul	Tuul	0		H	sg n
kaebas	kaeba	s		V	s
siin	siin	0		D	
,	,			Z	
et	et	0		J	
Märt	Märt	0		H	sg n
Napritson	Napritson	0		H	sg n
temal	tema	l		P	sg ad
võlgo	võlgu	0		D	
olla	ole	a		V	da
,	,			Z	
2	2	0		N	?
rubla	rubla	0		S	sg g
vankre	####				
töö	töö	0		S	sg g
eest	eest	0		K	
</s>					
<s>					
1	1	0		N	?
rubla	rubla	0		S	sg p
12	12	0		N	?
kop	kop	0		Y	?
raua	raud	0		S	sg g
eest	eest	0		K	
16	16	0		N	?
naela	nael	0		S	sg p
</s>					
<s>					
65	65	0		N	?
kop	kop	0		Y	?
3	3	0		N	?
kirve	kirves	0		S	sg g
jaku	####				
eest	eest	0		K	
</s>					
<s>					
10	10	0		N	?
kop	kop	0		Y	?
4	4	0		N	?
hobuse	hobune	0		S	sg g
rautamise	rauta=mine	0		S	sg g
eest	eest	0		K	
</s>					
<s>					
40	40	0		N	?
kop	kop	0		Y	?
2	2	0		N	?
vaka	vakk	0		S	sg g
süsse	####				
eest	eest	0		K	
</s>					
<s>					
Märt	Märt	0		H	sg n
rääkis	rääki	s		V	s
,	,			Z	
vanker	vanker	0		S	sg n
on	ole	0		V	b
  	ole	0		V	vad
rautud	####				
,	,			Z	
2	2	0		N	?
kirvest	kirves	t		S	sg p
jokats	####				
2	2	0		N	?
üles	üles	0		D	
aet	####				
,	,			Z	
2	2	0		N	?
jalga	jalg	0		S	sg p
hobusel	hobune	l		S	sg ad
rautud	####				
,	,			Z	
süsse	####				
ei	ei	0		V	neg
olevad	olev	d		A	pl n
viitud	vii	tud		V	tud
,	,			Z	
2/3	2/3	0		N	?
vakka	vakk	0		S	adt
särge	särg	0		S	sg p
annud	and	nud		V	nud
,	,			Z	
ja	ja	0		J	
25	25	0		N	?
kop	kop	0		Y	?
eest	eest	0		K	
veel	veel	0		D	
järgi	järgi	0		K	
annud	and	nud		V	nud
.	.			Z	
</s>					
<s>					
Johan	Johan	0		H	sg n
Ruusmann	Ruusmann	0		H	sg n
tun	####				
.	.			Z	
</s>					
<s>					
2/3	2/3	0		N	?
vakka	vakk	0		S	adt
küll	küll	0		D	
olnud	ole	nud		V	nud
.	.			Z	
</s>					
