<s>					
Mõisavalits	mõis_ava_lits	0		S	sg n
.	.			Z	
</s>					
<s>					
kaebas	kaeba	s		V	s
siin	siin	0		D	
,	,			Z	
et	et	0		J	
Hans	Hans	0		H	sg n
Pallo	Pallo	0		H	sg n
kari	kari	0		S	sg n
:	:			Z	
9	9	0		N	?
suurt	suur	t		A	sg p
elajad	elajas	d		S	pl n
mõisa	mõis	0		S	sg g
noores	noor	s		A	sg in
metsas	mets	s		S	sg in
olnud	ole	nud		V	nud
,	,			Z	
ja	ja	0		J	
selle	see	0		P	sg g
üle	üle	0		K	
trahvida	trahvi	da		V	da
palub	palu	b		V	b
.	.			Z	
</s>					
<s>					
Hans	Hans	0		H	sg n
Pallo	Pallo	0		H	sg n
ette	ette	0		H	sg n
kutsut	kutsu	t		S	sg p
ja	ja	0		J	
nimetas	nimeta	s		V	s
siin	siin	0		D	
,	,			Z	
et	et	0		J	
tema	tema	0		P	sg n
ei	ei	0		V	neg
teadvad	teadev	d		A	pl n
sest	sest	0		J	
midagid	miski	dagid		P	sg p
,	,			Z	
temal	tema	l		P	sg ad
ei	ei	0		V	neg
olevadki	olev	d	ki	S	pl n
nenda	nõnda	0		D	
paljo	palju	0		D	
elajaid	elajas	id		S	pl p
.	.			Z	
</s>					
<s>					
Metsa	mets	0		S	sg g
vaht	vaht	0		S	sg n
Peet	Peet	0		H	sg n
Reichenberg	Reichenberg	0		H	sg n
tun	####				
.	.			Z	
</s>					
<s>					
oma	oma	0		P	sg g
vande	vanne	0		S	sg g
peale	peale	0		K	
siin	siin	0		D	
,	,			Z	
et	et	0		J	
Hans	Hans	0		H	sg n
Pallo	Pallo	0		H	sg n
9	9	0		N	?
elajad	elajas	d		S	pl n
on	ole	0		V	b
  	ole	0		V	vad
olnud	ole	nud		V	nud
mõisa	mõis	0		S	sg g
metsas	mets	s		S	sg in
.	.			Z	
</s>					
<s>					
Sai	saa	i		H	s
mõistetud	mõist	tud		V	tud
,	,			Z	
et	et	0		J	
Hans	Hans	0		H	sg n
Pallo	Pallo	0		H	sg n
nende	see	de		P	pl g
9	9	0		N	?
elaja	elajas	0		S	sg g
eest	eest	0		K	
mõisale	mõis	le		S	sg all
360	360	0		N	?
kop	kop	0		Y	?
kahjo	kahju	0		S	sg g
tasumist	tasumine	t		S	sg p
14	14	0		N	?
p	p	0		Y	?
.	.			Z	
s	s	0		Y	?
.	.			Z	
maksaks	maks	ks		V	ks
.	.			Z	
</s>					
