<s>					
Johan	Johan	0		H	sg n
Räbise	Räbise	0		H	sg n
nõudmise	nõudmine	0		S	sg g
peale	peale	0		K	
sai	saa	i		V	s
Andres	Andres	0		H	sg n
Rips	Rips	0		H	sg n
ette	ette	0		H	sg n
kutsutud	kutsu	tud		V	tud
,	,			Z	
ning	ning	0		J	
temal	tema	l		P	sg ad
veel	veel	0		D	
10	10	0		N	?
päeva	päev	0		S	sg p
makso	####				
tarvis	tarvis	0		D	
antud	and	tud		V	tud
üle	üle	0		D	
12	12	0		N	?
rubla	rubla	0		S	sg p
.	.			Z	
</s>					
