<s>					
Tõnis	Tõnis	0		H	sg n
Kärik	Kärik	0		H	sg n
kaebas	kaeba	s		V	s
siin	siin	0		D	
et	et	0		J	
Ado	Ado	0		H	sg n
Järs	Järs	0		H	sg n
teda	tema	da		P	sg p
puu	puu	0		S	sg g
vargas	varas	s		S	sg in
teotanud	teota	nud		V	nud
,	,			Z	
ja	ja	0		J	
selle	see	0		P	sg g
üle	üle	0		K	
kohut	kohus	t		S	sg p
palub	palu	b		V	b
.	.			Z	
</s>					
<s>					
Ado	Ado	0		H	sg n
Järs	Järs	0		H	sg n
ette	ette	0		H	sg n
kutsutud	kutsu	tud		V	tud
ja	ja	0		J	
nimetas	nimeta	s		V	s
,	,			Z	
et	et	0		J	
ta	tema	0		P	sg n
ei	ei	0		V	neg
ole	ole	0		V	o
ütelnud	ütle	nud		V	nud
.	.			Z	
</s>					
<s>					
Michel	Michel	0		H	sg n
Tomp	Tomp	0		H	sg n
tunn	####				
.	.			Z	
</s>					
<s>					
et	et	0		J	
Ado	Ado	0		H	sg n
Järs	Järs	0		H	sg n
ütelnud	ütle	nud		V	nud
et	et	0		J	
Sango	Sango	0		H	sg n
Tõnisse	Tõnis	sse		H	sg ill
Kaas	Kaas	0		H	sg n
tema	tema	0		P	sg g
puiega	####				
õlut	õlu	t		S	sg p
tehtud	tege	tud		V	tud
.	.			Z	
</s>					
<s>					
Kohto	kohus	0		S	sg g
sooivimise	####				
peale	peale	0		K	
olid	ole	id		V	sid
ära	ära	0		D	
leppinud	leppi	nud		V	nud
.	.			Z	
</s>					
