<s>					
Hans	Hans	0		H	sg n
Peks	Peks	0		H	sg n
kui	kui	0		D	
   	kui	0		J	
Tohver	Tohver	0		H	sg n
Judra	Judra	0		H	sg n
päriate	####				
vöörmünder	vöörmünder	0		S	sg n
kaebas	kaeba	s		V	s
siin	siin	0		D	
,	,			Z	
et	et	0		J	
Karl	Karl	0		H	sg n
Juder	Juder	0		H	sg n
Neuhofi	Neuhofi	0		H	sg n
maiast	maja	st		S	sg el
mis	mis	0		P	sg n
T.	T.	0		Y	sg n
Judra	Judra	0		H	sg n
pärijate	pärija	te		S	pl g
olla	ole	a		V	da
,	,			Z	
heino	Heino	0		H	sg g
müivad	####				
,	,			Z	
ning	ning	0		J	
seda	see	da		P	sg p
ära	ära	0		D	
keelda	####				
palub	palu	b		V	b
ja	ja	0		J	
seda	see	da		P	sg p
saadud	saa	dud		V	tud
raha	raha	0		S	sg g
päriatel	####				
nõuab	nõud	b		V	b
.	.			Z	
</s>					
<s>					
Karl	Karl	0		H	sg n
Juder	Juder	0		H	sg n
sai	saa	i		V	s
ette	ette	0		H	sg n
kutsutud	kutsu	tud		V	tud
,	,			Z	
ning	ning	0		J	
andis	and	is		V	s
siin	siin	0		D	
üles	üles	0		D	
,	,			Z	
et	et	0		J	
tema	tema	0		P	sg g
mõne	mõni	0		P	sg g
puuda	puud	0		S	sg g
hädalistel	hädaline	tel		S	pl ad
annud	and	nud		V	nud
,	,			Z	
aga	aga	0		J	
kui	kui	0		D	
   	kui	0		J	
paljo	palju	0		D	
,	,			Z	
ei	ei	0		V	neg
mäletavad	mäleta	vad		V	vad
mitte	mitte	0		D	
.	.			Z	
</s>					
<s>					
Kaebajal	kaebaja	l		S	sg ad
ei	ei	0		V	neg
olnud	ole	nud		V	nud
tunnistust	tunnistus	t		S	sg p
kui	kui	0		D	
   	kui	0		J	
paljo	palju	0		D	
.	.			Z	
</s>					
<s>					
Sai	saa	i		H	s
mõistetud	mõist	tud		V	tud
,	,			Z	
et	et	0		J	
Karl	Karl	0		H	sg n
Juder	Juder	0		H	sg n
ära	ära	0		D	
keelda	####				
oleks	ole	ks		V	ks
edaspidi	edas_pidi	0		D	
veel	veel	0		D	
Neuhofi	Neuhofi	0		H	sg n
maiast	maja	st		S	sg el
heino	Heino	0		H	sg g
müia	####				
,	,			Z	
ja	ja	0		J	
kui	kui	0		D	
   	kui	0		J	
kaebaja	kaebaja	0		S	sg n
mööda	mööda	0		K	
läinud	mine	nud		V	nud
müimise	####				
summa	summ	0		S	sg g
     	summa	0		S	sg g
tõeks	tõde	ks		S	sg tr
     	tõsi	ks		S	sg tr
teha	tege	a		V	da
saab	saa	b		V	b
,	,			Z	
siis	siis	0		J	
seda	see	da		P	sg p
veel	veel	0		D	
nõuda	nõud	a		V	da
võib	või	b		V	b
.	.			Z	
</s>					
