<s>					
Tuli	tuli	0		S	sg n
ette	ette	0		H	sg n
Liis	Liis	0		H	sg n
Jõgi	Jõgi	0		H	sg n
,	,			Z	
käemees	käe_mees	0		S	sg n
Alex	Alex	0		H	sg n
.	.			Z	
</s>					
<s>					
Kärik	Kärik	0		H	sg n
,	,			Z	
ning	ning	0		J	
kaebas	kaeba	s		V	s
siin	siin	0		D	
et	et	0		J	
Alex	Alex	0		H	sg n
Kärik	Kärik	0		H	sg n
tema	tema	0		P	sg g
rusigaga	####				
kõrva	kõrv	0		S	adt
peale	peale	0		D	
löönud	löö	nud		V	nud
,	,			Z	
et	et	0		J	
veri	veri	0		S	sg n
suust	suu	st		S	sg el
ja	ja	0		J	
ninast	nina	st		S	sg el
välja	välja	0		D	
tulnud	tule	nud		V	nud
,	,			Z	
ja	ja	0		J	
maha	maha	0		D	
visanud	viska	nud		V	nud
,	,			Z	
ning	ning	0		J	
õla	õlg	0		S	sg g
nurgast	nurk	st		S	sg el
raputanud	raputa	nud		V	nud
,	,			Z	
ja	ja	0		J	
selle	see	0		P	sg g
üle	üle	0		K	
kohto	kohus	0		S	sg g
seletust	seletus	t		S	sg p
ja	ja	0		J	
otsust	otsus	t		S	sg p
palub	palu	b		V	b
.	.			Z	
</s>					
<s>					
Alexander	Alex	0		H	sg g
Kärik	Kärik	0		H	sg n
sai	saa	i		V	s
ette	ette	0		H	sg n
kutsutud	kutsu	tud		V	tud
ning	ning	0		J	
andis	and	is		V	s
siin	siin	0		D	
üles	üles	0		D	
,	,			Z	
et	et	0		J	
ta	tema	0		P	sg n
muud	muu	d		P	sg p
ei	ei	0		V	neg
ole	ole	0		V	o
teinud	tege	nud		V	nud
,	,			Z	
kui	kui	0		D	
   	kui	0		J	
rinnust	rind	ust		S	pl el
kinni	kinni	0		D	
võtnud	võt	nud		V	nud
ja	ja	0		J	
raputanud	raputa	nud		V	nud
selle	see	0		P	sg g
pärast	pärast	0		K	
,	,			Z	
et	et	0		J	
kaebaja	kaebaja	0		S	sg n
teda	tema	da		P	sg p
sõimanud	sõima	nud		V	nud
räpases	räpane	s		A	sg in
koeras	koer	s		S	sg in
ja	ja	0		J	
pimmes	####				
jääda	jää	da		V	da
needinud	####				
.	.			Z	
</s>					
<s>					
Liis	Liis	0		H	sg n
Rips	Rips	0		H	sg n
tunnistas	tunnista	s		V	s
,	,			Z	
et	et	0		J	
kaebatu	kaeva	tud		V	tud
küll	küll	0		D	
kõrva	kõrv	0		S	sg g
peale	peale	0		K	
löönud	löö	nud		V	nud
üks	üks	0		N	sg n
   	üks	0		P	sg n
kord	kord	0		S	sg n
ja	ja	0		J	
maha	maha	0		D	
lükanud	lükka	nud		V	nud
ja	ja	0		J	
naene	naine	0		S	sg n
teda	tema	da		P	sg p
pimmes	####				
jääda	jää	da		V	da
käsknud	####				
.	.			Z	
</s>					
<s>					
Leno	Leno	0		H	sg n
Sügisi	Sügisi	0		H	sg n
tun	####				
.	.			Z	
</s>					
<s>					
et	et	0		J	
Alex	Alex	0		H	sg n
.	.			Z	
</s>					
<s>					
Kärik	Kärik	0		H	sg n
löönud	löö	nud		V	nud
üks	üks	0		N	sg n
   	üks	0		P	sg n
kord	kord	0		S	sg n
ja	ja	0		J	
maha	maha	0		D	
tõuganud	tõuka	nud		V	nud
,	,			Z	
ja	ja	0		J	
naene	naine	0		S	sg n
enne	enne	0		D	
sõimanud	sõima	nud		V	nud
.	.			Z	
</s>					
<s>					
Sai	saa	i		H	s
mõistetud	mõist	tud		V	tud
,	,			Z	
et	et	0		J	
Alex	Alex	0		H	sg n
.	.			Z	
</s>					
<s>					
Kärik	Kärik	0		H	sg n
selle	see	0		P	sg g
löömise	löömine	0		S	sg g
ning	ning	0		J	
tõukamise	tõuka=mine	0		S	sg g
eest	eest	0		K	
1	1	0		N	?
rubla	rubla	0		S	sg p
valo	####				
kannatamist	kannatamine	t		S	sg p
kaebajal	kaebaja	l		S	sg ad
8	8	0		N	?
p	p	0		Y	?
.	.			Z	
s	s	0		Y	?
.	.			Z	
maksab	maks	b		V	b
.	.			Z	
</s>					
