<s>					
Johan	Johan	0		H	sg n
Laosson	Laosson	0		H	sg n
kaebas	kaeba	s		V	s
siin	siin	0		D	
,	,			Z	
et	et	0		J	
Johan	Johan	0		H	sg n
Maksoni	Makson	0		H	sg g
elajad	elajas	d		S	pl n
tema	tema	0		P	sg g
heina	hein	0		S	sg p
ära	ära	0		D	
söötnud	sööt	nud		V	nud
.	.			Z	
</s>					
<s>					
Johan	Johan	0		H	sg n
Makson	Makson	0		H	sg n
rääkis	rääki	s		V	s
et	et	0		J	
tema	tema	0		P	sg n
kedagi	keegi	dagi		P	sg p
ei	ei	0		V	neg
tea	tead	0		V	o
.	.			Z	
</s>					
<s>					
Märt	Märt	0		H	sg n
Nässo	Nässo	0		H	sg n
tun	####				
.	.			Z	
</s>					
<s>					
et	et	0		J	
Maksoni	Makson	0		H	sg g
elajad	elajas	d		S	pl n
tema	tema	0		P	sg g
einamaast	####				
küll	küll	0		D	
üle	üle	0		D	
läinud	mine	nud		V	nud
.	.			Z	
</s>					
<s>					
Sai	saa	i		H	s
mõistetud	mõist	tud		V	tud
,	,			Z	
et	et	0		J	
Johan	Johan	0		H	sg n
Makson	Makson	0		H	sg n
10	10	0		N	?
leisikat	leisikas	t		S	sg p
heino	Heino	0		H	sg n
maksab	maks	b		V	b
kaebajal	kaebaja	l		S	sg ad
14	14	0		N	?
p	p	0		Y	?
.	.			Z	
s	s	0		Y	?
.	.			Z	
</s>					
