<s>					
Johan	Johan	0		H	sg n
Tassak	Tassak	0		H	sg n
tuli	tule	i		V	s
ette	ette	0		H	sg n
ning	ning	0		J	
kaebas	kaeba	s		V	s
siin	siin	0		D	
,	,			Z	
et	et	0		J	
Johan	Johan	0		H	sg n
Kärm	Kärm	0		H	sg n
temal	tema	l		P	sg ad
aga	aga	0		J	
2	2	0		N	?
nädalt	nädal	t		S	sg p
enne	enne	0		K	
aasta	aasta	0		S	sg g
lõppemist	lõppemine	t		S	sg p
üles	üles	0		D	
ütelnud	ütle	nud		V	nud
,	,			Z	
ja	ja	0		J	
ära	ära	0		D	
minna	mine	a		V	da
tahtvad	tahtev	d		A	pl n
,	,			Z	
ning	ning	0		J	
selle	see	0		P	sg g
üle	üle	0		K	
kohut	kohus	t		S	sg p
palub	palu	b		V	b
,	,			Z	
et	et	0		J	
ta	tema	0		P	sg g
oma	oma	0		P	sg g
sulane	sulane	0		S	sg n
jälle	jälle	0		D	
paigale	paigale	0		D	
saaks	saa	ks		V	ks
jätta	jät	a		V	da
.	.			Z	
</s>					
<s>					
Johan	Johan	0		H	sg n
Kärm	Kärm	0		H	sg n
ette	ette	0		H	sg n
tellit	####				
ja	ja	0		J	
andis	and	is		V	s
siin	siin	0		D	
üles	üles	0		D	
,	,			Z	
et	et	0		J	
ta	tema	0		P	sg n
18.	18.	0		O	?
aastad	aasta	d		S	pl n
vana	vana	0		A	sg n
olla	ole	a		V	da
,	,			Z	
ning	ning	0		J	
andis	and	is		V	s
siin	siin	0		D	
üles	üles	0		D	
,	,			Z	
et	et	0		J	
tema	tema	0		P	sg n
seda	see	da		P	sg p
ei	ei	0		V	neg
olevad	olev	d		A	pl n
teadnud	tead	nud		V	nud
,	,			Z	
et	et	0		J	
ennem	ennem	0		D	
ütlema	ütle	ma		V	ma
pidanud	pida	nud		V	nud
ja	ja	0		J	
selle	see	0		P	sg g
pärast	pärast	0		K	
seda	see	da		P	sg p
ka	ka	0		D	
enam	enam	0		D	
ei	ei	0		V	neg
olevad	olev	d		A	pl n
teinud	tege	nud		V	nud
.	.			Z	
</s>					
<s>					
Kui	kui	0		D	
   	kui	0		J	
kaebaja	kaebaja	0		S	sg g
tellimise	tellimine	0		S	sg g
peale	peale	0		K	
tulemata	tule	mata		V	mata
jäänud	jää	nud		V	nud
,	,			Z	
pidi	pida	i		V	s
selle	see	0		P	sg g
kohto	kohus	0		S	sg g
poolt	poolt	0		K	
mõistetama	mõist	tama		V	tama
,	,			Z	
""""	""""			Z	
et	et	0		J	
Johan	Johan	0		H	sg n
Tassak	Tassak	0		H	sg n
oma	oma	0		P	sg g
nõudmist	nõudmine	t		S	sg p
ise	ise	0		D	
järele	järele	0		D	
on	ole	0		V	b
  	ole	0		V	vad
annud	and	nud		V	nud
ja	ja	0		J	
seda	see	da		P	sg p
enam	enam	0		D	
kohto	kohus	0		S	sg g
seletuse	seletus	0		S	sg g
alla	alla	0		K	
ei	ei	0		V	neg
voetasse	voe_tass	e		S	pl p
"."""	"."""			Z	
</s>					
<s>					
Õ.	Õ.	0		Y	sg n
</s>					
<s>					
N.	N.	0		Y	sg n
</s>					
