<s>					
Tuli	tuli	0		S	sg n
ette	ette	0		H	sg n
Jaan	Jaan	0		H	sg n
Kondik	Kondik	0		H	sg n
,	,			Z	
ning	ning	0		J	
andis	and	is		V	s
siin	siin	0		D	
üles	üles	0		D	
et	et	0		J	
tema	tema	0		P	sg g
Eva	Eva	0		H	sg n
Judra	Judra	0		H	sg n
kuraatorist	kuraator	st		S	sg el
lahti	lahti	0		D	
heidab	heit	b		V	b
.	.			Z	
</s>					
<s>					
Seda	see	da		P	sg p
asja	asi	0		S	sg p
sai	saa	i		V	s
Eva	Eva	0		H	sg n
Judral	Judral	0		H	sg n
kohe	kohe	0		D	
kuulutud	kuulu	tud		V	tud
.	.			Z	
</s>					
