<s>					
Johan	Johan	0		H	sg n
Madisson	Madisson	0		H	sg n
tuli	tule	i		V	s
ette	ette	0		H	sg n
,	,			Z	
ning	ning	0		J	
kaebas	kaeba	s		V	s
siin	siin	0		D	
,	,			Z	
et	et	0		J	
Eva	Eva	0		H	sg n
Juder	Juder	0		H	sg n
teda	tema	da		P	sg p
50	50	0		N	?
rubla	rubla	0		S	sg p
raha	raha	0		S	sg g
vargas	varas	s		S	sg in
sõimanud	sõima	nud		V	nud
,	,			Z	
ning	ning	0		J	
selle	see	0		P	sg g
üle	üle	0		K	
kohto	kohus	0		S	sg g
seletust	seletus	t		S	sg p
palub	palu	b		V	b
,	,			Z	
et	et	0		J	
tema	tema	0		P	sg g
ilma	ilm	0		S	sg g
süita	####				
laimatud	laima	tud		V	tud
saanud	saa	nud		V	nud
.	.			Z	
</s>					
<s>					
Eva	Eva	0		H	sg n
Juder	Juder	0		H	sg n
käemehe	käe_mees	0		S	sg g
Alex	Alex	0		H	sg n
.	.			Z	
</s>					
<s>					
Kärikuga	####				
ette	ette	0		H	sg n
tulnud	tule	nud		V	nud
ja	ja	0		J	
andis	and	is		V	s
siin	siin	0		D	
üles	üles	0		D	
,	,			Z	
et	et	0		J	
tema	tema	0		P	sg n
mitte	mitte	0		D	
kellegi	keegi	gi		P	sg g
pääle	peale	0		K	
seda	see	da		P	sg p
ütelnud	ütle	nud		V	nud
ei	ei	0		V	neg
ole	ole	0		V	o
,	,			Z	
temal	tema	l		P	sg ad
aga	aga	0		J	
küll	küll	0		D	
50	50	0		N	?
rubla	rubla	0		S	sg p
ära	ära	0		D	
olla	ole	a		V	da
kadunud	kadu	nud		V	nud
.	.			Z	
</s>					
<s>					
Märt	Märt	0		H	sg n
Mõrro	Mõrro	0		H	sg n
kui	kui	0		D	
   	kui	0		J	
tunnistaja	tunnistaja	0		S	sg n
nimetas	nimeta	s		V	s
,	,			Z	
et	et	0		J	
ta	tema	0		P	sg n
kedagi	keegi	dagi		P	sg p
ei	ei	0		V	neg
teadvad	teadev	d		A	pl n
tunnistada	tunnista	da		V	da
.	.			Z	
</s>					
<s>					
Kaebaja	kaebaja	0		S	sg n
lubas	luba	s		V	s
veel	veel	0		D	
tunnistust	tunnistus	t		S	sg p
muretseda	muretse	da		V	da
.	.			Z	
</s>					
