<s>					
Tuli	tuli	0		S	sg n
ette	ette	0		H	sg n
Tõnis	Tõnis	0		H	sg n
Ruusmann	Ruusmann	0		H	sg n
ning	ning	0		J	
kaebas	kaeba	s		V	s
siin	siin	0		D	
,	,			Z	
et	et	0		J	
tema	tema	0		P	sg g
vend	vend	0		S	sg n
Jaan	Jaan	0		H	sg n
Ruusmann	Ruusmann	0		H	sg n
temal	tema	l		P	sg ad
seda	see	da		P	sg p
aita	aita	0		V	o
mis	mis	0		P	sg n
isa	isa	0		S	sg n
õppenud	####				
kätte	käsi	tte		S	adt
ei	ei	0		V	neg
andvad	andev	d		A	pl n
,	,			Z	
ja	ja	0		J	
kohto	kohus	0		S	sg g
seletust	seletus	t		S	sg p
palub	palu	b		V	b
.	.			Z	
</s>					
<s>					
Jaan	Jaan	0		H	sg n
Ruusmann	Ruusmann	0		H	sg n
ette	ette	0		H	sg n
tellit	####				
,	,			Z	
ja	ja	0		J	
andis	and	is		V	s
siin	siin	0		D	
üles	üles	0		D	
et	et	0		J	
tema	tema	0		P	sg g
sest	sest	0		J	
kinkimisest	kinkimine	st		S	sg el
küll	küll	0		D	
midagi	miski	dagi		P	sg p
ei	ei	0		V	neg
teadvad	teadev	d		A	pl n
,	,			Z	
ja	ja	0		J	
siiski	siiski	0		D	
selle	see	0		P	sg g
nõuetava	nõue_tava	0		S	sg g
aida	ait	0		S	sg g
Tõnis	Tõnis	0		H	sg n
Ruusmannil	Ruusmann	l		H	sg ad
kätte	käsi	tte		S	adt
anda	and	a		V	da
lubab	luba	b		V	b
.	.			Z	
</s>					
<s>					
Sai	saa	i		H	s
mõistetud	mõist	tud		V	tud
,	,			Z	
eel	eel	0		K	
seisvad	seisev	d		A	pl n
asja	asi	0		S	sg p
,	,			Z	
nenda	nõnda	0		D	
kui	kui	0		D	
   	kui	0		J	
sündinud	sündi	nud		V	nud
,	,			Z	
kirja	kiri	0		S	adt
panna	pane	a		V	da
.	.			Z	
</s>					
