<s>					
Mõisavalitsus	mõisa_valitsus	0		S	sg n
kaebas	kaeba	s		V	s
,	,			Z	
et	et	0		J	
Märt	Märt	0		H	sg n
Sild	Sild	0		H	sg n
mõisa	mõis	0		S	sg g
metsast	mets	st		S	sg el
varastanud	varasta	nud		V	nud
,	,			Z	
kolm	kolm	0		N	sg n
pedaja	pedajas	0		S	sg g
pakku	pakk	0		S	adt
6	6	0		N	?
jalg	jalg	0		S	sg n
pikad	pikk	d		A	pl n
.	.			Z	
</s>					
<s>					
Märt	Märt	0		H	sg n
Sild	Sild	0		H	sg n
ette	ette	0		H	sg n
kutsutud	kutsu	tud		V	tud
ja	ja	0		J	
rääkis	rääki	s		V	s
õige	õige	0		D	
olevad	olev	d		A	pl n
.	.			Z	
</s>					
<s>					
Metsavaht	metsa_vaht	0		S	sg n
tun	####				
.	.			Z	
</s>					
<s>					
et	et	0		J	
2	2	0		N	?
puud	puud	0		S	sg n
2	2	0		N	?
sülda	süld	0		S	sg p
a	a	0		Y	?
12	12	0		N	?
tolli	toll	0		S	sg g
</s>					
<s>					
1	1	0		N	?
puu	puu	0		S	sg g
2	2	0		N	?
sülda	süld	0		S	sg p
a	a	0		Y	?
20	20	0		N	?
tolli	toll	0		S	sg g
</s>					
<s>					
Sai	saa	i		H	s
mõistetud	mõist	tud		V	tud
,	,			Z	
et	et	0		J	
Märt	Märt	0		H	sg n
Sild	Sild	0		H	sg n
nende	see	de		P	pl g
pakke	pakk	e		S	pl p
eest	eest	0		K	
mõisale	mõis	le		S	sg all
240	240	0		N	?
kop	kop	0		Y	?
kahjo	kahju	0		S	sg g
ning	ning	0		J	
240	240	0		N	?
kop	kop	0		Y	?
trahvi	trahv	0		S	sg g
maksab	maks	b		V	b
14	14	0		N	?
p.s	####				
.	.			Z	
</s>					
