<s>					
Tellimise	tellimine	0		S	sg g
peale	peale	0		K	
olid	ole	id		V	sid
ette	ette	0		H	sg n
tulnud	tule	nud		V	nud
Hans	Hans	0		H	sg n
Martin	Martin	0		H	sg n
kui	kui	0		D	
   	kui	0		J	
Tommi	Tommi	0		H	sg n
Jaan	Jaan	0		H	sg n
Lukku	Lukk	0		H	sg g
vöörmünder	vöörmünder	0		S	sg n
,	,			Z	
ja	ja	0		J	
andis	and	is		V	s
siin	siin	0		D	
üles	üles	0		D	
,	,			Z	
et	et	0		J	
tema	tema	0		P	sg g
60	60	0		N	?
rubla	rubla	0		S	sg p
Hans	Hans	0		H	sg n
Lukku	Lukk	0		H	sg g
käest	käsi	st		S	sg el
juba	juba	0		D	
kätte	käsi	tte		S	adt
saanud	saa	nud		V	nud
Tommile	Tommi	le		H	sg all
anda	and	a		V	da
ja	ja	0		J	
mis	mis	0		P	sg n
veel	veel	0		D	
saada	saa	da		V	da
on	ole	0		V	b
  	ole	0		V	vad
,	,			Z	
ka	ka	0		D	
välja	välja	0		D	
nõuda	nõud	a		V	da
ning	ning	0		J	
see	see	0		P	sg n
aasta	aasta	0		S	sg n
ka	ka	0		D	
veel	veel	0		D	
vöörmünder	vöörmünder	0		S	sg n
olla	ole	a		V	da
lubab	luba	b		V	b
.	.			Z	
</s>					
<s>					
Hans	Hans	0		H	sg n
Lukk	Lukk	0		H	sg n
ette	ette	0		H	sg n
kutsut	kutsu	t		S	sg p
ja	ja	0		J	
nimetas	nimeta	s		V	s
siin	siin	0		D	
et	et	0		J	
ta	tema	0		P	sg n
nenda	nõnda	0		D	
paljo	palju	0		D	
ka	ka	0		D	
juba	juba	0		D	
annud	and	nud		V	nud
oma	oma	0		P	sg g
vennal	vend	l		S	sg ad
,	,			Z	
kui	kui	0		D	
   	kui	0		J	
tal	tema	l		P	sg ad
õigus	õigus	0		S	sg n
anda	and	a		V	da
olnud	ole	nud		V	nud
.	.			Z	
</s>					
<s>					
Sai	saa	i		H	s
mõistetud	mõist	tud		V	tud
,	,			Z	
et	et	0		J	
seisvad	seisev	d		A	pl n
asja	asi	0		S	sg g
,	,			Z	
nenda	nõnda	0		D	
kui	kui	0		D	
   	kui	0		J	
sündinud	sündi	nud		V	nud
,	,			Z	
kirja	kiri	0		S	adt
panna	pane	a		V	da
.	.			Z	
</s>					
