<s>					
Märt	Märt	0		H	sg n
Laitus	Laitus	0		H	sg n
kaebas	kaeba	s		V	s
siin	siin	0		D	
oma	oma	0		P	sg g
venna	vend	0		S	sg g
Peeter	Peeter	0		H	sg n
Laituse	Laitus	0		H	sg g
eest	eest	0		K	
,	,			Z	
et	et	0		J	
Hans	Hans	0		H	sg n
Mõrro	Mõrro	0		H	sg n
mineval	minev	l		A	sg ad
aastal	aasta	l		S	sg ad
1	1	0		N	?
setvert	setvert	0		S	sg n
rükkid	####				
tema	tema	0		P	sg g
vennal	vend	l		S	sg ad
võlgo	võlgu	0		D	
jäänud	jää	nud		V	nud
ja	ja	0		J	
seda	see	da		P	sg p
ilma	ilma	0		K	
kohtuta	kohus	ta		S	sg ab
ära	ära	0		D	
ei	ei	0		V	neg
maksvad	maksev	d		A	pl n
,	,			Z	
ning	ning	0		J	
selle	see	0		P	sg g
üle	üle	0		K	
kohto	kohus	0		S	sg g
seletust	seletus	t		S	sg p
palub	palu	b		V	b
,	,			Z	
et	et	0		J	
kaebatu	kaeva	tud		V	tud
käest	käest	0		K	
nüüd	nüüd	0		D	
selle	see	0		P	sg g
aiatse	####				
hinna	hind	0		S	sg g
järele	järele	0		K	
8	8	0		N	?
rubla	rubla	0		S	sg p
sisse	sisse	0		D	
nõutud	nõud	tud		V	tud
saaks	saa	ks		V	ks
,	,			Z	
sellepärast	selle_pärast	0		D	
,	,			Z	
et	et	0		J	
ta	tema	0		P	sg g
vend	vend	0		S	sg n
nekrutiks	nekrut	ks		S	sg tr
antud	and	tud		V	tud
ja	ja	0		J	
rükkid	####				
enam	enam	0		D	
tarvis	tarvis	0		D	
ei	ei	0		V	neg
ole	ole	0		V	o
.	.			Z	
</s>					
<s>					
Hans	Hans	0		H	sg n
Mõrro	Mõrro	0		H	sg n
sai	saa	i		V	s
selle	see	0		P	sg g
peale	peale	0		K	
ette	ette	0		H	sg n
tellit	####				
,	,			Z	
ning	ning	0		J	
nimetas	nimeta	s		V	s
selle	see	0		P	sg g
võla	võlg	0		S	sg g
õige	õige	0		A	sg n
olevad	olev	d		A	pl n
,	,			Z	
ei	ei	0		V	neg
taha	taht	0		V	o
aga	aga	0		J	
raha	raha	0		S	sg p
maksa	maks	0		V	o
,	,			Z	
et	et	0		J	
rükkid	####				
võtnud	võt	nud		V	nud
.	.			Z	
</s>					
<s>					
Sai	saa	i		H	s
mõistetud	mõist	tud		V	tud
,	,			Z	
et	et	0		J	
Hans	Hans	0		H	sg n
Mõrro	Mõrro	0		H	sg n
selle	see	0		P	sg g
aiatse	####				
vilja	vili	0		S	sg g
hinna	hind	0		S	sg g
järele	järele	0		K	
kummas	kumb	s		P	sg in
need	see	d		P	pl n
rükkid	####				
laenat	####				
,	,			Z	
8	8	0		N	?
rubla	rubla	0		S	sg p
nende	tema	de		P	pl g
eest	eest	0		K	
14	14	0		N	?
p	p	0		Y	?
.	.			Z	
sees	sees	0		K	
ära	ära	0		D	
maksab	maks	b		V	b
.	.			Z	
</s>					
<s>					
See	see	0		P	sg n
otsus	otsus	0		S	sg n
sai	saa	i		V	s
kohe	kohe	0		D	
kuulutud	kuulu	tud		V	tud
.	.			Z	
</s>					
