<s>					
Jaak	Jaak	0		H	sg n
Rips	Rips	0		H	sg n
kaebas	kaeba	s		V	s
siin	siin	0		D	
,	,			Z	
et	et	0		J	
Märt	Märt	0		H	sg n
Kotzmann	Kotzmann	0		H	sg n
temal	tema	l		P	sg ad
1	1	0		N	?
paar	paar	0		S	sg n
villatsid	####				
pükse	püks	e		S	pl p
võlgo	võlgu	0		D	
olevad	olev	d		A	pl n
.	.			Z	
</s>					
<s>					
Märt	Märt	0		H	sg n
Kotzmann	Kotzmann	0		H	sg n
ette	ette	0		H	sg n
kutsut	kutsu	t		S	sg p
,	,			Z	
ja	ja	0		J	
ütles	ütle	s		V	s
õige	õige	0		D	
olevad	olev	d		A	pl n
,	,			Z	
ning	ning	0		J	
4	4	0		N	?
nädali	####				
aia	aed	0		S	sg g
ses	see	s		P	sg in
ära	ära	0		D	
maksa	maks	0		V	o
lubas	luba	s		V	s
.	.			Z	
</s>					
<s>					
Kaebaja	kaebaja	0		S	sg n
oli	ole	i		V	s
sellega	see	ga		P	sg kom
ka	ka	0		D	
rahul	rahul	0		D	
.	.			Z	
</s>					
