<s>					
Jaan	Jaan	0		H	sg n
Märtson	Märtson	0		H	sg n
kaebas	kaeba	s		V	s
siin	siin	0		D	
kohto	kohus	0		S	sg g
ees	ees	0		K	
et	et	0		J	
Johan	Johan	0		H	sg n
Madisson	Madisson	0		H	sg n
tema	tema	0		P	sg g
maia	maja	0		S	sg g
akende	aken	de		S	pl g
all	all	0		K	
öösilt	öös	lt		S	sg abl
ulkunud	####				
ja	ja	0		J	
teda	tema	da		P	sg p
akna	aken	0		S	sg g
alt	alt	0		K	
taga	taga	0		D	
küsinud	küsi	nud		V	nud
.	.			Z	
</s>					
<s>					
Johan	Johan	0		H	sg n
Madis	Madis	0		H	sg n
ette	ette	0		H	sg n
kutsutud	kutsu	tud		V	tud
,	,			Z	
ning	ning	0		J	
andis	and	is		V	s
siin	siin	0		D	
üles	üles	0		D	
,	,			Z	
et	et	0		J	
tema	tema	0		P	sg n
ei	ei	0		V	neg
ole	ole	0		V	o
käinud	käi	nud		V	nud
.	.			Z	
</s>					
<s>					
Märt	Märt	0		H	sg n
Kondik	Kondik	0		H	sg n
kui	kui	0		D	
   	kui	0		J	
tun	####				
.	.			Z	
</s>					
<s>					
andis	and	is		V	s
siin	siin	0		D	
üles	üles	0		D	
,	,			Z	
et	et	0		J	
Eva	Eva	0		H	sg n
Judrale	Judra	le		H	sg all
aga	aga	0		J	
kõnelnud	kõnele	nud		V	nud
,	,			Z	
et	et	0		J	
Joh	Joh	0		H	sg n
.	.			Z	
</s>					
<s>					
Madisson	Madisson	0		H	sg n
Täksil	Täksil	0		H	sg n
käinud	käi	nud		V	nud
.	.			Z	
</s>					
<s>					
Eva	Eva	0		H	sg n
Juder	Juder	0		H	sg n
ette	ette	0		H	sg n
tellitud	telli	tud		V	tud
,	,			Z	
ning	ning	0		J	
andis	and	is		V	s
siin	siin	0		D	
üles	üles	0		D	
,	,			Z	
et	et	0		J	
Märt	Märt	0		H	sg n
Kondik	Kondik	0		H	sg n
temal	tema	l		P	sg ad
kõnelnud	kõnele	nud		V	nud
,	,			Z	
et	et	0		J	
Joh	Joh	0		H	sg n
.	.			Z	
</s>					
<s>					
Madisson	Madisson	0		H	sg n
Silgil	Silgi	l		H	sg ad
käinud	käi	nud		V	nud
.	.			Z	
</s>					
<s>					
Et	et	0		J	
kaebaja	kaebaja	0		S	sg n
enam	enam	0		D	
oma	oma	0		P	sg g
asja	asi	0		S	sg g
tellimise	tellimine	0		S	sg g
peale	peale	0		K	
uuendama	uuenda	ma		V	ma
ei	ei	0		V	neg
tulnud	tule	nud		V	nud
,	,			Z	
pidi	pida	i		V	s
selle	see	0		P	sg g
kohto	kohus	0		S	sg g
poolt	poolt	0		K	
mõistetama	mõist	tama		V	tama
,	,			Z	
et	et	0		J	
eel	eel	0		K	
seisvad	seisev	d		A	pl n
asja	asi	0		S	sg p
nenda	nõnda	0		D	
kui	kui	0		D	
   	kui	0		J	
sündinud	sündi	nud		V	nud
seisma	seis	ma		V	ma
jätta	jät	a		V	da
.	.			Z	
</s>					
