<s>					
Hans	Hans	0		H	sg n
Laitus	Laitus	0		H	sg n
kaebas	kaeba	s		V	s
siin	siin	0		D	
kohto	kohus	0		S	sg g
ees	ees	0		K	
,	,			Z	
et	et	0		J	
Märt	Märt	0		H	sg n
Mõrro	Mõrro	0		H	sg n
tema	tema	0		P	sg g
koera	koer	0		S	sg p
ilma	ilma	0		D	
asjata	asjata	0		D	
maha	maha	0		D	
lasknud	lask	nud		V	nud
,	,			Z	
ja	ja	0		J	
selle	see	0		P	sg g
eest	eest	0		K	
25	25	0		N	?
rubla	rubla	0		S	sg p
kahjo	kahju	0		S	sg g
tasumist	tasumine	t		S	sg p
ning	ning	0		J	
kohto	kohus	0		S	sg g
otsust	otsus	t		S	sg p
palub	palu	b		V	b
.	.			Z	
</s>					
<s>					
Märt	Märt	0		H	sg n
Mõrro	Mõrro	0		H	sg n
sai	saa	i		V	s
selle	see	0		P	sg g
peale	peale	0		K	
ette	ette	0		H	sg n
kutsutud	kutsu	tud		V	tud
ning	ning	0		J	
andis	and	is		V	s
siin	siin	0		D	
üles	üles	0		D	
,	,			Z	
et	et	0		J	
tema	tema	0		P	sg g
küll	küll	0		D	
maha	maha	0		D	
lasknud	lask	nud		V	nud
selle	see	0		P	sg g
koera	koer	0		S	sg p
,	,			Z	
sel	see	l		P	sg ad
aial	aed	l		S	sg ad
olla	ole	a		V	da
aga	aga	0		J	
paljo	palju	0		D	
ulle	####				
koere	####				
olnud	ole	nud		V	nud
,	,			Z	
ja	ja	0		J	
tema	tema	0		P	sg g
selle	see	0		P	sg g
pähe	pea	0		S	adt
lasknud	lask	nud		V	nud
.	.			Z	
</s>					
<s>					
Hans	Hans	0		H	sg n
Nukk	Nukk	0		H	sg n
tun	####				
.	.			Z	
</s>					
<s>					
et	et	0		J	
koer	koer	0		S	sg n
selle	see	0		P	sg g
talo	talu	0		S	sg g
mehe	mees	0		S	sg g
järele	järele	0		K	
Pitsole	####				
tulnud	tule	nud		V	nud
,	,			Z	
ja	ja	0		J	
koera	koer	0		S	sg g
mitte	mitte	0		D	
ullus	####				
ei	ei	0		V	neg
arva	arva	0		V	o
olevad	olev	d		A	pl n
olnud	ole	nud		V	nud
.	.			Z	
</s>					
<s>					
Sai	saa	i		H	s
mõistetud	mõist	tud		V	tud
,	,			Z	
et	et	0		J	
Märt	Märt	0		H	sg n
Mõrro	Mõrro	0		H	sg n
ilma	ilma	0		D	
süita	####				
kora	####				
maha	maha	0		D	
laskmise	laskmine	0		S	sg g
pärast	pärast	0		K	
Hans	Hans	0		H	sg n
Laitusel	Laitus	l		H	sg ad
150	150	0		N	?
kop	kop	0		Y	?
kahjo	kahju	0		S	sg g
tasumist	tasumine	t		S	sg p
14	14	0		N	?
p	p	0		Y	?
.	.			Z	
s	s	0		Y	?
.	.			Z	
maksab	maks	b		V	b
.	.			Z	
</s>					
