<s>					
Tuli	tuli	0		S	sg n
ette	ette	0		H	sg n
Johan	Johan	0		H	sg n
Makson	Makson	0		H	sg n
,	,			Z	
ning	ning	0		J	
kaebas	kaeba	s		V	s
,	,			Z	
et	et	0		J	
temal	tema	l		P	sg ad
sel	see	l		P	sg ad
kombel	komme	l		S	sg ad
Alex	Alex	0		H	sg n
.	.			Z	
</s>					
<s>					
Limeonga	####				
kaup	kaup	0		S	sg n
tehtud	tege	tud		V	tud
Pärnu	Pärnu	0		H	sg n
sõite	sõit	e		S	pl p
,	,			Z	
et	et	0		J	
tema	tema	0		P	sg g
hobene	####				
saab	saa	b		V	b
,	,			Z	
selle	see	0		P	sg g
eest	eest	0		K	
3	3	0		N	?
rubla	rubla	0		S	sg p
maksab	maks	b		V	b
,	,			Z	
ja	ja	0		J	
et	et	0		J	
ta	tema	0		P	sg g
poiss	poiss	0		S	sg n
need	see	d		P	pl n
päevad	päev	d		S	pl n
viidab	viit	b		V	b
selle	see	0		P	sg g
et	et	0		J	
ligi	ligi	0		D	
tuleb	tule	b		V	b
neide	neid	e		S	pl p
kaebatule	####				
päevi	päev	i		S	pl p
teha	tege	a		V	da
ja	ja	0		J	
tema	tema	0		P	sg g
(	(			Z	
J.	J.	0		Y	sg n
Makson	Makson	0		H	sg n
)	)			Z	
enese	ise	0		P	sg g
käest	käest	0		K	
heino	Heino	0		H	sg g
kodo	####				
tee	tee	0		S	sg g
peale	peale	0		K	
ligi	ligi	0		D	
võtab	võt	b		V	b
,	,			Z	
ja	ja	0		J	
see	see	0		P	sg n
kaup	kaup	0		S	sg n
ka	ka	0		D	
kokko	####				
sündinud	sündi	nud		V	nud
,	,			Z	
nüüd	nüüd	0		D	
aga	aga	0		J	
olevad	olev	d		A	pl n
Limioni	####				
hob	####				
.	.			Z	
</s>					
<s>					
tee	tee	0		S	sg g
peal	peal	0		K	
väsinus	väsinud	s		A	sg in
jäänud	jää	nud		V	nud
selle	see	0		P	sg g
et	et	0		J	
eeringu	####				
pütt	pütt	0		S	sg n
ka	ka	0		D	
peal	peal	0		D	
olnud	ole	nud		V	nud
ja	ja	0		J	
mitte	mitte	0		D	
tema	tema	0		P	sg g
selle	see	0		P	sg g
hob	####				
.	.			Z	
</s>					
<s>					
peal	peal	0		K	
istnud	####				
vaid	vaid	0		D	
metsavahi	metsa_vaht	0		S	sg g
hob	####				
.	.			Z	
</s>					
<s>					
kodo	####				
tulnud	tule	nud		V	nud
,	,			Z	
ja	ja	0		J	
hob	####				
.	.			Z	
</s>					
<s>					
tee	tee	0		S	sg g
peal	peal	0		K	
75	75	0		N	?
kop	kop	0		Y	?
eest	eest	0		K	
toito	####				
ostnud	ost	nud		V	nud
,	,			Z	
ja	ja	0		J	
voor	voor	0		S	sg n
ümber	ümber	0		D	
läinud	mine	nud		V	nud
selle	see	0		P	sg g
eest	eest	0		K	
50	50	0		N	?
kop	kop	0		Y	?
avitamise	avita=mine	0		S	sg g
raha	raha	0		S	sg p
maksnud	maks	nud		V	nud
,	,			Z	
ja	ja	0		J	
Pärnus	Pärnu	s		H	sg in
hob	####				
.	.			Z	
</s>					
<s>					
korteri	korter	0		S	sg g
eest	eest	0		K	
35	35	0		N	?
kop	kop	0		Y	?
maksnud	maks	nud		V	nud
,	,			Z	
ja	ja	0		J	
nõvvab	####				
selle	see	0		P	sg g
eest	eest	0		K	
et	et	0		J	
hob	####				
.	.			Z	
</s>					
<s>					
teda	tema	da		P	sg p
mitte	mitte	0		D	
tagasidoonud	####				
,	,			Z	
pool	pool	0		N	sg n
raha	raha	0		S	sg p
see	see	0		P	sg n
on	ole	0		V	b
  	ole	0		V	vad
150	150	0		N	?
kop	kop	0		Y	?
tagasi	tagasi	0		D	
ja	ja	0		J	
sel	see	l		P	sg ad
kulu	kulu	0		S	sg p
160	160	0		N	?
kop	kop	0		Y	?
summa	summa	0		S	sg n
310	310	0		N	?
kop	kop	0		Y	?
ning	ning	0		J	
kaebatud	kaeva	tud		V	tud
tema	tema	0		P	sg g
enese	ise	0		P	sg g
nõudmise	nõudmine	0		S	sg g
peale	peale	0		K	
seda	see	da		P	sg p
ära	ära	0		D	
ei	ei	0		V	neg
oigendavad	####				
ning	ning	0		J	
selle	see	0		P	sg g
üle	üle	0		K	
kohto	kohus	0		S	sg g
seletust	seletus	t		S	sg p
ja	ja	0		J	
otsust	otsus	t		S	sg p
palub	palu	b		V	b
,	,			Z	
et	et	0		J	
ta	tema	0		P	sg n
see	see	0		P	sg n
raha	raha	0		S	sg g
kätte	kätte	0		K	
saaks	saa	ks		V	ks
.	.			Z	
</s>					
<s>					
Selle	see	0		P	sg g
peale	peale	0		K	
sai	saa	i		V	s
Alex	Alex	0		H	sg n
.	.			Z	
</s>					
<s>					
Limeon	Limeon	0		H	sg n
ette	ette	0		H	sg n
kutsut	kutsu	t		S	sg p
,	,			Z	
ning	ning	0		J	
andis	and	is		V	s
siin	siin	0		D	
üles	üles	0		D	
,	,			Z	
et	et	0		J	
kaup	kaup	0		S	sg n
tehtud	tege	tud		V	tud
,	,			Z	
et	et	0		J	
Pärnu	Pärnu	0		H	sg n
mineki	####				
eest	eest	0		D	
tema	tema	0		P	sg g
hobesega	####				
3	3	0		N	?
rubla	rubla	0		S	sg g
ja	ja	0		J	
kaebaja	kaebaja	0		S	sg g
lubanud	luba	nud		V	nud
ise	ise	0		P	sg n
omalt	oma	lt		P	sg abl
poolt	poolt	0		K	
heinad	hein	d		S	pl n
ligi	ligi	0		D	
võtta	võt	a		V	da
,	,			Z	
ja	ja	0		J	
selle	see	0		P	sg g
et	et	0		J	
tema	tema	0		P	sg g
poiss	poiss	0		S	sg n
ligi	ligi	0		D	
lähab	####				
4	4	0		N	?
paeva	päev	0		S	sg g
tood	too	d		V	d
kaebatule	####				
teha	tege	a		V	da
ja	ja	0		J	
kaerad	kaer	d		S	pl n
annud	and	nud		V	nud
kaebatud	kaeva	tud		V	tud
ise	ise	0		P	sg n
ligi	ligi	0		D	
ja	ja	0		J	
pidanud	pida	nud		V	nud
1	1	0		N	?
pütt	pütt	0		S	sg n
heeringid	####				
ka	ka	0		D	
ühes	üks	s		N	sg in
    	üks	s		P	sg in
Pärnust	Pärnu	st		H	sg el
tooma	too	ma		V	ma
ja	ja	0		J	
et	et	0		J	
ta	tema	0		P	sg g
hobesele	####				
midagi	miski	dagi		P	sg p
toitu	toit	0		S	sg p
ostab	ost	b		V	b
,	,			Z	
vai	vai	0		S	sg n
hobese	hobune	0		S	sg g
eest	eest	0		K	
midagi	miski	dagi		P	sg p
välja	välja	0		D	
annab	and	b		V	b
,	,			Z	
ei	ei	0		V	neg
olevad	olev	d		A	pl n
mitte	mitte	0		D	
maha	maha	0		D	
tehtud	tege	tud		V	tud
,	,			Z	
ja	ja	0		J	
arvab	arva	b		V	b
,	,			Z	
et	et	0		J	
temal	tema	l		P	sg ad
selle	see	0		P	sg g
järele	järele	0		K	
kaebajale	kaebaja	le		S	sg all
midagid	miski	dagid		P	sg p
tasomist	####				
ei	ei	0		V	neg
ole	ole	0		V	o
.	.			Z	
</s>					
