<s>					
Jaan	Jaan	0		H	sg n
Kärik	Kärik	0		H	sg n
kaebas	kaeba	s		V	s
siin	siin	0		D	
kohto	kohus	0		S	sg g
ees	ees	0		K	
,	,			Z	
et	et	0		J	
Alex	Alex	0		H	sg n
.	.			Z	
</s>					
<s>					
Kärik	Kärik	0		H	sg n
temal	tema	l		P	sg ad
mitte	mitte	0		D	
käsk	käsk	0		S	sg n
andnud	and	nud		V	nud
kreiskohtos	####				
minna	mine	a		V	da
ja	ja	0		J	
pidanud	pida	nud		V	nud
väljäjäämise	####				
ees	ees	0		D	
2	2	0		N	?
rubla	rubla	0		S	sg p
trahvi	trahv	0		S	sg p
maksma	maks	ma		V	ma
kreiskohto	####				
ja	ja	0		J	
selle	see	0		P	sg g
üle	üle	0		K	
kohut	kohus	t		S	sg p
palub	palu	b		V	b
,	,			Z	
et	et	0		J	
süidlasse	####				
käest	käsi	st		S	sg el
see	see	0		P	sg n
2	2	0		N	?
rubla	rubla	0		S	sg p
trahviraha	trahvi_raha	0		S	sg g
sisse	sisse	0		K	
nouetud	####				
saaks	saa	ks		V	ks
.	.			Z	
</s>					
<s>					
Selle	see	0		P	sg g
peale	peale	0		K	
sai	saa	i		V	s
Alex	Alex	0		H	sg n
.	.			Z	
</s>					
<s>					
Kärik	Kärik	0		H	sg n
ette	ette	0		H	sg n
kutsutud	kutsu	tud		V	tud
ning	ning	0		J	
andis	and	is		V	s
siin	siin	0		D	
üles	üles	0		D	
,	,			Z	
et	et	0		J	
tema	tema	0		P	sg g
palunud	palu	nud		V	nud
Johan	Johan	0		H	sg n
Järso	Järso	0		H	sg n
Jaan	Jaan	0		H	sg n
Käril	Kärik	l		H	sg ad
käsk	käsk	0		S	sg n
anda	and	a		V	da
sel	see	l		P	sg ad
6	6	0		N	?
veebr	veebr	0		Y	?
.	.			Z	
</s>					
<s>					
kreiskohtos	####				
olla	ole	a		V	da
,	,			Z	
vaid	vaid	0		D	
annud	and	nud		V	nud
käsk	käsk	0		S	sg n
sel	see	l		P	sg ad
6	6	0		N	?
märtsil	märts	l		S	sg ad
ja	ja	0		J	
ei	ei	0		V	neg
arva	arva	0		V	o
süidlane	süüdlane	0		S	sg n
olla	ole	a		V	da
ja	ja	0		J	
Johan	Johan	0		H	sg n
Järso	Järso	0		H	sg n
käest	käsi	st		S	sg el
see	see	0		P	sg n
trahv	trahv	0		S	sg n
sisse	sisse	0		D	
nõuda	nõud	a		V	da
palub	palu	b		V	b
.	.			Z	
</s>					
<s>					
Selle	see	0		P	sg g
peale	peale	0		K	
sai	saa	i		V	s
Johan	Johan	0		H	sg n
Järs	Järs	0		H	sg n
ette	ette	0		H	sg n
kutsut	kutsu	t		S	sg p
ning	ning	0		J	
andis	and	is		V	s
siin	siin	0		D	
üles	üles	0		D	
,	,			Z	
et	et	0		J	
Alex	Alex	0		H	sg n
.	.			Z	
</s>					
<s>					
Kärik	Kärik	0		H	sg n
küll	küll	0		D	
Randa	Randa	0		H	sg n
kõrtsis	kõrts	s		S	sg in
teda	tema	da		P	sg p
palunud	palu	nud		V	nud
Jaan	Jaan	0		H	sg n
Kärikule	Kärik	le		H	sg all
käsk	käsk	0		S	sg n
anda	and	a		V	da
kreiskohto	####				
sel	see	l		P	sg ad
6	6	0		N	?
veebr	veebr	0		Y	?
.	.			Z	
</s>					
<s>					
minna	mine	a		V	da
,	,			Z	
ei	ei	0		V	neg
ole	ole	0		V	o
aga	aga	0		J	
õiete	####				
ära	ära	0		D	
saanud	saa	nud		V	nud
ja	ja	0		J	
käsk	käsk	0		S	sg n
väärite	vääri	te		V	te
annud	and	nud		V	nud
,	,			Z	
selle	see	0		P	sg g
et	et	0		J	
tema	tema	0		P	sg g
veitike	####				
olut	####				
on	ole	0		V	b
  	ole	0		V	vad
saanud	saa	nud		V	nud
ja	ja	0		J	
purjun	####				
olnud	ole	nud		V	nud
.	.			Z	
</s>					
