<s>					
Rätsep	Rätsep	0		H	sg n
Märt	Märt	0		H	sg n
Mõrro	Mõrro	0		H	sg n
kaebas	kaeba	s		V	s
siin	siin	0		D	
kohto	kohus	0		S	sg g
ees	ees	0		K	
,	,			Z	
et	et	0		J	
Jaan	Jaan	0		H	sg n
Kallis	Kallis	0		H	sg n
teda	tema	da		P	sg p
tako	####				
rätsepas	rätsep	s		S	sg in
laimanud	laima	nud		V	nud
,	,			Z	
ja	ja	0		J	
selle	see	0		P	sg g
üle	üle	0		K	
kohto	kohus	0		S	sg g
seletust	seletus	t		S	sg p
ja	ja	0		J	
otsust	otsus	t		S	sg p
palub	palu	b		V	b
,	,			Z	
et	et	0		J	
kaebatud	kaeva	tud		V	tud
selle	see	0		P	sg g
üle	üle	0		K	
trahvitud	trahvi	tud		V	tud
saaks	saa	ks		V	ks
.	.			Z	
</s>					
<s>					
Jaan	Jaan	0		H	sg n
Kallis	Kallis	0		H	sg n
sai	saa	i		V	s
selle	see	0		P	sg g
peale	peale	0		K	
ette	ette	0		H	sg n
kutsutud	kutsu	tud		V	tud
,	,			Z	
ning	ning	0		J	
andis	and	is		V	s
siis	siis	0		D	
üles	üles	0		D	
,	,			Z	
et	et	0		J	
tema	tema	0		P	sg g
kaebajad	kaebaja	d		S	pl n
mingi	mingi	0		P	sg g
suguste	sugune	te		A	pl g
sõnatega	####				
laemanu	####				
ei	ei	0		V	neg
olevad	olev	d		A	pl n
.	.			Z	
</s>					
<s>					
Ise	ise	0		P	sg n
eneste	ise	te		P	pl g
vahel	vahel	0		K	
ära	ära	0		D	
leppinud	leppi	nud		V	nud
.	.			Z	
</s>					
<s>					
Sai	saa	i		H	s
mõistetud	mõist	tud		V	tud
,	,			Z	
eel	eel	0		K	
seisvad	seisev	d		A	pl n
asja	asi	0		S	sg p
,	,			Z	
nenda	nõnda	0		D	
kui	kui	0		D	
   	kui	0		J	
sündinud	sündi	nud		V	nud
,	,			Z	
kirja	kiri	0		S	adt
panna	pane	a		V	da
.	.			Z	
</s>					
