<s>					
Tulid	tule	id		V	sid
ette	ette	0		H	sg n
Jaan	Jaan	0		H	sg n
Murro	Murro	0		H	sg n
,	,			Z	
Hans	Hans	0		H	sg n
Lukk	Lukk	0		H	sg n
,	,			Z	
ning	ning	0		J	
Hans	Hans	0		H	sg n
Märtin	Märtin	0		H	sg n
ja	ja	0		J	
kaebasid	kaeba	sid		V	sid
siin	siin	0		D	
kohto	kohus	0		S	sg g
ees	ees	0		K	
,	,			Z	
et	et	0		J	
nende	see	de		P	pl g
naabri	naaber	0		S	sg g
mees	mees	0		S	sg n
Karl	Karl	0		H	sg n
Sõlg	Sõlg	0		H	sg n
nende	see	de		P	pl g
heina	hein	0		S	sg p
maa	maa	0		S	sg g
keik	kõik	0		P	pl n
see	see	0		P	sg n
sui	sui	0		D	
oma	oma	0		P	sg g
karjaga	kari	ga		S	sg kom
läbi	läbi	0		D	
sõkkunud	####				
,	,			Z	
ja	ja	0		J	
neile	tema	le		P	pl all
liig	liig	0		S	sg n
paljo	palju	0		D	
kahjo	kahju	0		S	sg g
teinud	tege	nud		V	nud
,	,			Z	
ja	ja	0		J	
selle	see	0		P	sg g
üle	üle	0		K	
kohto	kohus	0		S	sg g
seletust	seletus	t		S	sg p
ja	ja	0		J	
otsust	otsus	t		S	sg p
paluvad	palu	vad		V	vad
,	,			Z	
et	et	0		J	
neile	tema	le		P	pl all
selle	see	0		P	sg g
üle	üle	0		K	
ka	ka	0		D	
kahjo	kahju	0		S	sg g
tasumist	tasumine	t		S	sg p
mõistetud	mõist	tud		V	tud
saaks	saa	ks		V	ks
,	,			Z	
nende	see	de		P	pl g
nõudmine	nõudmine	0		S	sg n
on	ole	0		V	b
  	ole	0		V	vad
nimelt	nimelt	0		D	
:	:			Z	
Jaan	Jaan	0		H	sg n
Murrul	Murro	l		H	sg ad
15	15	0		N	?
rubla	rubla	0		S	sg p
raha	raha	0		S	sg n
</s>					
<s>					
Hans	Hans	0		H	sg n
Lukkul	Lukk	l		H	sg ad
30	30	0		N	?
leisikat	leisikas	t		S	sg p
heino	Heino	0		H	sg n
</s>					
<s>					
Hans	Hans	0		H	sg n
Märtinil	Märt	l		H	sg ad
20	20	0		N	?
rubla	rubla	0		S	sg p
raha	raha	0		S	sg n
</s>					
<s>					
Karl	Karl	0		H	sg n
Sõlg	Sõlg	0		H	sg n
sai	saa	i		V	s
ette	ette	0		H	sg n
kutsut	kutsu	t		S	sg p
,	,			Z	
ning	ning	0		J	
andis	and	is		V	s
siin	siin	0		D	
üles	üles	0		D	
,	,			Z	
et	et	0		J	
tema	tema	0		P	sg n
olla	ole	a		V	da
küll	küll	0		D	
oma	oma	0		P	sg g
karjaga	kari	ga		S	sg kom
senna	senna	0		S	sg n
ka	ka	0		D	
puutunud	puutu	nud		V	nud
,	,			Z	
aga	aga	0		J	
mitte	mitte	0		D	
üksinda	üksinda	0		D	
,	,			Z	
vaid	vaid	0		D	
Märt	Märt	0		H	sg n
Kotzmanni	Kotzmann	0		H	sg g
kari	kari	0		S	sg n
olla	ole	a		V	da
ka	ka	0		D	
seal	seal	0		D	
ühes	ühes	0		K	
tema	tema	0		P	sg g
karjaga	kari	ga		S	sg kom
käinud	käi	nud		V	nud
,	,			Z	
ja	ja	0		J	
seda	see	da		P	sg p
ka	ka	0		D	
enese	ise	0		P	sg g
kahjo	kahju	0		S	sg g
tasumise	tasumine	0		S	sg g
abiliseks	abiline	ks		S	sg tr
kohto	kohus	0		S	sg g
alla	alla	0		K	
võtta	võt	a		V	da
palub	palu	b		V	b
,	,			Z	
kelle	kes	0		P	sg g
üle	üle	0		K	
ka	ka	0		D	
Hans	Hans	0		H	sg n
Tätta	Tätta	0		H	sg n
tunnistust	tunnistus	t		S	sg p
voivad	####				
anda	and	a		V	da
.	.			Z	
</s>					
<s>					
Sel	sel	0		Y	?
24.	24.	0		O	?
okt	okt	0		Y	?
.	.			Z	
</s>					
<s>					
Juures	juur	s		S	sg in
olid	ole	id		V	sid
:	:			Z	
kohtomees	kohtu_mees	0		S	sg n
H.	H.	0		Y	sg n
Laosson	Laosson	0		H	sg n
Abi	abi	0		S	sg n
J.	J.	0		Y	sg n
Laosson	Laosson	0		H	sg n
,	,			Z	
Joh	Joh	0		H	sg n
.	.			Z	
</s>					
<s>					
Tassak	Tassak	0		H	sg n
</s>					
<s>					
Tellimise	tellimine	0		S	sg g
peale	peale	0		K	
olid	ole	id		V	sid
ette	ette	0		H	sg n
tulnud	tule	nud		V	nud
,	,			Z	
Hans	Hans	0		H	sg n
Lukk	Lukk	0		H	sg n
,	,			Z	
Hans	Hans	0		H	sg n
Märtin	Märtin	0		H	sg n
,	,			Z	
Jaan	Jaan	0		H	sg n
Murro	Murro	0		H	sg n
,	,			Z	
Karl	Karl	0		H	sg n
Sõlg	Sõlg	0		H	sg n
ning	ning	0		J	
Märt	Märt	0		H	sg n
Kotzmann	Kotzmann	0		H	sg n
ja	ja	0		J	
Hans	Hans	0		H	sg n
Tätta	Tätta	0		H	sg n
andis	and	is		V	s
siin	siin	0		D	
üles	üles	0		D	
,	,			Z	
et	et	0		J	
tema	tema	0		P	sg n
seda	see	da		P	sg p
küll	küll	0		D	
näinud	näge	nud		V	nud
,	,			Z	
kui	kui	0		D	
   	kui	0		J	
Märt	Märt	0		H	sg n
Kotzmanni	Kotzmann	0		H	sg g
kari	kari	0		S	sg n
ükskord	üks_kord	0		D	
kaebajate	kaebaja	te		S	pl g
heina	hein	0		S	sg p
maa	maa	0		S	sg g
peal	peal	0		K	
olnud	ole	nud		V	nud
.	.			Z	
</s>					
<s>					
Märt	Märt	0		H	sg n
Kotzmann	Kotzmann	0		H	sg n
nimetas	nimeta	s		V	s
,	,			Z	
et	et	0		J	
tema	tema	0		P	sg g
sest	sest	0		J	
midagi	miski	dagi		P	sg p
ei	ei	0		V	neg
teadvad	teadev	d		A	pl n
,	,			Z	
voib	või	b		V	b
olla	ole	a		V	da
et	et	0		J	
olnud	ole	nud		V	nud
,	,			Z	
tema	tema	0		P	sg g
teadmise	teadmine	0		S	sg g
järele	järele	0		K	
olla	ole	a		V	da
aga	aga	0		J	
kange	kange	0		A	sg n
hoidmine	hoidmine	0		S	sg n
olnud	ole	nud		V	nud
.	.			Z	
</s>					
<s>					
Kohto	kohus	0		S	sg g
liikmed	liige	d		S	pl n
olid	ole	id		V	sid
seda	see	da		P	sg p
kahjo	kahju	0		S	sg g
üle	üle	0		K	
takseerinud	takseeri	nud		V	nud
ja	ja	0		J	
nimelt	nimelt	0		D	
Jaan	Jaan	0		H	sg n
Murrol	Murrol	0		H	sg n
2	2	0		N	?
vaka	vakk	0		S	sg g
läbi	läbi	0		K	
söötmise	söötmine	0		S	sg g
pealt	pealt	0		K	
20	20	0		N	?
leisikat	leisikas	t		S	sg p
heino	Heino	0		H	sg n
</s>					
<s>					
Hans	Hans	0		H	sg n
Märtinil	Märt	l		H	sg ad
2	2	0		N	?
vaka	vakk	0		S	sg g
läbi	läbi	0		K	
söötmise	söötmine	0		S	sg g
pealt	pealt	0		K	
20	20	0		N	?
leisikat	leisikas	t		S	sg p
heino	Heino	0		H	sg n
</s>					
<s>					
Hans	Hans	0		H	sg n
Lukkul	Lukk	l		H	sg ad
2	2	0		N	?
vaka	vakk	0		S	sg g
läbi	läbi	0		K	
söötmise	söötmine	0		S	sg g
pealt	pealt	0		K	
20	20	0		N	?
leisikat	leisikas	t		S	sg p
heino	Heino	0		H	sg g
</s>					
<s>					
Kui	kui	0		D	
   	kui	0		J	
kohto	kohus	0		S	sg g
käiatel	käija	tel		S	pl ad
selle	see	0		P	sg g
asja	asi	0		S	sg g
seletuseks	seletus	ks		S	sg tr
enam	enam	0		D	
midagi	miski	dagi		P	sg p
siia	siia	0		D	
ette	ette	0		H	sg n
tuua	too	a		V	da
ei	ei	0		V	neg
olnud	ole	nud		V	nud
,	,			Z	
siis	siis	0		J	
pidi	pida	i		V	s
selle	see	0		P	sg g
kohto	kohus	0		S	sg g
poolt	poolt	0		K	
mõistetama	mõist	tama		V	tama
,	,			Z	
""""	""""			Z	
et	et	0		J	
kaebatud	kaeva	tud		V	tud
Karl	Karl	0		H	sg n
Sõlg	Sõlg	0		H	sg n
ning	ning	0		J	
Märt	Märt	0		H	sg n
Kotzmann	Kotzmann	0		H	sg n
selle	see	0		P	sg g
nende	see	de		P	pl g
paele	paas	le		S	sg all
tõstetud	tõst	tud		V	tud
kahjo	kahju	0		S	sg g
tegemise	tegemine	0		S	sg g
kaebtuse	####				
juures	juures	0		K	
süidlaseks	süüdlane	ks		S	sg tr
arvata	arva	ta		V	da
oleks	ole	ks		V	ks
,	,			Z	
ning	ning	0		J	
selle	see	0		P	sg g
põhjussel	####				
Karl	Karl	0		H	sg n
Sõlg	Sõlg	0		H	sg n
maksaks	maks	ks		V	ks
,	,			Z	
Jaan	Jaan	0		H	sg n
Murrul	Murro	l		H	sg ad
15	15	0		N	?
leisikat	leisikas	t		S	sg p
heino	Heino	0		H	sg n
</s>					
<s>					
Hans	Hans	0		H	sg n
Lukkul	Lukk	l		H	sg ad
15	15	0		N	?
leisikat	leisikas	t		S	sg p
heino	Heino	0		H	sg n
</s>					
<s>					
Hans	Hans	0		H	sg n
Märtinil	Märt	l		H	sg ad
15	15	0		N	?
leisikat	leisikas	t		S	sg p
heino	Heino	0		H	sg n
</s>					
<s>					
Märt	Märt	0		H	sg n
Kotzmann	Kotzmann	0		H	sg n
maksaks	maks	ks		V	ks
Jaan	Jaan	0		H	sg n
Murrul	Murro	l		H	sg ad
5	5	0		N	?
leisikat	leisikas	t		S	sg p
heino	Heino	0		H	sg n
</s>					
<s>					
Hans	Hans	0		H	sg n
Lukkul	Lukk	l		H	sg ad
5	5	0		N	?
leisikat	leisikas	t		S	sg p
heino	Heino	0		H	sg n
</s>					
<s>					
Hans	Hans	0		H	sg n
Märtinil	Märt	l		H	sg ad
5	5	0		N	?
leisikat	leisikas	t		S	sg p
heino	Heino	0		H	sg g
</s>					
<s>					
Seda	see	da		P	sg p
otsust	otsus	t		S	sg p
aga	aga	0		J	
ka	ka	0		D	
14	14	0		N	?
p	p	0		Y	?
.	.			Z	
s	s	0		Y	?
.	.			Z	
sest	sest	0		J	
otsuse	otsus	0		S	sg g
andm	andm	0		Y	?
.	.			Z	
</s>					
<s>					
arvata	arva	ta		V	da
täidaks	täit	ks		V	ks
"."""	"."""			Z	
</s>					
<s>					
Karl	Karl	0		H	sg n
Sõlg	Sõlg	0		H	sg n
aga	aga	0		J	
ka	ka	0		D	
edaspidiseks	edas_pidine	ks		A	sg tr
kahjo	kahju	0		S	sg g
tasumise	tasumine	0		S	sg g
maksjaks	maksja	ks		S	sg tr
jääb	jää	b		V	b
,	,			Z	
kui	kui	0		D	
   	kui	0		J	
tema	tema	0		P	sg n
karjast	kari	st		S	sg el
ära	ära	0		D	
sõkutud	####				
heina	hein	0		S	sg g
maa	maa	0		S	sg g
tükk	tükk	0		S	sg n
teise	teine	0		O	sg g
     	teine	0		P	sg g
selle	see	0		P	sg g
kõrvas	kõrv	s		S	sg in
oleva	olev	0		A	sg g
heina	hein	0		S	sg g
maa	maa	0		S	sg g
jau	####				
järele	järele	0		D	
kohto	kohus	0		S	sg g
takseerimise	takseeri=mine	0		S	sg g
peale	peale	0		K	
vähem	vähem	0		D	
heino	Heino	0		H	sg n
annab	and	b		V	b
"."""	"."""			Z	
</s>					
<s>					
Õ.	Õ.	0		Y	sg n
</s>					
<s>					
N.	N.	0		Y	sg n
</s>					
<s>					
See	see	0		P	sg n
otsus	otsus	0		S	sg n
sai	saa	i		V	s
kohto	kohus	0		S	sg g
käiatel	käija	tel		S	pl ad
kohe	kohe	0		D	
kuulutud	kuulu	tud		V	tud
,	,			Z	
ning	ning	0		J	
selle	see	0		P	sg g
peale	peale	0		K	
mõistetud	mõist	tud		V	tud
,	,			Z	
eel	eel	0		K	
seisvad	seisev	d		A	pl n
asja	asi	0		S	sg p
,	,			Z	
nenda	nõnda	0		D	
kui	kui	0		D	
   	kui	0		J	
sündinud	sündi	nud		V	nud
,	,			Z	
kirja	kiri	0		S	adt
panna	pane	a		V	da
.	.			Z	
</s>					
