<s>					
Jaan	Jaan	0		H	sg n
Tuul	Tuul	0		H	sg n
kaebas	kaeba	s		V	s
siin	siin	0		D	
et	et	0		J	
Märt	Märt	0		H	sg n
Kondik	Kondik	0		H	sg n
temal	tema	l		P	sg ad
võlgo	võlgu	0		D	
olla	ole	a		V	da
1	1	0		N	?
rubla	rubla	0		S	sg p
50	50	0		N	?
kop	kop	0		Y	?
.	.			Z	
</s>					
<s>					
Märt	Märt	0		H	sg n
Kondik	Kondik	0		H	sg n
ette	ette	0		H	sg n
kutsut	kutsu	t		S	sg p
ja	ja	0		J	
nimetas	nimeta	s		V	s
siin	siin	0		D	
,	,			Z	
et	et	0		J	
tema	tema	0		P	sg g
sest	sest	0		J	
midagi	miski	dagi		P	sg p
ei	ei	0		V	neg
teadvad	teadev	d		A	pl n
.	.			Z	
</s>					
<s>					
Leppisid	leppi	sid		V	sid
ära	ära	0		D	
.	.			Z	
</s>					
