<s>					
Tuli	tuli	0		S	sg n
ette	ette	0		H	sg n
Uue	Uue	0		H	sg n
Suislepa	Suislepa	0		H	sg n
mõisa	mõis	0		S	sg g
valitsus	valitsus	0		H	sg n
ning	ning	0		J	
kaebas	kaeba	s		V	s
siin	siin	0		D	
kohto	kohus	0		S	sg g
ees	ees	0		K	
,	,			Z	
et	et	0		J	
Kaubi	Kaubi	0		H	sg n
Johan	Johan	0		H	sg n
Märtsoni	Märt	0		H	sg g
4	4	0		N	?
hobest	####				
mõisa	mõis	0		S	sg g
noore	noor	0		A	sg g
metsa	mets	0		S	sg g
raiantikus	####				
olnud	ole	nud		V	nud
,	,			Z	
ning	ning	0		J	
selle	see	0		P	sg g
üle	üle	0		K	
kohto	kohus	0		S	sg g
seletust	seletus	t		S	sg p
ja	ja	0		J	
otsust	otsus	t		S	sg p
palub	palu	b		V	b
,	,			Z	
et	et	0		J	
tema	tema	0		P	sg g
kahjo	kahju	0		S	sg g
tasotud	####				
saaks	saa	ks		V	ks
.	.			Z	
</s>					
<s>					
Johan	Johan	0		H	sg n
Märtson	Märtson	0		H	sg n
sai	saa	i		V	s
selle	see	0		P	sg g
peale	peale	0		K	
ette	ette	0		H	sg n
tellit	####				
ning	ning	0		J	
andis	and	is		V	s
siin	siin	0		D	
üles	üles	0		D	
,	,			Z	
et	et	0		J	
hobesed	####				
pagenemise	####				
moodi	moodi	0		K	
ära	ära	0		D	
läinud	mine	nud		V	nud
ja	ja	0		J	
mõisa	mõis	0		S	sg g
metsa	mets	0		S	sg g
läinud	mine	nud		V	nud
,	,			Z	
ja	ja	0		J	
see	see	0		P	sg n
kord	kord	0		S	sg n
andis	and	is		V	s
palub	palu	b		V	b
.	.			Z	
</s>					
<s>					
Mõisa	Mõisa	0		H	sg n
valitsus	valitsus	0		H	sg n
leppis	leppi	s		V	s
ka	ka	0		D	
andis	and	is		V	s
.	.			Z	
</s>					
<s>					
Sai	saa	i		H	s
mõistetud	mõist	tud		V	tud
,	,			Z	
eel	eel	0		K	
seisvad	seisev	d		A	pl n
asja	asi	0		S	sg p
,	,			Z	
nenda	nõnda	0		D	
kui	kui	0		D	
   	kui	0		J	
sündinud	sündi	nud		V	nud
,	,			Z	
kirja	kiri	0		S	adt
panna	pane	a		V	da
.	.			Z	
</s>					
