<s>					
Tuli	tuli	0		S	sg n
ette	ette	0		H	sg n
Mari	Mari	0		H	sg n
Jaakson	Jaakson	0		H	sg n
oma	oma	0		P	sg g
käemehe	käe_mees	0		S	sg g
Peeter	Peeter	0		H	sg n
Janussega	Janussega	0		H	sg n
ning	ning	0		J	
kaebas	kaeba	s		V	s
siin	siin	0		D	
kohto	kohus	0		S	sg g
ees	ees	0		K	
,	,			Z	
et	et	0		J	
tema	tema	0		P	sg g
teender	####				
Hans	Hans	0		H	sg n
Kärik	Kärik	0		H	sg n
tema	tema	0		P	sg g
juurest	juurest	0		K	
enne	enne	0		K	
teenistuse	teenistus	0		S	sg g
aia	aed	0		S	sg g
ära	ära	0		D	
lõppemist	lõppemine	t		S	sg p
ära	ära	0		D	
põgenud	####				
,	,			Z	
ning	ning	0		J	
peale	peale	0		K	
selle	see	0		P	sg g
teda	tema	da		P	sg p
veel	veel	0		D	
jalgega	####				
peksnud	peks	nud		V	nud
nendasama	nõnda_sama	0		D	
ka	ka	0		D	
10	10	0		N	?
rubla	rubla	0		S	sg p
raha	raha	0		S	sg n
mis	mis	0		P	sg n
tema	tema	0		P	sg g
(	(			Z	
kaebaja	kaebaja	0		S	sg g
)	)			Z	
Hans	Hans	0		H	sg n
Käriko	Kärik	0		H	sg g
raha	raha	0		S	sg g
kotti	kott	0		S	adt
pannud	pane	nud		V	nud
,	,			Z	
ära	ära	0		D	
võtnud	võt	nud		V	nud
,	,			Z	
ja	ja	0		J	
nüüd	nüüd	0		D	
enam	enam	0		D	
kätte	käsi	tte		S	adt
ei	ei	0		V	neg
andvad	andev	d		A	pl n
,	,			Z	
ning	ning	0		J	
selle	see	0		P	sg g
üle	üle	0		K	
kohto	kohus	0		S	sg g
seletust	seletus	t		S	sg p
,	,			Z	
abi	abi	0		S	sg p
ning	ning	0		J	
otsust	otsus	t		S	sg p
palub	palu	b		V	b
,	,			Z	
et	et	0		J	
ta	tema	0		P	sg n
oma	oma	0		P	sg g
ära	ära	0		D	
voetud	voe=tu	d		A	pl n
raha	raha	0		S	sg p
,	,			Z	
kätte	käsi	tte		S	adt
,	,			Z	
kaebatu	kaeva	tud		V	tud
teenistusest	teenistus	st		S	sg el
ära	ära	0		D	
põgenemise	põgenemine	0		S	sg g
eest	eest	0		K	
seadusliko	####				
kahjo	kahju	0		S	sg g
tasumist	tasumine	t		S	sg p
ning	ning	0		J	
peksmise	peksmine	0		S	sg g
eest	eest	0		K	
valo	####				
kannatamise	kannatamine	0		S	sg g
hinda	hind	0		S	sg p
,	,			Z	
ja	ja	0		J	
nendasama	nõnda_sama	0		D	
ka	ka	0		D	
need	see	d		P	pl n
kaebatul	####				
kätte	käsi	tte		S	adt
antud	and	tud		V	tud
15	15	0		N	?
rubla	rubla	0		S	sg p
teenistuse	teenistus	0		S	sg g
palka	palk	0		S	sg p
tagasi	tagasi	0		K	
saaks	saa	ks		V	ks
.	.			Z	
</s>					
<s>					
Hans	Hans	0		H	sg n
Kärik	Kärik	0		H	sg n
sai	saa	i		V	s
ette	ette	0		H	sg n
kutsut	kutsu	t		S	sg p
selle	see	0		P	sg g
peale	peale	0		K	
ning	ning	0		J	
andis	and	is		V	s
siin	siin	0		D	
üles	üles	0		D	
,	,			Z	
et	et	0		J	
tema	tema	0		P	sg n
küll	küll	0		D	
kaebaja	kaebaja	0		S	sg g
juurest	juurest	0		K	
enne	enne	0		K	
aasta	aasta	0		S	sg g
lõppemist	lõppemine	t		S	sg p
ära	ära	0		D	
läinud	mine	nud		V	nud
,	,			Z	
ja	ja	0		J	
nimelt	nimelt	0		D	
selle	see	0		P	sg g
pärast	pärast	0		K	
,	,			Z	
et	et	0		J	
kaebajal	kaebaja	l		S	sg ad
enam	enam	0		D	
omas	oma	s		A	sg in
kodus	kodu	s		S	sg in
tööd	töö	d		S	sg p
ei	ei	0		V	neg
ole	ole	0		V	o
olnud	ole	nud		V	nud
,	,			Z	
ja	ja	0		J	
teda	tema	da		P	sg p
Tallna	Tallna	0		H	sg n
mõisa	mõis	0		S	sg g
heino	Heino	0		H	sg g
tegema	tege	ma		V	ma
sundinud	sundi	nud		V	nud
minna	mine	a		V	da
,	,			Z	
tema	tema	0		P	sg g
kaup	kaup	0		S	sg n
olnud	ole	nud		V	nud
aga	aga	0		J	
ainult	ainult	0		D	
Ligemetsa	Ligemetsa	0		H	sg n
talus	talu	s		V	s
teenimise	teenimine	0		S	sg g
peale	peale	0		K	
maha	maha	0		D	
pantud	####				
,	,			Z	
ja	ja	0		J	
selle	see	0		P	sg g
pärast	pärast	0		K	
ka	ka	0		D	
nüüd	nüüd	0		D	
enam	enam	0		D	
milgi	mil	0	gi	D	
kombel	komme	l		S	sg ad
tagasi	tagasi	0		D	
teenima	teeni	ma		V	ma
ei	ei	0		V	neg
taha	taht	0		V	o
minna	mine	a		V	da
,	,			Z	
et	et	0		J	
kaebaja	kaebaja	0		S	sg n
aga	aga	0		J	
tema	tema	0		P	sg g
peale	peale	0		K	
löömise	löömine	0		S	sg g
ehk	ehk	0		J	
peksmise	peksmine	0		S	sg g
pärast	pärast	0		K	
on	ole	0		V	b
  	ole	0		V	vad
kaebanud	kaeva	nud		V	nud
,	,			Z	
see	see	0		P	sg n
ei	ei	0		V	neg
olla	ole	a		V	da
aga	aga	0		J	
sugugi	sugugi	0		D	
õige	õige	0		A	sg n
,	,			Z	
et	et	0		J	
tema	tema	0		P	sg g
mitte	mitte	0		D	
peksnud	peks	nud		V	nud
ei	ei	0		D	
olevad	olev	d		A	pl n
,	,			Z	
selle	see	0		P	sg g
raha	raha	0		S	sg g
pärast	pärast	0		K	
aga	aga	0		J	
,	,			Z	
mis	mis	0		P	sg n
M.	M.	0		Y	sg n
Jaakson	Jaakson	0		H	sg n
üles	üles	0		D	
annud	and	nud		V	nud
olla	ole	a		V	da
asjad	asi	d		S	pl n
nenda	nõnda	0		D	
olnud	ole	nud		V	nud
,	,			Z	
et	et	0		J	
kaebaja	kaebaja	0		S	sg n
esiti	esiti	0		D	
,	,			Z	
tema	tema	0		P	sg g
(	(			Z	
kaebatu	kaeva	tud		V	tud
)	)			Z	
püksi	püks	0		S	adt
taskust	tasku	st		S	sg el
2	2	0		N	?
rubla	rubla	0		S	sg p
enesele	ise	le		P	sg all
ära	ära	0		D	
võtnud	võt	nud		V	nud
,	,			Z	
ja	ja	0		J	
pärast	pärast	0		K	
jälle	jälle	0		D	
10	10	0		N	?
rubla	rubla	0		S	sg g
asemel	asemel	0		K	
pannud	pane	nud		V	nud
,	,			Z	
mis	mis	0		P	sg n
kaebaja	kaebaja	0		S	sg n
temal	tema	l		P	sg ad
viimati	viimati	0		D	
ka	ka	0		D	
palgas	palk	s		S	sg in
jätta	jät	a		V	da
lubanud	luba	nud		V	nud
,	,			Z	
ja	ja	0		J	
sellepärast	selle_pärast	0		D	
ka	ka	0		D	
enam	enam	0		D	
kätte	käsi	tte		S	adt
ei	ei	0		V	neg
andvad	andev	d		A	pl n
.	.			Z	
</s>					
<s>					
Sel	sel	0		Y	?
25.	25.	0		O	?
juulil	juuli	l		S	sg ad
s	s	0		Y	?
.	.			Z	
a	a	0		Y	?
.	.			Z	
Juures	juur	s		S	sg in
olid	ole	id		V	sid
:	:			Z	
peakohtomees	pea_kohtu_mees	0		S	sg n
H.	H.	0		Y	sg n
Lukk	Lukk	0		H	sg n
Kohtomees	kohtu_mees	0		S	sg n
H.	H.	0		Y	sg n
Laosson	Laosson	0		H	sg n
,	,			Z	
J.	J.	0		Y	sg n
Murro	Murro	0		H	sg n
</s>					
<s>					
Tellimise	tellimine	0		S	sg g
peale	peale	0		K	
olid	ole	id		V	sid
ette	ette	0		H	sg n
tulnud	tule	nud		V	nud
Mari	Mari	0		H	sg n
Jaakson	Jaakson	0		H	sg n
,	,			Z	
oma	oma	0		P	sg g
käemehe	käe_mees	0		S	sg g
P.	P.	0		Y	sg n
Janussega	Janussega	0		H	sg n
,	,			Z	
ning	ning	0		J	
Hans	Hans	0		H	sg n
Kärik	Kärik	0		H	sg n
ja	ja	0		J	
andis	and	is		V	s
Hans	Hans	0		H	sg n
Kärik	Kärik	0		H	sg n
siin	siin	0		D	
üles	üles	0		D	
,	,			Z	
et	et	0		J	
tema	tema	0		P	sg g
15	15	0		N	?
rubla	rubla	0		S	sg p
palka	palk	0		S	sg p
kätte	käsi	tte		S	adt
saanud	saa	nud		V	nud
ja	ja	0		J	
10	10	0		N	?
rubla	rubla	0		S	sg p
veel	veel	0		D	
saada	saa	da		V	da
olevad	olev	d		A	pl n
üle	üle	0		K	
viie	viis	0		N	sg g
kuu	kuu	0		S	sg g
teenistuse	teenistus	0		S	sg g
.	.			Z	
</s>					
<s>					
Üles	üles	0		D	
antud	and	tud		V	tud
tunnistaja	tunnistaja	0		S	sg n
Hans	Hans	0		H	sg n
Märtson	Märtson	0		H	sg n
oli	ole	i		V	s
tulemata	tule	mata		V	mata
jäänud	jää	nud		V	nud
.	.			Z	
</s>					
<s>					
Sel	sel	0		Y	?
8.	8.	0		O	?
augustil	august	l		S	sg ad
s	s	0		Y	?
.	.			Z	
a	a	0		Y	?
.	.			Z	
Juures	juur	s		S	sg in
olid	ole	id		V	sid
:	:			Z	
peakohtomees	pea_kohtu_mees	0		S	sg n
H.	H.	0		Y	sg n
Lukk	Lukk	0		H	sg n
Kohtomees	kohtu_mees	0		S	sg n
H.	H.	0		Y	sg n
Laosson	Laosson	0		H	sg n
Abi	abi	0		S	sg n
Joh	Joh	0		H	sg n
.	.			Z	
</s>					
<s>					
Tassak	Tassak	0		H	sg n
</s>					
<s>					
Tellimise	tellimine	0		S	sg g
peale	peale	0		K	
oli	ole	i		V	s
ette	ette	0		H	sg n
tulnud	tule	nud		V	nud
,	,			Z	
tunnistaja	tunnistaja	0		S	sg n
Hans	Hans	0		H	sg n
Märtson	Märtson	0		H	sg n
,	,			Z	
ning	ning	0		J	
andis	and	is		V	s
siin	siin	0		D	
üles	üles	0		D	
,	,			Z	
et	et	0		J	
tema	tema	0		P	sg g
löömist	löömine	t		S	sg p
ei	ei	0		V	neg
olevad	olev	d		A	pl n
näinud	näge	nud		V	nud
,	,			Z	
seda	see	da		P	sg p
aga	aga	0		J	
küll	küll	0		D	
kuulnud	kuul	nud		V	nud
,	,			Z	
kui	kui	0		D	
   	kui	0		J	
M.	M.	0		Y	sg n
Jaakson	Jaakson	0		H	sg n
Hans	Hans	0		H	sg n
Kärikud	Kärik	d		H	sg g
alati	alati	0		D	
üles	üles	0		D	
aianud	####				
,	,			Z	
poiss	poiss	0		S	sg n
mitte	mitte	0		D	
ei	ei	0		V	neg
ole	ole	0		V	o
läinud	mine	nud		V	nud
,	,			Z	
ja	ja	0		J	
väga	väga	0		D	
vasto	vastu	0		K	
panogi	####				
olnud	ole	nud		V	nud
.	.			Z	
</s>					
<s>					
Kohto	kohus	0		S	sg g
käiad	käi	d		S	pl n
Mari	Mari	0		H	sg n
Jaakson	Jaakson	0		H	sg n
oma	oma	0		P	sg g
käemehega	käe_mees	ga		S	sg kom
Karl	Karl	0		H	sg n
Juder	Juder	0		H	sg n
ja	ja	0		J	
Hans	Hans	0		H	sg n
Kärik	Kärik	0		H	sg n
olid	ole	id		V	sid
ette	ette	0		H	sg n
kutsut	kutsu	t		S	sg p
,	,			Z	
ja	ja	0		J	
sai	saa	i		V	s
neile	tema	le		P	pl all
see	see	0		P	sg n
tunnistus	tunnistus	0		S	sg n
kuulutud	kuulu	tud		V	tud
,	,			Z	
kelle	kes	0		P	sg g
vasto	vastu	0		K	
kaebatul	####				
aga	aga	0		J	
midagi	miski	dagi		P	sg p
ütlemist	ütlemine	t		S	sg p
ei	ei	0		V	neg
olnud	ole	nud		V	nud
.	.			Z	
</s>					
<s>					
Peale	peale	0		K	
selle	see	0		P	sg g
andsid	and	sid		V	sid
kohto	kohus	0		S	sg g
käiad	käi	d		S	pl n
küsimise	küsimine	0		S	sg g
peale	peale	0		K	
siin	siin	0		D	
üles	üles	0		D	
,	,			Z	
et	et	0		J	
nende	tema	de		P	pl g
vahel	vahel	0		K	
maha	maha	0		D	
tehtud	tege	tud		V	tud
aastane	aastane	0		A	sg n
teenistuse	teenistus	0		S	sg g
palk	palk	0		S	sg n
60	60	0		N	?
rubla	rubla	0		S	sg p
olnud	ole	nud		V	nud
.	.			Z	
</s>					
<s>					
Kohto	kohus	0		S	sg g
nõudmise	nõudmine	0		S	sg g
peale	peale	0		K	
ei	ei	0		V	neg
olnud	ole	nud		V	nud
kaebatul	####				
midagi	miski	dagi		P	sg p
teenistuse	teenistus	0		S	sg g
maha	maha	0		D	
jätmise	jätmine	0		S	sg g
asja	asi	0		S	sg g
talor	####				
.	.			Z	
</s>					
<s>					
s	s	0		Y	?
.	.			Z	
r	r	0		Y	?
.	.			Z	
</s>					
<s>					
§	§	0		Y	?
385	385	0		N	?
järele	järele	0		D	
siia	siia	0		D	
üles	üles	0		D	
anda	and	a		V	da
,	,			Z	
et	et	0		J	
küll	küll	0		D	
H.	H.	0		Y	sg n
Kärik	Kärik	0		H	sg n
esmalt	esmalt	0		D	
üles	üles	0		D	
andis	and	is		V	s
,	,			Z	
et	et	0		J	
ta	tema	0		P	sg n
selle	see	0		P	sg g
pärast	pärast	0		K	
teenistusest	teenistus	st		S	sg el
ära	ära	0		D	
läinud	mine	nud		V	nud
,	,			Z	
et	et	0		J	
leiva	leib	0		S	sg g
perenaene	####				
teda	tema	da		P	sg p
muiale	mujale	0		D	
tööle	töö	le		S	sg all
sundinud	sundi	nud		V	nud
,	,			Z	
see	see	0		P	sg n
asi	asi	0		S	sg n
aga	aga	0		J	
eel	eel	0		K	
nimetud	nimetu	d		A	pl n
seaduse	seadus	0		S	sg g
§	§	0		Y	?
sugugi	sugugi	0		D	
kokku	kokku	0		D	
ei	ei	0		V	neg
lähe	mine	0		V	neg o
,	,			Z	
ja	ja	0		J	
said	saa	id		V	sid
selle	see	0		P	sg g
peale	peale	0		K	
kohto	kohus	0		S	sg g
käiad	käi	d		S	pl n
siit	siit	0		D	
välja	välja	0		D	
minna	mine	a		V	da
lastud	lask	tud		V	tud
,	,			Z	
ning	ning	0		J	
ühendasid	ühenda	sid		V	sid
endid	ise	d		P	pl p
keik	kõik	0		P	pl n
selle	see	0		P	sg g
kohto	kohus	0		S	sg g
koos	koos	0		D	
olevad	olev	d		A	pl n
liikmed	liige	d		S	pl n
,	,			Z	
selle	see	0		P	sg g
põhja	põhi	0		S	sg g
peale	peale	0		K	
et	et	0		J	
kaebatul	####				
midagi	miski	dagi		P	sg p
seadusliko	####				
teenistuse	teenistus	0		S	sg g
maha	maha	0		D	
jätmise	jätmine	0		S	sg g
asja	asi	0		S	sg p
siia	siia	0		D	
ette	ette	0		H	sg n
anda	and	a		V	da
ei	ei	0		V	neg
olnud	ole	nud		V	nud
,	,			Z	
selle	see	0		P	sg g
otsuse	otsus	0		S	sg g
mõistmisele	mõistmine	le		S	sg all
:	:			Z	
""""	""""			Z	
et	et	0		J	
kaebatu	kaeva	tud		V	tud
Hans	Hans	0		H	sg n
Kärik	Kärik	0		H	sg n
ilma	ilma	0		D	
seadusliko	####				
põhjata	põhja	ta		V	da
enneaego	####				
teenistuse	teenistus	0		S	sg g
maha	maha	0		D	
jätmise	jätmine	0		S	sg g
pärast	pärast	0		K	
süidlaseks	süüdlane	ks		S	sg tr
arvata	arva	ta		V	da
oleks	ole	ks		V	ks
,	,			Z	
ning	ning	0		J	
selle	see	0		P	sg g
peale	peale	0		K	
T.	T.	0		Y	sg n
</s>					
<s>					
R.	R.	0		Y	sg n
</s>					
<s>					
S.	S.	0		Y	sg n
</s>					
<s>					
R.	R.	0		Y	sg n
</s>					
<s>					
§	§	0		Y	?
383	383	0		N	?
põhjusel	põhjus	l		S	sg ad
kaebajal	kaebaja	l		S	sg ad
Mari	Mari	0		H	sg n
Jaaksonil	Jaak	l		H	sg ad
aasta	aasta	0		S	sg g
otsa	otsa	0		K	
palga	palk	0		S	sg g
summa	summa	0		S	sg n
,	,			Z	
see	see	0		P	sg n
on	ole	0		V	b
  	ole	0		V	vad
60	60	0		N	?
rubla	rubla	0		S	sg p
kahjotasumist	####				
,	,			Z	
nendasama	nõnda_sama	0		D	
ka	ka	0		D	
need	see	d		P	pl n
enne	enne	0		K	
teenistuse	teenistus	0		S	sg g
aasta	aasta	0		S	sg g
täissaamist	täis_saamine	t		S	sg p
vasto	vastu	0		K	
võetud	võt	tud		V	tud
15	15	0		N	?
rubla	rubla	0		S	sg p
palka	palk	0		S	sg p
raha	raha	0		S	sg p
14	14	0		N	?
p	p	0		Y	?
.	.			Z	
s	s	0		Y	?
.	.			Z	
s	s	0		Y	?
.	.			Z	
ots	ots	0		S	sg n
.	.			Z	
</s>					
<s>					
andm	andm	0		Y	?
.	.			Z	
</s>					
<s>					
arvata	arva	ta		V	da
kaebajal	kaebaja	l		S	sg ad
tagasi	tagasi	0		D	
maksaks	maks	ks		V	ks
,	,			Z	
Mari	Mari	0		H	sg n
Jaaksoni	Jaakson	0		H	sg g
nõudmine	nõudmine	0		S	sg n
ja	ja	0		J	
kaebatu	kaeva	tud		V	tud
aga	aga	0		J	
selle	see	0		P	sg g
enese	ise	0		P	sg g
poolt	poolt	0		K	
Hans	Hans	0		H	sg n
Käriko	Kärik	0		H	sg g
tasko	####				
sisse	sisse	0		D	
pantud	####				
10	10	0		N	?
rubla	rubla	0		S	sg g
ja	ja	0		J	
löömise	löömine	0		S	sg g
valokannatamise	####				
hinna	hind	0		S	sg g
üle	üle	0		K	
puuduliko	puudulik	0		A	sg g
nõudmise	nõudmine	0		S	sg g
pärast	pärast	0		K	
tühjaks	tühi	ks		A	sg tr
,	,			Z	
ja	ja	0		J	
Hans	Hans	0		H	sg n
Kärik	Kärik	0		H	sg n
sest	sest	0		J	
maksust	maks	st		S	sg el
ja	ja	0		J	
süist	süü	st		S	sg el
priiks	prii	ks		A	sg tr
arvata	arva	ta		V	da
oleks	ole	ks		V	ks
"."""	"."""			Z	
</s>					
<s>					
Õ.	Õ.	0		Y	sg n
</s>					
<s>					
N.	N.	0		Y	sg n
</s>					
<s>					
See	see	0		P	sg n
otsus	otsus	0		S	sg n
sai	saa	i		V	s
kohto	kohus	0		S	sg g
käiatel	käija	tel		S	pl ad
kohe	kohe	0		D	
kuulutud	kuulu	tud		V	tud
,	,			Z	
ja	ja	0		J	
andis	and	is		V	s
Hans	Hans	0		H	sg n
Kärik	Kärik	0		H	sg n
siin	siin	0		D	
üles	üles	0		D	
,	,			Z	
et	et	0		J	
tema	tema	0		P	sg g
selle	see	0		P	sg g
mõistosega	####				
rahul	rahul	0		D	
ei	ei	0		V	neg
ole	ole	0		V	o
ja	ja	0		J	
suuremad	suurem	d		C	pl n
kohut	kohus	t		S	sg p
palub	palu	b		V	b
käia	käi	a		V	da
,	,			Z	
mis	mis	0		P	sg n
temal	tema	l		P	sg ad
siit	siit	0		D	
poolt	pool	t		S	sg p
ka	ka	0		D	
järele	järele	0		D	
antud	and	tud		V	tud
sai	saa	i		V	s
,	,			Z	
ning	ning	0		J	
selle	see	0		P	sg g
peale	peale	0		K	
mõisteti	mõist	ti		V	ti
:	:			Z	
""""	""""			Z	
Hans	Hans	0		H	sg n
Kärikul	Kärik	l		H	sg ad
appelatsiooni	apellatsioon	0		S	sg p
anda	and	a		V	da
,	,			Z	
ning	ning	0		J	
eel	eel	0		K	
seisvad	seisev	d		A	pl n
asja	asi	0		S	sg p
,	,			Z	
nenda	nõnda	0		D	
kui	kui	0		D	
   	kui	0		J	
sündinud	sündi	nud		V	nud
,	,			Z	
kirja	kiri	0		S	adt
panna	pane	a		V	da
"."""	"."""			Z	
</s>					
