<s>					
Vallavanem	Vallavanem	0		H	sg n
J.	J.	0		Y	sg n
Ruusmann	Ruusmann	0		H	sg n
andis	and	is		V	s
siin	siin	0		D	
üles	üles	0		D	
et	et	0		J	
Jüri	Jüri	0		H	sg n
Seero	Seero	0		H	sg n
kadunud	kadu	nud		V	nud
sepa	sepp	0		S	sg g
Jüri	Jüri	0		H	sg n
Sõlg	Sõlg	0		H	sg n
2	2	0		N	?
alaskid	####				
,	,			Z	
ruustangid	####				
ja	ja	0		J	
ruvi	####				
leht	leht	0		S	sg n
ning	ning	0		J	
lõõts	lõõts	0		S	sg n
ära	ära	0		D	
müinud	müü	nud		V	nud
,	,			Z	
14	14	0		N	?
rubla	rubla	0		S	sg g
eest	eest	0		K	
oma	oma	0		P	sg g
voliga	voli	ga		S	sg kom
ning	ning	0		J	
selle	see	0		P	sg g
üle	üle	0		K	
kohto	kohus	0		S	sg g
läbi	läbi	0		K	
kuulamist	kuulamine	t		S	sg p
palub	palu	b		V	b
,	,			Z	
kas	kas	0		D	
J.	J.	0		Y	sg n
Seerul	Seero	l		H	sg ad
see	see	0		P	sg n
õigus	õigus	0		S	sg n
on	ole	0		V	b
  	ole	0		V	vad
olnud	ole	nud		V	nud
,	,			Z	
neid	see	d		P	pl p
asjo	####				
ära	ära	0		D	
müia	####				
.	.			Z	
</s>					
<s>					
Jüri	Jüri	0		H	sg n
Seero	Seero	0		H	sg n
sai	saa	i		V	s
selle	see	0		P	sg g
peale	peale	0		K	
oma	oma	0		P	sg g
käemehe	käe_mees	0		S	sg g
Peeter	Peeter	0		H	sg n
Janussega	Janussega	0		H	sg n
ette	ette	0		H	sg n
kutsut	kutsu	t		S	sg p
,	,			Z	
ning	ning	0		J	
andis	and	is		V	s
siin	siin	0		D	
üles	üles	0		D	
,	,			Z	
et	et	0		J	
tema	tema	0		P	sg n
küll	küll	0		D	
2	2	0		N	?
alaskid	####				
,	,			Z	
lõõts	lõõts	0		S	sg n
ja	ja	0		J	
ruustangid	####				
,	,			Z	
mis	mis	0		P	sg n
J.	J.	0		Y	sg n
Sõlg	Sõlg	0		H	sg n
maha	maha	0		D	
jätnud	jät	nud		V	nud
14	14	0		N	?
rubla	rubla	0		S	sg g
eest	eest	0		K	
Jaan	Jaan	0		H	sg n
Tuulel	Tuul	l		H	sg ad
ära	ära	0		D	
müünud	müü	nud		V	nud
,	,			Z	
ja	ja	0		J	
see	see	0		P	sg n
hind	hind	0		S	sg n
ka	ka	0		D	
nende	tema	de		P	pl g
asje	####				
eest	eest	0		K	
kõrge	kõrge	0		A	sg g
küllalt	küllalt	0		D	
olnud	ole	nud		V	nud
.	.			Z	
</s>					
<s>					
J.	J.	0		Y	sg n
Ruusmann	Ruusmann	0		H	sg n
nimetas	nimeta	s		V	s
,	,			Z	
et	et	0		J	
Jüri	Jüri	0		H	sg n
Sõlgi	Sõlg	0		H	sg g
päriad	####				
,	,			Z	
ise	ise	0		P	sg n
oma	oma	0		P	sg g
isa	isa	0		S	sg g
asia	####				
hinda	hind	0		S	sg p
pärivad	päri	vad		V	vad
,	,			Z	
ja	ja	0		J	
seda	see	da		P	sg p
kohto	kohus	0		S	sg g
poolt	poolt	0		K	
üle	üle	0		D	
takseeri	takseeri	0		V	o
palub	palu	b		V	b
,	,			Z	
et	et	0		J	
J.	J.	0		Y	sg n
Seero	Seero	0		H	sg n
need	see	d		P	pl n
riistad	riist	d		S	pl n
liig	liig	0		S	sg n
odavalt	odavalt	0		D	
ära	ära	0		D	
müünud	müü	nud		V	nud
.	.			Z	
</s>					
<s>					
Kohus	kohus	0		S	sg n
oli	ole	i		V	s
need	see	d		P	pl n
asjad	asi	d		S	pl n
ka	ka	0		D	
üle	üle	0		D	
vaadanud	vaata	nud		V	nud
ja	ja	0		J	
25	25	0		N	?
rubla	rubla	0		S	sg p
peale	peale	0		D	
takseerinud	takseeri	nud		V	nud
.	.			Z	
</s>					
<s>					
Kui	kui	0		D	
   	kui	0		J	
kaebatul	####				
Jüri	Jüri	0		H	sg n
Seerul	Seero	l		H	sg ad
midagi	miski	dagi		P	sg p
omanduse	omandus	0		S	sg g
asja	asi	0		S	sg g
põhja	põhi	0		S	adt
nende	see	de		P	pl g
riistade	riist	de		S	pl g
üle	üle	0		K	
siia	siia	0		D	
ette	ette	0		H	sg n
tuua	too	a		V	da
ei	ei	0		V	neg
olnud	ole	nud		V	nud
,	,			Z	
siis	siis	0		J	
pidi	pida	i		V	s
selle	see	0		P	sg g
kohto	kohus	0		S	sg g
poolt	poolt	0		K	
mõistetama	mõist	tama		V	tama
:	:			Z	
""""	""""			Z	
et	et	0		J	
Jüri	Jüri	0		H	sg n
Seero	Seero	0		H	sg n
selle	see	0		P	sg g
oma	oma	0		P	sg g
voliga	voli	ga		S	sg kom
voero	####				
oma	oma	0		P	sg g
ära	ära	0		D	
müimise	####				
pärast	pärast	0		K	
süidlaseks	süüdlane	ks		S	sg tr
arvata	arva	ta		V	da
oleks	ole	ks		V	ks
,	,			Z	
ning	ning	0		J	
selle	see	0		P	sg g
süi	####				
põhjusel	põhjus	l		S	sg ad
sel	see	l		P	sg ad
nende	see	de		P	pl g
riistade	riist	de		S	pl g
eest	eest	0		K	
takseerit	####				
hind	hind	0		S	sg n
25	25	0		N	?
rubla	rubla	0		S	sg g
Jüri	Jüri	0		H	sg n
Sõlgi	Sõlg	0		H	sg g
päriatel	####				
kahe	kaks	0		N	sg g
järestiko	####				
aastade	####				
sees	sees	0		D	
ära	ära	0		D	
tasuks	tasu	ks		V	ks
,	,			Z	
tänasest	tänane	st		A	sg el
päevast	päev	st		S	sg el
arvata	arva	ta		V	da
"."""	"."""			Z	
</s>					
<s>					
Õ.	Õ.	0		Y	sg n
</s>					
<s>					
N.	N.	0		Y	sg n
</s>					
<s>					
See	see	0		P	sg n
otsus	otsus	0		S	sg n
sai	saa	i		V	s
kohto	kohus	0		S	sg g
käiatel	käija	tel		S	pl ad
kohe	kohe	0		D	
kuulutud	kuulu	tud		V	tud
,	,			Z	
ning	ning	0		J	
selle	see	0		P	sg g
peale	peale	0		K	
mõistetud	mõist	tud		V	tud
,	,			Z	
eel	eel	0		K	
seisvad	seisev	d		A	pl n
asja	asi	0		S	sg p
,	,			Z	
nenda	nõnda	0		D	
kui	kui	0		D	
   	kui	0		J	
sündinud	sündi	nud		V	nud
,	,			Z	
kirja	kiri	0		S	adt
panna	pane	a		V	da
.	.			Z	
</s>					
