<s>					
Uue	Uue	0		H	sg n
Suislepa	Suislepa	0		H	sg n
mõisavalits	mõis_ava_lits	0		A	sg n
.	.			Z	
</s>					
<s>					
kaebas	kaeba	s		V	s
siin	siin	0		D	
,	,			Z	
et	et	0		J	
Järso	Järso	0		H	sg n
Hans	Hans	0		H	sg n
Jers	Jers	0		H	sg n
karjatsed	####				
mõisa	mõis	0		S	sg g
metsa	mets	0		S	sg g
4	4	0		N	?
kohalt	koha	lt		S	sg abl
      	koht	lt		S	sg abl
põlema	põle	ma		V	ma
pistnud	pist	nud		V	nud
,	,			Z	
ning	ning	0		J	
selle	see	0		P	sg g
üle	üle	0		K	
kohto	kohus	0		S	sg g
seletust	seletus	t		S	sg p
palub	palu	b		V	b
.	.			Z	
</s>					
<s>					
Hans	Hans	0		H	sg n
Järs	Järs	0		H	sg n
oma	oma	0		P	sg g
poia	####				
Jaaniga	Jaaniga	ga		H	sg n
ette	ette	0		H	sg n
kutsut	kutsu	t		S	sg p
,	,			Z	
ning	ning	0		J	
andis	and	is		V	s
poiss	poiss	0		S	sg n
siin	siin	0		D	
üles	üles	0		D	
,	,			Z	
et	et	0		J	
tema	tema	0		P	sg n
kedagi	keegi	dagi		P	sg p
metsa	mets	0		S	sg p
põlema	põle	ma		V	ma
ei	ei	0		V	neg
ole	ole	0		V	o
pannud	pane	nud		V	nud
,	,			Z	
ega	ega	0		J	
sest	sest	0		J	
ka	ka	0		D	
midagid	miski	dagid		P	sg p
teadvad	teadev	d		A	pl n
tunista	####				
.	.			Z	
</s>					
<s>					
Otsa	Otsa	0		H	sg n
tare	tare	0		S	sg n
karja	kari	0		S	sg g
poiss	poiss	0		S	sg n
Andres	Andres	0		H	sg n
Mättas	Mättas	0		H	sg n
tun	####				
.	.			Z	
</s>					
<s>					
et	et	0		J	
tema	tema	0		P	sg g
Jerso	Jers	0		H	sg g
karja	kari	0		S	sg g
poisiga	poiss	ga		S	sg kom
aga	aga	0		J	
läbi	läbi	0		K	
metsa	mets	0		S	sg g
käinud	käi	nud		V	nud
,	,			Z	
seal	seal	0		D	
aga	aga	0		J	
midagi	miski	dagi		P	sg p
paha	paha	0		A	sg p
teinud	tege	nud		V	nud
.	.			Z	
</s>					
<s>					
Jüri	Jüri	0		H	sg n
Laosson	Laosson	0		H	sg n
ette	ette	0		H	sg n
kutsut	kutsu	t		S	sg p
ning	ning	0		J	
andis	and	is		V	s
siin	siin	0		D	
üles	üles	0		D	
,	,			Z	
et	et	0		J	
tema	tema	0		P	sg g
sest	sest	0		J	
asjast	asi	st		S	sg el
ka	ka	0		D	
midagi	miski	dagi		P	sg p
ei	ei	0		V	neg
teadvad	teadev	d		A	pl n
.	.			Z	
</s>					
<s>					
Kaebajal	kaebaja	l		S	sg ad
mõisavalitsusel	mõisa_valitsus	l		S	sg ad
ei	ei	0		V	neg
olnud	ole	nud		V	nud
sele	####				
asja	asi	0		S	sg g
seletuseks	seletus	ks		S	sg tr
midagi	miski	dagi		P	sg p
siia	siia	0		D	
ette	ette	0		H	sg n
tuua	too	a		V	da
,	,			Z	
ning	ning	0		J	
pidi	pida	i		V	s
selle	see	0		P	sg g
peale	peale	0		K	
mõistetama	mõist	tama		V	tama
:	:			Z	
""""	""""			Z	
et	et	0		J	
kaebatud	kaeva	tud		V	tud
karjatsed	####				
sest	sest	0		J	
nende	tema	de		P	pl g
peale	peale	0		K	
tõstetud	tõst	tud		V	tud
põletamise	põletamine	0		S	sg g
süist	süü	st		S	sg el
priiks	prii	ks		A	sg tr
,	,			Z	
ning	ning	0		J	
mõisavalitsuse	mõisa_valitsus	0		S	sg g
nõudmine	nõudmine	0		S	sg n
tühjaks	tühi	ks		A	sg tr
arvata	arva	ta		V	da
oleks	ole	ks		V	ks
"."""	"."""			Z	
</s>					
<s>					
Õ.	Õ.	0		Y	sg n
</s>					
<s>					
N.	N.	0		Y	sg n
</s>					
<s>					
See	see	0		P	sg n
otsus	otsus	0		S	sg n
sai	saa	i		V	s
kohto	kohus	0		S	sg g
käiatel	käija	tel		S	pl ad
kohe	kohe	0		D	
kuulutud	kuulu	tud		V	tud
,	,			Z	
ning	ning	0		J	
selle	see	0		P	sg g
peale	peale	0		K	
mõistetud	mõist	tud		V	tud
:	:			Z	
eel	eel	0		K	
seisvad	seisev	d		A	pl n
asja	asi	0		S	sg p
nenda	nõnda	0		D	
kui	kui	0		D	
   	kui	0		J	
sündinud	sündi	nud		V	nud
kirja	kiri	0		S	adt
panna	pane	a		V	da
.	.			Z	
</s>					
