<s>					
Johan	Johan	0		H	sg n
Säga	Säga	0		H	sg n
lesk	lesk	0		S	sg n
kaebas	kaeba	s		V	s
siin	siin	0		D	
et	et	0		J	
Hans	Hans	0		H	sg n
Tätta	Tätta	0		H	sg n
2	2	0		N	?
rubla	rubla	0		S	sg g
18	18	0		N	?
kop	kop	0		Y	?
võlgo	võlgu	0		D	
olevad	olev	d		A	pl n
.	.			Z	
</s>					
<s>					
Hans	Hans	0		H	sg n
Tätta	Tätta	0		H	sg n
ette	ette	0		H	sg n
tellit	####				
ja	ja	0		J	
andis	and	is		V	s
siin	siin	0		D	
üles	üles	0		D	
,	,			Z	
et	et	0		J	
tema	tema	0		P	sg n
midagi	miski	dagi		P	sg p
ei	ei	0		V	neg
tea	tead	0		V	o
.	.			Z	
</s>					
<s>					
Leppisid	leppi	sid		V	sid
kohto	kohus	0		S	sg g
soovimise	soovimine	0		S	sg g
peale	peale	0		K	
ära	ära	0		D	
.	.			Z	
</s>					
<s>					
Sai	saa	i		H	s
mõistetud	mõist	tud		V	tud
,	,			Z	
eel	eel	0		K	
seisvad	seisev	d		A	pl n
asja	asi	0		S	sg p
nenda	nõnda	0		D	
kui	kui	0		D	
   	kui	0		J	
sündinud	sündi	nud		V	nud
,	,			Z	
kirja	kiri	0		S	adt
panna	pane	a		V	da
.	.			Z	
</s>					
