<s>					
Tuli	tuli	0		S	sg n
ette	ette	0		H	sg n
Märt	Märt	0		H	sg n
Laitus	Laitus	0		H	sg n
,	,			Z	
ning	ning	0		J	
kaebas	kaeba	s		V	s
et	et	0		J	
Jaan	Jaan	0		H	sg n
Seero	Seero	0		H	sg n
teda	tema	da		P	sg p
seas	seas	0		K	
teotanud	teota	nud		V	nud
,	,			Z	
tema	tema	0		P	sg g
aga	aga	0		J	
selle	see	0		P	sg g
väärt	väärt	0		A	
ei	ei	0		V	neg
taha	taht	0		V	o
olla	ole	a		V	da
ning	ning	0		J	
selle	see	0		P	sg g
üle	üle	0		K	
kohto	kohus	0		S	sg g
seletust	seletus	t		S	sg p
ja	ja	0		J	
otsust	otsus	t		S	sg p
palub	palu	b		V	b
,	,			Z	
et	et	0		J	
laimaia	laimaja	0		S	sg n
trahvitud	trahvi	tud		V	tud
saaks	saa	ks		V	ks
.	.			Z	
</s>					
<s>					
Selle	see	0		P	sg g
peale	peale	0		K	
sai	saa	i		V	s
Jaan	Jaan	0		H	sg n
Seero	Seero	0		H	sg n
ette	ette	0		H	sg n
tellit	####				
ning	ning	0		J	
andis	and	is		V	s
siin	siin	0		D	
üles	üles	0		D	
,	,			Z	
et	et	0		J	
see	see	0		P	sg n
kaebtus	####				
puha	puha	0		D	
võle	####				
olevad	olev	d		A	pl n
.	.			Z	
</s>					
<s>					
Kaebaja	kaebaja	0		S	sg n
nimetas	nimeta	s		V	s
selle	see	0		P	sg g
peale	peale	0		K	
tunnistaiaks	####				
Johan	Johan	0		H	sg n
Ruusmann	Ruusmann	0		H	sg n
.	.			Z	
</s>					
<s>					
Johan	Johan	0		H	sg n
Ruusmann	Ruusmann	0		H	sg n
ette	ette	0		H	sg n
tellit	####				
ning	ning	0		J	
tunnistas	tunnista	s		V	s
,	,			Z	
et	et	0		J	
tema	tema	0		P	sg n
seda	see	da		P	sg p
küll	küll	0		D	
kuulnud	kuul	nud		V	nud
kui	kui	0		D	
   	kui	0		J	
Jaan	Jaan	0		H	sg n
Seero	Seero	0		H	sg n
Märt	Märt	0		H	sg n
Laitust	Laitus	t		H	sg p
sea	siga	0		S	sg g
ja	ja	0		J	
karja	kari	0		S	sg g
poisis	poiss	s		S	sg in
teotanud	teota	nud		V	nud
.	.			Z	
</s>					
<s>					
Lepsit	Lepsit	0		H	sg n
ennese	####				
vahel	vahel	0		D	
ära	ära	0		D	
.	.			Z	
</s>					
<s>					
Sai	saa	i		H	s
mõistetud	mõist	tud		V	tud
,	,			Z	
eel	eel	0		K	
seisvad	seisev	d		A	pl n
asja	asi	0		S	sg p
,	,			Z	
nenda	nõnda	0		D	
kui	kui	0		D	
   	kui	0		J	
sündinud	sündi	nud		V	nud
,	,			Z	
kirja	kiri	0		S	adt
panna	pane	a		V	da
.	.			Z	
</s>					
