<s>					
Johan	Johan	0		H	sg n
Tuberg	Tuberg	0		H	sg n
näidas	####				
siin	siin	0		D	
kohtu	kohus	0		S	sg g
ees	ees	0		K	
ette	ette	0		D	
et	et	0		J	
tema	tema	0		P	sg g
tüttar	####				
Anna	Anna	0		H	sg n
Tuberg	Tuberg	0		H	sg n
küll	küll	0		D	
silmi	silm	i		S	pl p
perast	pärast	0		D	
see	see	0		P	sg n
suvi	suvi	0		S	sg n
haige	haige	0		A	sg g
on	ole	0		V	b
  	ole	0		V	vad
ollu	ole	lu		V	nud
rohu	rohi	0		S	sg g
tähti	täht	i		S	pl p
ette	ette	0		D	
näidata	näita	ta		V	da
.	.			Z	
</s>					
<s>					
Otsus	otsus	0		S	sg n
:	:			Z	
Peremees	pere_mees	0		S	sg n
Hans	Hans	0		H	sg n
Juhkamson	Juhkamson	0		H	sg n
kaebtus	####				
vastu	vastu	0		D	
Anna	Anna	0		H	sg n
Duberg	Duberg	0		H	sg n
oma	oma	0		P	sg g
silma	silm	0		S	sg g
haigusest	haigus	st		S	sg el
tohtri	tohter	0		S	sg g
tähte	täht	0		S	sg p
ette	ette	0		D	
näidates	näita	tes		V	des
,	,			Z	
sääl	seal	0		D	
temast	tema	st		P	sg el
mitte	mitte	0		D	
teenijad	teenija	d		S	pl n
ei	ei	0		V	neg
võinud	või	nud		V	nud
saada	saa	da		V	da
tühja	tühi	0		A	sg p
arvata	arva	ta		V	da
ning	ning	0		J	
rahu	rahu	0		S	sg p
jääda	jää	da		V	da
sundi	sund	0		S	sg p
.	.			Z	
</s>					
<s>					
Duberg	Duberg	0		H	sg n
maksa	maks	0		V	o
1	1	0		N	?
rbl	rbl	0		Y	?
käe	käsi	0		S	sg g
raha	raha	0		S	sg n
8	8	0		N	?
päeva	päev	0		S	sg g
sehen	sees	0		K	
valja	####				
.	.			Z	
</s>					
<s>					
See	see	0		P	sg n
mõistus	mõistus	0		S	sg n
sai	saa	i		V	s
kohtu	kohus	0		S	sg g
käijil	####				
sääduslikul	####				
viisil	viis	l		S	sg ad
kuulutud	kuulu	tud		V	tud
.	.			Z	
</s>					
<s>					
Johan	Johan	0		H	sg n
Duberg	Duberg	0		H	sg n
maksis	maks	is		V	s
sell	sell	0		S	sg n
samal	sama	l		P	sg ad
päeval	päev	l		S	sg ad
1	1	0		N	?
rbl	rbl	0		Y	?
Hans	Hans	0		H	sg n
Juhkamsonil	Juhkamson	l		H	sg ad
siin	siin	0		D	
kohtu	kohus	0		S	sg g
ees	ees	0		K	
kätte	käsi	tte		S	adt
.	.			Z	
</s>					
