<s>					
Jaan	Jaan	0		H	sg n
Jakobson	Jakobson	0		H	sg n
lut	####				
.	.			Z	
</s>					
<s>					
usko	####				
tunnist	tund	st		S	sg el
,	,			Z	
et	et	0		J	
Peeter	Peeter	0		H	sg n
Mitt	Mitt	0		H	sg n
ühtegi	üks	0	gi	N	sg p
      	üks	0	gi	P	sg p
puud	puu	d		S	sg p
Sillamatsi	Sillamatsi	0		H	sg n
metsas	mets	s		S	sg in
tembeldanu	tembelda	nud		V	nud
ei	ei	0		D	
olla	ole	a		V	da
.	.			Z	
</s>					
<s>					
Selle	Selle	0		H	sg n
peenikese	peenike	0		A	sg g
         	peenikene	0		A	sg g
puu	puu	0		S	sg g
juures	juures	0		K	
ollu	ole	lu		V	nud
veel	veel	0		D	
kaks	kaks	0		N	sg n
teist	teine	t		O	sg p
     	teine	t		P	sg p
kos	kus	0		D	
Märt	Märt	0		H	sg n
Tobru	Tobru	0		H	sg n
ja	ja	0		J	
Jüri	Jüri	0		H	sg n
Rekkand	Rekkand	0		H	sg n
enne	enne	0		K	
lõiganu	lõika	nud		V	nud
läinud	mine	nud		V	nud
Peter	Peter	0		H	sg n
Mitt	Mitt	0		H	sg n
nende	tema	de		P	pl g
juurde	juurde	0		K	
kos	kus	0		D	
Jaan	Jaan	0		H	sg n
Jakobsn	Jakobsn	0		H	sg n
senna	senna	0		S	sg g
järgi	järgi	0		K	
lännu	mine	nud		V	nud
ning	ning	0		J	
hakkanuvaseda	####				
puud	puud	0		S	sg n
maha	maha	0		D	
lõikama	lõika	ma		V	ma
sääl	seal	0		D	
Märt	Märt	0		H	sg n
Tobrul	Tobru	l		H	sg ad
ja	ja	0		J	
Jüri	Jüri	0		H	sg n
Rekandil	Rekandil	l		H	sg n
aru	aru	0		S	sg p
täis	täis	0		D	
ollu	ole	lu		V	nud
aga	aga	0		J	
puu	puu	0		S	sg g
märkmist	####				
ei	ei	0		V	neg
ka	ka	0		D	
tembeldamistest	tembelda=mine	test		S	pl el
ei	ei	0		V	neg
teedna	tead	na		V	vat
tema	tema	0		P	sg g
Jakobsn	Jakobsn	0		H	sg n
J	J	0		Y	sg n
Jakobson	Jakobson	0		H	sg n
Otsus	otsus	0		S	sg n
:	:			Z	
Tuleva	tulev	0		A	sg g
korras	kord	s		S	sg in
tunnistaja	tunnistaja	0		S	sg g
ette	ette	0		D	
telli	telli	0		V	o
,	,			Z	
Märt	Märt	0		H	sg n
Tobru	Tobru	0		H	sg n
ja	ja	0		J	
Jüri	Jüri	0		H	sg n
Rekkand	Rekkand	0		H	sg n
.	.			Z	
</s>					
<s>					
Järel	järel	0		D	
tulev	tulev	0		A	sg n
leht	leht	0		S	sg n
56.	56.	0		O	?
a	a	0		Y	?
.	.			Z	
</s>					
