<s>					
Kaibas	####				
	#kaeba	s		V	s
Tigase	####				
	#Tigase	0		H	sg g
Jaan	@Jaan	0		H	sg n
    	jaan	0		S	sg n
    	jaan	0		Y	?
Tiilik	####				
	#Tiilik	0		H	sg n
et	et	0		J	
tema	@tema	0		P	sg g
    	tema	0		P	sg n
kuhi	kuhi	0		S	sg n
pantu	####				
	#pane	tu		V	tud
palama	pala	ma		V	ma
mis	mis	0		P	pl n
   	@mis	0		P	sg n
10	10	0		N	?
koormat	koorem	t		S	sg p
suur	suur	0		A	sg n
ollo	####				
	#ole	o		V	nud
!	!			Z	
</s>					
<s>					
ja	ja	0		J	
andis	and	is		V	s
üles	üles	0		D	
selle	@see	0		P	sg g
     	sell	e		S	pl p
süü	@süü	0		S	sg g
   	süü	0		S	sg n
alutses	####				
	#alune	s		S	sg tr
kes	kes	0		P	pl n
   	@kes	0		P	sg n
seda	see	da		P	sg p
kuhja	kuhja	0		V	o
     	kuhi	0		S	adt
     	kuhi	0		S	sg g
     	@kuhi	0		S	sg p
palama	pala	ma		V	ma
pannu	pan=nu	0		S	sg g
     	pan=nu	0		S	sg n
	£pane	nu		V	nud
Nilble	####				
	#Nilbe	0		H	sg g
talu	@talu	0		S	sg g
    	talu	0		V	o
    	talu	0		S	sg n
    	talu	0		S	sg p
sulane	@sulane	0		S	sg n
      	sulane	0		V	o
Jaan	@Jaan	0		H	sg n
    	jaan	0		S	sg n
    	jaan	0		Y	?
Külaots	küla_ots	0		S	sg n
	£Küla_ots	0		H	sg n
ja	ja	0		J	
karja	kari	0		S	adt
     	@kari	0		S	sg g
     	kari	0		S	sg p
pois	poi	s		S	sg in
	£poiss	0		S	sg n
Johann	Johann	0		H	sg n
Paats	####				
	#Paas	0		H	sg n
""""	""""			Z	
palus	palu	s		S	sg in
     	@palu	s		V	s
et	et	0		J	
kohus	kohu	s		V	s
     	@kohus	0		S	sg n
tema	@tema	0		P	sg g
    	tema	0		P	sg n
asja	asi	0		S	adt
    	asi	0		S	sg g
    	@asi	0		S	sg p
seletas	seleta	s		V	s
	£seleta	s		V	ks
;	;			Z	
sest	see	st		P	sg el
    	@sest	0		J	
et	et	0		J	
tema	tema	0		P	sg g
    	@tema	0		P	sg n
kül	####				
	#küll	0		D	
mitte	mitte	0		D	
ei	ei	0		D	
  	@ei	0		V	neg
ole	ole	0		V	o
nännu	####				
	#näge	nu		V	nud
enneki	####				
	#enne	0	gi	D	
sellest	see	st		P	sg el
et	et	0		J	
nema	####				
	#tema	0		P	pl n
Jaan	@Jaan	0		H	sg n
    	jaan	0		S	sg n
    	jaan	0		Y	?
Külaotsaga	küla_ots	ga		S	sg kom
	£Küla_ots	ga		H	sg kom
suvel	suvi	l		S	sg ad
tüli	@tüli	0		S	sg g
    	tüli	0		S	sg n
    	tüli	0		S	sg p
pääl	####				
	#peal	0		K	
ollova	####				
	#ole	ova		V	nuvad
ja	ja	0		J	
see	see	0		P	sg n
siis	@siis	0		D	
    	siis	0		J	
teda	tema	da		P	sg p
väga	väga	0		D	
ähvardanu	ähvarda=nu	0		S	sg g
         	ähvarda=nu	0		S	sg n
		£ähvarda	nu		V	nud
ja	ja	0		J	
ka	ka	0		D	
selle	@see	0		P	sg g
     	sell	e		S	pl p
karja	kari	0		S	adt
     	@kari	0		S	sg g
     	kari	0		S	sg p
poisiga	poiss	ga		S	sg kom
niisammute	####				
	#nii_samuti	0		D	
tülitsenuva	####				
	#tülitse	nuva		V	nuvad
!	!			Z	
</s>					
<s>					
Jaan	@Jaan	0		H	sg n
    	jaan	0		S	sg n
    	jaan	0		Y	?
Külaots	küla_ots	0		S	sg n
	£Küla_ots	0		H	sg n
sai	@saa	i		V	s
   	sai	0		S	sg n
ette	@ette	0		D	
    	ette	0		K	
    	esi	tte		S	adt
kutsutus	kutsutu	s		S	sg in
        	kutsutud	s		A	sg in
		£kutsu	tus		V	tud tr
""""	""""			Z	
nink	####				
	#ning	0		J	
ütles	ütle	s		V	s
et	et	0		J	
tema	tema	0		P	sg g
    	@tema	0		P	sg n
midagi	miski	dagi		P	sg p
ei	ei	0		D	
  	@ei	0		V	neg
teedvat	####				
	#tead	vat		V	vat
selle	@see	0		P	sg g
     	sell	e		S	pl p
kuhja	kuhja	0		V	o
     	kuhi	0		S	adt
     	@kuhi	0		S	sg g
     	kuhi	0		S	sg p
palama	pala	ma		V	ma
paneki	####				
	#panek	0		S	sg g
perrast	####				
	#pärast	0		K	
!	!			Z	
</s>					
<s>					
ja	ja	0		J	
tõvotas	####				
	#tõota	s		V	s
selle	@see	0		P	sg g
     	sell	e		S	pl p
pääle	####				
	#peale	0		K	
väga	väga	0		D	
vandu	####				
	#vandu	0		V	da
!	!			Z	
</s>					
<s>					
andse	####				
	#and	se		V	s
tunnistajas	tunnistaja	s		S	sg in
	£tunnistaja	s		S	sg tr
Jaak	@Jaak	0		H	sg n
    	jaak	0		S	sg n
Kallas	@Kallas	0		H	sg n
      	kalla	s		V	s
      	kalla	s		S	sg in
      	kallas	0		S	sg n
.	.			Z	
</s>					
<s>					
Karja	Karja	0		H	sg g
     	kari	0		S	adt
     	@kari	0		S	sg g
     	Karja	0		H	sg n
     	kari	0		S	sg p
pois	poi	s		S	sg in
	£poiss	0		S	sg n
Johann	Johann	0		H	sg n
Paats	####				
	#Paas	0		H	sg n
sai	@saa	i		V	s
   	sai	0		S	sg n
ette	@ette	0		D	
    	ette	0		K	
    	esi	tte		S	adt
kutsutus	kutsutu	s		S	sg in
        	kutsutud	s		A	sg in
		£kutsu	tus		V	tud tr
nink	####				
	#ning	0		J	
ütles	ütle	s		V	s
ka	ka	0		D	
;	;			Z	
et	et	0		J	
tema	tema	0		P	sg g
    	@tema	0		P	sg n
midagi	miski	dagi		P	sg p
sellest	see	st		P	sg el
kuhja	kuhja	0		V	o
     	kuhi	0		S	adt
     	@kuhi	0		S	sg g
     	kuhi	0		S	sg p
palama	pala	ma		V	ma
panekist	####				
	#panek	st		S	sg el
ei	ei	0		D	
  	@ei	0		V	neg
teedvat	####				
	#tead	vat		V	vat
!	!			Z	
</s>					
<s>					
Jaak	@Jaak	0		H	sg n
    	jaak	0		S	sg n
Kallas	@Kallas	0		H	sg n
      	kalla	s		V	s
      	kalla	s		S	sg in
      	kallas	0		S	sg n
sai	@saa	i		V	s
   	sai	0		S	sg n
ette	@ette	0		D	
    	ette	0		K	
    	esi	tte		S	adt
kutsutus	kutsutu	s		S	sg in
        	kutsutud	s		A	sg in
		£kutsu	tus		V	tud tr
nink	####				
	#ning	0		J	
ütles	ütle	s		V	s
;	;			Z	
et	et	0		J	
Jaan	@Jaan	0		H	sg n
    	jaan	0		S	sg n
    	jaan	0		Y	?
Külaots	küla_ots	0		S	sg n
	£Küla_ots	0		H	sg n
ja	ja	0		J	
Johann	Johann	0		H	sg n
Paas	paa	s		A	sg in
    	paa	s		S	sg in
    	paas	0		S	sg n
	£Paas	0		H	sg n
olluva	####				
	#ole	uva		V	nuvad
see	see	0		P	sg n
öö	öö	0		S	sg g
  	@öö	0		S	sg n
kotto	####				
	#kodu	0		S	sg in
kui	kui	0		D	
   	@kui	0		J	
Jaan	@Jaan	0		H	sg n
    	jaan	0		S	sg n
    	jaan	0		Y	?
Tiilik	####				
	#Tiilik	0		H	sg n
'	’			Z	
u	u	0		Y	?
	¤
kuhi	kuhi	0		S	sg n
palama	pala	ma		V	ma
panto	####				
	#pane	to		V	tud
;	;			Z	
Ka	ka	0		D	
sellest	see	st		P	sg el
samast	@sama	st		P	sg el
      	samane	t		A	sg p
Nillbe	####				
	#Nilbe	0		H	sg g
talust	talu	st		S	sg el
sai	@saa	i		V	s
   	sai	0		S	sg n
Tütrik	####				
	#tüdruk	0		V	sg n
Ello	####				
	#Ello	0		H	sg n
Sass	Sass	0		H	sg n
ette	@ette	0		D	
    	ette	0		K	
    	esi	tte		S	adt
kutsutus	kutsutu	s		S	sg in
        	kutsutud	s		A	sg in
		£kutsu	tus		V	tud tr
ja	ja	0		J	
ütles	ütle	s		V	s
!	!			Z	
</s>					
<s>					
""""	""""			Z	
Et	et	0		J	
jaan	jaan	0		S	sg n
    	jaan	0		Y	?
	£Jaan	0		H	sg n
Külaots	küla_ots	0		S	sg n
	£Küla_ots	0		H	sg n
ja	ja	0		J	
Johann	Johann	0		H	sg n
paas	paa	s		A	sg in
    	paa	s		S	sg in
    	paas	0		S	sg n
	£Paas	0		H	sg n
olluva	####				
	#ole	uva		V	nuvad
mõlemba	####				
	#mõlemad	0		P	pl n
sel	@see	l		P	sg ad
   	sel	0		Y	?
öösel	öösel	0		D	
kodon	####				
	#kodu	n		S	sg in
kui	kui	0		D	
   	@kui	0		J	
Jaan	@Jaan	0		H	sg n
    	jaan	0		S	sg n
    	jaan	0		Y	?
Tiiliku	####				
	#Tiilik	0		H	sg g
kuhi	kuhi	0		S	sg n
palama	pala	ma		V	ma
pantud	####				
	#pane	tud		V	tud
!	!			Z	
</s>					
<s>					
Nimitetu	####				
	#nimeta	tu		V	tud
Nillbe	####				
	#Nilbe	0		H	sg g
talo	####				
	#talu	0		S	sg g
pois	poi	s		S	sg in
	£poiss	0		S	sg n
Jaan	@Jaan	0		H	sg n
    	jaan	0		S	sg n
    	jaan	0		Y	?
Võsso	####				
	#Võsso	0		H	sg n
sai	@saa	i		V	s
   	sai	0		S	sg n
ette	@ette	0		D	
    	ette	0		K	
    	esi	tte		S	adt
kutsutus	kutsutu	s		S	sg in
        	kutsutud	s		A	sg in
		£kutsu	tus		V	tud tr
ja	ja	0		J	
ütles	ütle	s		V	s
et	et	0		J	
tema	tema	0		P	sg g
    	@tema	0		P	sg n
ka	ka	0		D	
nännu	####				
	#näge	nu		V	nud
et	et	0		J	
Jaan	@Jaan	0		H	sg n
    	jaan	0		S	sg n
    	jaan	0		Y	?
Külaots	küla_ots	0		S	sg n
	£Küla_ots	0		H	sg n
Johann	Johann	0		H	sg n
Paas	paa	s		A	sg in
    	paa	s		S	sg in
    	paas	0		S	sg n
	£Paas	0		H	sg n
se	####				
	#see	0		P	sg n
öösel	öösel	0		D	
kodon	####				
	#kodu	n		S	sg n
olluva	####				
	#ole	uva		V	nuvad
kui	kui	0		D	
   	@kui	0		J	
Jaan	@Jaan	0		H	sg n
    	jaan	0		S	sg n
    	jaan	0		Y	?
Tiiliku	####				
	#Tiilik	0		H	sg g
kuhi	kuhi	0		S	sg n
palama	pala	ma		V	ma
pantu	####				
	#pane	tu		V	tud
II	@II	0		O	?
  	II	0		Y	?
Selle	@see	0		P	sg g
     	sell	e		S	pl p
pääle	####				
	#peale	0		D	
kaivas	####				
	#kaeba	s		V	s
Mihkel	@Mihkel	0		H	sg n
      	mihkel	0		A	sg n
      	mihkel	0		S	sg n
Võsso	####				
	#Võsso	0		H	sg n
kes	kes	0		P	pl n
   	@kes	0		P	sg n
esi	esi	0		S	pl p
   	esi	0		S	sg n
	£ise	0		P	sg n
mitte	mitte	0		D	
enamb	####				
	#enam	0		D	
kohto	####				
	#kohus	0		S	sg g
ette	ette	0		D	
    	@ette	0		K	
    	esi	tte		S	adt
es	es			H	?
	£ei	s		V	neg s
sa	sina	0		P	sg n
	£saa	0		V	o
tulla	tule	a		V	da
Nillbe	####				
	#Nilbe	0		H	sg g
talo	####				
	#talu	0		S	sg g
peremees	pere_mees	0		S	sg n
;	;			Z	
et	et	0		J	
tema	tema	0		P	sg g
    	@tema	0		P	sg n
lännu	####				
	#mine	nu		V	nud
ka	ka	0		D	
selle	@see	0		P	sg g
     	sell	e		S	pl p
Tigase	####				
	#Tigase	0		H	sg g
Jaan	@Jaan	0		H	sg n
    	jaan	0		S	sg n
    	jaan	0		Y	?
Tiiliku	####				
	#Tiilik	0		H	sg g
kuhja	kuhja	0		V	o
     	kuhi	0		S	adt
     	@kuhi	0		S	sg g
     	kuhi	0		S	sg p
palamise	pala=mine	0		S	sg g
mannu	####				
	#manu	0		K	
ja	ja	0		J	
selle	@see	0		P	sg g
     	sell	e		S	pl p
pääle	####				
	#peale	0		K	
pessnu	####				
	#peks	nu		V	nud
Jaan	@Jaan	0		H	sg n
    	jaan	0		S	sg n
    	jaan	0		Y	?
Tiilik	####				
	#Tiilik	0		H	sg n
teda	tema	da		P	sg p
väga	väga	0		D	
ära	@ära	0		D	
   	ära	0		V	neg o
nii	nii	0		D	
et	et	0		J	
tema	tema	0		P	sg g
    	@tema	0		P	sg n
koolmisen	####				
	£koolmine	n		S	sg in
ollov	####				
	#ole	ov		V	
;	;			Z	
mis	mis	0		P	pl n
   	@mis	0		P	sg n
vallavanemb	####				
	#valla_vanem	0		S	sg n
p	p	0		Y	?
.	.			Z	
Ruus	####				
	#Ruus	0		H	sg n
ja	ja	0		J	
Vöölmundri	####				
	#vöörmünder	0		S	sg g
J.	J.	0		Y	?
Kukk	kukk	0		S	sg n
seda	see	da		P	sg p
häda	häda	0		S	sg g
    	häda	0		S	sg n
    	@häda	0		S	sg p
kohto	####				
	#kohus	0		S	sg g
een	####				
	#ees	0		K	
tunnistiva	####				
	#tunnista	iva		V	sid
!	!			Z	
</s>					
<s>					
andnu	and=nu	0		S	sg g
     	and=nu	0		S	sg n
	£and	nu		V	nud
ka	ka	0		D	
tunnistajas	tunnistaja	s		S	sg in
	£tunnistaja	s		S	sg tr
Peeter	Peeter	0		H	sg n
Tiilik	####				
	#Tiilik	0		H	sg n
,	,			Z	
Jaan	@Jaan	0		H	sg n
    	jaan	0		S	sg n
    	jaan	0		Y	?
Kägo	####				
	#Kägo	0		H	sg n
ja	ja	0		J	
Jaan	@Jaan	0		H	sg n
    	jaan	0		S	sg n
    	jaan	0		Y	?
Reimann	####				
	#Reimann	0		H	sg n
Selle	@see	0		P	sg g
     	sell	e		S	pl p
pääle	####				
	#peale	0		K	
sai	@saa	i		V	s
   	sai	0		S	sg n
Peeter	Peeter	0		H	sg n
Tiilik	####				
	#Tiilik	0		H	sg n
ette	@ette	0		D	
    	ette	0		K	
    	esi	tte		S	adt
kutsutus	kutsutu	s		S	sg in
        	kutsutud	s		A	sg in
		£kutsu	tus		V	tud tr
ja	ja	0		J	
seletas	seleta	s		V	s
;	;			Z	
et	et	0		J	
tema	tema	0		P	sg g
    	@tema	0		P	sg n
ollo	####				
	#ole	o		V	nud
ka	ka	0		D	
oma	oma	0		A	sg g
   	oma	0		D	
   	@oma	0		P	sg g
   	oma	0		S	sg g
   	oma	0		V	o
   	oma	0		A	sg n
   	oma	0		A	sg p
   	oma	0		P	sg n
   	oma	0		P	sg p
   	oma	0		S	sg n
   	oma	0		S	sg p
peremehega	pere_mees	ga		S	sg kom
Mihkel	@Mihkel	0		H	sg n
      	mihkel	0		A	sg n
      	mihkel	0		S	sg n
Võsso	####				
	#Võsso	0		H	sg n
ütten	####				
	#ühes	0		K	
kuhja	kuhja	0		V	o
     	kuhi	0		S	adt
     	@kuhi	0		S	sg g
     	kuhi	0		S	sg p
palamise	pala=mine	0		S	sg g
manu	manu	0		D	
    	@manu	0		K	
ent	ent	0		J	
siis	@siis	0		D	
    	siis	0		J	
tullu	####				
	#tule	u		V	nud
Jaan	@Jaan	0		H	sg n
    	jaan	0		S	sg n
    	jaan	0		Y	?
Tiilik	####				
	#Tiilik	0		H	sg n
ja	ja	0		J	
üttelnu	####				
	#ütle	nu		V	nud
et	et	0		J	
tema	tema	0		P	sg g
    	@tema	0		P	sg n
tahtvat	@taht	vat		V	vat
       	tahtev	t		A	sg p
Mihkel	@Mihkel	0		H	sg n
      	mihkel	0		A	sg n
      	mihkel	0		S	sg n
Võso	####				
	#Võsso	0		H	sg g
kohalt	@koht	lt		S	sg abl
      	koha	lt		S	sg abl
      	kohalt	0		K	
ära	@ära	0		D	
   	ära	0		V	neg o
tappa	@tap	a		V	da
     	tapp	0		S	adt
     	tapp	0		S	sg p
!	!			Z	
</s>					
<s>					
ja	ja	0		J	
löönu	löö=nu	0		S	sg g
     	löö=nu	0		S	sg n
	£löö	nu		V	nud
temale	tema	le		P	sg all
kats	####				
	#kaks	0		N	sg n
kõrd	####				
	#kord	0		S	sg n
põse	põsk	0		S	sg g
pääle	####				
	#peale	0		K	
väga	väga	0		D	
kõvaste	####				
	#kõvasti	0		D	
nii	nii	0		D	
et	et	0		J	
tem	####				
	#tema	0		P	sg n
mitte	mitte	0		D	
enamb	####				
	#enam	0		D	
esi	esi	0		S	pl p
   	esi	0		S	sg n
	£ise	0		P	sg n
ei	ei	0		D	
  	@ei	0		V	neg
ole	ole	0		V	o
jõudnu	jõud=nu	0		S	sg g
      	jõud=nu	0		S	sg n
	£jõud	nu		V	nud
kodo	####				
	#kodu	0		S	sg ill
tulla	tule	a		V	da
vaid	vaid	0		D	
    	@vaid	0		J	
abi	@abi	0		S	sg g
   	abi	0		S	sg n
   	abi	0		S	sg p
läbi	läbi	0		D	
    	@läbi	0		K	
    	läbi	0		V	o
.	.			Z	
</s>					
<s>					
Ja	ja	0		J	
ka	ka	0		D	
tahtnu	taht=nu	0		S	sg g
      	taht=nu	0		S	sg n
	£taht	nu		V	nud
teda	tema	da		P	sg p
sääl	####				
	#seal	0		D	
mitto	####				
	#mitu	0		P	sg n
kõrd	####				
	#kord	0		S	sg n
tulle	tull	e		S	pl p
     	@tuli	0		S	adt
visatus	visa=tu	s		S	sg in
       	visa=tus	0		S	sg n
	£viska	tus		V	tud tr
nii	nii	0		D	
et	et	0		J	
Mihkel	@Mihkel	0		H	sg n
      	mihkel	0		A	sg n
      	mihkel	0		S	sg n
Võsso	####				
	#Võsso	0		H	sg n
praego	####				
	#praegu	0		D	
koolmise	kool=mine	0		S	sg g
pääl	####				
	#peal	0		K	
ollev	####				
	#ole	v		V	vat
.	.			Z	
</s>					
<s>					
Tunnistaja	tunnistaja	0		S	sg g
          	@tunnistaja	0		S	sg n
Jaan	@Jaan	0		H	sg n
    	jaan	0		S	sg n
    	jaan	0		Y	?
Reimann	####				
	#Reimann	0		H	sg n
sai	@saa	i		V	s
   	sai	0		S	sg n
ette	@ette	0		D	
    	ette	0		K	
    	esi	tte		S	adt
kutsutus	kutsutu	s		S	sg in
        	kutsutud	s		A	sg in
		£kutsu	tus		V	tud tr
nink	####				
	#ning	0		J	
ütles	ütle	s		V	s
!	!			Z	
</s>					
<s>					
Et	et	0		J	
Jaan	@Jaan	0		H	sg n
    	jaan	0		S	sg n
    	jaan	0		Y	?
Tiilik	####				
	#Tiilik	0		H	sg n
tullu	####				
	#tule	u		V	nud
kõrdsist	####				
	#kõrts	st		S	sg el
ja	ja	0		J	
löönu	löö=nu	0		S	sg g
     	löö=nu	0		S	sg n
	£löö	nu		V	nud
Mihkel	@Mihkel	0		H	sg n
      	mihkel	0		A	sg n
      	mihkel	0		S	sg n
Võssul	####				
	#Võsso	l		H	sg ad
2	2	0		N	?
kõrd	####				
	#kord	0		S	sg n
rusikuga	####				
	#rusikas	ga		S	sg kom
põse	põsk	0		S	sg g
pääle	####				
	#peale	0		K	
ja	ja	0		J	
tahtnu	taht=nu	0		S	sg g
      	taht=nu	0		S	sg n
	£taht	nu		V	nud
teda	tema	da		P	sg p
ka	ka	0		D	
tulle	tull	e		S	pl p
     	@tuli	0		S	adt
visata	@viska	ta		V	da
      	visa	ta		A	sg ab
      	viska	ta		V	ta
!	!			Z	
</s>					
<s>					
Tunnistaja	tunnistaja	0		S	sg g
          	@tunnistaja	0		S	sg n
Jaan	@Jaan	0		H	sg n
    	jaan	0		S	sg n
    	jaan	0		Y	?
Rägo	####				
	#Rägo	0		H	sg n
sai	@saa	i		V	s
   	sai	0		S	sg n
ette	@ette	0		D	
    	ette	0		K	
    	esi	tte		S	adt
kutsutus	kutsutu	s		S	sg in
        	kutsutud	s		A	sg in
		£kutsu	tus		V	tud tr
ja	ja	0		J	
ütles	ütle	s		V	s
;	;			Z	
et	et	0		J	
Jaan	@Jaan	0		H	sg n
    	jaan	0		S	sg n
    	jaan	0		Y	?
Tiilik	####				
	#Tiilik	0		H	sg n
tõuganu	tõuga=nu	0		S	sg g
       	tõuga=nu	0		S	sg n
	£tõuka	nu		V	nud
kül	####				
	#küll	0		D	
Mihkel	@Mihkel	0		H	sg n
      	mihkel	0		A	sg n
      	mihkel	0		S	sg n
Võssud	####				
	#Võsso	d		S	sg p
ja	ja	0		J	
võtnu	võt=nu	0		S	sg g
     	võt=nu	0		S	sg n
	£võt	nu		V	nud
teda	tema	da		P	sg p
rint	####				
	#rind	0		S	sg n
pitti	####				
	#pidi	0		D	
kinni	kinni	0		D	
üttelden	####				
	#ütle	den		V	des
:	:			Z	
""""	""""			Z	
Et	et	0		J	
sinu	sina	0		P	sg g
nõu	@nõu	0		S	sg g
   	nõu	0		S	sg n
   	nõu	0		S	sg p
pääle	####				
	#peale	0		K	
nüüd	nüüd	0		D	
minu	mina	0		P	sg g
kuhi	kuhi	0		S	sg n
pidi	@pida	i		V	s
    	pidi	0		K	
palama	pala	ma		V	ma
pantama	####				
	#pane	tama	V	tama
!	!			Z	
</s>					
<s>					
ja	ja	0		J	
rohkemb	####				
	#rohkem	0		D	
es	es			H	?
	£ei	s		V	neg s
ütle	ütle	0		V	o
tema	tema	0		P	sg g
    	@tema	0		P	sg n
enamb	####				
	#enam	0		D	
teedvat	####				
	#tead	vat		V	vat
!	!			Z	
</s>					
<s>					
Otsus	otsus	0		S	sg n
II	@II	0		O	?
  	II	0		Y	?
Et	et	0		J	
tunnistuste	tunnistus	te		S	pl g
pääle	####				
	#peale	0		K	
Jaan	@Jaan	0		H	sg n
    	jaan	0		S	sg n
    	jaan	0		Y	?
Tiilik	####				
	#Tiilik	0		H	sg n
Mihkel	@Mihkel	0		H	sg n
      	mihkel	0		A	sg n
      	mihkel	0		S	sg n
Võssule	####				
	#Võsso	le		H	sg all
om	####				
	#ole	0		V	b
löönu	löö=nu	0		S	sg g
     	löö=nu	0		S	sg n
	£löö	nu		V	nud
ja	ja	0		J	
teda	tema	da		P	sg p
tahtnu	taht=nu	0		S	sg g
      	taht=nu	0		S	sg n
	£taht	nu		V	nud
tulle	tull	e		S	pl p
     	@tuli	0		S	adt
visata	@viska	ta		V	da
      	visa	ta		A	sg ab
      	viska	ta		V	ta
!	!			Z	
</s>					
<s>					
mis	mis	0		P	pl n
   	@mis	0		P	sg n
pääle	####				
	#peale	0		D	
Mihkel	@Mihkel	0		H	sg n
      	mihkel	0		A	sg n
      	mihkel	0		S	sg n
Võsso	####				
	#Võsso	0		H	sg n
praegu	praegu	0		D	
koolmisen	####				
	#kool=mine	n		S	sg in
om	####				
	#ole	0		V	b
mis	mis	0		P	pl n
   	@mis	0		P	sg n
ka	ka	0		D	
kogokonna	####				
	#kogu_kond	0		S	sg g
kohus	kohu	s		V	s
     	@kohus	0		S	sg n
ja	ja	0		J	
Vallitsus	####				
	#valitsus	0		S	sg n
om	####				
	#ole	0		V	b
üle	@üle	0		D	
   	üle	0		K	
kaenu	kae=nu	0		S	sg g
     	kae=nu	0		S	sg n
	£kae	nu		V	nud
!	!			Z	
</s>					
<s>					
ei	ei	0		D	
  	@ei	0		V	neg
voi	####				
	#või	0		V	o
selle	@see	0		P	sg g
     	sell	e		S	pl p
kohto	####				
	#kohus	0		S	sg g
poolt	pool	t		N	sg p
     	pool	t		S	sg p
     	poolt	0		D	
     	@poolt	0		K	
mitte	mitte	0		D	
otsus	otsus	0		S	sg n
tetta	####				
	#tege	a		V	da
sest	see	st		P	sg el
    	@sest	0		J	
et	et	0		J	
see	see	0		P	sg n
inimise	####				
	#inimene	0		S	sg g
surma	surm	0		S	adt
     	surm	0		S	sg g
     	surma	0		V	o
     	@surm	0		S	sg p
nõuab	nõud	b		V	b
saab	saa	b		V	b
Jaan	@Jaan	0		H	sg n
    	jaan	0		S	sg n
    	jaan	0		Y	?
Tiilik	####				
	#Tiilik	0		H	sg n
Keiserliko	####				
	#keiserlik	0		A	sg g
Silla	sild	0		S	sg g
kohto	####				
	#kohus	0		S sg g
ette	ette	0		D	
    	@ette	0		K	
    	esi	tte		S	adt
saadetus	saadetud	s		A	sg in
	£saat	tus		V	tud tr
I	@I	0		O	?
 	I	0		Y	?
See	see	0		P	sg n
ka	ka	0		D	
ütten	####				
	#ühes	0		D	
nee	####				
	#see	d		P	pl n
kaits	####				
	#kaks	0		N	sg n
Jakealust	####				
	¤
Jaan	@Jaan	0		H	sg n
    	jaan	0		S	sg n
    	jaan	0		Y	?
Külaots	küla_ots	0		S	sg n
	£Küla_ots	0		H	sg n
ja	ja	0		J	
Johann	Johann	0		H	sg n
Paas	paa	s		A	sg in
    	paa	s		S	sg in
    	paas	0		S	sg n
	£Paas	0		H	sg n
kedas	####				
	#kes	das		P	sg p
Jaan	@Jaan	0		H	sg n
    	jaan	0		S	sg n
    	jaan	0		Y	?
Tiilik	####				
	#Tiilik	0		H	sg n
oma	oma	0		A	sg g
   	oma	0		D	
   	@oma	0		P	sg g
   	oma	0		S	sg g
   	oma	0		V	o
   	oma	0		A	sg n
   	oma	0		A	sg p
   	oma	0		P	sg n
   	oma	0		P	sg p
   	oma	0		S	sg n
   	oma	0		S	sg p
kuhja	kuhja	0		V	o
     	kuhi	0		S	adt
     	@kuhi	0		S	sg g
     	kuhi	0		S	sg p
palutajas	####				
	#põletaja	s		S	sg tr
tunnistap	####				
	#tunnista	p		V	b
!	!			Z	
</s>					
