<s>					
Siis	siis	0		D	
oli	ole	i		V	s
Maasi	Maasi	0		H	sg n
kogukona	####				
kohus	kohus	0		H	sg n
koos	koos	0		D	
.	.			Z	
</s>					
<s>					
Ja	ja	0		J	
kohtu	kohus	0		S	sg g
ette	ette	0		K	
astus	astu	s		V	s
Maasi	Maasi	0		H	sg n
vallast	vallast	st		H	sg n
pileti	pilet	0		S	sg g
soldat	soldat	0		S	sg n
Villem	Villem	0		H	sg n
Neiup	Neiup	0		H	sg n
,	,			Z	
ja	ja	0		J	
lubas	luba	s		V	s
selle	see	0		P	sg g
Maasi	Maasi	0		H	sg n
vallast	vallast	st		H	sg n
Järve	Järve	0		H	sg n
külas	külas	s		H	sg n
seiseva	####				
vabatiku	vaba_tikk	0		S	sg g
platsi	plats	0		S	sg g
Lätsa	####				
nr	nr	0		Y	?
XIX	XIX	0		O	?
pärimise	pärimine	0		S	sg g
öiguse	õigus	0		S	sg g
,	,			Z	
mise	mis	0		P	sg g
üle	üle	0		K	
temal	tema	l		P	sg ad
see	see	0		P	sg n
esimine	esimene	0		O	sg n
öigus	õigus	0		S	sg n
on	ole	0		V	b
  	ole	0		V	vad
,	,			Z	
Vana	vana	0		A	sg g
lääne	lääs	0		S	sg g
valla	valla	0		H	sg n
mehele	mees	le		S	sg all
Jaen	Jaen	0		H	sg n
Viherbule	Vihelbu	le		H	sg all
igaveseks	igaveseks	0		D	
parandusseks	####				
.	.			Z	
</s>					
<s>					
Selle	see	0		P	sg g
öiguse	õigus	0		S	sg g
eest	eest	0		K	
maksab	maks	b		V	b
Jaen	Jaen	0		H	sg n
Vihelbu	Vihelbu	0		H	sg n
Villem	Villem	0		H	sg n
Neiupile	Neiup	le		H	sg all
35	35	0		N	?
rubla	rubla	0		S	sg p
.	.			Z	
</s>					
<s>					
Selest	####				
on	ole	0		V	b
  	ole	0		V	vad
Villem	Villem	0		H	sg n
Neiup	Neiup	0		H	sg n
5	5	0		N	?
rubla	rubla	0		S	sg p
omale	oma	le		S	sg all
saanud	saa	nud		V	nud
.	.			Z	
</s>					
<s>					
Ja	ja	0		J	
Maasi	Maasi	0		H	sg n
kogukona	####				
kohus	kohus	0		H	sg n
möistis	mõist	is		V	s
et	et	0		J	
seda	see	da		P	sg p
raha	raha	0		S	sg p
peab	pida	b		V	b
Jaen	Jaen	0		H	sg n
Viherpu	Vihelbu	0		H	sg n
5	5	0		N	?
aasta	aasta	0		S	sg g
sees	sees	0		K	
valla	valla	0		H	sg n
kassasse	kassa	sse		S	sg ill
sise	sisse	0		K	
maksma	maks	ma		V	ma
ja	ja	0		J	
sellest	see	st		P	sg el
rahast	raha	st		S	sg el
peab	pida	b		V	b
see	see	0		P	sg n
pangi	pan	0	gi	S	sg n
vilja	vili	0		S	sg g
völg	võlg	0		S	sg n
320	320	0		N	?
kop	kop	0		Y	?
mis	mis	0		P	sg n
Villem	Villem	0		H	sg n
Neiup	Neiup	0		H	sg n
ise	ise	0		P	sg n
Juhani	Juhani	0		H	sg n
kümme	kümme	0		N	sg n
peol	peo	l		S	sg ad
    	pidu	l		S	sg ad
völga	võlg	0		S	sg p
on	ole	0		V	b
  	ole	0		V	vad
ära	ära	0		D	
maksdud	####				
.	.			Z	
</s>					
<s>					
Sellega	see	ga		P	sg kom
leppisid	leppi	sid		V	sid
nemad	tema	d		P	pl n
kokku	kokku	0		D	
ja	ja	0		J	
teevad	tege	vad		V	vad
oma	oma	0		P	sg g
nimede	nimi	de		S	pl g
otsa	otsa	0		K	
ristid	rist	d		S	pl n
      	risti	d		S	pl n
selle	see	0		P	sg g
protokoli	protokoll	0		S	sg ill
alla	alla	0		D	
.	.			Z	
</s>					
