<s>					
Sel	see	l		P	sg ad
ülevel	üleval	0		D	
nimetud	nimeta	tud		V	tud
paaval	päev	l		S	sg ad
sai	saa	i		V	s
Maasi	Maasi	0		H	sg n
kogukonna	kogukond	0		S	sg g
kohtu	kohus	0		S	sg g
,	,			Z	
ja	ja	0		J	
talitaja	talitaja	0		S	sg g
üle	üle	0		K	
vaatamise	vaatamine	0		S	sg g
all	all	0		K	
Hindo	Hindo	0		H	sg n
külast	külast	st		H	sg n
Arilase	Arilase	0		H	sg n
kroonu	kroonu	0		S	sg n
puumaa	puumaa	0		H	sg n
liikuv	liikuv	0		A	sg n
vara	vara	0		S	sg n
ära	ära	0		D	
jägatud	jaga	tud		V	tud
kolme	kolm	0		N	sg g
venna	vend	0		S	sg g
peale	peale	0		K	
mis	mis	0		P	sg n
nende	tema	de		P	pl g
isast	isane	t		A	sg p
Martin	Martin	0		H	sg n
Lehmusest	Lehmus	t		H	sg p
on	ole	0		V	b
  	ole	0		V	vad
järele	järele	0		D	
jäänud	jää	nud		V	nud
.	.			Z	
</s>					
<s>					
Andrei	Andrei	0		H	sg n
köige	kõige	0		D	
vanem	vanem	0		C	sg n
vend	vend	0		S	sg n
kellel	kes	l		P	sg ad
see	see	0		P	sg n
esimine	esimene	0		O	sg n
pärimise	pärimine	0		S	sg g
öigus	õigus	0		S	sg n
on	ole	0		V	b
  	ole	0		V	vad
selle	see	0		P	sg g
puumaa	puumaa	0		H	sg n
üle	üle	0		K	
pärast	pärast	0		K	
oma	oma	0		P	sg g
isa	isa	0		S	sg g
surma	surm	0		S	sg p
,	,			Z	
ja	ja	0		J	
tahab	taht	b		V	b
seda	see	da		P	sg p
puumaa	puumaa	0		H	sg n
oma	oma	0		P	sg g
käte	käsi	te		S	pl g
saada	saa	da		V	da
,	,			Z	
aga	aga	0		J	
see	see	0		P	sg n
liikuv	liikuv	0		A	sg n
vara	vara	0		S	sg n
saab	saa	b		V	b
kolme	kolm	0		N	sg g
venna	vend	0		S	sg g
peale	peale	0		K	
jägatud	jaga	tud		V	tud
nenda	nõnda	0		D	
kuidas	kuidas	0		D	
siin	siin	0		D	
allamal	alamal	0		D	
protokolis	protokoll	s		S	sg in
seisab	seis	b		V	b
.	.			Z	
</s>					
<s>					
1	1	0		N	?
)	)			Z	
Kard	kard	0		S	sg n
on	ole	0		V	b
  	ole	0		V	vad
mise	mis	0		P	sg g
eest	eest	0		K	
kroonu	kroonu	0		S	sg n
üüri	üür	0		S	sg g
raha	raha	0		S	sg n
maksab	maks	b		V	b
jääb	jää	b		V	b
Peetrile	Peeter	le		H	sg all
parida	päri	da		V	da
see	see	0		P	sg n
on	ole	0		V	b
  	ole	0		V	vad
köige	kõige	0		D	
suurem	suurem	0		C	sg n
osa	osa	0		S	sg n
sest	see	st		P	sg el
isast	isa	st		S	sg el
järele	järele	0		D	
jäänud	jää	nud		V	nud
liikuvast	liikuv	st		A	sg el
varast	vara	st		S	sg el
.	.			Z	
</s>					
<s>					
Ja	ja	0		J	
Peeter	Peeter	0		H	sg n
on	ole	0		V	b
  	ole	0		V	vad
pärast	pärast	0		K	
isa	isa	0		S	sg g
surma	surm	0		S	sg p
selle	see	0		P	sg g
puumaa	puumaa	0		H	sg n
eest	eest	0		K	
mure	mure	0		S	sg n
pidanud	pida	nud		V	nud
see	see	0		P	sg n
pärast	pärast	0		K	
on	ole	0		V	b
  	ole	0		V	vad
temal	tema	l		P	sg ad
öigus	õigus	0		S	sg n
seda	see	da		P	sg p
pärida	päri	da		V	da
.	.			Z	
</s>					
<s>					
Ja	ja	0		J	
sest	sest	0		J	
maja	maja	0		S	sg g
üürist	üür	st		S	sg el
peab	pida	b		V	b
Peeter	Peeter	0		H	sg n
iga	iga	0		P	sg g
aasta	aasta	0		S	sg g
15	15	0		N	?
rubla	rubla	0		S	sg p
valjo	välja	0		D	
maksma	maks	ma		V	ma
.	.			Z	
</s>					
<s>					
10	10	0		N	?
rubla	rubla	0		S	sg p
kahe	kaks	0		N	sg g
oele	õde	le		S	sg all
ja	ja	0		J	
5	5	0		N	?
rubla	rubla	0		S	sg p
jääb	jää	b		V	b
Andreile	Andrei	le		H	sg all
.	.			Z	
</s>					
<s>					
Selle	see	0		P	sg g
ajani	aeg	ni		S	sg ter
kui	kui	0		D	
   	kui	0		J	
tema	tema	0		P	sg n
selle	see	0		P	sg g
maja	maja	0		S	sg g
pealt	pealt	0		K	
üüri	üür	0		S	sg p
saab	saa	b		V	b
ja	ja	0		J	
maja	maja	0		S	sg n
selle	see	0		P	sg g
harimisega	harimine	ga		S	sg kom
seisab	seis	b		V	b
.	.			Z	
</s>					
<s>					
Aga	aga	0		J	
kui	kui	0		D	
   	kui	0		J	
Peeter	Peeter	0		H	sg n
uue	uus	0		A	sg g
maja	maja	0		S	sg g
ehitab	ehita	b		V	b
,	,			Z	
siis	siis	0		J	
on	ole	0		V	b
  	ole	0		V	vad
teised	teine	d		O	pl n
      	teine	d		P	pl n
sellest	see	st		P	sg el
lahti	lahti	0		D	
,	,			Z	
ja	ja	0		J	
jääb	jää	b		V	b
Peetrile	Peeter	le		H	sg all
üksi	üksi	0		D	
.	.			Z	
</s>					
<s>					
2	2	0		N	?
)	)			Z	
Tuule	tuul	0		S	sg g
veski	veski	0		S	sg n
jääb	jää	b		V	b
Juhanile	Juhan	le		H	sg all
,	,			Z	
aga	aga	0		J	
selle	see	0		P	sg g
kaubaga	kaup	ga		S	sg kom
et	et	0		J	
Andrei	Andrei	0		H	sg n
ja	ja	0		J	
Peiter	Peiter	0		H	sg n
vöivad	või	vad		V	vad
seal	seal	0		D	
peal	peal	0		D	
ka	ka	0		D	
jahvata	jahvata	0		V	o
ilma	ilma	0		K	
maksuta	maks	ta		S	sg ab
selle	see	0		P	sg g
aja	aeg	0		S	sg g
kui	kui	0		D	
   	kui	0		J	
see	see	0		P	sg n
tuule	tuul	0		S	sg g
veski	veski	0		S	sg n
oma	oma	0		P	sg g
kuha	koht	0		S	sg g
peal	peal	0		K	
seisab	seis	b		V	b
,	,			Z	
ja	ja	0		J	
veski	veski	0		S	sg g
parandamine	parandamine	0		S	sg n
on	ole	0		V	b
  	ole	0		V	vad
neil	tema	l		P	pl ad
ka	ka	0		D	
seni	seni	0		D	
kolme	kolm	0		N	sg g
peäl	peal	0		K	
.	.			Z	
</s>					
<s>					
3	3	0		N	?
)	)			Z	
Üks	üks	0		N	sg n
   	üks	0		P	sg n
nelja	neli	0		N	sg g
seinaga	sein	ga		S	sg kom
sui	sui	0		D	
ait	ait	0		S	sg n
on	ole	0		V	b
  	ole	0		V	vad
Juhani	Juhani	0		H	sg n
paralt	päralt	0		K	
ja	ja	0		J	
köik	kõik	0		P	pl n
teised	teine	d		O	pl n
      	teine	d		P	pl n
majad	maja	d		S	pl n
jäävad	jää	vad		V	vad
puumaa	puumaa	0		H	sg n
peäle	peale	0		K	
.	.			Z	
</s>					
<s>					
4	4	0		N	?
)	)			Z	
Vankrid	vanker	d		S	pl n
.	.			Z	
</s>					
<s>					
Üks	üks	0		N	sg n
   	üks	0		P	sg n
raud	raud	0		S	sg n
igevanker	ige_vanker	0		S	sg n
jääb	jää	b		V	b
Andrus	Andrus	0		H	sg n
,	,			Z	
teine	teine	0		O	sg n
     	teine	0		P	sg n
raud	raud	0		S	sg n
vanger	vanker	0		S	sg n
puu	puu	0		S	sg g
igedega	ike	dega		S	pl kom
saab	saa	b		V	b
Peeter	Peeter	0		H	sg n
omale	oma	le		S	sg all
ja	ja	0		J	
kahed	kaks	d		N	pl n
puu	puu	0		S	sg g
vangrid	vanker	d		S	pl n
jäävad	jää	vad		V	vad
puumaa	puumaa	0		H	sg n
peale	peale	0		D	
raud	raud	0		S	sg n
varaks	vara	ks		S	sg tr
.	.			Z	
</s>					
<s>					
5	5	0		N	?
)	)			Z	
Peenike	peenike	0		A	sg n
kraam	kraam	0		S	sg n
.	.			Z	
</s>					
<s>					
Andrei	Andrei	0		H	sg n
saab	saa	b		V	b
kaks	kaks	0		N	sg n
kerstu	kirst	0		S	sg g
,	,			Z	
Peeter	Peeter	0		H	sg n
saab	saa	b		V	b
kaks	kaks	0		N	sg n
kerstu	kirst	0		S	sg g
.	.			Z	
</s>					
<s>					
Ja	ja	0		J	
teine	teine	0		O	sg n
     	teine	0		P	sg n
ode	õde	0		S	sg n
saab	saa	b		V	b
teise	teine	0		O	sg g
     	teine	0		P	sg g
riiete	riie	te		S	pl g
kerstu	kirst	0		S	sg g
ja	ja	0		J	
Annole	Annole	0		H	sg n
jääb	jää	b		V	b
üks	üks	0		N	sg n
   	üks	0		P	sg n
riieten	riie	ten		S	pl g
kast	kast	0		S	sg n
vana	vana	0		A	sg g
kerstu	kirst	0		S	sg g
karva	karv	0		S	sg p
.	.			Z	
</s>					
<s>					
6	6	0		N	?
)	)			Z	
Kolm	kolm	0		N	sg n
vilja	vili	0		S	sg p
vaati	vaat	0		S	adt
iga	iga	0		P	sg n
vend	vend	0		S	sg n
saab	saa	b		V	b
ühe	üks	0		N	sg g
   	üks	0		P	sg g
.	.			Z	
</s>					
<s>					
7	7	0		N	?
)	)			Z	
Kuus	kuus	0		N	sg n
kala	kala	0		S	sg p
tündrid	tünder	d		S	pl n
iga	iga	0		P	sg n
üks	üks	0		N	sg n
   	üks	0		P	sg n
vend	vend	0		S	sg n
saab	saa	b		V	b
kaks	kaks	0		N	sg n
.	.			Z	
</s>					
<s>					
8	8	0		N	?
)	)			Z	
Kuus	kuus	0		N	sg n
ölle	õlu	0		S	sg g
kiho	kihu	0		S	sg p
iga	iga	0		P	sg n
vend	vend	0		S	sg n
saab	saa	b		V	b
kaks	kaks	0		N	sg n
.	.			Z	
</s>					
<s>					
Mis	mis	0		P	sg n
üle	üle	0		K	
selle	see	0		P	sg g
on	ole	0		V	b
  	ole	0		V	vad
jääb	jää	b		V	b
puumaa	puumaa	0		H	sg n
peale	peale	0		D	
.	.			Z	
</s>					
<s>					
9	9	0		N	?
)	)			Z	
25	25	0		N	?
vörku	võrk	0		S	sg p
ise	ise	0		P	sg n
keskes	keskis	0		D	
jägada	jaga	da		V	da
.	.			Z	
</s>					
<s>					
10	10	0		N	?
)	)			Z	
Vikatid	vikat	d		S	pl n
.	.			Z	
</s>					
<s>					
Iga	iga	0		P	sg n
üks	üks	0		N	sg n
   	üks	0		P	sg n
vend	vend	0		S	sg n
saab	saa	b		V	b
kolm	kolm	0		N	sg n
,	,			Z	
ja	ja	0		J	
molemad	mõlema	d		P	pl n
öed	õde	d		S	pl n
saavad	saa	vad		V	vad
kaks	kaks	0		N	sg n
vikatid	vikat	d		S	pl n
,	,			Z	
ja	ja	0		J	
teine	teine	0		O	sg n
     	teine	0		P	sg n
teise	teine	0		O	adt
     	teine	0		P	adt
rugi	rukis	0		S	sg g
sirbi	sirp	0		S	sg g
.	.			Z	
</s>					
<s>					
11	11	0		N	?
)	)			Z	
Puutöö	puu_töö	0		S	sg g
riistad	riist	d		S	pl n
.	.			Z	
</s>					
<s>					
Andrele	Andre	le		H	sg all
jääb	jää	b		V	b
pitk	pikk	0		A	sg n
oovel	höövel	0		S	sg n
ja	ja	0		J	
veike	väike	0		A	sg n
öövel	höövel	0		S	sg n
.	.			Z	
</s>					
<s>					
Peeter	Peeter	0		H	sg n
saab	saa	b		V	b
pitko	pikk	0		A	sg g
öövli	höövel	0		S	sg g
ja	ja	0		J	
oherdi	oherdi	0		S	sg g
vändi	vänt	0		S	sg g
,	,			Z	
Juhanile	Juhan	le		H	sg all
jääb	jää	b		V	b
härja	härg	0		S	sg g
öövel	höövel	0		S	sg n
.	.			Z	
</s>					
<s>					
12	12	0		N	?
)	)			Z	
Andrule	Andrei	le		H	sg all
jääb	jää	b		V	b
raud	raud	0		S	sg n
kang	kang	0		S	sg n
ja	ja	0		J	
labidas	labidas	0		S	sg n
.	.			Z	
</s>					
<s>					
Juhan	Juhan	0		H	sg n
saab	saa	b		V	b
plokk	plokk	0		S	sg n
sae	saag	0		S	sg g
.	.			Z	
</s>					
<s>					
13	13	0		N	?
)	)			Z	
Katlad	katel	d		S	pl n
.	.			Z	
</s>					
<s>					
Andrei	Andrei	0		H	sg n
saab	saa	b		V	b
suure	suur	0		A	sg g
katla	katel	0		S	sg g
.	.			Z	
</s>					
<s>					
Juhan	Juhan	0		H	sg n
ja	ja	0		J	
Peeter	Peeter	0		H	sg n
saavad	saa	vad		V	vad
teine	teine	0		O	sg n
     	teine	0		P	sg n
teise	teine	0		O	adt
     	teine	0		P	adt
vähema	vähem	0		C	sg g
.	.			Z	
</s>					
<s>					
Loomad	loom	d		S	pl n
.	.			Z	
</s>					
<s>					
1	1	0		N	?
)	)			Z	
hobusid	hobu	sid		S	pl p
4.	4.	0		O	?
</s>					
<s>					
Kaks	kaks	0		N	sg n
hobust	hobune	t		S	sg p
on	ole	0		V	b
  	ole	0		V	vad
raud	raud	0		S	sg n
vara	vara	0		S	sg n
puumaa	puumaa	0		H	sg n
peal	peal	0		K	
.	.			Z	
</s>					
<s>					
Ühe	üks	0		N	sg g
   	üks	0		P	sg g
kolme	kolm	0		N	sg g
aastase	aastane	0		A	sg g
ruun	ruun	0		S	sg n
hobuse	hobune	0		S	sg g
saab	saa	b		V	b
Andrei	Andrei	0		H	sg n
,	,			Z	
teise	teine	0		O	adt
     	teine	0		P	adt
nelja	neli	0		N	sg g
aastase	aastane	0		A	sg g
ruuna	ruun	0		S	sg g
saab	saa	b		V	b
Peeter	Peeter	0		H	sg n
.	.			Z	
</s>					
<s>					
Veiksid	väike	d		A	pl n
.	.			Z	
</s>					
<s>					
Juhan	Juhan	0		H	sg n
saab	saa	b		V	b
köige	kõige	0		D	
parema	parem	0		C	sg g
harju	harju	0		G	
hobuse	hobune	0		S	sg g
asemele	asemele	0		K	
.	.			Z	
</s>					
<s>					
Peetri	Peeter	0		H	sg n
naene	naine	0		S	sg n
Eva	Eva	0		H	sg n
saab	saa	b		V	b
oma	oma	0		P	sg g
lehma	lehm	0		S	sg p
mis	mis	0		P	sg n
tema	tema	0		P	sg g
kodund	kodunt	0		D	
on	ole	0		V	b
  	ole	0		V	vad
toonud	too	nud		V	nud
.	.			Z	
</s>					
<s>					
Andrei	Andrei	0		H	sg n
jääb	jää	b		V	b
üks	üks	0		N	sg n
   	üks	0		P	sg n
lehm	lehm	0		S	sg n
.	.			Z	
</s>					
<s>					
Peetrile	Peeter	le		H	sg all
üks	üks	0		N	sg n
   	üks	0		P	sg n
noor	noor	0		A	sg n
härg	härg	0		S	sg n
.	.			Z	
</s>					
<s>					
Ja	ja	0		J	
Juhan	Juhan	0		H	sg n
saab	saa	b		V	b
ühe	üks	0		N	sg g
   	üks	0		P	sg g
lehma	lehm	0		S	sg p
ja	ja	0		J	
öed	õde	d		S	pl n
saavad	saa	vad		V	vad
teine	teine	0		O	sg n
     	teine	0		P	sg n
teise	teine	0		O	adt
     	teine	0		P	adt
lehma	lehm	0		S	sg p
,	,			Z	
mis	mis	0		P	sg n
puumaa	puumaa	0		H	sg n
peal	peal	0		K	
peavad	pida	vad		V	vad
saama	saa	ma		V	ma
kolme	kolm	0		N	sg g
aastaseks	aastane	ks		A	sg tr
kasvatud	kasva	tud		V	tud
.	.			Z	
</s>					
<s>					
Lambad	lammas	d		S	pl n
17	17	0		N	?
hinge	hing	0		S	sg p
.	.			Z	
</s>					
<s>					
Peetri	Peeter	0		H	sg n
naene	naine	0		S	sg n
saab	saa	b		V	b
3	3	0		N	?
lammast	lammas	t		S	sg p
mis	mis	0		P	sg n
tema	tema	0		P	sg g
kodunt	kodunt	0		D	
on	ole	0		V	b
  	ole	0		V	vad
toonud	too	nud		V	nud
.	.			Z	
</s>					
<s>					
Oed	õde	d		S	pl n
saavad	saa	vad		V	vad
teine	teine	0		O	sg n
     	teine	0		P	sg n
teist	teine	t		O	sg p
     	teine	t		P	sg p
kolm	kolm	0		N	sg n
lamast	lammas	t		S	sg p
.	.			Z	
</s>					
<s>					
Vend	vend	0		S	sg n
Andrei	Andrei	0		H	sg n
saab	saa	b		V	b
kolm	kolm	0		N	sg n
lammast	lammas	t		S	sg p
.	.			Z	
</s>					
<s>					
Peeter	Peeter	0		H	sg n
saab	saa	b		V	b
kolm	kolm	0		N	sg n
lammast	lammas	t		S	sg p
.	.			Z	
</s>					
<s>					
Juhan	Juhan	0		H	sg n
sab	saa	b		V	b
kaks	kaks	0		N	sg n
vana	vana	0		A	sg p
ja	ja	0		J	
ühe	üks	0		N	sg g
   	üks	0		P	sg g
talle	tema	lle		P	sg all
.	.			Z	
</s>					
<s>					
Kolm	kolm	0		N	sg n
hane	hani	0		S	sg p
,	,			Z	
iga	iga	0		P	sg p
üks	üks	0		N	sg n
   	üks	0		P	sg n
vend	vend	0		S	sg n
saab	saa	b		V	b
ühe	üks	0		N	sg g
   	üks	0		P	sg g
hane	hani	0		S	sg g
.	.			Z	
</s>					
<s>					
Andrei	Andrei	0		H	sg n
ja	ja	0		J	
Peeter	Peeter	0		H	sg n
saavad	saa	vad		V	vad
oma	oma	0		P	sg g
haned	hani	d		S	pl n
poegadega	poeg	dega		S	pl kom
aga	aga	0		J	
Juhan	Juhan	0		H	sg n
saab	saa	b		V	b
sügise	sügis	0		S	sg g
ühe	üks	0		N	sg g
   	üks	0		P	sg g
hane	hani	0		S	sg g
.	.			Z	
</s>					
<s>					
Sead	siga	d		S	pl n
kolm	kolm	0		N	sg n
tükki	tükk	0		S	sg p
.	.			Z	
</s>					
<s>					
Andreile	Andrei	le		H	sg all
jääb	jää	b		V	b
üks	üks	0		N	sg n
   	üks	0		P	sg n
vana	vana	0		A	sg n
siga	siga	0		S	sg n
.	.			Z	
</s>					
<s>					
Juhan	Juhan	0		H	sg n
ja	ja	0		J	
Peeter	Peeter	0		H	sg n
saavad	saa	vad		V	vad
teine	teine	0		O	sg n
     	teine	0		P	sg n
teise	teine	0		O	adt
     	teine	0		P	adt
pörsa	põrsas	0		S	sg g
.	.			Z	
</s>					
<s>					
Peetril	Peeter	l		H	sg ad
saab	saa	b		V	b
maja	maja	0		S	sg g
ehituse	ehitus	0		S	sg g
platsiks	plats	ks		S	sg tr
Pollu	Pollu	0		H	sg n
koppel	koppel	0		S	sg n
.	.			Z	
</s>					
<s>					
ja	ja	0		J	
maja	maja	0		S	sg g
ehituse	ehitus	0		S	sg g
tarvis	tarvis	0		K	
saab	saa	b		V	b
tema	tema	0		P	sg g
puumaa	puumaa	0		H	sg n
metsast	mets	st		S	sg el
20	20	0		N	?
palki	palk	0		S	sg p
ja	ja	0		J	
katuse	katus	0		S	sg g
tarvis	tarvis	0		K	
latid	latt	d		S	pl n
ja	ja	0		J	
roekad	roigas	d		S	pl n
.	.			Z	
</s>					
<s>					
Kui	kui	0		D	
   	kui	0		J	
Peeter	Peeter	0		H	sg n
maja	maja	0		S	sg g
materjali	materjal	0		S	sg g
vedamise	vedamine	0		S	sg g
tarvis	tarvis	0		K	
peaks	pida	ks		V	ks
habi	abi	0		S	sg p
tarvitama	tarvita	ma		V	ma
valjast	väljast	0		D	
,	,			Z	
saavad	saa	vad		V	vad
need	see	d		P	pl n
hobused	hobune	d		S	pl n
puumaa	puumaa	0		H	sg n
pealt	pealt	0		K	
sel	see	l		P	sg ad
korral	kord	l		S	sg ad
köik	kõik	0		P	pl n
töidu	toit	0		S	sg g
aga	aga	0		J	
jooki	jook	0		S	sg p
peab	pida	b		V	b
Peeter	Peeter	0		H	sg n
oma	oma	0		P	sg g
kulo	kulu	0		S	sg g
peal	peal	0		K	
muretsema	muretse	ma		V	ma
.	.			Z	
</s>					
<s>					
Ja	ja	0		J	
kui	kui	0		D	
   	kui	0		J	
Peeter	Peeter	0		H	sg n
maja	maja	0		S	sg g
ehituse	ehitus	0		S	sg g
juures	juures	0		K	
habi	abi	0		S	sg p
tarvitab	tarvita	b		V	b
seda	see	da		P	sg p
peab	pida	b		V	b
tema	tema	0		P	sg g
oma	oma	0		P	sg g
kulu	kulg	0		S	sg g
    	kulu	0		S	sg g
peal	peal	0		K	
maksma	maks	ma		V	ma
ja	ja	0		J	
söötma	sööt	ma		V	ma
.	.			Z	
</s>					
<s>					
See	see	0		P	sg n
vili	vili	0		S	sg n
mis	mis	0		P	sg n
praegus	praegu	0		D	
puumaa	puumaa	0		H	sg n
peäl	peal	0		K	
on	ole	0		V	b
  	ole	0		V	vad
seda	see	da		P	sg p
söövad	söö	vad		V	vad
nemad	tema	d		P	pl n
ühes	üks	s		N	sg in
    	üks	s		P	sg in
nii	nii	0		D	
kauva	kaua	0		D	
kui	kui	0		D	
   	kui	0		J	
see	see	0		P	sg n
ulatab	ulata	b		V	b
,	,			Z	
ja	ja	0		J	
loomade	loom	de		S	pl g
pohk	põhk	0		S	sg n
peab	pida	b		V	b
ka	ka	0		D	
saama	saa	ma		V	ma
puumaa	puumaa	0		H	sg n
peal	peal	0		D	
saama	saa	ma		V	ma
ühtlasi	ühtlasi	0		D	
ära	ära	0		D	
söödetud	sööt	tud		V	tud
.	.			Z	
</s>					
<s>					
Puole	pool	0		S	sg g
selle	see	0		P	sg g
nimetud	nimeta	tud		V	tud
liikuvad	liikuv	d		A	pl n
vara	vara	0		S	sg n
saab	saa	b		V	b
Peeter	Peeter	0		H	sg n
veel	veel	0		D	
ühe	üks	0		N	sg g
   	üks	0		P	sg g
lahkri	lähker	0		S	sg g
vee	vesi	0		S	sg g
toovri	toober	0		S	sg g
ja	ja	0		J	
ühe	üks	0		N	sg g
   	üks	0		P	sg g
toovri	toober	0		S	sg g
tunni	tund	0		S	sg g
,	,			Z	
mis	mis	0		P	sg n
saab	saa	b		V	b
tehtud	tege	tud		V	tud
puumaa	puumaa	0		H	sg n
peäl	peal	0		K	
.	.			Z	
</s>					
<s>					
Sellega	see	ga		P	sg kom
lepivad	leppi	vad		V	vad
nemad	tema	d		P	pl n
köik	kõik	0		P	pl n
kokko	kokku	0		D	
ja	ja	0		J	
teevad	tege	vad		V	vad
nimede	nimi	de		S	pl g
otsa	otsa	0		K	
kolm	kolm	0		N	sg n
risti	rist	0		S	sg p
vennad	vend	d		S	pl n
Andrei	Andrei	0		H	sg n
Lehmus	Lehmus	0		H	sg n
ja	ja	0		J	
Peeter	Peeter	0		H	sg n
Lehmus	Lehmus	0		H	sg n
oed	õde	d		S	pl n
Marja	Marja	0		H	sg n
Lehmus	Lehmus	0		H	sg n
ja	ja	0		J	
Anna	Anna	0		H	sg n
Lehmus	Lehmus	0		H	sg n
Seda	see	da		P	sg p
tunistavad	tunnista	vad		V	vad
toeks	tugi	ks		S	sg tr
kogukonna	kogukond	0		S	sg g
pea	pea	0		S	sg g
kohtu	kohus	0		S	sg g
mees	mees	0		S	sg n
Aleksei	Aleksei	0		H	sg n
Jurkatom	Jurkatom	0		H	sg n
kohtu	kohus	0		S	sg g
mees	mees	0		S	sg n
Ivan	Ivan	0		H	sg n
Kask	Kask	0		H	sg n
kirjutaja	kirjutaja	0		S	sg n
Ivan	Ivan	0		H	sg n
Kärner	Kärner	0		H	sg n
</s>					
