<s>					
Siis	siis	0		D	
astus	astu	s		V	s
Rahula	Rahula	0		H	sg n
külast	külast	st		H	sg n
Konstantik	Konstantin	0		H	sg n
Arnus	Arnus	0		H	sg n
Maasi	Maasi	0		H	sg n
valla	valla	0		H	sg n
kogukonna	kogukond	0		S	sg g
kohtu	kohus	0		S	sg g
ette	ette	0		K	
ja	ja	0		J	
kaebas	kaeba	s		V	s
,	,			Z	
et	et	0		J	
sel	see	l		P	sg ad
12mal	####				
jõulu	####				
kuul	kuu	l		S	sg ad
pääval	päev	l		S	sg ad
1886.	1886.	0		O	?
a	a	0		Y	?
,	,			Z	
kui	kui	0		D	
   	kui	0		J	
tema	tema	0		P	sg n
on	ole	0		V	b
  	ole	0		V	vad
Öeriko	Öeriko	0		H	sg n
poest	pood	st		S	sg el
keinud	####				
saapaid	saabas	id		S	pl p
ostmas	ost	mas		V	mas
,	,			Z	
siis	siis	0		D	
on	ole	0		V	b
  	ole	0		V	vad
tema	tema	0		P	sg g
oma	oma	0		P	sg g
hobuse	hobune	0		S	sg g
Öeriko	Öeriko	0		H	sg n
kõrtsi	kõrts	0		S	adt
poosti	####				
külge	külge	0		D	
kinni	kinni	0		D	
pannud	pane	nud		V	nud
,	,			Z	
ja	ja	0		J	
selle	see	0		P	sg g
aja	aeg	0		S	sg g
sees	sees	0		K	
kui	kui	0		D	
   	kui	0		J	
tema	tema	0		P	sg g
ise	ise	0		P	sg n
on	ole	0		V	b
  	ole	0		V	vad
poodis	####				
olnud	ole	nud		V	nud
,	,			Z	
siis	siis	0		J	
on	ole	0		V	b
  	ole	0		V	vad
Alleksei	Alleksei	0		H	sg n
Kärs	Kärs	0		H	sg n
Kauvandi	Kauvandi	0		H	sg n
külast	külast	st		H	sg n
,	,			Z	
tema	tema	0		P	sg g
hobuse	hobune	0		S	sg g
ära	ära	0		D	
võtnud	võt	nud		V	nud
seält	####				
kõrtsi	kõrts	0		S	sg g
eest	eest	0		K	
ja	ja	0		J	
sellega	see	ga		P	sg kom
ilma	ilma	0		K	
peremehe	pere_mees	0		S	sg g
teadmata	tead=mata	0		A	
ära	ära	0		D	
sõitnud	sõit	nud		V	nud
.	.			Z	
</s>					
<s>					
Ja	ja	0		J	
selle	see	0		P	sg g
läbi	läbi	0		K	
on	ole	0		V	b
  	ole	0		V	vad
Konstantin	Konstantin	0		H	sg n
Arnus	Arnus	0		H	sg n
kõigest	kõigest	0		D	
omast	oma	st		P	sg el
kraamist	kraam	st		S	sg el
ilma	ilma	0		D	
jäänud	jää	nud		V	nud
mis	mis	0		P	sg n
selle	see	0		P	sg g
ree	regi	0		S	sg g
pääl	peal	0		K	
oli	ole	i		V	s
.	.			Z	
</s>					
<s>					
Ja	ja	0		J	
Aleksei	Aleksei	0		H	sg n
Kõrs	Kõrs	0		H	sg n
peab	pida	b		V	b
seda	see	da		P	sg p
kraami	kraam	0		S	sg p
Konstantin	Konstantin	0		H	sg n
Arnusele	Arnus	le		H	sg all
kõik	kõik	0		P	sg n
tagasi	tagasi	0		D	
maksma	maks	ma		V	ma
mis	mis	0		P	sg n
rahaga	raha	ga		S	sg kom
peab	pida	b		V	b
saama	saa	ma		V	ma
seletud	seletu	d		V	d
,	,			Z	
nii	nii	0		D	
kui	kui	0		D	
   	kui	0		J	
siin	siin	0		D	
alamal	alam	l		C	sg ad
protokolis	protokoll	s		S	sg in
on	ole	0		V	b
  	ole	0		V	vad
nimetud	nimeta	tud		V	tud
:	:			Z	
1	1	0		N	?
)	)			Z	
Kaks	kaks	0		N	sg n
kahe	kaks	0		N	sg g
vakast	vakk	st		S	sg el
kotti	kott	0		S	adt
1	1	0		N	?
rubla	rubla	0		S	sg g
</s>					
<s>					
2	2	0		N	?
)	)			Z	
poolteis	pool_tee	is		S	pl in
vakka	vakka	0		D	
odre	oder	i		S	pl p
3	3	0		N	?
rubla	rubla	0		S	sg g
</s>					
<s>					
3	3	0		N	?
)	)			Z	
üks	üks	0		N	sg n
   	üks	0		P	sg n
teek	teek	0		S	sg n
1	1	0		N	?
rubla	rubla	0		S	sg g
</s>					
<s>					
4	4	0		N	?
)	)			Z	
üks	üks	0		N	sg n
   	üks	0		P	sg n
veike	väike	0		A	sg n
leiva	leib	0		S	sg g
kott	kott	0		S	sg n
25	25	0		N	?
kop	kop	0		Y	?
</s>					
<s>					
5	5	0		N	?
)	)			Z	
hobuse	hobune	0		S	sg g
sõidu	sõit	0		S	sg g
eest	eest	0		K	
nõuvab	####				
K.	K.	0		Y	sg n
Arnus	Arnus	0		H	sg n
1	1	0		N	?
rubla	rubla	0		S	sg g
50	50	0		N	?
kop	kop	0		Y	?
</s>					
<s>					
Se	Se	0		Y	sg n
teeb	tege	b		V	b
raha	raha	0		S	sg p
valjo	välja	0		D	
summa	summa	0		S	sg n
7	7	0		N	?
rubla	rubla	0		S	sg g
15	15	0		N	?
kop	kop	0		Y	?
</s>					
<s>					
Siis	siis	0		D	
peab	pida	b		V	b
Aleksei	Aleksei	0		H	sg n
Kõrs	Kõrs	0		H	sg n
seda	see	da		P	sg p
raha	raha	0		S	sg p
esimuseks	esimus	ks		S	sg tr
paastu	paast	0		S	sg g
kuu	kuu	0		S	sg g
päävaks	####				
ära	ära	0		D	
maksma	maks	ma		V	ma
.	.			Z	
</s>					
<s>					
Sellega	see	ga		P	sg kom
leppisid	leppi	sid		V	sid
nemad	tema	d		P	pl n
kokku	kokku	0		D	
.	.			Z	
</s>					
<s>					
Peakohtu	pea_kohus	0		S	sg g
mees	mees	0		S	sg n
Aleksei	Aleksei	0		H	sg n
Jurkatam	Jurkatam	0		H	sg n
Kohtu	kohus	0		S	sg g
mees	mees	0		S	sg n
Ivan	Ivan	0		H	sg n
Kask	Kask	0		H	sg n
</s>					
