<s>					
Siis	siis	0		D	
astus	astu	s		V	s
Öeriko	Öeriko	0		H	sg n
külast	külast	st		H	sg n
Kardi	Kardi	0		H	sg n
Mart	Mart	0		H	sg n
Evert	Evert	0		H	sg n
ja	ja	0		J	
tema	tema	0		P	sg g
vend	vend	0		S	sg n
Mihail	Mihail	0		H	sg n
Evert	Evert	0		H	sg n
kogokonna	kogokonna	0		H	sg n
kohto	kohus	0		S	sg g
ette	ette	0		K	
.	.			Z	
</s>					
<s>					
Ja	ja	0		J	
Mihail	Mihail	0		H	sg n
Evert	Evert	0		H	sg n
tahab	taht	b		V	b
oma	oma	0		P	sg g
venna	vend	0		S	sg g
poega	poeg	0		S	sg p
Aleksei	Aleksei	0		H	sg n
Evert	Evert	0		H	sg n
kes	kes	0		P	sg n
alles	alles	0		D	
8	8	0		N	?
aastat	aasta	t		S	sg p
vana	vana	0		A	sg n
on	ole	0		V	b
  	ole	0		V	vad
omale	oma	le		S	sg all
poiaks	####				
ja	ja	0		J	
vanatuse	vana=tus	0		S	sg g
päivil	####				
toitjaks	toitja	ks		S	sg tr
võtta	võt	a		V	da
sest	sest	0		J	
see	see	0		P	sg n
Mihail	Mihail	0		H	sg n
Evert	Evert	0		H	sg n
on	ole	0		V	b
  	ole	0		V	vad
ise	ise	0		P	sg n
ka	ka	0		D	
jumalast	jumal	st		S	sg el
loodud	loo	dud		V	tud
napi	napp	0		A	sg g
möistusega	mõistus	ga		S	sg kom
see	see	0		P	sg n
pärast	pärast	0		K	
on	ole	0		V	b
  	ole	0		V	vad
siis	siis	0		D	
see	see	0		P	sg n
kaheksa	kaheksa	0		N	sg n
aastane	aastane	0		A	sg n
poiss	poiss	0		S	sg n
Aleksei	Aleksei	0		H	sg n
Evert	Evert	0		H	sg n
temale	tema	le		P	sg all
toitjaks	toitja	ks		S	sg tr
lubatud	luba	tud		V	tud
.	.			Z	
</s>					
