<s>					
Siis	siis	0		D	
astus	astu	s		V	s
Orinõmme	Orinömme	0		H	sg n
külast	külast	st		H	sg n
Maria	Maria	0		H	sg n
Luks	Luks	0		H	sg n
kogukona	####				
kohtu	kohus	0		S	sg g
ette	ette	0		K	
ja	ja	0		J	
tunnistas	tunnista	s		V	s
et	et	0		J	
see	see	0		P	sg n
maia	maja	0		S	sg n
kus	kus	0		D	
sees	sees	0		D	
tema	tema	0		P	sg n
elab	ela	b		V	b
on	ole	0		V	b
  	ole	0		V	vad
tema	tema	0		P	sg g
venna	vend	0		S	sg g
Mihkli	Mihkli	0		H	sg n
tehtud	tege	tud		V	tud
maia	maja	0		S	sg n
kes	kes	0		P	sg n
on	ole	0		V	b
  	ole	0		V	vad
ise	ise	0		D	
ära	ära	0		D	
surnud	sure	nud		V	nud
ja	ja	0		J	
pärast	pärast	0		K	
surma	surm	0		S	sg p
on	ole	0		V	b
  	ole	0		V	vad
veel	veel	0		D	
Maria	Maria	0		H	sg n
tema	tema	0		P	sg g
völgu	võlg	u		S	pl p
peale	peale	0		K	
kahe	kaks	0		N	sg g
kümne	kümme	0		N	sg g
rubla	rubla	0		S	sg g
ära	ära	0		D	
maksnud	maks	nud		V	nud
see	see	0		P	sg n
pärast	pärast	0		D	
jääb	jää	b		V	b
see	see	0		P	sg n
maia	maja	0		S	sg n
nüüd	nüüd	0		D	
Mariale	Maria	le		H	sg all
ja	ja	0		J	
tema	tema	0		P	sg g
venna	vend	0		S	sg g
Juhan	Juhan	0		H	sg n
Luksil	Luks	l		H	sg ad
ei	ei	0		V	neg
ole	ole	0		V	o
mitte	mitte	0		D	
midagid	####				
see	see	0		P	sg n
maiaga	maja	ga		S	sg kom
tegemist	tegemine	t		S	sg p
.	.			Z	
</s>					
<s>					
Peale	peale	0		K	
selle	see	0		P	sg g
on	ole	0		V	b
  	ole	0		V	vad
veel	veel	0		D	
Maria	Maria	0		H	sg n
Luks	Luks	0		H	sg n
venna	vend	0		S	sg g
Juhan	Juhan	0		H	sg n
Luksi	Luks	0		H	sg g
poega	poeg	0		S	sg p
12	12	0		N	?
aastat	aasta	t		S	sg p
kasvatand	kasvata	nud		V	nud
ja	ja	0		J	
toitnud	toit	nud		V	nud
.	.			Z	
</s>					
<s>					
Seda	see	da		P	sg p
tunnistavad	tunnista	vad		V	vad
ka	ka	0		D	
Orinömme	Orinömme	0		H	sg n
küla	küla	0		H	sg n
peremehed	pere_mees	d		S	pl n
:	:			Z	
Jakov	Jakov	0		H	sg n
Evert	Evert	0		H	sg n
,	,			Z	
Aleksei	Aleksei	0		H	sg n
Munk	Munk	0		H	sg n
.	.			Z	
</s>					
<s>					
Kogokona	####				
kohtu	kohus	0		S	sg g
pea	pea	0		S	sg g
A.	A.	0		Y	sg n
Jurkatom	Jurkatom	0		H	sg n
Kohtu	kohus	0		S	sg g
mees	mees	0		S	sg n
A.	A.	0		Y	sg n
Ivan	Ivan	0		H	sg n
Kask	Kask	0		H	sg n
Kohtu	kohus	0		S	sg g
mees	mees	0		S	sg n
Vassili	Vassili	0		H	sg n
Viil	Viil	0		H	sg n
</s>					
