<s>					
Siis	siis	0		D	
astus	astu	s		V	s
Rahula	Rahula	0		H	sg n
külast	külast	st		H	sg n
Ivan	Ivan	0		H	sg n
Verlok	Verlok	0		H	sg n
Maasi	Maasi	0		H	sg n
kogukona	####				
kohtu	kohus	0		S	sg g
ette	ette	0		K	
ja	ja	0		J	
kaebas	kaeba	s		V	s
et	et	0		J	
temal	tema	l		P	sg ad
on	ole	0		V	b
  	ole	0		V	vad
Rahula	Rahula	0		H	sg n
külast	külast	st		H	sg n
Ivan	Ivan	0		H	sg n
Jurkotamme	Jurkotam	0		H	sg g
käest	käsi	st		S	sg el
41	41	0		N	?
rubla	rubla	0		S	sg p
raha	raha	0		S	sg p
saada	saa	da		V	da
,	,			Z	
mis	mis	0		P	sg n
I.	I.	0		Y	sg n
Jurkotam	Jurkotam	0		H	sg n
ka	ka	0		D	
mitte	mitte	0		D	
ei	ei	0		V	neg
ole	ole	0		V	o
tagasi	tagasi	0		D	
ajanud	aja	nud		V	nud
,	,			Z	
siis	siis	0		J	
möistis	mõist	is		V	s
Maasi	Maasi	0		H	sg n
kogukonna	kogukond	0		S	sg g
kohus	kohus	0		H	sg n
et	et	0		J	
Ivan	Ivan	0		H	sg n
Jurkotam	Jurkotam	0		H	sg n
peab	pida	b		V	b
see	see	0		P	sg n
raha	raha	0		S	sg n
Ivan	Ivan	0		H	sg n
Verlokile	Verlok	le		H	sg all
ära	ära	0		D	
maksma	maks	ma		V	ma
ja	ja	0		J	
nimelt	nimelt	0		D	
nenda	nõnda	0		D	
et	et	0		J	
10	10	0		N	?
rubla	rubla	0		S	sg p
peab	pida	b		V	b
saama	saa	ma		V	ma
sel	see	l		P	sg ad
1887.	1887.	0		O	?
aastal	aasta	l		S	sg ad
25.	25.	0		O	?
heina	hein	0		S	sg g
kuu	kuu	0		S	sg g
ja	ja	0		J	
31	31	0		N	?
rubla	rubla	0		S	sg p
peab	pida	b		V	b
saama	saa	ma		V	ma
3-me	####				
aasta	aasta	0		S	sg g
jooksul	jooksul	0		K	
ära	ära	0		D	
seletud	seletu	d		V	d
nii	nii	0		D	
iga	iga	0		P	sg g
sügise	sügis	0		S	sg g
15-mal	####				
viina	viin	0		S	sg g
kuu	kuu	0		S	sg g
pääval	päev	l		S	sg ad
peab	pida	b		V	b
saama	saa	ma		V	ma
ära	ära	0		D	
seletud	seletu	d		V	d
,	,			Z	
ja	ja	0		J	
kui	kui	0		D	
   	kui	0		J	
mitte	mitte	0		D	
see	see	0		P	sg n
nimetud	nimeta	tud		V	tud
raha	raha	0		S	sg g
summa	summa	0		S	sg n
ei	ei	0		V	neg
saa	saa	0		V	o
iga	iga	0		P	sg n
kord	kord	0		S	sg n
tärmini	tärmin	0		S	sg g
pääval	päev	l		S	sg ad
ära	ära	0		D	
seletud	seletu	d		V	d
,	,			Z	
siis	siis	0		J	
maksab	maks	b		V	b
Ivan	Ivan	0		H	sg n
Jurkatom	Jurkatom	0		H	sg n
iga	iga	0		P	sg g
rubla	rubla	0		S	sg g
pealt	pealt	0		K	
10	10	0		N	?
kop	kop	0		Y	?
protsinti	####				
.	.			Z	
</s>					
