<s>					
Siis	siis	0		D	
oli	ole	i		V	s
Maasi	Maasi	0		H	sg n
kogokonna	kogokonna	0		H	sg n
kohus	kohus	0		H	sg n
koos	koos	0		D	
.	.			Z	
</s>					
<s>					
Ja	ja	0		J	
kohtu	kohus	0		S	sg g
ette	ette	0		K	
sai	saa	i		V	s
kutsutud	kutsu	tud		V	tud
Juri	Juri	0		H	sg n
Avik	Avik	0		H	sg n
selle	see	0		P	sg g
üle	üle	0		K	
et	et	0		J	
temal	tema	l		P	sg ad
seitsme	seitse	0		N	sg g
aastased	aastane	d		A	pl n
kroonu	kroonu	0		S	sg n
maksud	maks	d		S	pl n
völgu	võlg	u		S	pl p
on	ole	0		V	b
  	ole	0		V	vad
.	.			Z	
</s>					
<s>					
Siis	siis	0		D	
möistis	mõist	is		V	s
kogu	kogu	0		A	
konna	konn	0		S	sg g
kohus	kohus	0		H	sg n
teda	tema	da		P	sg p
24	24	0		N	?
tuniks	####				
kinni	kinni	0		D	
,	,			Z	
selle	see	0		P	sg g
pärast	pärast	0		K	
et	et	0		J	
tema	tema	0		P	sg g
7	7	0		N	?
aastad	aasta	d		S	pl n
on	ole	0		V	b
  	ole	0		V	vad
ilma	ilma	0		K	
passita	pass	ta		S	sg ab
vakd	####				
olnud	ole	nud		V	nud
,	,			Z	
ja	ja	0		J	
nüüd	nüüd	0		D	
selle	see	0		P	sg g
völa	võlg	0		S	sg g
summaga	summ	ga		S	sg kom
       	summa	ga		S	sg kom
raha	raha	0		S	sg p
ei	ei	0		V	neg
ole	ole	0		V	o
mis	mis	0		P	sg n
valla	valla	0		H	sg n
hinge	hing	0		S	sg p
maksu	maks	0		S	sg g
raamatust	raamat	st		S	sg el
tema	tema	0		P	sg g
nime	nimi	0		S	sg g
peäle	peale	0		K	
tuleb	tule	b		V	b
.	.			Z	
</s>					
