<s>					
Moisa	mõis	0		S	sg g
kernal	####				
Hermann	Hermann	0		H	sg n
Mikk	Mikk	0		H	sg n
kaebas	kaeba	s		V	s
:	:			Z	
Ann	Ann	0		H	sg n
Rimmel	Rimmel	0		H	sg n
olla	ole	a		V	da
moisa	mõis	0		S	sg g
aijast	####				
õunu	õun	u		S	pl p
varastanud	varasta	nud		V	nud
,	,			Z	
kus	kus	0		D	
baroni	####				
braua	####				
teda	tema	da		P	sg p
isi	iski	0		V	o
kinni	kinni	0		D	
võtnud	võt	nud		V	nud
,	,			Z	
sest	sest	0		J	
nõuab	nõud	b		V	b
ta	tema	0		P	sg n
3	3	0		N	?
rubla	rubla	0		S	sg p
,	,			Z	
ja	ja	0		J	
palub	palu	b		V	b
et	et	0		J	
see	see	0		P	sg n
moisa	mõis	0		S	sg g
heaks	heaks	0		K	
moistetud	mõist	tud		V	tud
saab	saa	b		V	b
.	.			Z	
</s>					
<s>					
Kaebuse	kaebus	0		S	sg g
peale	peale	0		K	
vastas	vasta	s		V	s
Ann	Ann	0		H	sg n
Rimmel	Rimmel	0		H	sg n
,	,			Z	
ta	tema	0		P	sg n
on	ole	0		V	b
  	ole	0		V	vad
küll	küll	0		D	
2	2	0		N	?
õuna	õun	0		S	sg g
aijast	####				
võtnud	võt	nud		V	nud
,	,			Z	
mis	mis	0		P	sg n
baroni	####				
braua	####				
tema	tema	0		P	sg g
kaest	käest	0		K	
ära	ära	0		D	
votnud	####				
,	,			Z	
aga	aga	0		J	
raha	raha	0		S	sg g
temal	tema	l		P	sg ad
nende	see	de		P	pl g
eest	eest	0		K	
maksa	maks	0		S	sg p
ei	ei	0		V	neg
ole	ole	0		V	o
.	.			Z	
</s>					
<s>					
Seepeale	see_peale	0		D	
leppis	leppi	s		V	s
kernal	####				
baroni	####				
braua	####				
lubaga	luba	ga		S	sg kom
Ann	Ann	0		H	sg n
Remeliga	Remeliga	0		H	sg n
seepeale	see_peale	0		D	
,	,			Z	
et	et	0		J	
Ann	Ann	0		H	sg n
Remmel	Remmel	0		H	sg n
tuleva	tulev	0		A	sg g
kevadi	kevad	l		S	sg ad
      	kevade	l		S	sg ad
Navesti	Navesti	0		H	sg n
moisale	mõis	le		S	sg all
10	10	0		N	?
paeva	päev	0		S	sg p
teenib	teeni	b		V	b
.	.			Z	
</s>					
<s>					
Sai	Sai	i		H	sg n
kästud	käski	tud		V	tud
:	:			Z	
nii	nii	0		D	
kuida	kuidas	0		D	
sündinud	sündi	nud		V	nud
protucolli	####				
võtta	võt	a		V	da
.	.			Z	
</s>					
