<s>					
Olustvere	Olustvere	0		H	sg n
kõrtsimees	kõrtsi_mees	0		S	sg n
Ado	Ado	0		H	sg n
Natus	Natus	0		H	sg n
kaebas	kaeba	s		V	s
,	,			Z	
mineva	minev	0		A	sg g
aasta	aasta	0		S	sg g
märtsikuu	märtsi_kuu	0		S	sg g
akatusel	####				
on	ole	0		V	b
  	ole	0		V	vad
endine	endine	0		A	sg n
Navesti	Navesti	0		H	sg n
vallavanemb	####				
Hendrik	Hendrik	0		H	sg n
Nordin	Nordin	0		H	sg n
ja	ja	0		J	
vöörmünder	vöörmünder	0		S	sg n
Adam	Adam	0		H	sg n
Freyberg	Freyberg	0		H	sg n
tema	tema	0		P	sg g
juure	juur	0		S	sg g
tulnud	tule	nud		V	nud
,	,			Z	
ja	ja	0		J	
palunud	palu	nud		V	nud
190	190	0		N	?
rubla	rubla	0		S	sg p
raha	raha	0		S	sg p
1	1	0		N	?
kuu	kuu	0		S	sg g
aja	aeg	0		S	sg g
peale	peale	0		K	
võlgo	võlg	u		S	pl p
üteldes	ütle	des		V	des
et	et	0		J	
neil	tema	l		P	pl ad
valla	valla	0		D	
pearaha	pea_raha	0		S	sg g
rentereis	####				
maksa	maks	0		V	o
on	ole	0		V	b
  	ole	0		V	vad
,	,			Z	
seeperast	####				
praegu	praegu	0		D	
mõisas	mõis	s		S	sg in
on	ole	0		V	b
  	ole	0		V	vad
käinud	käi	nud		V	nud
,	,			Z	
valla	valla	0		D	
laadikut	laadik	t		S	sg p
ja	ja	0		J	
tarviline	tarviline	0		A	sg n
raha	raha	0		S	sg n
võtta	võt	a		V	da
tahtnud	taht	nud		V	nud
,	,			Z	
aga	aga	0		J	
et	et	0		J	
üks	üks	0		N	sg n
   	üks	0		P	sg n
vöörmünder	vöörmünder	0		S	sg n
Jaan	Jaan	0		H	sg n
Lohmann	Lohmann	0		H	sg n
mitte	mitte	0		D	
tulnud	tule	nud		V	nud
ei	ei	0		V	neg
olnud	ole	nud		V	nud
,	,			Z	
seeperast	####				
laadikust	laadik	st		S	sg el
raha	raha	0		S	sg g
kätte	kätte	0		K	
ei	ei	0		V	neg
ole	ole	0		V	o
saanud	saa	nud		V	nud
.	.			Z	
</s>					
<s>					
Ta	tema	0		P	sg n
on	ole	0		V	b
  	ole	0		V	vad
ka	ka	0		D	
see	see	0		P	sg n
tarviline	tarviline	0		A	sg n
raha	raha	0		S	sg n
annud	and	nud		V	nud
,	,			Z	
peale	peale	0		K	
selle	see	0		P	sg g
on	ole	0		V	b
  	ole	0		V	vad
nad	tema	d		P	pl n
teda	tema	da		P	sg p
selle	see	0		P	sg g
rahaga	raha	ga		S	sg kom
üks	üks	0		N	sg n
   	üks	0		P	sg n
aasta	aasta	0		S	sg n
kannata	kannata	0		V	o
palunud	palu	nud		V	nud
,	,			Z	
nad	tema	d		P	pl n
on	ole	0		V	b
  	ole	0		V	vad
seda	see	da		P	sg p
ka	ka	0		D	
teinud	tege	nud		V	nud
,	,			Z	
nüüd	nüüd	0		D	
on	ole	0		V	b
  	ole	0		V	vad
ta	tema	0		P	sg n
seda	see	da		P	sg p
raha	raha	0		S	sg p
kaebatute	####				
kaest	käsi	st		S	sg el
nõudnud	nõud	nud		V	nud
,	,			Z	
seepeale	see_peale	0		D	
on	ole	0		V	b
  	ole	0		V	vad
Hendrik	Hendrik	0		H	sg n
Nordin	Nordin	0		H	sg n
vastust	vastus	t		S	sg p
annud	and	nud		V	nud
,	,			Z	
et	et	0		J	
see	see	0		P	sg n
raha	raha	0		S	sg g
maks	maks	0		S	sg n
ei	ei	0		V	neg
ole	ole	0		V	o
tema	tema	0		P	sg g
asi	asi	0		S	sg n
,	,			Z	
seeperast	####				
,	,			Z	
palub	palu	b		V	b
ta	tema	0		P	sg n
kohut	kohus	t		S	sg p
,	,			Z	
et	et	0		J	
Hendrik	Hendrik	0		H	sg n
Nordin	Nordin	0		H	sg n
kes	kes	0		P	sg n
ta	tema	0		P	sg n
kaest	käsi	st		S	sg el
raha	raha	0		S	sg g
votnud	####				
saaks	saa	ks		V	ks
moistetud	mõist	tud		V	tud
temale	tema	le		P	sg all
see	see	0		P	sg n
190	190	0		N	?
rubla	rubla	0		S	sg p
ühes	üks	s		N	sg in
    	üks	s		P	sg in
kuee	####				
protsentiga	protsent_iga	0		S	sg p
mineva	minev	0		A	sg g
aasta	aasta	0		S	sg g
esimese	esimene	0		O	sg g
märtsi	märts	0		S	sg g
kuu	kuu	0		S	sg g
paevist	####				
kuni	kuni	0		K	
siamaale	####				
maksma	maks	ma		V	ma
mõistetud	mõist	tud		V	tud
,	,			Z	
ja	ja	0		J	
peale	peale	0		K	
selle	see	0		P	sg g
iga	iga	0		P	sg g
viivitud	viivitu	d		V	d
paeva	päev	0		S	sg g
eest	eest	0		K	
mis	mis	0		P	sg n
ta	tema	0		P	sg g
seeperast	####				
kohut	kohus	t		S	sg p
peab	pida	b		V	b
käima	käi	ma		V	ma
1	1	0		N	?
rubla	rubla	0		S	sg g
50	50	0		N	?
kop	kop	0		Y	?
paevast	####				
.	.			Z	
</s>					
<s>					
Kaebuse	kaebus	0		S	sg g
peale	peale	0		K	
vastas	vasta	s		V	s
Hendrik	Hendrik	0		H	sg n
Nordin	Nordin	0		H	sg n
,	,			Z	
tema	tema	0		P	sg g
abi	abi	0		S	sg n
on	ole	0		V	b
  	ole	0		V	vad
küll	küll	0		D	
kaebaja	kaebaja	0		S	sg g
kaest	käest	0		K	
seda	see	da		P	sg p
raha	raha	0		S	sg p
mis	mis	0		P	sg n
ta	tema	0		P	sg n
siin	siin	0		D	
nouab	####				
küsinud	küsi	nud		V	nud
,	,			Z	
mispeale	mis_peale	0		D	
Natus	Natus	0		H	sg n
ka	ka	0		D	
190	190	0		N	?
rubla	rubla	0		S	sg p
annud	and	nud		V	nud
,	,			Z	
ja	ja	0		J	
saanud	saa	nud		V	nud
see	see	0		P	sg n
raha	raha	0		S	sg n
seekord	see_kord	0		D	
tema	tema	0		P	sg g
kätte	kätte	0		K	
,	,			Z	
mis	mis	0		P	sg n
ta	tema	0		P	sg g
rentereis	####				
viinud	vii	nud		V	nud
,	,			Z	
ja	ja	0		J	
valla	vald	0		S	sg g
eest	eest	0		K	
pearahaks	pea_raha	ks		S	sg tr
ära	ära	0		D	
maksnud	maks	nud		V	nud
,	,			Z	
seda	see	da		P	sg p
raha	raha	0		S	sg p
ei	ei	0		V	neg
ole	ole	0		V	o
ta	tema	0		P	sg n
valla	valla	0		D	
kaest	käsi	st		S	sg el
mitte	mitte	0		D	
kätte	käsi	tte		S	adt
saanud	saa	nud		V	nud
,	,			Z	
nõudku	nõud	ku		V	gu
Natus	Natus	0		H	sg n
seda	see	da		P	sg p
isi	iski	0		V	o
nüüd	nüüd	0		D	
vallavalitsuse	valla_valitsus	0		S	sg g
kaest	käest	0		K	
.	.			Z	
</s>					
<s>					
Moistus	####				
:	:			Z	
Hendrik	Hendrik	0		H	sg n
Nordin	Nordin	0		H	sg n
peab	pida	b		V	b
Adu	Adu	0		H	sg n
Natusel	Natusel	0		H	sg n
14	14	0		N	?
paeva	päev	0		S	sg g
perast	pärast	0		K	
190	190	0		N	?
rubla	rubla	0		S	sg p
ühes	üks	s		N	sg in
    	üks	s		P	sg in
kuue	kuub	0		S	sg g
protsentiga	protsent_iga	0		S	sg n
12	12	0		N	?
rubla	rubla	0		S	sg g
4	4	0		N	?
kop	kop	0		Y	?
ühte	ühte	0		D	
kokku	kokku	0		D	
202	202	0		N	?
rubla	rubla	0		S	sg p
4	4	0		N	?
kop	kop	0		Y	?
välja	välja	0		D	
maksma	maks	ma		V	ma
ja	ja	0		J	
voib	või	b		V	b
seda	see	da		P	sg p
isi	iski	0		V	o
valla	valla	0		D	
kaest	käsi	st		S	sg el
nõuda	nõud	a		V	da
kui	kui	0		D	
   	kui	0		J	
tal	tema	l		P	sg ad
sealt	sealt	0		D	
saada	saa	da		V	da
on	ole	0		V	b
  	ole	0		V	vad
.	.			Z	
</s>					
<s>					
Moistus	####				
sai	saa	i		V	s
kuulutud	kuulu	tud		V	tud
,	,			Z	
kohtukaijat	####				
seega	seega	0		D	
rahu	rahu	0		S	sg p
.	.			Z	
</s>					
