<s>					
Navesti	Navesti	0		H	sg n
moisavalitsus	####				
ctr	####				
Tõnis	Tõnis	0		H	sg n
Tonnison	Tonnison	0		H	sg n
,	,			Z	
kahjutasumise	kahju_tasumine	0		S	sg g
pärast	pärast	0		K	
.	.			Z	
</s>					
<s>					
Täna	täna	0		D	
oli	ole	i		V	s
kaebaja	kaebaja	0		S	sg n
ja	ja	0		J	
tunnistajad	tunnistaja	d		S	pl n
siia	siia	0		D	
ilmunud	ilmu	nud		V	nud
,	,			Z	
kaebatu	kaeva=tu	0		S	sg n
aga	aga	0		J	
välja	välja	0		D	
jäänud	jää	nud		V	nud
.	.			Z	
</s>					
<s>					
Ann	Ann	0		H	sg n
Tonnisson	Tonnison	0		H	sg g
tunnistas	tunnista	s		V	s
:	:			Z	
Kui	kui	0		D	
   	kui	0		J	
Tõnis	Tõnis	0		H	sg n
Tonnison	Tonnison	0		H	sg n
Oja	Oja	0		H	sg n
talu	talu	0		S	sg g
rentnikuks	rentnik	ks		S	sg tr
saanud	saa	nud		V	nud
ehk	ehk	0		J	
talu	talu	0		S	sg g
vastu	vastu	0		K	
võtnud	võt	nud		V	nud
,	,			Z	
ei	ei	0		V	neg
ole	ole	0		V	o
tunnistaja	tunnistaja	0		S	sg n
enam	enam	0		D	
seal	seal	0		D	
talus	talu	s		S	sg in
olnud	ole	nud		V	nud
,	,			Z	
vaid	vaid	0		D	
üks	üks	0		N	sg n
   	üks	0		P	sg n
nädal	nädal	0		S	sg n
enne	enne	0		K	
seda	see	da		P	sg p
Oja	Oja	0		H	sg n
talust	talu	st		S	sg el
ära	ära	0		D	
läinud	mine	nud		V	nud
;	;			Z	
kui	kui	0		D	
   	kui	0		J	
tunnistaja	tunnistaja	0		S	sg n
alles	alles	0		D	
Oja	Oja	0		H	sg n
talus	talu	s		S	sg in
elanud	ela	nud		V	nud
,	,			Z	
siis	siis	0		J	
olla	ole	a		V	da
keik	kõik	0		P	sg n
talu	talu	0		S	sg g
hooned	hoone	d		S	pl n
kõrralikus	####				
ja	ja	0		J	
kõlblikus	kõlblik	s		A	sg in
seisuses	seisus	s		S	sg in
olnud	ole	nud		V	nud
.	.			Z	
</s>					
<s>					
Ka	ka	0		D	
keik	kõik	0		P	sg n
aiad	aed	d		S	pl n
olla	ole	a		V	da
terved	terve	d		A	pl n
olnud	ole	nud		V	nud
.	.			Z	
</s>					
<s>					
Mall	Mall	0		H	sg n
Peeterson	Peeterson	0		H	sg n
tunnistas	tunnista	s		V	s
:	:			Z	
ta	tema	0		P	sg n
ei	ei	0		V	neg
teada	tead	a		V	da
mitte	mitte	0		D	
,	,			Z	
mis	mis	0		P	sg n
suguses	sugune	s		A	sg in
seisuses	seisus	s		S	sg in
Tõnis	Tõnis	0		H	sg n
Tõnnison	Tõnnison	0		H	sg n
Oja	Oja	0		H	sg n
talu	talu	0		V	o
enese	ise	0		P	sg g
kätte	käsi	tte		S	adt
saanud	saa	nud		V	nud
,	,			Z	
sest	sest	0		J	
et	et	0		J	
ta	tema	0		P	sg n
enne	enne	0		K	
seda	see	da		P	sg p
sealt	sealt	0		D	
koha	koha	0		S	sg g
    	koht	0		S	sg g
pealt	pealt	0		K	
ära	ära	0		D	
läinud	mine	nud		V	nud
.	.			Z	
</s>					
<s>					
Hendrik	Hendrik	0		H	sg n
Jännes	Jännes	0		H	sg n
tunnistas	tunnista	s		V	s
:	:			Z	
ta	tema	0		P	sg n
olla	ole	a		V	da
sel	see	l		P	sg ad
korral	korral	0		K	
Oja	Oja	0		H	sg n
talus	talu	s		V	s
elanud	ela	nud		V	nud
,	,			Z	
kui	kui	0		D	
   	kui	0		J	
Tõnis	Tõnis	0		H	sg n
Tõnnisson	Tõnnison	0		H	sg g
selle	see	0		P	sg g
talu	talu	0		S	sg g
rentnikuks	rentnik	ks		S	sg tr
saanud	saa	nud		V	nud
,	,			Z	
kus	kus	0		D	
siis	siis	0		D	
talu	talu	0		S	sg g
hoonete	hoone	te		S	pl g
seisus	seis	s		S	sg in
niipalju	nii_palju	0		D	
kui	kui	0		D	
   	kui	0		J	
ta	tema	0		P	sg n
mäletada	mäleta	da		V	da
,	,			Z	
järgmine	järgmine	0		A	sg n
olnud	ole	nud		V	nud
ja	ja	0		J	
nimelt	nimelt	0		D	
olla	ole	a		V	da
elumaia	elu_maja	0		S	sg g
aknad	aken	d		S	pl n
terved	terve	d		A	pl n
olnud	ole	nud		V	nud
,	,			Z	
toa	tuba	0		S	sg g
edisel	####				
olla	ole	a		V	da
uksed	uks	d		S	pl n
ees	ees	0		D	
olnud	ole	nud		V	nud
,	,			Z	
kas	kas	0		D	
laudil	laudi	l		S	sg ad
ja	ja	0		J	
laudal	laut	l		S	sg ad
lagi	lagi	0		S	sg n
peal	peal	0		D	
olnud	ole	nud		V	nud
,	,			Z	
seda	see	da		P	sg p
ta	tema	0		P	sg n
et	et	0		J	
teada	tead	a		V	da
,	,			Z	
õue	õu	0		S	adt
aiad	aed	d		S	pl n
olla	ole	a		V	da
mõnes	mõni	s		P	sg in
kohas	koha	s		S	sg in
     	koht	s		S	sg in
terved	terve	d		A	pl n
,	,			Z	
mõnes	mõni	s		P	sg in
kohas	koha	s		S	sg in
     	koht	s		S	sg in
ka	ka	0		D	
maha	maha	0		D	
langenud	lange	nud		V	nud
olnud	ole	nud		V	nud
;	;			Z	
kui	kui	0		D	
   	kui	0		J	
palju	palju	0		D	
aeda	aed	0		S	adt
olnud	ole	nud		V	nud
,	,			Z	
seda	see	da		P	sg p
ei	ei	0		V	neg
voida	või	da		V	da
ta	tema	0		P	sg n
ütelda	ütle	da		V	da
,	,			Z	
aida	ait	0		S	sg g
vahe	vahe	0		S	sg g
sein	sein	0		S	sg n
olla	ole	a		V	da
alles	alles	0		D	
ja	ja	0		J	
terve	terve	0		A	sg n
olnud	ole	nud		V	nud
;	;			Z	
keik	kõik	0		P	sg n
hoonete	hoone	te		S	pl g
katused	katus	d		S	pl n
olla	ole	a		V	da
terved	terve	d		A	pl n
ja	ja	0		J	
kõlblikus	kõlblik	s		A	sg in
seisuses	seisus	s		S	sg in
olnud	ole	nud		V	nud
,	,			Z	
muud	muu	d		P	sg p
ta	tema	0		P	sg n
ei	ei	0		V	neg
teada	tead	a		V	da
.	.			Z	
</s>					
<s>					
Valla	Valla	0		H	sg n
vöörmünder	vöörmünder	0		S	sg n
Adam	Adam	0		H	sg n
Freiberg	Freiberg	0		H	sg n
tunnistas	tunnista	s		V	s
:	:			Z	
ta	tema	0		P	sg n
olla	ole	a		V	da
tänavu	tänavu	0		D	
kevade	kevad	0		S	sg g
      	kevade	0		S	sg g
ametlikult	ametlikult	0		D	
juures	juures	0		K	
olnud	ole	nud		V	nud
,	,			Z	
kui	kui	0		D	
   	kui	0		J	
Navesti	Navesti	0		H	sg n
mõisavalitsus	mõisa_valitsus	0		S	sg n
Oja	Oja	0		H	sg n
talu	talu	0		S	sg g
vastu	vastu	0		K	
võtnud	võt	nud		V	nud
,	,			Z	
seal	seal	0		D	
olla	ole	a		V	da
siis	siis	0		D	
talu	talu	0		S	sg g
hoonete	hoone	te		S	pl g
seisus	seis	s		S	sg in
alvas	####				
korras	kord	s		S	sg in
olnud	ole	nud		V	nud
ja	ja	0		J	
nimelt	nimelt	0		D	
:	:			Z	
</s>					
<s>					
1.	1.	0		O	?
</s>					
<s>					
Kolm	kolm	0		N	sg n
elumaia	elu_maja	0		S	sg p
aknad	aken	d		S	pl n
olla	ole	a		V	da
ära	ära	0		D	
lagunud	lagu	nud		V	nud
ehk	ehk	0		J	
lõhutud	lõhku	tud		V	tud
ja	ja	0		J	
klaasid	klaas	d		S	pl n
sees	sees	0		D	
katki	katki	0		D	
olnud	ole	nud		V	nud
</s>					
<s>					
2.	2.	0		O	?
toa	tuba	0		S	sg g
edise	####				
uksed	uks	d		S	pl n
olla	ole	a		V	da
koguni	koguni	0		D	
puudunud	puudu	nud		V	nud
</s>					
<s>					
3.	3.	0		O	?
laudil	laudi	l		S	sg ad
ei	ei	0		V	neg
ole	ole	0		V	o
lage	lagi	0		S	sg p
peal	peal	0		D	
olnud	ole	nud		V	nud
</s>					
<s>					
4.	4.	0		O	?
laudal	laut	l		S	sg ad
ei	ei	0		V	neg
ole	ole	0		V	o
ka	ka	0		D	
lage	lage	0		A	sg n
enam	enam	0		D	
olnud	ole	nud		V	nud
</s>					
<s>					
5.	5.	0		O	?
</s>					
<s>					
Õue	õu	0		S	sg g
aedadest	aed	dest		S	pl el
ei	ei	0		V	neg
olla	ole	a		V	da
mitte	mitte	0		D	
üht	üks	0		N	sg p
   	üks	0		P	sg p
pulka	pulk	0		S	adt
enam	enam	0		D	
püsti	püsti	0		D	
olnud	ole	nud		V	nud
</s>					
<s>					
6.	6.	0		O	?
aida	ait	0		S	sg g
vahe	vahe	0		S	sg g
seina	sein	0		S	sg p
ei	ei	0		V	neg
ole	ole	0		V	o
enam	enam	0		D	
olnud	ole	nud		V	nud
ja	ja	0		J	
</s>					
<s>					
7.	7.	0		O	?
hoonete	hoone	te		S	pl g
katused	katus	d		S	pl n
olla	ole	a		V	da
koguni	koguni	0		D	
lagunud	lagu	nud		V	nud
olnud	ole	nud		V	nud
.	.			Z	
</s>					
<s>					
Ühtlasi	ühtlasi	0		D	
andis	and	is		V	s
tunnistaja	tunnistaja	0		S	sg n
teada	tead	a		V	da
,	,			Z	
et	et	0		J	
Tõnis	Tõnis	0		H	sg n
Tonnison	Tonnison	0		H	sg n
talu	talu	0		S	sg g
vastuvõtmise	vastu_võtmine	0		S	sg g
juures	juures	0		K	
sugugi	sugugi	0		D	
ei	ei	0		V	neg
olnud	ole	nud		V	nud
,	,			Z	
vaid	vaid	0		D	
ilma	ilma	0		K	
talu	talu	0		S	sg g
käest	käest	0		K	
ära	ära	0		D	
andmata	and	mata		V	mata
sealt	sealt	0		D	
enne	enne	0		K	
välja	välja	0		D	
läinud	mine	nud		V	nud
.	.			Z	
</s>					
<s>					
Arvati	arva	ti		V	ti
:	:			Z	
Kohtu	kohus	0		S	sg g
käiad	käi	d		S	pl n
teiseks	teiseks	0		D	
kohtu	kohus	0		S	sg g
päävaks	####				
ettetellida	####				
ja	ja	0		J	
siis	siis	0		D	
asi	asi	0		S	sg n
otsusele	otsus	le		S	sg all
saata	saat	a		V	da
.	.			Z	
</s>					
