<s>					
Peeter	Peeter	0		H	sg n
Nael	Nael	0		H	sg n
,	,			Z	
Sürgaverest	Sürga_vere	st		H	sg el
,	,			Z	
tuli	tule	i		V	s
ette	ette	0		D	
ja	ja	0		J	
kaebas	kaeba	s		V	s
:	:			Z	
kui	kui	0		D	
   	kui	0		J	
kaebaja	kaebaja	0		S	sg n
Oksa	Oksa	0		H	sg n
talust	talu	st		S	sg el
välja	välja	0		D	
läinud	mine	nud		V	nud
,	,			Z	
ja	ja	0		J	
Tõnis	Tõnis	0		H	sg n
Rass	Rass	0		H	sg n
Oksa	Oksa	0		H	sg n
taluse	####				
tulnud	tule	nud		V	nud
,	,			Z	
siis	siis	0		J	
olla	ole	a		V	da
nemad	tema	d		P	pl n
sel	see	l		P	sg ad
viisil	viis	l		S	sg ad
leppinud	leppi	nud		V	nud
,	,			Z	
et	et	0		J	
Rass	Rass	0		H	sg n
pidanud	pida	nud		V	nud
kaebajale	kaebaja	le		S	sg all
Ukse	uks	0		S	sg g
hingede	hing	de		S	pl g
eest	eest	0		K	
1	1	0		N	?
rubla	rubla	0		S	sg p
25	25	0		N	?
kop	kop	0		Y	?
</s>					
<s>					
2	2	0		N	?
õunapuu	õuna_puu	0		S	sg g
eest	eest	0		K	
2	2	0		N	?
rubla	rubla	0		S	sg p
</s>					
<s>					
Summa	summa	0		S	sg n
3	3	0		N	?
rubla	rubla	0		S	sg g
25	25	0		N	?
kop	kop	0		Y	?
</s>					
<s>					
välja	välja	0		D	
maksma	maks	ma		V	ma
.	.			Z	
</s>					
<s>					
Niisugune	nii_sugune	0		P	sg n
lepitus	lepitus	0		S	sg n
olla	ole	a		V	da
selle	see	0		P	sg g
aegsete	aegne	te		A	pl g
kohtumeeste	kohtu_mees	te		S	pl g
Johann	Johan	0		H	sg g
Tõnnissoni	Tõnnison	0		H	sg g
ja	ja	0		J	
Jüri	Jüri	0		H	sg n
Mikki	Mikk	0		H	sg g
juures	juures	0		K	
olemisega	olemine	ga		S	sg kom
sündinud	sündi	nud		V	nud
.	.			Z	
</s>					
<s>					
Et	et	0		J	
nüüd	nüüd	0		D	
Rass	Rass	0		H	sg n
oma	oma	0		P	sg g
lepitust	lepitus	t		S	sg p
mitte	mitte	0		D	
täita	täit	a		V	da
ei	ei	0		V	neg
taha	taht	0		V	o
,	,			Z	
siis	siis	0		J	
paluda	palu	da		V	da
ta	tema	0		P	sg g
kohut	kohus	t		S	sg p
,	,			Z	
otsuse	otsus	0		S	sg g
läbi	läbi	0		D	
Tõnis	Tõnis	0		H	sg n
Rassi	Rass	0		H	sg g
eespool	ees_pool	0		D	
nimetud	nimetu	d		A	pl n
summa	summa	0		S	sg n
välja	välja	0		D	
mõista	mõist	a		V	da
ja	ja	0		J	
Tõnis	Tõnis	0		H	sg n
Rassi	Rass	0		H	sg g
konkursi	konkurss	0		S	sg g
varast	vara	st		S	sg el
seda	see	da		P	sg p
välja	välja	0		D	
maksa	maks	0		V	o
.	.			Z	
</s>					
<s>					
Ennised	####				
kohtumehed	kohtu_mees	d		S	pl n
Johann	Johan	0		H	sg g
Tõnnison	Tõnnison	0		H	sg n
ja	ja	0		J	
Jüri	Jüri	0		H	sg n
Mikk	Mikk	0		H	sg n
andsid	and	sid		V	sid
tunnistust	tunnistus	t		S	sg p
:	:			Z	
see	see	0		P	sg n
olla	ole	a		V	da
tõsi	tõsi	0		S	sg n
,	,			Z	
et	et	0		J	
Tõnis	Tõnis	0		H	sg n
Rass	Rass	0		H	sg n
Oksa	Oksa	0		H	sg n
talu	talu	0		S	sg g
vastu	vastu	0		K	
võtmise	võtmine	0		S	sg g
aial	aed	l		S	sg ad
on	ole	0		V	b
  	ole	0		V	vad
lubanud	luba	nud		V	nud
Peeter	Peeter	0		H	sg n
Naelale	Nael	le		H	sg all
välja	välja	0		D	
maksa	maks	0		S	sg p
ja	ja	0		J	
nimelt	nimelt	0		D	
:	:			Z	
Ukse	uks	0		S	sg g
hingede	hing	de		S	pl g
eest	eest	0		K	
125	125	0		N	?
kop	kop	0		Y	?
</s>					
<s>					
2	2	0		N	?
õuna	õun	0		S	sg g
puu	puu	0		S	sg g
eest	eest	0		K	
2	2	0		N	?
rubla	rubla	0		S	sg p
</s>					
<s>					
Summa	summa	0		S	sg n
325	325	0		N	?
kop	kop	0		Y	?
</s>					
<s>					
Arvati	arva	ti		V	ti
:	:			Z	
et	et	0		J	
Rass	Rass	0		H	sg n
välja	välja	0		D	
oli	ole	i		V	s
jäänud	jää	nud		V	nud
,	,			Z	
siis	siis	0		J	
asi	asi	0		S	sg n
teiseks	teiseks	0		D	
korraks	korraks	0		D	
seletusele	seletus	le		S	sg all
jätta	jät	a		V	da
.	.			Z	
</s>					
