<s>					
Hans	Hans	0		H	sg n
Luitz	Luitz	0		H	sg n
kaebas	kaeba	s		V	s
,	,			Z	
temal	tema	l		P	sg ad
on	ole	0		V	b
  	ole	0		V	vad
Adam	Adam	0		H	sg n
Mikko	Mikko	0		H	sg n
kaest	käsi	st		S	sg el
palga	palk	0		S	sg g
veel	veel	0		D	
saada	saa	da		V	da
44	44	0		N	?
rubla	rubla	0		S	sg p
raha	raha	0		S	sg p
,	,			Z	
ja	ja	0		J	
1	1	0		N	?
kasukas	kasukas	s		S	sg in
ning	ning	0		J	
2	2	0		N	?
paari	paar	0		N	sg p
villasid	vill	sid		S	pl p
        	villa	sid		S	pl p
pukse	puks	e		S	pl p
,	,			Z	
ta	tema	0		P	sg g
pallub	####				
kohut	kohus	t		S	sg p
,	,			Z	
et	et	0		J	
see	see	0		P	sg n
tema	tema	0		P	sg g
heaks	heaks	0		K	
saaks	saa	ks		V	ks
välja	välja	0		D	
mõistetus	mõiste=tu	s		S	sg in
.	.			Z	
</s>					
<s>					
Adam	Adam	0		H	sg n
Mikk	Mikk	0		H	sg n
ütleb	ütle	b		V	b
eesoleva	ees_olev	0		S	sg g
nõudmise	nõudmine	0		S	sg g
õige	õige	0		A	sg n
olevad	olev	d		A	pl n
praegu	praegu	0		D	
aga	aga	0		J	
mitte	mitte	0		D	
maksa	maks	0		S	sg p
ei	ei	0		V	neg
saa	saa	0		V	o
,	,			Z	
sest	sest	0		J	
et	et	0		J	
ta	tema	0		P	sg g
kraam	kraam	0		S	sg n
nüüd	nüüd	0		D	
Toomas	Toomas	0		H	sg n
Freibergi	Freiberg	0		H	sg g
valitsuse	valitsus	0		S	sg g
all	all	0		K	
on	ole	0		V	b
  	ole	0		V	vad
,	,			Z	
kui	kui	0		D	
   	kui	0		J	
ta	tema	0		P	sg n
seda	see	da		P	sg p
jälle	jälle	0		D	
oma	oma	0		P	sg g
kätte	kätte	0		K	
saab	saa	b		V	b
,	,			Z	
siis	siis	0		J	
varsi	vars	i		S	pl p
ära	ära	0		D	
tasub	tasu	b		V	b
.	.			Z	
</s>					
<s>					
Moistus	####				
:	:			Z	
Adam	Adam	0		H	sg n
Mikk	Mikk	0		H	sg n
peab	pida	b		V	b
Hans	Hans	0		H	sg n
Luizile	Luizile	0		H	sg n
see	see	0		P	sg n
palk	palk	0		S	sg n
nii	nii	0		D	
kohe	kohe	0		D	
välja	välja	0		D	
maksma	maks	ma		V	ma
.	.			Z	
</s>					
<s>					
Moistus	####				
sai	saa	i		V	s
kuulutud	kuulu	tud		V	tud
.	.			Z	
</s>					
<s>					
Kohto	kohus	0		S	sg g
käijad	käija	d		S	pl n
seega	seega	0		D	
rahu	rahu	0		S	sg p
.	.			Z	
</s>					
