<s>					
Navesti	Navesti	0		H	sg n
mõisavalitsuse	mõisa_valitsus	0		S	sg g
kirja	kiri	0		S	sg g
põhjusel	põhjus	l		S	sg ad
sest	sest	0		J	
9.	9.	0		O	?
juulist	juuli	st		S	sg el
nr	nr	0		Y	?
20	20	0		N	?
oli	ole	i		V	s
täna	täna	0		D	
Navesti	Navesti	0		H	sg n
talo	talu	0		S	sg g
peremehed	pere_mees	d		S	pl n
nii	nii	0		D	
kui	kui	0		D	
   	kui	0		J	
Säse	Säse	0		H	sg n
Juhan	Juhan	0		H	sg n
Tõnnison	Tõnnison	0		H	sg n
,	,			Z	
Toro	Toro	0		H	sg n
Lorits	Lorits	0		H	sg n
Tõnnison	Tõnnison	0		H	sg n
,	,			Z	
Marti	Marti	0		H	sg n
Hans	Hans	0		H	sg n
Mill	Mill	0		H	sg n
,	,			Z	
Evarti	Evarti	0		H	sg n
Juri	Juri	0		H	sg n
Mikk	Mikk	0		H	sg n
,	,			Z	
Lino	Lino	0		H	sg n
Toomas	Toomas	0		H	sg n
Koch	Koch	0		H	sg n
,	,			Z	
Oja	Oja	0		H	sg n
Tonis	Tonis	0		H	sg n
Tõnison	Tõnis	0		H	sg g
,	,			Z	
Sobli	Sobli	0		H	sg n
Tonis	Tonis	0		H	sg n
Elbrecht	Elbricht	t		H	sg p
ja	ja	0		J	
sai	saa	i		V	s
neile	tema	le		P	pl all
ette	ette	0		D	
kuulutud	kuulu	tud		V	tud
et	et	0		J	
nende	tema	de		P	pl g
renti	rent	0		S	sg p
kohtrahti	####				
aeg	aeg	0		S	sg n
mööda	mööda	0		D	
on	ole	0		V	b
  	ole	0		V	vad
,	,			Z	
ja	ja	0		J	
peavad	pida	vad		V	vad
jälle	jälle	0		D	
uued	uus	d		A	pl n
kontrahtid	####				
enne	enne	0		K	
jakobi	jakobi	0		S	sg g
peava	pida	vad		V	vad
ära	ära	0		D	
tegema	tege	ma		V	ma
Lahmuse	Lahmuse	0		H	sg n
herra	härra	0		S	sg g
von	####				
Rathleffi	Rathleffi	0		H	sg n
juures	juures	0		K	
,	,			Z	
kes	kes	0		P	sg n
ses	see	s		P	sg in
asjas	asi	s		S	sg in
oma	oma	0		P	sg g
kontrahti	kontraht	0		S	sg p
teinud	tege	nud		V	nud
ei	ei	0		V	neg
ole	ole	0		V	o
peab	pida	b		V	b
kevadi	kevad	l		S	sg ad
      	kevade	l		S	sg ad
koha	koha	0		S	sg g
    	koht	0		S	sg g
ära	ära	0		D	
andma	and	ma		V	ma
.	.			Z	
</s>					
<s>					
Sai	Sai	i		H	sg n
kästud	käski	tud		V	tud
nii	nii	0		D	
kuida	kuidas	0		D	
sündinud	sündi	nud		V	nud
protocolli	####				
votta	####				
.	.			Z	
</s>					
