<s>					
Christjan	Christjan	0		H	sg n
Scönberg	Scönberg	0		H	sg n
sai	saa	i		V	s
ette	ette	0		D	
nõutud	nõud	tud		V	tud
ja	ja	0		J	
temalt	tema	lt		P	sg abl
küsitud	küsi	tud		V	tud
,	,			Z	
mikspärast	####				
ta	tema	0		P	sg g
kevadest	kevad	st		S	sg el
        	kevade	st		S	sg el
saadik	saadik	0		K	
siitpoolse	####				
käskudel	käsk	del		S	pl ad
vastu	vastu	0		D	
pannud	pane	nud		V	nud
ja	ja	0		J	
veel	veel	0		D	
tänini	tänini	0		D	
oma	oma	0		P	sg g
pearaha	pea_raha	0		S	sg g
võlga	võlg	0		S	sg p
435	435	0		N	?
kop	kop	0		Y	?
kihelkonna	kihelkond	0		S	sg g
kohtu	kohus	0		S	sg g
poolt	poolt	0		K	
14.	14.	0		O	?
aug	aug	0		Y	?
.	.			Z	
</s>					
<s>					
s.a	s.a	0		Y	?
nr	nr	0		Y	?
3168	3168	0		N	?
all	all	0		K	
antud	and	tud		V	tud
käsu	käsk	0		S	sg g
täitmiseks	täitmine	ks		S	sg tr
kolme	kolm	0		N	sg g
kordse	kordne	0		A	sg g
käsu	käsk	0		S	sg g
järele	järele	0		K	
ei	ei	0		V	neg
ole	ole	0		V	o
ära	ära	0		D	
tasunud	tasu	nud		V	nud
Põltsamaa	Põltsamaa	0		H	sg n
vallavalitsuse	valla_valitsus	0		S	sg g
juure	juur	0		S	sg g
,	,			Z	
ega	ega	0		J	
see	see	0		P	sg n
üle	üle	0		K	
kviitungi	kviitung	0		S	sg g
siin	siin	0		D	
ette	ette	0		D	
näitanud	####				
?	?			Z	
</s>					
<s>					
Nisuguse	####				
küsimise	küsimine	0		S	sg g
peale	peale	0		K	
vastas	vasta	s		V	s
Christjan	Christjan	0		H	sg n
Schönberg	Schönberg	0		H	sg n
:	:			Z	
tal	tema	l		P	sg ad
ei	ei	0		V	neg
ole	ole	0		V	o
niisugust	nii_sugune	t		P	sg p
käsku	käsk	0		S	sg p
tarvis	tarvis	0		D	
täita	täit	a		V	da
,	,			Z	
sest	sest	0		J	
et	et	0		J	
ta	tema	0		P	sg n
oma	oma	0		P	sg g
pearaha	pea_raha	0		S	sg g
juba	juba	0		D	
ära	ära	0		D	
maksnud	maks	nud		V	nud
,	,			Z	
aga	aga	0		J	
pojal	poeg	l		S	sg ad
     	poja	l		S	sg ad
alles	alles	0		D	
võlga	võlg	0		S	sg p
olla	ole	a		V	da
;	;			Z	
poja	poeg	0		S	sg g
    	poja	0		S	sg g
võlga	võlg	0		S	sg p
pidada	pida	da		V	da
see	see	0		P	sg n
peremees	pere_mees	0		S	sg n
tasuma	tasu	ma		V	ma
,	,			Z	
kelle	kes	0		P	sg g
juures	juures	0		K	
poeg	poeg	0		S	sg n
teenistuses	teenistus	s		S	sg in
olnud	ole	nud		V	nud
ja	ja	0		J	
kes	kes	0		P	sg n
poja	poeg	0		S	sg g
    	poja	0		S	sg g
pearaha	pea_raha	0		S	sg g
enese	ise	0		P	sg g
peale	peale	0		K	
tasuda	tasu	da		V	da
võtnud	võt	nud		V	nud
.	.			Z	
</s>					
<s>					
Kui	kui	0		D	
   	kui	0		J	
nüüd	nüüd	0		D	
niisugune	nii_sugune	0		P	sg n
vabandamine	vabandamine	0		S	sg n
sugugi	sugugi	0		D	
põhjuslik	põhjuslik	0		A	sg n
ei	ei	0		V	neg
olnud	ole	nud		V	nud
sest	sest	0		J	
et	et	0		J	
Christjan	Christjan	0		H	sg n
Schönbergil	Schönberg	l		H	sg ad
mingisugust	mingi_sugune	t		P	sg p
kviitungi	kviitung	0		S	sg g
oma	oma	0		P	sg g
maksude	maks	de		S	pl g
üle	üle	0		K	
ette	ette	0		D	
näita	näita	0		V	o
ei	ei	0		V	neg
olnud	ole	nud		V	nud
,	,			Z	
ja	ja	0		J	
veel	veel	0		D	
kui	kui	0		D	
   	kui	0		J	
Christjan	Christjan	0		H	sg n
Schönberg	Schönberg	0		H	sg n
siitpoolse	####				
käskudel	käsk	del		S	pl ad
tänini	tänini	0		D	
vastu	vastu	0		D	
tõrkunud	tõrku	nud		V	nud
,	,			Z	
ehk	ehk	0		D	
ta	tema	0		P	sg n
neid	see	d		P	pl p
küll	küll	0		D	
iga	iga	0		P	sg n
kord	kord	0		S	sg n
lubanud	luba	nud		V	nud
täita	täit	a		V	da
,	,			Z	
siis	siis	0		J	
sai	saa	i		V	s
Mõistetud	mõist	tud		V	tud
:	:			Z	
Christjan	Christjan	0		H	sg n
Schönberg	Schönberg	0		H	sg n
peab	pida	b		V	b
käsude	####				
vastu	vastu	0		D	
panemise	panemine	0		S	sg g
eest	eest	0		K	
250	250	0		N	?
kop	kop	0		Y	?
trahvi	trahv	0		S	sg g
vaeste	vaene	te		S	pl g
laadikuse	####				
8	8	0		N	?
pääva	päev	0		S	sg p
sees	sees	0		D	
kui	kui	0		D	
   	kui	0		J	
ka	ka	0		D	
kindlaks	kindel	ks		A	sg tr
saanud	saa	nud		V	nud
kihelkonna	kihelkond	0		S	sg g
kohtu	kohus	0		S	sg g
trahvi	trahv	0		S	sg g
60	60	0		N	?
kop	kop	0		Y	?
kui	kui	0		D	
   	kui	0		J	
seda	see	da		P	sg p
peaks	pida	ks		V	ks
nõutama	nõud	tama		V	tama
       	nõuta	ma		V	ma
ära	ära	0		D	
maksma	maks	ma		V	ma
ja	ja	0		J	
saab	saa	b		V	b
tema	tema	0		P	sg g
pearaha	pea_raha	0		S	sg g
võlg	võlg	0		S	sg n
435	435	0		N	?
kop	kop	0		Y	?
tema	tema	0		P	sg g
käest	käest	0		K	
sedamaid	seda_maid	0		D	
sisse	sisse	0		D	
riisutud	riisu	tud		V	tud
ühes	üks	s		N	sg in
    	üks	s		P	sg in
ära	ära	0		D	
saatmise	saatmine	0		S	sg g
kuluga	kulg	ga		S	sg kom
      	kulu	ga		S	sg kom
.	.			Z	
</s>					
<s>					
Mõistus	mõistus	0		S	sg n
sai	saa	i		V	s
kohtu	kohus	0		S	sg g
käiatele	käija	tele	S	p	
kuulutud	kuulu	tud		V	tud
.	.			Z	
</s>					
