<s>					
Välgita	Välgita	0		H	sg n
mees	mees	0		S	sg n
Jaan	Jaan	0		H	sg n
Neumann	Neumann	0		H	sg n
kaebas	kaeba	s		V	s
:	:			Z	
ta	tema	0		P	sg g
poeg	poeg	0		S	sg n
on	ole	0		V	b
  	ole	0		V	vad
Tõno	Tõno	0		H	sg n
Remmeli	Remmel	0		H	sg g
teenistuses	teenistus	s		S	sg in
olnud	ole	nud		V	nud
,	,			Z	
ja	ja	0		J	
see	see	0		P	sg n
on	ole	0		V	b
  	ole	0		V	vad
tema	tema	0		P	sg g
palgast	palk	st		S	sg el
2	2	0		N	?
rubla	rubla	0		S	sg p
ära	ära	0		D	
võtnud	võt	nud		V	nud
,	,			Z	
ta	tema	0		P	sg n
palub	palu	b		V	b
et	et	0		J	
see	see	0		P	sg n
raha	raha	0		S	sg g
kaebatu	kaeva=tu	0		S	sg n
kaest	käest	0		K	
saaks	saa	ks		V	ks
välja	välja	0		D	
mõistetud	mõist	tud		V	tud
.	.			Z	
</s>					
<s>					
Kaebuse	kaebus	0		S	sg g
peale	peale	0		K	
vastas	vasta	s		V	s
Tõnno	Tõnno	0		H	sg n
Remmel	Remmel	0		H	sg n
,	,			Z	
ta	tema	0		P	sg n
on	ole	0		V	b
  	ole	0		V	vad
küll	küll	0		D	
niipailo	####				
palka	palk	0		S	sg p
kaebaja	kaebaja	0		S	sg g
poja	poeg	0		S	sg g
    	poja	0		S	sg g
palgast	palk	st		S	sg el
ära	ära	0		D	
võtnud	võt	nud		V	nud
kuidas	kuidas	0		D	
ta	tema	0		P	sg n
siin	siin	0		D	
nõuab	nõud	b		V	b
,	,			Z	
aga	aga	0		J	
seeperast	####				
,	,			Z	
et	et	0		J	
ta	tema	0		P	sg g
hobused	hobune	d		S	pl n
küla	küla	0		S	sg g
meeste	mees	te		S	pl g
vilja	vili	0		S	sg p
lasknud	lask	nud		V	nud
,	,			Z	
misperast	####				
ta	tema	0		P	sg g
3	3	0		N	?
rubla	rubla	0		S	sg p
trahvi	trahv	0		S	sg g
maksnud	maks	nud		V	nud
.	.			Z	
</s>					
<s>					
Moistus	####				
:	:			Z	
see	see	0		P	sg n
3	3	0		N	?
rubla	rubla	0		S	sg p
trahvi	trahv	0		S	sg p
mis	mis	0		P	sg n
Tõno	Tõno	0		H	sg n
Remel	Remel	0		H	sg n
külameestel	küla_mees	tel		S	pl ad
hobustest	hobune	test		S	pl el
tehtud	tege	tud		V	tud
kahjute	####				
eest	eest	0		K	
maksnud	maks	nud		V	nud
saab	saa	b		V	b
pooleks	pooleks	0		D	
arvatud	arva	tud		V	tud
ja	ja	0		J	
peab	pida	b		V	b
seejärel	see_järel	0		D	
Tõno	Tõno	0		H	sg n
Remmel	Remmel	0		H	sg n
veel	veel	0		D	
50	50	0		N	?
kop	kop	0		Y	?
palka	palk	0		S	sg p
Jaan	Jaan	0		H	sg n
Neumani	Neumann	0		H	sg n
pojal	poeg	l		S	sg ad
     	poja	l		S	sg ad
väljamaksma	välja_maks	ma		V	ma
.	.			Z	
</s>					
<s>					
Moistus	####				
sai	saa	i		V	s
kuulutud	kuulu	tud		V	tud
.	.			Z	
</s>					
<s>					
Kohtu	kohus	0		S	sg g
kaijat	####				
seega	seega	0		D	
rahu	rahu	0		S	sg p
.	.			Z	
</s>					
