<s>					
Ann	Ann	0		H	sg n
Lender	Lender	0		H	sg n
Reegoldist	Reegoldist	st		H	sg n
tuli	tule	i		V	s
ette	ette	0		D	
ja	ja	0		J	
kaebas	kaeba	s		V	s
:	:			Z	
tal	tema	l		P	sg ad
olla	ole	a		V	da
1878/79	1878/79	0		N	?
aasta	aasta	0		S	sg g
teenistuse	teenistus	0		S	sg g
eest	eest	0		K	
Johann	Johan	0		H	sg g
Jaaksoni	Jaakson	0		H	sg g
käest	käsi	st		S	sg el
üks	üks	0		N	sg n
   	üks	0		P	sg n
kasukas	kasukas	s		S	sg in
saada	saa	da		V	da
,	,			Z	
et	et	0		J	
nüüd	nüüd	0		D	
mitme	mitu	0		P	sg g
kordse	kordne	0		S	sg g
nõudmise	nõudmine	0		S	sg g
peale	peale	0		K	
Jaakson	Jaakson	0		H	sg n
kaebajale	kaebaja	le		S	sg all
kasukad	kasukas	d		S	pl n
ei	ei	0		V	neg
ole	ole	0		V	o
kätte	käsi	tte		S	adt
annud	and	nud		V	nud
,	,			Z	
siis	siis	0		J	
paluda	palu	da		V	da
kaebaja	kaebaja	0		S	sg g
kohut	kohus	t		S	sg p
,	,			Z	
et	et	0		J	
Jaakson	Jaakson	0		H	sg n
saaks	saa	ks		V	ks
sunnitud	sundi	tud		V	tud
kaebajale	kaebaja	le		S	sg all
nimetud	nimetu	d		A	pl n
kasukas	kasukas	s		S	sg in
kätte	käsi	tte		S	adt
andma	and	ma		V	ma
.	.			Z	
</s>					
<s>					
Johann	Johan	0		H	sg g
Jaakson	Jaakson	0		H	sg n
vastas	vasta	s		V	s
kaebduse	kaebus	0		S	sg g
peale	peale	0		K	
:	:			Z	
see	see	0		P	sg n
olla	ole	a		V	da
tõsi	tõsi	0		S	sg n
,	,			Z	
et	et	0		J	
ta	tema	0		P	sg n
Ann	Ann	0		H	sg n
Lendril	Lender	l		H	sg ad
teenistuse	teenistus	0		S	sg g
eest	eest	0		K	
kasukad	kasukas	d		S	pl n
võlgneda	võlgne	da		V	da
,	,			Z	
mis	mis	0		P	sg n
ta	tema	0		P	sg n
alles	alles	0		D	
sügise	sügis	0		S	sg g
voida	või	da		V	da
temale	tema	le		P	sg all
kätte	käsi	tte		S	adt
anda	and	a		V	da
.	.			Z	
</s>					
<s>					
Seepeale	see_peale	0		D	
tegid	tege	id		V	sid
kohtu	kohus	0		S	sg g
käiad	käi	d		S	pl n
lepitust	lepitus	t		S	sg p
:	:			Z	
Johann	Johan	0		H	sg g
Jaakson	Jaakson	0		H	sg n
annab	and	b		V	b
25.	25.	0		O	?
detsembril	detsember	l		S	sg ad
s.a	s.a	0		Y	?
.	.			Z	
</s>					
<s>					
Ann	Ann	0		H	sg n
Lendrile	Lender	le		H	sg all
kõnes	kõne	s		S	sg in
seisva	seisev	0		A	sg g
palga	palk	0		S	sg g
kasukas	kasukas	s		S	sg in
kätte	käsi	tte		S	adt
,	,			Z	
mis	mis	0		P	sg n
mõedu	####				
järele	järele	0		D	
peab	pida	b		V	b
heaste	####				
tehtud	tege	tud		V	tud
olema	ole	ma		V	ma
ja	ja	0		J	
selga	selg	0		S	sg p
passima	passi	ma		V	ma
.	.			Z	
</s>					
<s>					
Arvati	arva	ti		V	ti
:	:			Z	
kuidas	kuidas	0		D	
sündinud	sündi	nud		V	nud
,	,			Z	
kirja	kiri	0		S	adt
panna	pane	a		V	da
.	.			Z	
</s>					
