<s>					
Tänasel	tänane	l		A	sg ad
pääval	päev	l		S	sg ad
sai	saa	i		V	s
peale	peale	0		K	
selle	see	0		P	sg g
kui	kui	0		D	
   	kui	0		J	
oksjoni	oksjon	0		S	sg g
kuulutused	kuulutus	d		S	pl n
sääduslikul	####				
korral	kord	l		S	sg ad
olid	ole	id		V	sid
käinud	käi	nud		V	nud
Tõnis	Tõnis	0		H	sg n
Tonnissoni	Tonnisson	0		H	sg g
varandus	varandus	0		S	sg n
,	,			Z	
tema	tema	0		P	sg g
võlgade	võlg	de		S	pl g
tasumiseks	tasumine	ks		S	sg tr
ja	ja	0		J	
nimelt	nimelt	0		D	
mõisa	mõis	0		S	sg g
valitsuse	valitsus	0		S	sg g
nõudmise	nõudmine	0		S	sg g
kui	kui	0		D	
   	kui	0		J	
ta	tema	0		P	sg n
valla	valla	0		D	
maksude	maks	de		S	pl g
ja	ja	0		J	
magasi	magas	0		S	sg g
võla	võlg	0		S	sg g
tasumiseks	tasumine	ks		S	sg tr
,	,			Z	
oksjoni	oksjon	0		S	sg g
viisil	viis	l		S	sg ad
kõrgema	kõrgem	0		C	sg g
hinna	hind	0		S	sg g
pakujatele	####				
ära	ära	0		D	
müütud	####				
,	,			Z	
niikuidas	####				
järel	järel	0		D	
näha	näge	a		V	da
:	:			Z	
</s>					
<s>					
Varandus	varandus	0		S	sg n
mis	mis	0		P	sg n
müütud	####				
ostjate	ostja	te		S	pl g
nimed	nimi	d		S	pl n
pakutud	pakku	tud		V	tud
hind	hind	0		S	sg n
</s>					
<s>					
76	76	0		N	?
kubu	kubu	0		S	sg g
kolkimata	kolki=mata	0		A	
linu	lina	u		S	pl p
Hans	Hans	0		H	sg n
Tõnnisson	Tõnnison	0		H	sg g
Navestis	Navesti	s		H	sg in
7	7	0		N	?
rubla	rubla	0		S	sg p
</s>					
<s>					
2	2	0		N	?
½	½	0		N	?
vakka	vakka	0		D	
linaseemnid	####				
Loritz	Loritz	0		H	sg n
Tõnnisson	Tõnnison	0		H	sg g
Navestis	Navesti	s		H	sg in
4	4	0		N	?
rubla	rubla	0		S	sg p
30	30	0		N	?
kop	kop	0		Y	?
</s>					
<s>					
1	1	0		N	?
lehm	lehm	0		S	sg n
mullikas	mullikas	0		S	sg n
Hans	Hans	0		H	sg n
Tõnnison	Tõnnison	0		H	sg n
Navestis	Navesti	s		H	sg in
4	4	0		N	?
rubla	rubla	0		S	sg p
15	15	0		N	?
kop	kop	0		Y	?
</s>					
<s>					
1	1	0		N	?
lehm	lehm	0		S	sg n
Jüri	Jüri	0		H	sg n
Triisa	Triisa	0		H	sg n
10	10	0		N	?
rubla	rubla	0		S	sg g
</s>					
<s>					
1	1	0		N	?
kangatellid	####				
Rein	Rein	0		H	sg n
Frosch	Frosch	0		H	sg n
Navestis	Navesti	s		H	sg in
2	2	0		N	?
rubla	rubla	0		S	sg p
35	35	0		N	?
kop	kop	0		Y	?
</s>					
<s>					
1	1	0		N	?
lina	lina	0		S	sg g
masin	masin	0		S	sg n
Jüri	Jüri	0		H	sg n
Triisa	Triisa	0		H	sg n
1	1	0		N	?
rubla	rubla	0		S	sg g
35	35	0		N	?
kop	kop	0		Y	?
</s>					
<s>					
2	2	0		N	?
vikatid	vikat	d		S	pl n
Rein	Rein	0		H	sg n
Frosch	Frosch	0		H	sg n
37	37	0		N	?
kop	kop	0		Y	?
</s>					
<s>					
1	1	0		N	?
lammas	lammas	0		S	sg n
Hans	Hans	0		H	sg n
Frosch	Frosch	0		H	sg n
1	1	0		N	?
rubla	rubla	0		S	sg g
40	40	0		N	?
kop	kop	0		Y	?
</s>					
<s>					
1	1	0		N	?
pada	pada	0		S	sg n
Jüri	Jüri	0		H	sg n
Triisa	Triisa	0		H	sg n
1	1	0		N	?
rubla	rubla	0		S	sg g
75	75	0		N	?
kop	kop	0		Y	?
</s>					
<s>					
1	1	0		N	?
tonn	tonn	0		S	sg n
Hans	Hans	0		H	sg n
Karu	Karu	0		H	sg n
41	41	0		N	?
kop	kop	0		Y	?
</s>					
<s>					
Summa	summa	0		S	sg n
33	33	0		N	?
rubla	rubla	0		S	sg g
8	8	0		N	?
kop	kop	0		Y	?
</s>					
<s>					
Sellest	see	st		P	sg el
sai	saa	i		V	s
oksjoni	oksjon	0		S	sg g
kuulutuse	kuulutus	0		S	sg g
kulud	kulg	d		S	pl n
     	kulu	d		S	pl n
(	(			Z	
kolmes	kolm	s		N	sg in
kirikus	kirik	s		S	sg in
)	)			Z	
maha	maha	0		D	
arvatud	arva	tud		V	tud
ja	ja	0		J	
välja	välja	0		D	
makstud	maks	tud		V	tud
1	1	0		N	?
rubla	rubla	0		S	sg p
75	75	0		N	?
kop	kop	0		Y	?
.	.			Z	
</s>					
<s>					
Jai	####				
veel	veel	0		D	
järele	järele	0		D	
31	31	0		N	?
rubla	rubla	0		S	sg g
33	33	0		N	?
kop	kop	0		Y	?
.	.			Z	
</s>					
<s>					
Arvatud	arva	tud		V	tud
:	:			Z	
Keik	####				
kuidas	kuidas	0		D	
sündinud	sündi	nud		V	nud
,	,			Z	
kirja	kiri	0		S	adt
panna	pane	a		V	da
.	.			Z	
</s>					
