<s>					
Mihkel	Mihkel	0		H	sg n
Mikk	Mikk	0		H	sg n
tuli	tule	i		V	s
ette	ette	0		D	
ja	ja	0		J	
kaebas	kaeba	s		V	s
:	:			Z	
Mööda	mööda	0		K	
läinud	mine	nud		V	nud
suil	suu	il		S	pl ad
olla	ole	a		V	da
Tõnis	Tõnis	0		H	sg n
Rassi	Rass	0		H	sg g
elajad	elajas	d		S	pl n
3	3	0		N	?
ööd	öö	d		S	sg p
aega	aeg	0		S	sg p
kaebaja	kaebaja	0		S	sg g
viljas	vili	s		S	sg in
söönud	söö	nud		V	nud
ja	ja	0		J	
sõtkunud	sõtku	nud		V	nud
ja	ja	0		J	
ka	ka	0		D	
heinamaa	heina_maa	0		S	sg n
läbi	läbi	0		D	
tallanud	talla	nud		V	nud
;	;			Z	
kahju	kahju	0		S	sg n
,	,			Z	
mis	mis	0		P	sg n
selle	see	0		P	sg g
läbi	läbi	0		K	
kaebajal	kaebaja	l		S	sg ad
sündinud	sündi	nud		V	nud
,	,			Z	
olla	ole	a		V	da
kege	####				
vähem	vähem	0		D	
30	30	0		N	?
rubla	rubla	0		S	sg g
eest	eest	0		K	
,	,			Z	
sepärast	####				
paluda	palu	da		V	da
ta	tema	0		P	sg g
kohut	kohus	t		S	sg p
,	,			Z	
et	et	0		J	
Tõnis	Tõnis	0		H	sg n
Rass	Rass	0		H	sg n
saaks	saa	ks		V	ks
nimetatud	nimeta	tud		V	tud
kahjutasumisele	kahju_tasumine	le		S	sg all
mõistetud	mõist	tud		V	tud
.	.			Z	
</s>					
<s>					
Tunnistajaiks	tunnistaja	iks		S	pl tr
andis	and	is		V	s
kaebaja	kaebaja	0		S	sg n
üles	üles	0		D	
Johan	Johan	0		H	sg n
Neuman	Neuman	0		H	sg n
ja	ja	0		J	
valla	vald	0		S	sg g
vöörmündri	vöörmünder	0		S	sg g
Adam	Adam	0		H	sg n
Freibergi	Freiberg	0		H	sg g
,	,			Z	
kes	kes	0		P	sg n
viimne	viimne	0		A	sg n
kahju	kahju	0		S	sg n
olla	ole	a		V	da
üles	üles	0		D	
takserinud	####				
.	.			Z	
</s>					
<s>					
Tõnis	Tõnis	0		H	sg n
Rass	Rass	0		H	sg n
vastas	vasta	s		V	s
kaebduse	kaebus	0		S	sg g
peale	peale	0		K	
:	:			Z	
Ta	tema	0		P	sg n
ei	ei	0		V	neg
tea	tead	0		V	o
mitte	mitte	0		D	
et	et	0		J	
tema	tema	0		P	sg g
elajad	elajas	d		S	pl n
Mihkel	Mihkel	0		H	sg n
Mikku	Mikku	0		H	sg n
viljale	vili	le		S	sg all
kahju	kahi	0		S	sg p
     	kahju	0		S	sg p
teinud	tege	nud		V	nud
ja	ja	0		J	
ei	ei	0		V	neg
taha	taht	0		V	o
seepärast	see_pärast	0		D	
midagi	miski	dagi		P	sg p
kahju	kahi	0		S	sg g
     	kahju	0		S	sg g
tasumist	tasumine	t		S	sg p
maksa	maks	0		V	o
.	.			Z	
</s>					
<s>					
Johan	Johan	0		H	sg n
Neumann	Neumann	0		H	sg n
tunnistas	tunnista	s		V	s
:	:			Z	
ta	tema	0		P	sg n
teada	tead	a		V	da
küll	küll	0		D	
,	,			Z	
et	et	0		J	
Tõnis	Tõnis	0		H	sg n
Rassi	Rass	0		H	sg g
elajad	elajas	d		S	pl n
see	see	0		P	sg n
sui	sui	0		D	
kolmel	kolm	l		N	sg ad
öösel	öösel	0		D	
laudast	laut	st		S	sg el
välja	välja	0		D	
tulnud	tule	nud		V	nud
ja	ja	0		J	
vilja	vili	0		S	sg p
mööda	mööda	0		K	
tallanud	talla	nud		V	nud
ja	ja	0		J	
söönud	söö	nud		V	nud
,	,			Z	
ja	ja	0		J	
ka	ka	0		D	
Mihkel	Mihkel	0		H	sg n
Mikku	Mikku	0		H	sg n
linnas	linn	s		S	sg in
käinud	käi	nud		V	nud
ja	ja	0		J	
seda	see	da		P	sg p
ära	ära	0		D	
tallanud	talla	nud		V	nud
,	,			Z	
kinni	kinni	0		D	
ei	ei	0		V	neg
ole	ole	0		V	o
ta	tema	0		P	sg n
elajaid	elajas	id		S	pl p
mitte	mitte	0		D	
Mihkel	Mihkel	0		H	sg n
Mikku	Mikku	0		H	sg n
viljast	vili	st		S	sg el
võtnud	võt	nud		V	nud
.	.			Z	
</s>					
<s>					
Vallavöörmünder	valla_vöörmünder	0		S	sg n
Adam	Adam	0		H	sg n
Freiberg	Freiberg	0		H	sg n
tunnistas	tunnista	s		V	s
:	:			Z	
Ta	tema	0		P	sg n
olla	ole	a		V	da
ammetlikult	####				
Mihkel	Mihkel	0		H	sg n
Mikku	Mikku	0		H	sg n
viljapoldudel	####				
ja	ja	0		J	
heinamaal	heina_maa	l		S	sg ad
tehtud	tege	tud		V	tud
kahju	kahi	0		S	sg p
     	kahju	0		S	sg p
vaatamas	vaata	mas		V	mas
ja	ja	0		J	
takseerimas	takseeri	mas		V	mas
käinud	käi	nud		V	nud
ja	ja	0		J	
leidnud	leid	nud		V	nud
,	,			Z	
et	et	0		J	
2	2	0		N	?
vakamaa	vaka_maa	0		S	sg g
olla	ole	a		V	da
lina	lina	0		S	sg g
elajatest	elajas	test		S	pl el
maha	maha	0		D	
sõtkutud	sõtku	tud		V	tud
ja	ja	0		J	
üles	üles	0		D	
kistud	kisku	tud		V	tud
olnud	ole	nud		V	nud
,	,			Z	
ka	ka	0		D	
kartohvli	####				
põllul	põld	l		S	sg ad
ja	ja	0		J	
heinamaal	heina_maa	l		S	sg ad
olla	ole	a		V	da
kahju	kahi	0		S	sg g
     	kahju	0		S	sg g
tehtud	tege	tud		V	tud
olnud	ole	nud		V	nud
.	.			Z	
</s>					
<s>					
Tunnistaja	tunnistaja	0		S	sg n
olla	ole	a		V	da
keik	kõik	0		P	sg n
seda	see	da		P	sg p
kahju	kahi	0		S	sg p
     	kahju	0		S	sg p
10	10	0		N	?
rubla	rubla	0		S	sg g
eest	eest	0		K	
takseerinud	takseeri	nud		V	nud
,	,			Z	
kelle	kes	0		P	sg g
elajad	elajas	d		S	pl n
nimetud	nimetu	d		A	pl n
kahju	kahi	0		S	sg g
     	kahju	0		S	sg g
teinud	tege	nud		V	nud
,	,			Z	
ei	ei	0		V	neg
teada	tead	a		V	da
tunnistaja	tunnistaja	0		S	sg g
.	.			Z	
</s>					
<s>					
Kui	kui	0		D	
   	kui	0		J	
nüüd	nüüd	0		D	
kohtu	kohus	0		S	sg g
käiatel	käija	tel		S	pl ad
midagi	miski	dagi		P	sg p
enam	enam	0		D	
ette	ette	0		D	
tuua	too	a		V	da
ei	ei	0		V	neg
olnud	ole	nud		V	nud
,	,			Z	
siis	siis	0		J	
sai	saa	i		V	s
Mõistetud	mõist	tud		V	tud
:	:			Z	
Tõnis	Tõnis	0		H	sg n
Rass	Rass	0		H	sg n
maksab	maks	b		V	b
8	8	0		N	?
pääva	päev	0		S	sg p
sees	sees	0		D	
Mihkel	Mihkel	0		H	sg n
Mikkule	Mikku	le		H	sg all
10	10	0		N	?
rubla	rubla	0		S	sg p
kahju	kahi	0		S	sg g
     	kahju	0		S	sg g
tasumiseks	tasumine	ks		S	sg tr
vilja	vili	0		S	sg p
ja	ja	0		J	
heinamaa	heina_maa	0		S	sg n
söötmise	söötmine	0		S	sg g
ja	ja	0		J	
sõtkumise	sõtku=mine	0		S	sg g
eest	eest	0		K	
,	,			Z	
niikuidas	####				
valla	vald	0		S	sg g
vöörmünder	vöörmünder	0		S	sg n
Adam	Adam	0		H	sg n
Freiberg	Freiberg	0		H	sg n
kahju	kahi	0		S	sg p
     	kahju	0		S	sg p
takseerinud	takseeri	nud		V	nud
.	.			Z	
</s>					
<s>					
Mõistus	mõistus	0		S	sg n
sai	saa	i		V	s
kohtu	kohus	0		S	sg g
käiatele	käija	tele	S	p	
sedamaid	seda_maid	0		D	
kuulututud	kuu_lutu=tu	d		A	pl n
.	.			Z	
</s>					
