<s>					
Tanasel	Tanasel	0		H	sg n
pääval	päev	l		S	sg ad
sai	saa	i		V	s
Leena	Leena	0		H	sg n
Nugisele	Nugisele	le		H	sg n
tema	tema	0		P	sg g
nõudmise	nõudmine	0		S	sg g
heaks	heaks	0		K	
Tõnis	Tõnis	0		H	sg n
Rassist	Rassist	0		H	sg n
sisse	sisse	0		D	
maksetud	makse=tu	d		A	pl n
10	10	0		N	?
rubla	rubla	0		S	sg p
välja	välja	0		D	
maksetud	makse=tu	d		A	pl n
.	.			Z	
</s>					
<s>					
Arvati	arva	ti		V	ti
:	:			Z	
Kuidas	kuidas	0		D	
sündinud	sündi	nud		V	nud
,	,			Z	
kirja	kiri	0		S	adt
panna	pane	a		V	da
.	.			Z	
</s>					
