<s>					
Hendrik	Hendrik	0		H	sg n
Himmelreich	Himmelreich	0		H	sg n
,	,			Z	
Vastemõisast	Vaste_mõisa	st		H	sg el
,	,			Z	
kaebas	kaeba	s		V	s
:	:			Z	
tal	tema	l		P	sg ad
olla	ole	a		V	da
Tõnis	Tõnis	0		H	sg n
Rassi	Rass	0		H	sg g
käest	käsi	st		S	sg el
palka	palk	0		S	sg p
saada	saa	da		V	da
ja	ja	0		J	
nimelt	nimelt	0		D	
:	:			Z	
1879	1879	0		N	?
aasta	aasta	0		S	sg g
eest	eest	0		K	
320	320	0		N	?
kop	kop	0		Y	?
</s>					
<s>					
1881	1881	0		N	?
aasta	aasta	0		S	sg g
palka	palk	0		S	sg p
4	4	0		N	?
1/3	1/3	0		N	?
hobuse	hobune	0		S	sg g
pääva	päev	0		S	sg p
eest	eest	0		K	
240	240	0		N	?
kop	kop	0		Y	?
</s>					
<s>					
Summa	summa	0		S	sg n
560	560	0		N	?
kop	kop	0		Y	?
</s>					
<s>					
Ta	tema	0		P	sg n
paluda	palu	da		V	da
,	,			Z	
et	et	0		J	
kohus	kohus	0		H	sg n
kaebajale	kaebaja	le		S	sg all
Tõnis	Tõnis	0		H	sg n
Rassi	Rass	0		H	sg g
konkursi	konkurss	0		S	sg g
varast	vara	st		S	sg el
,	,			Z	
seda	see	da		P	sg p
palka	palk	0		S	sg p
välja	välja	0		D	
mõistaks	mõist	ks		V	ks
.	.			Z	
</s>					
<s>					
Tõnis	Tõnis	0		H	sg n
Rass	Rass	0		H	sg n
vastas	vasta	s		V	s
kaebduse	kaebus	0		S	sg g
peale	peale	0		K	
:	:			Z	
1879	1879	0		N	?
aasta	aasta	0		S	sg g
eest	eest	0		K	
ei	ei	0		V	neg
ole	ole	0		V	o
Himmelereichil	Himmelreich	l		H	sg ad
midagi	miski	dagi		P	sg p
palka	palk	0		S	sg p
saada	saa	da		V	da
,	,			Z	
ta	tema	0		P	sg n
olla	ole	a		V	da
küll	küll	0		D	
sel	see	l		P	sg ad
aastal	aasta	l		S	sg ad
kaebatu	kaeva=tu	0		S	sg n
teenistuseks	teenistus	ks		S	sg tr
olnud	ole	nud		V	nud
,	,			Z	
aga	aga	0		J	
ka	ka	0		D	
keik	kõik	0		P	sg n
oma	oma	0		P	sg g
palka	palk	0		S	sg p
selle	see	0		P	sg g
eest	eest	0		K	
välja	välja	0		D	
saanud	saa	nud		V	nud
.	.			Z	
</s>					
<s>					
1881	1881	0		N	?
aastal	aasta	l		S	sg ad
olla	ole	a		V	da
Himmelreichi	Himmelreich	0		H	sg g
hobune	hobune	0		S	sg n
küll	küll	0		D	
3	3	0		N	?
2/3	2/3	0		N	?
pääva	päev	0		S	sg p
kaebatu	kaeva=tu	0		S	sg n
käes	käsi	s		S	sg in
töös	töö	s		S	sg in
olnud	ole	nud		V	nud
,	,			Z	
mille	mis	0		P	sg g
eest	eest	0		K	
ta	tema	0		P	sg n
50	50	0		N	?
kop	kop	0		Y	?
pääva	päev	0		S	sg p
palgaks	palk	ks		S	sg tr
pidanud	pida	nud		V	nud
saama	saa	ma		V	ma
ja	ja	0		J	
ühte	ühte	0		D	
summa	summa	0		S	sg n
183	183	0		N	?
kop	kop	0		Y	?
;	;			Z	
seda	see	da		P	sg p
viimast	viimane	t		A	sg p
palka	palk	0		S	sg p
võlgneda	võlgne	da		V	da
küll	küll	0		D	
kaebatu	kaeva=tu	0		S	sg n
alles	alles	0		D	
.	.			Z	
</s>					
<s>					
Mõisteti	mõist	ti		V	ti
:	:			Z	
Et	et	0		J	
Rass	Rass	0		H	sg n
tõeks	tõde	ks		S	sg tr
     	tõsi	ks		S	sg tr
tunnistas	tunnista	s		V	s
,	,			Z	
et	et	0		J	
Himmelreich	Himmelreich	0		H	sg n
1879	1879	0		N	?
aastal	aasta	l		S	sg ad
tema	tema	0		P	sg g
teenistuses	teenistus	s		S	sg in
olnud	ole	nud		V	nud
,	,			Z	
seda	see	da		P	sg p
aga	aga	0		J	
mitte	mitte	0		D	
tõentada	####				
ei	ei	0		V	neg
saanud	saa	nud		V	nud
,	,			Z	
et	et	0		J	
ta	tema	0		P	sg n
selle	see	0		P	sg g
eest	eest	0		K	
palka	palk	0		S	sg p
välja	välja	0		D	
maksnud	maks	nud		V	nud
,	,			Z	
siis	siis	0		J	
peab	pida	b		V	b
Tõnis	Tõnis	0		H	sg n
Rass	Rass	0		H	sg n
8	8	0		N	?
pääva	päev	0		S	sg p
sees	sees	0		D	
Hendrik	Hendrik	0		H	sg n
Himmelerichil	Himmelreich	l		H	sg ad
välja	välja	0		D	
maksma	maks	ma		V	ma
:	:			Z	
1879	1879	0		N	?
aasta	aasta	0		S	sg g
teenistuse	teenistus	0		S	sg g
eest	eest	0		K	
320	320	0		N	?
kop	kop	0		Y	?
</s>					
<s>					
ja	ja	0		J	
3	3	0		N	?
2/3	2/3	0		N	?
pääva	päev	0		S	sg p
hobuse	hobune	0		S	sg g
teenistuse	teenistus	0		S	sg g
eest	eest	0		K	
1881	1881	0		N	?
aasta	aasta	0		S	sg g
183	183	0		N	?
kop	kop	0		Y	?
</s>					
<s>					
Summa	summa	0		S	sg n
503	503	0		N	?
kop	kop	0		Y	?
</s>					
<s>					
Kui	kui	0		D	
   	kui	0		J	
see	see	0		P	sg n
ei	ei	0		V	neg
sünni	sündi	0		V	o
,	,			Z	
saab	saa	b		V	b
see	see	0		P	sg n
palk	palk	0		S	sg n
Tõnis	Tõnis	0		H	sg n
Rassi	Rass	0		H	sg g
konkursi	konkurss	0		S	sg g
varast	vara	st		S	sg el
välja	välja	0		D	
maksetud	makse=tu	d		A	pl n
.	.			Z	
</s>					
<s>					
Moistus	####				
sai	saa	i		V	s
kuulutud	kuulu	tud		V	tud
,	,			Z	
millega	mis	ga		P	sg kom
kohtu	kohus	0		S	sg g
käiad	käi	d		S	pl n
rahule	rahule	0		D	
jäid	jää	id		V	sid
.	.			Z	
</s>					
