<s>					
Jaan	Jaan	0		H	sg n
Lestberg	Lestberg	0		H	sg n
kaibas	kaeba	s		V	s
,	,			Z	
et	et	0		J	
sea	siga	0		S	sg g
karjus	karju	s		V	s
on	ole	0		V	b
  	ole	0		V	vad
tema	tema	0		P	sg g
arjalise	####				
sea	siga	0		S	sg g
mes	mis	0		P	sg n
8	8	0		N	?
rubla	rubla	0		S	sg p
väärd	####				
,	,			Z	
pääst	pea	st		S	sg el
ära	ära	0		D	
löönud	löö	nud		V	nud
,	,			Z	
nii	nii	0		D	
et	et	0		J	
pidi	pida	i		V	s
ära	ära	0		D	
saama	saa	ma		V	ma
tapetus	tapetu	s		S	sg in
.	.			Z	
</s>					
<s>					
Pääkohtomees	####				
Peeter	Peeter	0		H	sg n
Laas	Laas	0		H	sg n
on	ole	0		V	b
  	ole	0		V	vad
seda	see	da		P	sg p
siga	siga	0		S	sg p
üle	üle	0		D	
kaenud	kae	nud		V	nud
,	,			Z	
et	et	0		J	
see	see	0		P	sg n
siga	siga	0		S	sg n
ümbre	####				
8-9	8-9	0		N	?
rubla	rubla	0		S	sg g
väärd	####				
,	,			Z	
küll	küll	0		D	
ollo	ole	nud		V	nud
tõine	####				
külg	külg	0		S	sg n
verialone	####				
,	,			Z	
sai	saa	i		V	s
perra	järele	0		D	
novvetus	####				
,	,			Z	
kes	kes	0		P	sg n
ka	ka	0		D	
neide	neid	e		S	pl p
vahel	vahel	0		K	
enne	enne	0		K	
tüli	tüli	0		S	sg p
on	ole	0		V	b
  	ole	0		V	vad
olnud	ole	nud		V	nud
,	,			Z	
et	et	0		J	
see	see	0		P	sg n
viha	viha	0		S	sg n
läbi	läbi	0		D	
on	ole	0		V	b
  	ole	0		V	vad
sündind	sünd_ind	0		S	sg n
.	.			Z	
</s>					
<s>					
Lestberg	Lestberg	0		H	sg n
vastas	vasta	s		V	s
et	et	0		J	
ei	ei	0		V	neg
ole	ole	0		V	o
midagi	miski	dagi		P	sg p
ollo	ole	nud		V	nud
.	.			Z	
</s>					
<s>					
Sea	siga	0		S	sg g
karjus	karju	s		V	s
salgab	salga	b		V	b
seda	see	da		P	sg p
ära	ära	0		D	
,	,			Z	
et	et	0		J	
tema	tema	0		P	sg n
ei	ei	0		V	neg
ole	ole	0		V	o
mitte	mitte	0		D	
seda	see	da		P	sg p
siga	siga	0		S	sg p
löönu	löö	nud		V	nud
,	,			Z	
tunnistust	tunnistus	t		S	sg p
ei	ei	0		V	neg
ole	ole	0		V	o
neide	neid	e		S	pl p
vahel	vahel	0		D	
.	.			Z	
</s>					
<s>					
Mõistus	mõistus	0		S	sg n
.	.			Z	
</s>					
<s>					
Siis	siis	0		D	
on	ole	0		V	b
  	ole	0		V	vad
kohus	kohus	0		H	sg n
seda	see	da		P	sg p
siin	siin	0		D	
tühjast	tühi	st		A	sg el
mõistnud	mõist	nud		V	nud
,	,			Z	
et	et	0		J	
Lestberg	Lestberg	0		H	sg n
esi	esi	0		S	pl p
oma	oma	0		P	sg g
sea	siga	0		S	sg g
ka	ka	0		D	
veel	veel	0		D	
pruukis	pruuki	s		V	s
.	.			Z	
</s>					
<s>					
Kohto	kohus	0		S	sg g
otsus	otsus	0		S	sg n
on	ole	0		V	b
  	ole	0		V	vad
kuulutud	kuulu	tud		V	tud
.	.			Z	
</s>					
