<s>					
Peeter	Peeter	0		H	sg n
Tomson	Tomson	0		H	sg n
Ropkast	Ropka	t		H	sg p
,	,			Z	
kaebas	kaeba	s		V	s
et	et	0		J	
tema	tema	0		P	sg g
käinud	käi	nud		V	nud
Nõo	Nõo	0		H	sg n
Krasna	Krasna	0		H	sg n
kõrtsis	kõrts	s		S	sg in
ja	ja	0		J	
kui	kui	0		D	
   	kui	0		J	
tema	tema	0		P	sg g
kõrtsist	kõrts	st		S	sg el
veidike	veidike	0		D	
maad	maa	d		S	sg p
ära	ära	0		D	
tulnud	tule	nud		V	nud
siis	siis	0		D	
tulnud	tule	nud		V	nud
kaks	kaks	0		N	sg n
Väike-Konguta	Väike-Konguta	0		H	sg g
poissi	poiss	0		S	sg p
temale	tema	le		P	sg all
järele	järele	0		D	
,	,			Z	
üks	üks	0		N	sg n
   	üks	0		P	sg n
olnud	ole	nud		V	nud
Jaan	Jaan	0		H	sg n
Meos	Meos	0		H	sg n
teist	teine	t		O	sg p
     	teine	t		P	sg p
ei	ei	0		V	neg
tundnud	tund	nud		V	nud
,	,			Z	
ja	ja	0		J	
kui	kui	0		D	
   	kui	0		J	
tema	tema	0		P	sg g
tee	tee	0		S	sg g
pääl	peal	0		K	
tulema	tule	ma		V	ma
hakkanud	hakka	nud		V	nud
siis	siis	0		D	
on	ole	0		V	b
  	ole	0		V	vad
teine	teine	0		O	sg n
     	teine	0		P	sg n
neist	tema	st		P	pl el
poistest	poiss	test		S	pl el
temale	tema	le		P	sg all
päha	####				
löönud	löö	nud		V	nud
nii	nii	0		D	
et	et	0		J	
veri	veri	0		S	sg n
välja	välja	0		D	
tulnud	tule	nud		V	nud
,	,			Z	
tema	tema	0		P	sg n
küll	küll	0		D	
ei	ei	0		V	neg
tea	tead	0		V	o
kumb	kumb	0		P	sg n
neist	tema	st		P	pl el
lei	löö	i		V	s
,	,			Z	
kaebaja	kaebaja	0		S	sg n
nõudis	nõud	is		V	s
et	et	0		J	
need	see	d		P	pl n
poisid	poiss	d		S	pl n
trahvitud	trahvi	tud		V	tud
saaksid	saa	ksid		V	ksid
,	,			Z	
sest	sest	0		J	
tema	tema	0		P	sg n
on	ole	0		V	b
  	ole	0		V	vad
oma	oma	0		P	sg g
peale	peale	0		K	
suurt	suur	t		A	sg p
viga	viga	0		S	sg p
saanud	saa	nud		V	nud
.	.			Z	
Jaak	Jaak	0		H	sg n
Meos	Meos	0		H	sg n
kohtu	kohtu	0		H	sg n
ees	ees	0		K	
ütles	ütle	s		V	s
et	et	0		J	
sel	see	l		P	sg ad
korral	kord	l		S	sg ad
hulk	hulk	0		S	sg n
poisse	poiss	e		S	pl p
kõrtsis	kõrts	s		S	sg in
olnud	ole	nud		V	nud
,	,			Z	
ja	ja	0		J	
olnud	ole	nud		V	nud
küll	küll	0		D	
väljas	väljas	0		D	
veidike	veidike	0		D	
maad	maa	d		S	sg p
kõrtsist	kõrts	st		S	sg el
tulli	tule	i		V	s
,	,			Z	
aga	aga	0		J	
tema	tema	0		P	sg n
ei	ei	0		V	neg
tea	tead	0		V	o
kes	kes	0		P	sg n
on	ole	0		V	b
  	ole	0		V	vad
Tomsonile	Tomsonile	0		H	sg n
löönud	löö	nud		V	nud
,	,			Z	
kõrtsis	kõrts	s		S	sg in
olnud	ole	nud		V	nud
sel	see	l		P	sg ad
korral	kord	l		S	sg ad
:	:			Z	
Peeter	Peeter	0		H	sg n
Punt	punt	0		S	sg n
,	,			Z	
Jaan	Jaan	0		H	sg n
Keerd	keerd	0		A	sg n
,	,			Z	
Kusta	Kusta	0		H	sg n
Kõnno	kõnd	0		S	sg g
ja	ja	0		J	
Hans	Hans	0		H	sg n
Velber	Velber	0		H	sg n
.	.			Z	
</s>					
<s>					
Nim	####				
.	.			Z	
</s>					
<s>					
p	p	0		Y	?
.	.			Z	
ütl	####				
.	.			Z	
</s>					
<s>					
ei	ei	0		V	neg
tea	tead	0		V	o
kes	kes	0		P	sg n
lei	löö	i		V	s
.	.			Z	
</s>					
<s>					
Johan	Johan	0		H	sg n
Paurson	Paurson	0		H	sg n
Nõost	Nõo	st		H	sg el
tunnistas	tunnista	s		V	s
,	,			Z	
et	et	0		J	
kui	kui	0		D	
   	kui	0		J	
Peeter	Peeter	0		H	sg n
Tomson	Tomson	0		H	sg n
ja	ja	0		J	
tema	tema	0		P	sg n
on	ole	0		V	b
  	ole	0		V	vad
tulema	tule	ma		V	ma
tulndu	####				
,	,			Z	
siis	siis	0		J	
on	ole	0		V	b
  	ole	0		V	vad
küll	küll	0		D	
2	2	0		N	?
Konguta	Konguta	0		H	sg n
poisi	poiss	0		S	sg g
veidike	veidike	0		D	
maad	maa	d		S	sg p
kõrtsist	kõrts	st		S	sg el
neile	tema	le		P	pl all
järele	järele	0		D	
tulnud	tule	nud		V	nud
ja	ja	0		J	
üks	üks	0		N	sg n
   	üks	0		P	sg n
on	ole	0		V	b
  	ole	0		V	vad
Tomsonile	Tomsonile	0		H	sg n
löönud	löö	nud		V	nud
aga	aga	0		J	
tema	tema	0		P	sg n
ei	ei	0		V	neg
tea	tead	0		V	o
kes	kes	0		P	sg n
see	see	0		P	sg n
lööja	löö=ja	0		S	sg n
olli	ole	i		V	s
.	.			Z	
</s>					
<s>					
Tomsonil	Tomson	l		H	sg ad
olnud	ole	nud		V	nud
pääst	pea	st		S	sg el
veri	veri	0		S	sg n
väljas	väljas	0		D	
.	.			Z	
</s>					
<s>					
Vidrik	Vidrik	0		H	sg n
Villemson	Villemson	0		H	sg n
Nõost	nõbu	st		S	sg el
     	nõgu	st		S	sg el
,	,			Z	
tunnistas	tunnista	s		V	s
seda	see	da		P	sg p
sama	sama	0		P	sg g
viisi	viisi	0		K	
.	.			Z	
</s>					
<s>					
Peeter	Peeter	0		H	sg n
Mosin	Mosin	0		H	sg n
Meerilt	meer	lt		S	sg abl
,	,			Z	
tunnistas	tunnista	s		V	s
seda	see	da		P	sg p
sama	sama	0		P	sg g
viisi	viisi	0		K	
et	et	0		J	
üks	üks	0		N	sg n
   	üks	0		P	sg n
Konguta	Konguta	0		H	sg n
poiss	poiss	0		S	sg n
on	ole	0		V	b
  	ole	0		V	vad
küll	küll	0		D	
Peeter	Peeter	0		H	sg n
Tomsonile	Tomsonile	0		H	sg n
päha	####				
löönud	löö	nud		V	nud
aga	aga	0		J	
tema	tema	0		P	sg n
ei	ei	0		V	neg
tea	tead	0		V	o
kes	kes	0		P	sg n
lei	löö	i		V	s
.	.			Z	
</s>					
<s>					
Johan	Johan	0		H	sg n
Trei	Trei	0		H	sg n
Ropkast	Ropka	t		H	sg p
tunnistas	tunnista	s		V	s
seda	see	da		P	sg p
sama	sama	0		P	sg g
viisi	viisi	0		K	
.	.			Z	
</s>					
<s>					
Otsus	otsus	0		S	sg n
:	:			Z	
et	et	0		J	
siin	siin	0		D	
kohtu	kohtu	0		H	sg n
ees	ees	0		K	
mitte	mitte	0		D	
selgeks	selge	ks		A	sg tr
ei	ei	0		V	neg
sa	sina	0		P	sg n
kes	kes	0		P	sg n
poiss	poiss	0		S	sg n
Peeter	Peeter	0		H	sg n
Tomsonile	Tomsonile	0		H	sg n
lei	löö	i		V	s
,	,			Z	
moistis	mõist	is		V	s
see	see	0		P	sg n
kohus	kohus	0		H	sg n
kaebaja	kaebaja	0		S	sg g
nõudmist	nõudmine	t		S	sg p
mööda	mööda	0		K	
seda	see	da		P	sg p
asja	asi	0		S	sg p
ühe	üks	0		N	sg g
   	üks	0		P	sg g
keiserliku	keiserlik	0		A	sg g
Tartu	Tartu	0		H	sg n
Silla	Silla	0		H	sg n
kohtu	kohtu	0		H	sg n
ala	ala	0		S	sg p
täielise	täie=line	0		A	sg g
otsuse	otsus	0		S	sg g
tarvis	tarvis	0		K	
.	.			Z	
</s>					
<s>					
Päälseisav	####				
otsus	otsus	0		S	sg n
sai	saa	i		V	s
kohtuskäiatele	####				
sääduslikul	####				
viisil	viis	l		S	sg ad
kuulutud	kuulu	tud		V	tud
.	.			Z	
</s>					
