<s>					
Vallavanemb	####				
Karl	Karl	0		H	sg n
Paurson	Paurson	0		H	sg n
kaebas	kaeba	s		V	s
et	et	0		J	
Piiri	piir	0		S	sg g
talu	talu	0		S	sg g
peremees	pere_mees	0		S	sg n
Märt	Märt	0		H	sg n
Metsik	metsik	0		A	sg n
ei	ei	0		V	neg
ole	ole	0		V	o
kevaja	####				
oma	oma	0		P	sg g
teed	tee	d		S	sg p
lumest	lumi	st		S	sg el
lahti	lahti	0		D	
kaevanud	kaeva	nud		V	nud
ja	ja	0		J	
oleks	ole	ks		V	ks
maakohtu	maa_kohus	0		S	sg g
poolt	poolt	0		K	
suur	suur	0		A	sg n
trahv	trahv	0		S	sg n
tulnud	tule	nud		V	nud
,	,			Z	
tema	tema	0		P	sg g
võtnud	võt	nud		V	nud
raha	raha	0		S	sg g
eest	eest	0		K	
11	11	0		N	?
inimest	inimene	t		S	sg p
kes	kes	0		P	sg n
Metsiko	Metsiku	0		H	sg n
jao	jagu	0		S	sg g
teed	tee	d		S	sg p
on	ole	0		V	b
  	ole	0		V	vad
lahti	lahti	0		D	
kaevanud	kaeva	nud		V	nud
ja	ja	0		J	
maksnud	maks	nud		V	nud
neile	tema	le		P	pl all
egale	####				
50	50	0		N	?
kop	kop	0		Y	?
see	see	0		P	sg n
on	ole	0		V	b
  	ole	0		V	vad
ühte	ühte	0		D	
kokko	kokku	0		D	
50	50	0		N	?
rubla	rubla	0		S	sg p
50	50	0		N	?
kop	kop	0		Y	?
ja	ja	0		J	
oma	oma	0		P	sg g
päeva	päev	0		S	sg g
eest	eest	0		K	
nõudis	nõud	is		V	s
valla	valla	0		H	sg n
vanemb	####				
1	1	0		N	?
rubla	rubla	0		S	sg p
.	.			Z	
</s>					
<s>					
Märt	Märt	0		H	sg n
Metsik	metsik	0		A	sg n
kohtu	kohtu	0		H	sg n
ees	ees	0		K	
ütles	ütle	s		V	s
et	et	0		J	
muu	muu	0		P	sg g
taludel	talu	del		S	pl ad
on	ole	0		V	b
  	ole	0		V	vad
vähemb	####				
lume	lumi	0		S	sg g
kaeva	kaeva	0		V	o
olnud	ole	nud		V	nud
,	,			Z	
tema	tema	0		P	sg n
on	ole	0		V	b
  	ole	0		V	vad
valla	valla	0		H	sg n
eestseisja	eest_seisja	0		S	sg n
käest	käsi	st		S	sg el
abi	abi	0		S	sg p
palunud	palu	nud		V	nud
aga	aga	0		J	
see	see	0		P	sg n
saatnud	saat	nud		V	nud
üks	üks	0		N	sg n
   	üks	0		P	sg n
ainus	ainus	0		A	sg n
mees	mees	0		S	sg n
.	.			Z	
</s>					
<s>					
Tema	tema	0		P	sg n
arvab	arva	b		V	b
et	et	0		J	
see	see	0		P	sg n
oleks	ole	ks		V	ks
õige	õige	0		A	sg n
olnud	ole	nud		V	nud
et	et	0		J	
valla	valla	0		H	sg n
vanemb	####				
oleks	ole	ks		V	ks
pidanud	pida	nud		V	nud
rohkemb	####				
abi	abi	0		S	sg p
andma	and	ma		V	ma
neist	see	st		P	pl el
taludest	talu	dest		S	pl el
kel	kes	l		P	sg ad
vähemb	####				
lume	lumi	0		S	sg g
oli	ole	i		V	s
,	,			Z	
ja	ja	0		J	
mitte	mitte	0		D	
raha	raha	0		S	sg g
eest	eest	0		K	
kaevada	kae_vada	0		S	sg p
laske	lask	ke		V	ge
,	,			Z	
sest	sest	0		J	
kahel	kaks	l		N	sg ad
talul	talu	l		S	sg ad
ei	ei	0		V	neg
olnud	ole	nud		V	nud
mitte	mitte	0		D	
suguki	####				
lume	lumi	0		S	sg g
kaeva	kaeva	0		V	o
.	.			Z	
</s>					
<s>					
Otsus	otsus	0		S	sg n
.	.			Z	
</s>					
<s>					
Et	et	0		J	
valla	valla	0		H	sg n
valitsuse	valitsus	0		S	sg g
poolt	poolt	0		K	
käsk	käsk	0		S	sg n
oli	ole	i		V	s
nii	nii	0		D	
välja	välja	0		D	
antud	and	tud		V	tud
et	et	0		J	
ega	ega	0		J	
peremees	pere_mees	0		S	sg n
oma	oma	0		P	sg g
jaos	jagu	s		S	sg in
teed	tee	d		S	sg p
lahti	lahti	0		D	
kaevab	kaeva	b		V	b
,	,			Z	
aga	aga	0		J	
Metsik	metsik	0		A	sg n
mitte	mitte	0		D	
es	ei	s		V	neg s
kaeva	kaeva	0		V	o
,	,			Z	
siis	siis	0		D	
peab	pida	b		V	b
ta	tema	0		P	sg n
see	see	0		P	sg n
raha	raha	0		S	sg p
ära	ära	0		D	
maksma	maks	ma		V	ma
mis	mis	0		P	sg n
valla	valla	0		H	sg n
vanemal	vanem	l		S	sg ad
tema	tema	0		P	sg g
tee	tee	0		S	sg g
juures	juures	0		K	
kulunud	kulu	nud		V	nud
.	.			Z	
</s>					
<s>					
Päälseisav	####				
otsus	otsus	0		S	sg n
sai	saa	i		V	s
sääduslikult	####				
kuulutud	kuulu	tud		V	tud
kellega	kes	ga		P	sg kom
Märt	Märt	0		H	sg n
Metsik	metsik	0		A	sg n
mitte	mitte	0		D	
rahul	rahul	0		D	
es	ei	s		V	neg s
ole	ole	0		V	o
mis	mis	0		P	sg n
pääle	peale	0		K	
temale	tema	le		P	sg all
appelatsiooni	####				
õppetuse	õppe=tus	0		S	sg g
kiri	kiri	0		S	sg n
sai	saa	i		V	s
välja	välja	0		D	
antud	and	tud		V	tud
.	.			Z	
</s>					
