<s>					
Mõisa	Mõisa	0		H	sg n
valitsus	valitsus	0		H	sg n
kaibab	####				
,	,			Z	
et	et	0		J	
14	14	0		N	?
siga	siga	0		S	sg p
on	ole	0		V	b
  	ole	0		V	vad
Krasna	Krasna	0		H	sg n
metsas	mets	s		S	sg in
sees	sees	0		D	
olnud	ole	nud		V	nud
,	,			Z	
ja	ja	0		J	
mõisavalitsus	mõisa_valitsus	0		S	sg n
siis	siis	0		D	
on	ole	0		V	b
  	ole	0		V	vad
esi	esi	0		S	sg n
lasknud	lask	nud		V	nud
5	5	0		N	?
siga	siga	0		S	sg p
õue	õu	0		S	adt
ajanud	aja	nud		V	nud
,	,			Z	
ja	ja	0		J	
Sillamatsi	silla_mats	0		S	sg p
Jaan	Jaan	0		H	sg n
Pedajas	Pedajas	0		H	sg n
on	ole	0		V	b
  	ole	0		V	vad
need	see	d		P	pl n
sead	siga	d		S	pl n
omast	oma	st		P	sg el
tunnistanud	tunnista	nud		V	nud
ja	ja	0		J	
tõine	####				
hommik	hommik	0		S	sg n
on	ole	0		V	b
  	ole	0		V	vad
jälle	jälle	0		D	
mõisa	mõis	0		S	sg g
valitsus	valitsus	0		H	sg n
senna	senna	0		S	sg g
metsa	mets	0		S	sg g
läinud	mine	nud		V	nud
,	,			Z	
ja	ja	0		J	
sealne	sealne	0		A	sg n
kohtomees	kohtu_mees	0		S	sg n
Hans	Hans	0		H	sg n
Paurson	Paurson	0		H	sg n
on	ole	0		V	b
  	ole	0		V	vad
üten	####				
olnud	ole	nud		V	nud
,	,			Z	
ja	ja	0		J	
siis	siis	0		D	
on	ole	0		V	b
  	ole	0		V	vad
mõisa	mõis	0		S	sg g
valitsus	valitsus	0		H	sg n
käsko	käsk	0		S	adt
saatnud	saat	nud		V	nud
,	,			Z	
Pedajale	Pedajas	le		H	sg all
,	,			Z	
et	et	0		J	
pidi	pida	i		V	s
üle	üle	0		D	
kaema	kae	ma		V	ma
tulema	tule	ma		V	ma
ja	ja	0		J	
Pedajas	Pedajas	0		H	sg n
ei	ei	0		V	neg
ole	ole	0		V	o
tulnud	tule	nud		V	nud
.	.			Z	
</s>					
