<s>					
Mõisa	Mõisa	0		H	sg n
valitsus	valitsus	0		H	sg n
ja	ja	0		J	
Jüri	Jüri	0		H	sg n
Laneman	Laneman	0		H	sg n
on	ole	0		V	b
  	ole	0		V	vad
siin	siin	0		D	
nõnda	nõnda	0		D	
ära	ära	0		D	
seletanud	seleta	nud		V	nud
,	,			Z	
ja	ja	0		J	
Vidrik	Vidrik	0		H	sg n
Thomson	Thomson	0		H	sg n
,	,			Z	
et	et	0		J	
seda	see	da		P	sg p
võlga	võlg	0		S	sg p
5	5	0		N	?
rubla	rubla	0		S	sg p
25	25	0		N	?
kop	kop	0		Y	?
mes	mis	0		P	sg n
veel	veel	0		D	
Lanemanil	Laneman	l		H	sg ad
massa	maks	0		S	adt
on	ole	0		V	b
  	ole	0		V	vad
mõisale	mõis	le		S	sg all
,	,			Z	
massab	maks	b		V	b
mihkli	mihkel	0		S	sg g
päivan	####				
omast	oma	st		P	sg el
palgast	palk	st		S	sg el
Thomson	Thomson	0		H	sg n
,	,			Z	
ja	ja	0		J	
Laneman	Laneman	0		H	sg n
peab	pida	b		V	b
varsti	varsti	0		D	
mõisast	mõis	st		S	sg el
ära	ära	0		D	
minema	mine	ma		V	ma
.	.			Z	
</s>					
