<s>					
Moisa	mõis	0		S	sg g
sulase	sulane	0		S	sg g
Jakob	Jakob	0		H	sg n
Lillase	Lillase	0		H	sg n
naene	naine	0		S	sg n
tuli	tule	i		V	s
kohtu	kohtu	0		H	sg n
ette	ette	0		D	
1	1	0		N	?
½	½	0		N	?
rubla	rubla	0		S	sg p
trahvi	trahv	0		S	sg g
üle	üle	0		K	
protokolli	protokoll	0		S	sg p
nõudma	nõud	ma		V	ma
mis	mis	0		P	sg n
jo	ju	0		D	
10	10	0		N	?
päeva	päev	0		S	sg g
eest	eest	0		K	
oli	ole	i		V	s
ära	ära	0		D	
moistetud	mõist	tud		V	tud
.	.			Z	
</s>					
<s>					
Kohus	Kohus	0		H	sg n
ütles	ütle	s		V	s
et	et	0		J	
see	see	0		P	sg n
asi	asi	0		S	sg n
väike	väike	0		A	sg n
ja	ja	0		J	
ka	ka	0		D	
hildas	####				
jäänu	jää	nud		V	nud
.	.			Z	
</s>					
<s>					
Seepääle	Seepääle	0		H	sg n
hakkas	hakka	s		V	s
Lillasse	lilla	sse		S	sg ill
naene	naine	0		S	sg n
kropalt	####				
kohut	kohus	t		S	sg p
teotama	teota	ma		V	ma
ja	ja	0		J	
sõimama	sõima	ma		V	ma
.	.			Z	
</s>					
<s>					
Otsus	otsus	0		S	sg n
.	.			Z	
</s>					
<s>					
Lillasse	lilla	sse		S	sg ill
naene	naine	0		S	sg n
Tiio	Tiio	0		H	sg n
maksab	maks	b		V	b
v	v	0		Y	?
.	.			Z	
l	l	0		Y	?
.	.			Z	
</s>					
<s>					
1	1	0		N	?
rubla	rubla	0		S	sg p
trahvi	trahv	0		S	sg p
.	.			Z	
</s>					
