<s>					
Margus	Margus	0		H	sg n
Laurberg	Laurberg	0		H	sg n
kaevas	kaeva	s		V	s
et	et	0		J	
Johan	Johan	0		H	sg n
Jaanusse	Jaanusse	e		H	sg n
karja	kari	0		S	sg g
tüdruk	tüdruk	0		S	sg n
Anna	Anna	0		H	sg n
Müllerson	Müllerson	0		H	sg n
tema	tema	0		P	sg g
haina	hai	na		S	sg es
kuhja	kuhi	0		S	sg g
ära	ära	0		D	
söötnu	sööt	nud		V	nud
,	,			Z	
keda	kes	da		P	sg p
kahju	kahi	0		S	sg p
     	kahju	0		S	sg p
kohtumees	kohtu_mees	0		S	sg n
Margus	Margus	0		H	sg n
Lõhmus	Lõhmus	0		H	sg n
6	6	0		N	?
rubla	rubla	0		S	sg g
takseerinu	takseeri=nu	0		S	sg n
.	.			Z	
</s>					
<s>					
Nisama	####				
ka	ka	0		D	
2	2	0		N	?
rubla	rubla	0		S	sg g
eest	eest	0		K	
kerku	####				
rentniku	rentnik	0		S	sg g
viljale	vili	le		S	sg all
kahju	kahi	0		S	sg p
     	kahju	0		S	sg p
teinud	tege	nud		V	nud
.	.			Z	
</s>					
<s>					
Anna	Anna	0		H	sg n
Müllerson	Müllerson	0		H	sg n
korvals	####				
.	.			Z	
</s>					
<s>					
kasak	####				
kohtu	kohtu	0		H	sg n
een	eest	0		K	
ei	ei	0		V	neg
saa	saa	0		V	o
henda	ise	0		P	sg g
vabanda	vabanda	0		V	o
.	.			Z	
</s>					
<s>					
Otsus	otsus	0		S	sg n
.	.			Z	
</s>					
<s>					
Johan	Johan	0		H	sg n
Jaanus	Jaanus	0		H	sg n
peab	pida	b		V	b
selle	see	0		P	sg g
karja	kari	0		S	sg g
tüdruku	tüdruk	0		S	sg g
Anna	Anna	0		H	sg n
Müllersoni	Müllerson	0		H	sg g
palgast	palk	st		S	sg el
6	6	0		N	?
rubla	rubla	0		S	sg p
Margus	Margus	0		H	sg n
Laurbergile	Laurberg	le		H	sg all
ja	ja	0		J	
2	2	0		N	?
rubla	rubla	0		S	sg g
kerku	####				
moisa	mõis	0		S	sg ill
rentnikule	rentnik	le		S	sg all
masma	maks	ma		V	ma
.	.			Z	
</s>					
<s>					
Otsus	otsus	0		S	sg n
sai	saa	i		V	s
kuulutud	kuulu	tud		V	tud
.	.			Z	
</s>					
