<s>					
Vallavanemb	####				
Karl	Karl	0		H	sg n
Paurson	Paurson	0		H	sg n
kaivas	kaeba	s		V	s
et	et	0		J	
Jaan	Jaan	0		H	sg n
Varik	Varik	0		H	sg n
ja	ja	0		J	
Johan	Johan	0		H	sg n
Jak	Jak	0		H	sg n
olla	ole	a		V	da
kohtu	kohtu	0		H	sg n
maja	maja	0		S	sg g
laudu	laud	u		S	pl p
ja	ja	0		J	
laaste	laast	e		S	pl p
toonu	too	nud		V	nud
ja	ja	0		J	
olla	ole	a		V	da
8	8	0		N	?
lauda	laud	0		S	sg p
puudus	puudu	s		V	s
ja	ja	0		J	
laaste	laast	e		S	pl p
ka	ka	0		D	
puudus	puudu	s		V	s
mes	mis	0		P	sg n
neile	see	le		P	pl all
pääle	peale	0		K	
on	ole	0		V	b
  	ole	0		V	vad
antu	antud	0		A	sg g
.	.			Z	
</s>					
<s>					
Päälegi	Päälegi	0		H	sg n
olla	ole	a		V	da
poisid	poiss	d		S	pl n
tema	tema	0		P	sg g
vasta	vasta	0		V	o
kropad	####				
olnu	ole	nud		V	nud
,	,			Z	
nõudis	nõud	is		V	s
kumbki	kumbki	0		P	sg n
poisi	poiss	0		S	sg g
käest	käest	0		K	
3	3	0		N	?
rubla	rubla	0		S	sg p
.	.			Z	
</s>					
<s>					
Poisid	poiss	d		S	pl n
es	ei	s		V	neg s
sa	sina	0		P	sg n
henda	ise	0		P	sg g
mitte	mitte	0		D	
vabanda	vabanda	0		V	o
,	,			Z	
ning	ning	0		J	
Johan	Johan	0		H	sg n
Jak	Jak	0		H	sg n
ütel	ütle	s		V	s
kohtu	kohtu	0		H	sg n
een	esi	st		S	sg el
valla	valla	0		H	sg n
vanembale	####				
sina	sina	0		S	sg g
volsit	####				
.	.			Z	
</s>					
<s>					
Otsus	otsus	0		S	sg n
:	:			Z	
Kumbki	kumbki	0		P	sg n
poiss	poiss	0		S	sg n
massab	maks	b		V	b
3	3	0		N	?
rubla	rubla	0		S	sg p
vallavanembale	####				
ja	ja	0		J	
Johan	Johan	0		H	sg n
Jak	Jak	0		H	sg n
1	1	0		N	?
rubla	rubla	0		S	sg g
kroppuse	####				
trahvi	trahv	0		S	sg g
,	,			Z	
mis	mis	0		P	sg n
peremeestele	pere_mees	tele		S	pl all
üteldu	ütel=du	0		S	sg n
sai	saa	i		V	s
et	et	0		J	
palgast	palk	st		S	sg el
ära	ära	0		D	
massava	mass_ava	0		S	sg g
.	.			Z	
</s>					
