<s>					
Tarto	Tarto	0		H	sg n
linna	linna	0		H	sg n
mees	mees	0		S	sg n
Vidrik	Vidrik	0		H	sg n
Sulz	Sulz	0		H	sg n
kaebas	kaeba	s		V	s
et	et	0		J	
tema	tema	0		P	sg g
andnud	and	nud		V	nud
omad	oma	d		S	pl n
töö	töö	0		S	sg g
riistas	riist	s		S	sg in
1	1	0		N	?
saag	saag	0		S	sg n
,	,			Z	
1	1	0		N	?
kirves	kirves	0		S	sg n
ja	ja	0		J	
1	1	0		N	?
lootlaud	####				
kõrtsimees	kõrtsi_mees	0		S	sg n
Märt	Märt	0		H	sg n
Lindemanni	Lindemanni	0		H	sg n
kätte	käsi	tte		S	adt
sisse	sisse	0		D	
aga	aga	0		J	
see	see	0		P	sg n
ei	ei	0		V	neg
andvat	and	vat		V	vat
kätte	käsi	tte		S	adt
.	.			Z	
</s>					
<s>					
Märt	Märt	0		H	sg n
Lineman	Lineman	0		H	sg n
kohtu	kohtu	0		H	sg n
ees	ees	0		K	
ütles	ütle	s		V	s
et	et	0		J	
Vidrik	Vidrik	0		H	sg n
Sulz	Sulz	0		H	sg n
on	ole	0		V	b
  	ole	0		V	vad
oma	oma	0		P	sg g
vennaga	vend	ga		S	sg kom
tema	tema	0		P	sg g
kõrtsist	kõrts	st		S	sg el
2	2	0		N	?
rubla	rubla	0		S	sg p
15	15	0		N	?
kop	kop	0		Y	?
eest	eest	0		K	
võlgo	võlg	u		S	pl p
joonud	joo	nud		V	nud
ja	ja	0		J	
on	ole	0		V	b
  	ole	0		V	vad
Sulz	Sulz	0		H	sg n
need	see	d		P	pl n
asjad	asi	d		S	pl n
selle	see	0		P	sg g
eest	eest	0		K	
panti	pant	0		S	adt
pannud	pane	nud		V	nud
,	,			Z	
maksku	maks	ku		V	gu
ära	ära	0		D	
siis	siis	0		D	
saab	saa	b		V	b
kät	####				
.	.			Z	
</s>					
<s>					
Vidrik	Vidrik	0		H	sg n
Sulz	Sulz	0		H	sg n
uueste	####				
kohtu	kohtu	0		H	sg n
ees	ees	0		K	
ütles	ütle	s		V	s
et	et	0		J	
tema	tema	0		P	sg n
küll	küll	0		D	
omad	oma	d		P	pl n
riistad	riist	d		S	pl n
kõrtsi	kõrts	0		S	adt
mehe	mees	0		S	sg g
kätte	kätte	0		K	
hoida	hoid	a		V	da
andnud	and	nud		V	nud
aga	aga	0		J	
mitte	mitte	0		D	
panti	pant	0		S	adt
pandnud	####				
.	.			Z	
</s>					
<s>					
Otsus	otsus	0		S	sg n
.	.			Z	
</s>					
<s>					
Kohus	Kohus	0		H	sg n
arvas	arva	s		V	s
et	et	0		J	
kõrtsimees	kõrtsi_mees	0		S	sg n
neile	tema	le		P	pl all
tundmata	tund	mata		V	mata
meestele	mees	tele		S	pl all
mitte	mitte	0		D	
2	2	0		N	?
rubla	rubla	0		S	sg p
15	15	0		N	?
kop	kop	0		Y	?
eest	eest	0		K	
võlgo	võlg	u		S	pl p
es	ei	s		V	neg s
voi	või	0		D	
anda	and	a		V	da
sis	siis	0		D	
sai	saa	i		V	s
ka	ka	0		D	
kaebaja	kaebaja	0		S	sg n
need	see	d		P	pl n
asjad	asi	d		S	pl n
panti	pant	0		S	adt
panema	pane	ma		V	ma
ning	ning	0		J	
moistis	mõist	is		V	s
et	et	0		J	
V.	V.	0		Y	sg n
Sulz	Sulz	0		H	sg n
maksab	maks	b		V	b
2	2	0		N	?
rubla	rubla	0		S	sg p
15	15	0		N	?
kop	kop	0		Y	?
ära	ära	0		D	
siis	siis	0		J	
saab	saa	b		V	b
riistad	riist	d		S	pl n
kätte	käsi	tte		S	adt
.	.			Z	
</s>					
<s>					
Otsus	otsus	0		S	sg n
kuulutud	kuulu	tud		V	tud
ja	ja	0		J	
õpetuse	õpetus	0		S	sg g
kiri	kiri	0		S	sg n
Sulzile	Sulz	le		H	sg all
välja	välja	0		D	
antud	and	tud		V	tud
.	.			Z	
</s>					
