<s>					
Margus	Margus	0		H	sg n
Paurson	Paurson	0		H	sg n
ja	ja	0		J	
Johan	Johan	0		H	sg n
Maanus	Maanus	0		H	sg n
kaevassiva	kae_vassi=v	0		A	sg g
et	et	0		J	
et	et	0		J	
endine	endine	0		A	sg n
valla	valla	0		H	sg n
vanemb	####				
Endrik	Endrik	0		H	sg n
Sepp	Sepp	0		H	sg n
neid	see	d		P	pl p
kutsnu	####				
suure	suur	0		A	sg g
tee	tee	0		S	sg g
truupi	truup	0		S	sg p
tegema	tege	ma		V	ma
aga	aga	0		J	
ei	ei	0		V	neg
olevat	ole	vat		V	vat
veel	veel	0		D	
päeva	päev	0		S	sg g
palka	palk	0		S	sg p
ära	ära	0		D	
masnu	maks	nud		V	nud
.	.			Z	
</s>					
<s>					
Margus	Margus	0		H	sg n
Paurson	Paurson	0		H	sg n
tennu	tege	nud		V	nud
3	3	0		N	?
hob	####				
.	.			Z	
</s>					
<s>					
päeva	päev	0		S	sg g
1	1	0		N	?
jalg	jalg	0		S	sg n
päev	päev	0		S	sg n
Johan	Johan	0		H	sg n
Maanus	Maanus	0		H	sg n
tennu	tege	nud		V	nud
3	3	0		N	?
hob	####				
.	.			Z	
</s>					
<s>					
päeva	päev	0		S	sg g
6	6	0		N	?
jalg	jalg	0		S	sg n
päeva	päev	0		S	sg p
Endine	endine	0		A	sg n
valla	valla	0		H	sg n
vanemb	####				
Endrik	Endrik	0		H	sg n
Sep	Sep	0		H	sg n
üttel	üte	l		S	sg ad
et	et	0		J	
seda	see	da		P	sg p
tiiab	####				
kiik	kiik	0		S	sg n
vald	vald	0		S	sg n
et	et	0		J	
Ma	mina	0		P	sg n
kohtu	kohtu	0		H	sg n
herra	härra	0		S	sg g
Akkermann	####				
om	ole	0		V	b
  	ole	0		V	vad
lubanu	luba	nud		V	nud
selle	see	0		P	sg g
truubi	truup	0		S	sg g
tö	####				
päevi	päev	i		S	pl p
eest	eest	0		K	
1½	1½	0		N	?
Rbl	Rbl	0		Y	
.	.			Z	
</s>					
<s>					
hobese	hobune	0		S	sg g
ja	ja	0		J	
70	70	0		N	?
kop	kop	0		Y	?
.	.			Z	
</s>					
<s>					
jalg	jalg	0		S	sg n
päeva	päev	0		S	sg g
eest	eest	0		K	
aga	aga	0		J	
ei	ei	0		V	neg
antu	antud	0		A	sg g
mitte	mitte	0		D	
koppikat	####				
,	,			Z	
ja	ja	0		J	
olla	ole	a		V	da
ka	ka	0		D	
mittu	mitu	0		P	sg n
peremeest	pere_mees	t		S	sg p
omast	oma	st		P	sg el
päevade	päev	de		S	pl g
rahast	raha	st		S	sg el
praegu	praegu	0		D	
ilma	ilma	0		D	
,	,			Z	
sest	sest	0		J	
ütte	üte	0		S	sg g
koku	####				
kulunu	kulunud	0		A	sg g
senna	senna	0		S	sg g
vallal	vald	l		S	sg ad
ära	ära	0		D	
118	118	0		N	?
hobese	hobune	0		S	sg g
ja	ja	0		J	
90	90	0		N	?
jalg	jalg	0		S	sg n
päeva	päev	0		S	sg p
.	.			Z	
</s>					
<s>					
Temal	tema	l		P	sg ad
ei	ei	0		V	neg
ole	ole	0		V	o
kustki	kustki	0		D	
massa	maks	0		S	adt
.	.			Z	
</s>					
<s>					
Otsus	otsus	0		S	sg n
Et	et	0		J	
valla	valla	0		H	sg n
valitsuse	valitsus	0		S	sg g
palve	palve	0		S	sg g
pääle	peale	0		K	
ei	ei	0		V	neg
Tarto	Tarto	0		H	sg n
Ma	mina	0		P	sg n
kohus	kohus	0		H	sg n
ei	ei	0		V	neg
ka	ka	0		D	
Kubermangu	kubermang	0		S	sg g
valitsus	valitsus	0		H	sg n
selle	see	0		P	sg g
truubi	truup	0		S	sg g
tegemise	tegemine	0		S	sg g
päevade	päev	de		S	pl g
raha	raha	0		S	sg p
mitte	mitte	0		D	
välja	välja	0		D	
es	ei	s		V	neg s
massa	maks	0		S	adt
,	,			Z	
seeperast	####				
es	ei	s		V	neg s
või	või	0		J	
see	see	0		P	sg n
kohus	kohus	0		H	sg n
mitte	mitte	0		D	
moista	####				
seda	see	da		P	sg p
raha	raha	0		S	sg p
Endrik	Endrik	0		H	sg n
Seppal	Sepp	l		H	sg ad
kaibajile	####				
välja	välja	0		D	
masma	maks	ma		V	ma
.	.			Z	
</s>					
<s>					
Otsus	otsus	0		S	sg n
sai	saa	i		V	s
kuulutud	kuulu	tud		V	tud
</s>					
