<s>					
25.09.1881	25.09.1881	0		N	?
:	:			Z	
37	37	0		N	?
</s>					
<s>					
Pääkohtumees	####				
M.	M.	0		Y	sg n
</s>					
<s>					
Metsik	metsik	0		A	sg n
Kohtumees	kohtu_mees	0		S	sg n
M.	M.	0		Y	sg n
Laurberg	Laurberg	0		H	sg n
Kohtumees	kohtu_mees	0		S	sg n
M.	M.	0		Y	sg n
Lõhmus	Lõhmus	0		H	sg n
</s>					
<s>					
Endrik	Endrik	0		H	sg n
Jaanus	Jaanus	0		H	sg n
,	,			Z	
Taavit	Taavi	t		H	sg p
Jaanus	Jaanus	0		H	sg n
ja	ja	0		J	
An	An	0		Y	sg n
Jaanus	Jaanus	0		H	sg n
andsiva	####				
siin	siin	0		D	
kohtu	kohtu	0		H	sg n
een	esi	st		S	sg el
üles	üles	0		D	
et	et	0		J	
nema	tema	d		P	pl n
kui	kui	0		D	
   	kui	0		J	
Andresse	Andre	sse		H	sg ill
talu	talu	0		S	sg g
peria	####				
,	,			Z	
annava	and	vad		V	vad
selle	see	0		P	sg g
Andresse	Andre	sse		H	sg ill
talu	talu	0		S	sg g
perimise	####				
õigust	õigus	t		S	sg p
oma	oma	0		P	sg g
velle	####				
Juhan	Juhan	0		H	sg n
Jaanussele	Jaan	le		H	sg all
ning	ning	0		J	
võib	või	b		V	b
Johan	Johan	0		H	sg n
Jaanus	Jaanus	0		H	sg n
kui	kui	0		D	
   	kui	0		J	
selle	see	0		P	sg g
talu	talu	0		S	sg g
tävvelik	####				
peremees	pere_mees	0		S	sg n
sääl	siga	l		S	sg ad
majan	####				
elada	ela	da		V	da
ja	ja	0		J	
kiige	kiik	0		S	sg g
maja	maja	0		S	sg g
õiguste	õigus	te		S	pl g
eest	eest	0		K	
kohut	kohus	t		S	sg p
käia	käi	a		V	da
.	.			Z	
</s>					
<s>					
Sedasama	see_sama	0		P	sg p
tegi	tege	i		V	s
ka	ka	0		D	
ema	ema	0		S	sg n
Mari	Mari	0		H	sg n
Jaanus	Jaanus	0		H	sg n
.	.			Z	
</s>					
<s>					
moistetu	mõist	tud		V	tud
seda	see	da		P	sg p
asja	asi	0		S	sg p
protokolli	protokoll	0		S	sg g
kirjta	####				
.	.			Z	
</s>					
