<s>					
Ado	Ado	0		H	sg n
Riismandel	Riismandel	0		H	sg n
Sooru	Sooru	0		H	sg n
vallast	vallast	st		H	sg n
kaevas	kaeva	s		V	s
et	et	0		J	
Vastse	Vastse	0		H	sg n
Nõo	Nõo	0		H	sg n
moisan	####				
elaja	elajas	0		S	sg g
Märt	Märt	0		H	sg n
Tamissar	Tamissar	0		H	sg n
olla	ole	a		V	da
tema	tema	0		P	sg g
esa	####				
käest	käsi	st		S	sg el
150	150	0		N	?
rubla	rubla	0		S	sg g
lainanu	####				
9	9	0		N	?
aasta	aasta	0		S	sg g
eest	eest	0		K	
üte	üte	0		S	sg n
aasta	aasta	0		S	sg g
pääle	peale	0		K	
ja	ja	0		J	
lubanu	luba	nud		V	nud
10	10	0		N	?
protsenti	protsent	0		S	sg p
aga	aga	0		J	
ei	ei	0		V	neg
olla	ole	a		V	da
Tamissar	Tamissar	0		H	sg n
seda	see	da		P	sg p
raha	raha	0		S	sg p
mitte	mitte	0		D	
ära	ära	0		D	
masnu	maks	nud		V	nud
vaid	vaid	0		D	
ainult	ainult	0		D	
30	30	0		N	?
rubla	rubla	0		S	sg p
protsenti	protsent	0		S	sg p
selle	see	0		P	sg g
9	9	0		N	?
aasta	aasta	0		S	sg g
sees	sees	0		K	
ära	ära	0		D	
masnu	maks	nud		V	nud
.	.			Z	
</s>					
<s>					
Kaibaja	Kaibaja	0		H	sg n
ütel	ütle	s		V	s
et	et	0		J	
tema	tema	0		P	sg g
esa	####				
olla	ole	a		V	da
vana	vana	0		A	sg n
,	,			Z	
ei	ei	0		V	neg
jõudvat	jõud	vat		V	vat
kohut	kohus	t		S	sg p
käia	käi	a		V	da
ja	ja	0		J	
olla	ole	a		V	da
tema	tema	0		P	sg g
kätte	kätte	0		K	
see	see	0		P	sg n
nõudmise	nõudmine	0		S	sg g
õigus	õigus	0		S	sg n
andnu	and=nu	0		S	sg n
,	,			Z	
näidas	####				
ka	ka	0		D	
selle	see	0		P	sg g
tarvis	tarvis	0		K	
voli	voli	0		S	sg g
kiri	kiri	0		S	sg n
ette	ette	0		D	
.	.			Z	
</s>					
<s>					
Kaibaja	Kaibaja	0		H	sg n
nõus	nõus	0		D	
nüüd	nüüd	0		D	
see	see	0		P	sg n
raha	raha	0		S	sg n
kätte	käsi	tte		S	adt
ja	ja	0		J	
ega	ega	0		J	
aasta	aasta	0		S	sg g
eest	eest	0		K	
6	6	0		N	?
protsenti	protsent	0		S	sg p
ja	ja	0		J	
mitte	mitte	0		D	
10	10	0		N	?
prots	####				
nii	nii	0		D	
kui	kui	0		D	
   	kui	0		J	
T	T	0		Y	sg n
lubanu	luba	nud		V	nud
.	.			Z	
</s>					
<s>					
Märt	Märt	0		H	sg n
Tamissaar	Tamissar	0		H	sg g
kohtu	kohtu	0		H	sg n
een	esi	st		S	sg el
ütel	ütle	s		V	s
et	et	0		J	
tema	tema	0		P	sg n
küll	küll	0		D	
150	150	0		N	?
rubla	rubla	0		S	sg p
olla	ole	a		V	da
Ado	Ado	0		H	sg n
Riismandle	Riismandel	le		H	sg all
esa	####				
käest	käsi	st		S	sg el
lainanu	####				
aga	aga	0		J	
olla	ole	a		V	da
kiik	kiik	0		S	sg n
ära	ära	0		D	
masnu	maks	nud		V	nud
ja	ja	0		J	
ka	ka	0		D	
protsendid	protsent	d		S	pl n
,	,			Z	
ainult	ainult	0		D	
30	30	0		N	?
rubla	rubla	0		S	sg p
olla	ole	a		V	da
veel	veel	0		D	
masmata	####				
.	.			Z	
</s>					
<s>					
Selle	sell	e		S	pl p
ära	ära	0		D	
masmise	####				
üle	üle	0		D	
olla	ole	a		V	da
ka	ka	0		D	
kaebaja	kaebaja	0		S	sg g
esa	####				
Jüri	Jüri	0		H	sg n
Riismandel	Riismandel	0		H	sg n
temale	tema	le		P	sg all
kviitungid	kviitung	d		S	pl n
andnu	and=nu	0		S	sg g
mes	mis	0		P	sg n
mitte	mitte	0		D	
üten	####				
ei	ei	0		V	neg
ole	ole	0		V	o
,	,			Z	
ja	ja	0		J	
mis	mis	0		P	sg n
ta	tema	0		P	sg g
tõine	####				
kohtu	kohtu	0		H	sg n
päev	päev	0		S	sg n
ette	ette	0		D	
toob	too	b		V	b
.	.			Z	
</s>					
<s>					
Tõine	####				
kohtu	kohtu	0		H	sg n
päiv	####				
Märt	Märt	0		H	sg n
Tammissaar	Tammissaar	0		H	sg n
kohtu	kohtu	0		H	sg n
een	esi	st		S	sg el
ütel	ütle	s		V	s
et	et	0		J	
tema	tema	0		P	sg n
neid	see	d		P	pl p
kviitungid	kviitung	d		S	pl n
ei	ei	0		V	neg
olla	ole	a		V	da
leidnu	leid	nud		V	nud
,	,			Z	
need	see	d		P	pl n
olla	ole	a		V	da
ära	ära	0		D	
kadunud	kadu	nud		V	nud
.	.			Z	
</s>					
<s>					
Ado	Ado	0		H	sg n
Riismandle	Riismandel	le		H	sg all
esa	####				
Jüri	Jüri	0		H	sg n
Riismandel	Riismandel	0		H	sg n
kohtu	kohtu	0		H	sg n
een	esi	st		S	sg el
ütel	ütle	s		V	s
et	et	0		J	
Tamissaar	Tamissar	0		H	sg g
9	9	0		N	?
aasta	aasta	0		S	sg g
eest	eest	0		K	
tema	tema	0		P	sg g
käest	käest	0		K	
150	150	0		N	?
rubla	rubla	0		S	sg p
om	ole	0		V	b
  	ole	0		V	vad
lainanu	####				
ja	ja	0		J	
10	10	0		N	?
protsenti	protsent	0		S	sg p
lubanu	luba	nud		V	nud
ja	ja	0		J	
seepääle	####				
kirja	kiri	0		S	sg g
andnu	and=nu	0		S	sg g
aga	aga	0		J	
tema	tema	0		P	sg n
ei	ei	0		V	neg
nõua	nõud	0		V	o
10	10	0		N	?
vaid	vaid	0		D	
6	6	0		N	?
protsenti	protsent	0		S	sg p
ja	ja	0		J	
see	see	0		P	sg n
150	150	0		N	?
rubla	rubla	0		S	sg p
ja	ja	0		J	
et	et	0		J	
ta	tema	0		P	sg g
vana	vana	0		S	sg n
ja	ja	0		J	
jõuvetu	####				
sis	siis	0		D	
annab	and	b		V	b
oma	oma	0		P	sg g
poja	poeg	0		S	sg g
    	poja	0		S	sg g
kätte	kätte	0		K	
see	see	0		P	sg n
nõudmise	nõudmine	0		S	sg g
õigus	õigus	0		S	sg n
.	.			Z	
</s>					
<s>					
Tamissaar	Tamissar	0		H	sg g
ei	ei	0		V	neg
ole	ole	0		V	o
muud	muu	d		P	sg p
masnu	maks	nud		V	nud
selle	see	0		P	sg g
aja	aeg	0		S	sg g
sees	sees	0		K	
muud	muu	d		P	sg p
kui	kui	0		D	
   	kui	0		J	
30	30	0		N	?
rubla	rubla	0		S	sg p
protsenti	protsent	0		S	sg p
ja	ja	0		J	
tema	tema	0		P	sg n
ei	ei	0		V	neg
ole	ole	0		V	o
Tamissaarele	Tamissar	le		H	sg all
üttegi	üte	0	gi	S	sg g
maksu	maks	0		S	sg g
kviitungi	kviitung	0		S	sg g
andnu	and=nu	0		S	sg n
,	,			Z	
sest	sest	0		J	
siis	siis	0		D	
oles	oles	0		S	sg n
võla	võlg	0		S	sg g
kiri	kiri	0		S	sg n
katski	####				
kistu	kistud	0		A	sg g
aga	aga	0		J	
võla	võlg	0		S	sg g
kiri	kiri	0		S	sg n
om	ole	0		V	b
  	ole	0		V	vad
alali	####				
.	.			Z	
</s>					
<s>					
Otsus	otsus	0		S	sg n
.	.			Z	
</s>					
<s>					
Et	et	0		J	
Tamissaar	Tamissar	0		H	sg g
seda	see	da		P	sg p
võlga	võlg	0		S	sg p
es	ei	s		V	neg s
salga	salga	0		V	o
aga	aga	0		J	
ometi	ometi	0		D	
seda	see	da		P	sg p
võlss	####				
et	et	0		J	
ta	tema	0		P	sg n
see	see	0		P	sg n
raha	raha	0		S	sg p
ära	ära	0		D	
masnu	maks	nud		V	nud
sest	sest	0		J	
et	et	0		J	
esite	####				
ütel	ütle	s		V	s
et	et	0		J	
temal	tema	l		P	sg ad
maksu	maks	0		S	sg g
üle	üle	0		K	
selged	selge	d		A	pl n
kviitungid	kviitung	d		S	pl n
om	ole	0		V	b
  	ole	0		V	vad
ja	ja	0		J	
perast	pärast	0		D	
ütel	ütle	s		V	s
et	et	0		J	
kviitungid	kviitung	d		S	pl n
ära	ära	0		D	
kadunu	kadu	nud		V	nud
,	,			Z	
tuns	####				
kohus	kohus	0		H	sg n
et	et	0		J	
temal	tema	l		P	sg ad
see	see	0		P	sg n
võlg	võlg	0		S	sg n
masmata	####				
om	ole	0		V	b
  	ole	0		V	vad
,	,			Z	
ning	ning	0		J	
moist	####				
:	:			Z	
Et	et	0		J	
Märt	Märt	0		H	sg n
Tamissar	Tamissar	0		H	sg n
kui	kui	0		D	
   	kui	0		J	
ilma	ilma	0		K	
varanduseta	varandus	ta		S	sg ab
inimene	inimene	0		S	sg n
peab	pida	b		V	b
seda	see	da		P	sg p
võlga	võlg	0		S	sg p
masma	maks	ma		V	ma
Ado	Ado	0		H	sg n
Riismandle	Riismandel	le		H	sg all
katte	käsi	tte		S	adt
,	,			Z	
23.	23.	0		O	?
aprillil	aprill	l		S	sg ad
1881	1881	0		N	?
50	50	0		N	?
rubla	rubla	0		S	sg p
,	,			Z	
23.	23.	0		O	?
septembril	september	l		S	sg ad
1881	1881	0		N	?
jälle	jälle	0		D	
50	50	0		N	?
rubla	rubla	0		S	sg p
ja	ja	0		J	
23.	23.	0		O	?
aprillil	aprill	l		S	sg ad
1882	1882	0		N	?
viimane	viimane	0		A	sg n
50	50	0		N	?
rubla	rubla	0		S	sg p
ja	ja	0		J	
egal	####				
korral	kord	l		S	sg ad
ka	ka	0		D	
puuduvad	puudu	vad		V	vad
6	6	0		N	?
protsenti	protsent	0		S	sg p
aasta	aasta	0		S	sg g
päält	pealt	0		K	
senna	senna	0		S	sg g
manu	manu	0		K	
masma	maks	ma		V	ma
.	.			Z	
</s>					
<s>					
Otsus	otsus	0		S	sg n
sai	saa	i		V	s
kohtu	kohtu	0		H	sg n
käiatele	####				
kuulutud	kuulu	tud		V	tud
ja	ja	0		J	
oppuse	õppus	0		S	sg g
leht	leht	0		S	sg n
Tamissarele	Tamissar	le		H	sg all
välja	välja	0		D	
antu	antud	0		A	sg g
.	.			Z	
</s>					
