<s>					
16.04.1882	16.04.1882	0		N	?
:	:			Z	
13	13	0		N	?
</s>					
<s>					
Päkohtumees	####				
M.	M.	0		Y	sg n
</s>					
<s>					
Metsik	metsik	0		A	sg n
Kohtumees	kohtu_mees	0		S	sg n
M.	M.	0		Y	sg n
Laurberg	Laurberg	0		H	sg n
H.	H.	0		Y	sg n
Paurson	Paurson	0		H	sg n
</s>					
<s>					
Jaan	Jaan	0		H	sg n
Sild	Sild	0		H	sg n
kaevas	kaeva	s		V	s
et	et	0		J	
temal	tema	l		P	sg ad
Margus	Margus	0		H	sg n
Lõhmusse	Lõhmus	sse		H	sg ill
käest	käsi	st		S	sg el
saada	saa	da		V	da
om	ole	0		V	b
  	ole	0		V	vad
tare	tare	0		S	sg n
ehituse	ehitus	0		S	sg g
raha	raha	0		S	sg p
8	8	0		N	?
Rbl	Rbl	0		Y	
.	.			Z	
</s>					
<s>					
ja	ja	0		J	
50	50	0		N	?
punda	pund	0		S	sg p
õlgi	õlg	i		S	pl p
,	,			Z	
nõus	nõus	0		D	
et	et	0		J	
tuleva	tulev	0		A	sg g
aasta	aasta	0		S	sg g
1883	1883	0		N	?
seda	see	da		P	sg p
kätte	käsi	tte		S	adt
saas	####				
.	.			Z	
</s>					
<s>					
Margus	Margus	0		H	sg n
Lõhmus	Lõhmus	0		H	sg n
üttel	üte	l		S	sg ad
et	et	0		J	
nõudmine	nõudmine	0		S	sg n
kül	küll	0		D	
õige	õige	0		A	sg n
om	ole	0		V	b
  	ole	0		V	vad
aga	aga	0		J	
ta	tema	0		P	sg n
om	ole	0		V	b
  	ole	0		V	vad
praegu	praegu	0		D	
kohtu	kohtu	0		H	sg n
een	esi	st		S	sg el
lubanu	luba	nud		V	nud
Endrik	Endrik	0		H	sg n
Seppale	Seppale	0		H	sg n
ka	ka	0		D	
tare	tare	0		S	sg n
ehitust	ehitus	t		S	sg p
1883	1883	0		N	?
aastal	aasta	l		S	sg ad
ära	ära	0		D	
massa	maks	0		S	sg g
seeperast	####				
ei	ei	0		V	neg
jõvva	####				
üttel	üte	l		S	sg ad
aastal	aasta	l		S	sg ad
mitmele	mitu	le		P	sg all
massa	maks	0		S	adt
,	,			Z	
vaid	vaid	0		J	
massab	maks	b		V	b
perast	pärast	0		D	
poole	poole	0		K	
.	.			Z	
</s>					
<s>					
Kohus	Kohus	0		H	sg n
es	ei	s		V	neg s
tee	tee	0		S	sg g
selle	see	0		P	sg g
asjale	asi	le		S	sg all
ka	ka	0		D	
üttegi	üte	0	gi	S	sg g
tärmini	tärmin	0		S	sg g
.	.			Z	
</s>					
