<s>					
Nõumeeste	nõu_mees	te		S	pl g
saadikud	saadik	d		S	pl n
Jaan	Jaan	0		H	sg n
Pedajas	Pedajas	0		H	sg n
ja	ja	0		J	
Hans	Hans	0		H	sg n
Tomson	Tomson	0		H	sg n
kaevasiva	####				
et	et	0		J	
endine	endine	0		A	sg n
koolmeister	kool_meister	0		S	sg n
Jaan	Jaan	0		H	sg n
Muuli	Muuli	0		H	sg n
om	ole	0		V	b
  	ole	0		V	vad
üts	üks	0		N	sg n
san	####				
ehitanu	ehita	nud		V	nud
,	,			Z	
mes	mis	0		P	sg n
ta	tema	0		P	sg n
üles	üles	0		D	
andnu	and=nu	0		S	sg n
24	24	0		N	?
Rbl	Rbl	0		Y	
.	.			Z	
</s>					
<s>					
masvat	####				
,	,			Z	
ning	ning	0		J	
nõudvat	nõudev	t		A	sg p
nüüd	nüüd	0		D	
Muuli	Muuli	0		H	sg n
pool	pool	0		K	
seda	see	da		P	sg p
ehitus	ehitus	0		S	sg n
raha	raha	0		S	sg p
12	12	0		N	?
Rbl	Rbl	0		Y	
.	.			Z	
</s>					
<s>					
valla	valla	0		H	sg n
käest	käsi	st		S	sg el
;	;			Z	
aga	aga	0		J	
kaibajad	####				
andsid	and	sid		V	sid
ette	ette	0		D	
et	et	0		J	
Muuli	Muuli	0		H	sg n
olevat	ole	vat		V	vat
sääl	seal	0		D	
sannan	####				
ütte	üte	0		S	sg g
üürilist	üüriline	t		S	sg p
pidanu	pida	nud		V	nud
2	2	0		N	?
aastat	aasta	t		S	sg p
ja	ja	0		J	
selle	see	0		P	sg g
eest	eest	0		K	
aastal	aasta	l		S	sg ad
30	30	0		N	?
töö	töö	0		S	sg g
päeva	päev	0		S	sg p
saanu	saa	nud		V	nud
mes	mis	0		P	sg n
30	30	0		N	?
kop	kop	0		Y	?
.	.			Z	
</s>					
<s>					
päev	päev	0		S	sg n
katte	käsi	tte		S	adt
aasta	aasta	0		S	sg g
sees	sees	0		K	
18	18	0		N	?
Rbl	Rbl	0		Y	
.	.			Z	
</s>					
<s>					
välja	välja	0		D	
teeb	tege	b		V	b
.	.			Z	
</s>					
<s>					
Kui	kui	0		D	
   	kui	0		J	
nüüd	nüüd	0		D	
Muuli	Muuli	0		H	sg n
pool	pool	0		N	sg n
sanna	####				
ehitus	ehitus	0		S	sg n
raha	raha	0		S	sg n
valla	valla	0		H	sg n
käest	käsi	st		S	sg el
nõuab	nõud	b		V	b
,	,			Z	
sis	siis	0		D	
sis	siis	0		D	
peas	pea	s		S	sg in
vald	vald	0		S	sg n
ka	ka	0		D	
pool	pool	0		N	sg n
sest	sest	0		J	
üüri	üür	0		S	sg g
rahast	raha	st		S	sg el
omale	oma	le		P	sg all
saama	saa	ma		V	ma
se	see	0		P	sg n
om	ole	0		V	b
  	ole	0		V	vad
9	9	0		N	?
R.	R.	0		Y	sg n
</s>					
<s>					
2	2	0		N	?
valla	valla	0		H	sg n
ostetu	oste=tu	0		S	sg g
uibut	####				
Muuli	Muuli	0		H	sg n
ära	ära	0		D	
häävitanu	####				
12	12	0		N	?
R.	R.	0		Y	sg n
</s>					
<s>					
1	1	0		N	?
vana	vana	0		A	sg n
san	####				
Muuli	Muuli	0		H	sg n
ära	ära	0		D	
häävitanu	####				
10	10	0		N	?
R.	R.	0		Y	sg n
</s>					
<s>					
(	(			Z	
1	1	0		N	?
kooli	kool	0		S	sg g
lühter	lühter	0		S	sg n
Muuli	Muuli	0		H	sg n
kätte	käsi	tte		S	adt
jäänu	jää	nud		V	nud
)	)			Z	
ärra	ära	0		D	
sanu	saa	nud		V	nud
(	(			Z	
1	1	0		N	?
R	R	0		Y	sg n
.)	.)			Z	
</s>					
<s>					
(	(			Z	
3	3	0		N	?
vana	vana	0		A	sg g
kooli	kool	0		S	sg g
tare	tare	0		S	sg n
akkend	####				
Muuli	Muuli	0		H	sg n
kätte	käsi	tte		S	adt
saanu	saa	nud		V	nud
)	)			Z	
käte	käsi	te		S	pl g
sanu	saa	nud		V	nud
(	(			Z	
3	3	0		N	?
R	R	0		Y	sg n
50	50	0		N	?
K	K	0		Y	sg n
)	)			Z	
Summa	Summa	0		H	sg n
mis	mis	0		P	sg n
kaibajad	####				
Muuli	Muuli	0		H	sg n
käest	käsi	st		S	sg el
nõudva	nõudev	0		A	sg g
(	(			Z	
35	35	0		N	?
R.	R.	0		Y	sg n
50	50	0		N	?
K	K	0		Y	sg n
)	)			Z	
31	31	0		N	?
Rubla	rubla	0		S	sg g
</s>					
<s>					
Otsus	otsus	0		S	sg n
.	.			Z	
</s>					
<s>					
Kui	kui	0		D	
   	kui	0		J	
see	see	0		P	sg n
asi	asi	0		S	sg n
üts	üks	0		N	sg n
politseilik	politseilik	0		A	sg n
asi	asi	0		S	sg n
oles	oles	0		S	sg n
sis	siis	0		D	
oles	oles	0		S	sg n
Muuli	Muuli	0		H	sg n
vangi	vang	0		S	adt
viisil	viis	l		S	sg ad
kohtu	kohtu	0		H	sg n
ette	ette	0		D	
toodu	toodu	0		S	sg n
sest	sest	0		J	
et	et	0		J	
ta	tema	0		P	sg n
14	14	0		N	?
kõrra	kõrra	0		D	
kutsmise	kutsumine	0		S	sg g
pääle	peale	0		K	
mitte	mitte	0		D	
ette	ette	0		D	
es	ei	s		V	neg s
tule	tule	0		V	o
neid	see	d		P	pl p
asju	asi	u		S	pl p
seletama	seleta	ma		V	ma
,	,			Z	
aga	aga	0		J	
et	et	0		J	
see	see	0		P	sg n
asi	asi	0		S	sg n
üts	üks	0		N	sg n
tsivil	####				
asi	asi	0		S	sg n
om	ole	0		V	b
  	ole	0		V	vad
moist	####				
kohus	kohus	0		H	sg n
ilma	ilma	0		K	
Muulita	muul	ta		S	sg ab
ära	ära	0		V	neg o
et	et	0		J	
Muulil	muul	l		S	sg ad
om	ole	0		V	b
  	ole	0		V	vad
vallale	vald	le		S	sg all
see	see	0		P	sg n
päälnimetu	####				
Suma	suma	0		S	sg g
35½	####				
Rbl	Rbl	0		Y	
.	.			Z	
</s>					
<s>					
ära	ära	0		D	
massa	maks	0		S	sg g
Sellest	see	st		P	sg el
summast	summ	st		S	sg el
       	summa	st		S	sg el
jääb	jää	b		V	b
Muuli	Muuli	0		H	sg n
nõudmine	nõudmine	0		S	sg n
12	12	0		N	?
R.	R.	0		Y	sg n
sanna	####				
ehituse	ehitus	0		S	sg g
raha	raha	0		S	sg p
maha	maha	0		D	
ni	nii	0		D	
et	et	0		J	
Muuli	Muuli	0		H	sg n
veel	veel	0		D	
vallale	vald	le		S	sg all
masma	maks	ma		V	ma
peab	pida	b		V	b
(	(			Z	
23	23	0		N	?
½	½	0		N	?
)	)			Z	
19	19	0		N	?
R.	R.	0		Y	sg n
</s>					
