<s>					
Peeter	Peeter	0		H	sg n
Paurson	Paurson	0		H	sg n
kaevas	kaeva	s		V	s
et	et	0		J	
Konguta	Konguta	0		H	sg n
mees	mees	0		S	sg n
Jüri	Jüri	0		H	sg n
Raps	Raps	0		H	sg n
mitu	mitu	0		P	sg n
korda	kord	0		S	sg p
tema	tema	0		P	sg g
kartohvlid	####				
varastanu	varasta	nud		V	nud
.	.			Z	
</s>					
<s>					
Jüri	Jüri	0		H	sg n
Raps	Raps	0		H	sg n
püüs	püü	s		S	sg in
salata	salga	ta		V	da
aga	aga	0		J	
viimate	####				
tunist	####				
esi	esi	0		S	sg n
ära	ära	0		D	
et	et	0		J	
kül	küll	0		D	
varastanu	varasta	nud		V	nud
.	.			Z	
</s>					
<s>					
Otsus	otsus	0		S	sg n
.	.			Z	
</s>					
<s>					
Jüri	Jüri	0		H	sg n
Raps	Raps	0		H	sg n
saab	saa	b		V	b
30	30	0		N	?
vitsa	vits	0		S	sg g
lööki	löök	0		S	sg p
ja	ja	0		J	
saab	saa	b		V	b
oma	oma	0		P	sg g
valda	valda	0		H	sg n
saadetu	saadetud	0		A	sg g
.	.			Z	
</s>					
