<s>					
10.09.1882	10.09.1882	0		N	?
</s>					
<s>					
Mari	Mari	0		H	sg n
Paurson	Paurson	0		H	sg n
kõrvalseisjaga	kõrval_seisja	ga		S	sg kom
kaevas	kaeva	s		V	s
et	et	0		J	
Jüri	Jüri	0		H	sg n
Loskit	Loskit	0		H	sg n
teda	tema	da		P	sg p
ilma	ilma	0		D	
asjata	asjata	0		D	
pesnu	peks	nud		V	nud
,	,			Z	
palus	palu	s		V	s
et	et	0		J	
kohus	kohus	0		H	sg n
teda	tema	da		P	sg p
saaduse	saadus	0		S	sg g
perra	järele	0		K	
trahvis	trahvi	s		V	s
.	.			Z	
</s>					
<s>					
Jaan	Jaan	0		H	sg n
Jakobson	Jakobson	0		H	sg n
ning	ning	0		J	
Liisu	Liisu	0		H	sg n
Kaup	Kaup	0		H	sg n
tunistiva	####				
et	et	0		J	
Jüri	Jüri	0		H	sg n
Loskit	Loskit	0		H	sg n
om	ole	0		V	b
  	ole	0		V	vad
se	see	0		P	sg n
naese	naine	0		S	sg g
pikkali	####				
maha	maha	0		D	
löönu	löö	nud		V	nud
ja	ja	0		J	
rinnust	rind	ust		S	pl el
rapputanu	####				
.	.			Z	
</s>					
<s>					
Otsus	otsus	0		S	sg n
Jüri	Jüri	0		H	sg n
Loskit	Loskit	0		H	sg n
massab	maks	b		V	b
Mari	Mari	0		H	sg n
Paursonile	Paurson	le		H	sg all
1	1	0		N	?
R.	R.	0		Y	sg n
ja	ja	0		J	
vaeste	vaene	te		S	pl g
laekase	lae_kask	0		S	sg g
1	1	0		N	?
Rbl	Rbl	0		Y	
.	.			Z	
</s>					
<s>					
trahvi	trahv	0		S	sg g
</s>					
