<s>					
05.02.1881	05.02.1881	0		N	?
:	:			Z	
12	12	0		N	?
</s>					
<s>					
Pääkohtumees	####				
M.	M.	0		Y	sg n
</s>					
<s>					
Metsik	metsik	0		A	sg n
Kohtumees	kohtu_mees	0		S	sg n
H.	H.	0		Y	sg n
Paurson	Paurson	0		H	sg n
Kohtumees	kohtu_mees	0		S	sg n
Kr	Kr	0		Y	sg n
.	.			Z	
</s>					
<s>					
Lõhmus	Lõhmus	0		H	sg n
</s>					
<s>					
Liisa	Liisa	0		H	sg n
Kärner	Kärner	0		H	sg n
Tartust	Tartu	st		H	sg el
,	,			Z	
kõrvalseisja	kõrval_seisja	0		S	sg n
oma	oma	0		P	sg g
vennaga	vend	ga		S	sg kom
Karl	Karl	0		H	sg n
Kärner	Kärner	0		H	sg n
,	,			Z	
kaevas	kaeva	s		V	s
et	et	0		J	
kui	kui	0		D	
   	kui	0		J	
tema	tema	0		P	sg g
Haagel	Haagel	0		H	sg n
elanu	ela=nu	0		S	sg g
kahe	kaks	0		N	sg g
aasta	aasta	0		S	sg g
eest	eest	0		K	
sis	siis	0		D	
om	ole	0		V	b
  	ole	0		V	vad
Kristjan	Kristjan	0		H	sg n
Sepp	Sepp	0		H	sg n
temaga	tema	ga		P	sg kom
kokku	kokku	0		D	
elanu	ela=nu	0		S	sg g
ja	ja	0		J	
temal	tema	l		P	sg ad
tüttar	####				
laps	laps	0		S	sg n
saanu	saa	nud		V	nud
,	,			Z	
nõus	nõus	0		D	
lapse	laps	0		S	sg g
toitmise	toitmine	0		S	sg g
raha	raha	0		S	sg g
mes	mis	0		P	sg n
saadus	saadus	0		S	sg n
käseb	####				
laps	laps	0		S	sg n
om	ole	0		V	b
  	ole	0		V	vad
Juuli	juuli	0		S	sg g
kuul	kuu	l		S	sg ad
1880	1880	0		N	?
sündinu	sündi	nud		V	nud
.	.			Z	
</s>					
<s>					
Kristjan	Kristjan	0		H	sg n
Sepp	Sepp	0		H	sg n
kohtu	kohtu	0		H	sg n
een	esi	st		S	sg el
üttel	üte	l		S	sg ad
,	,			Z	
et	et	0		J	
kui	kui	0		D	
   	kui	0		J	
tema	tema	0		P	sg g
pois	poi	s		S	sg in
mees	mees	0		S	sg n
olnu	ole	nud		V	nud
sis	siis	0		D	
tema	tema	0		P	sg g
mitme	mitu	0		P	sg g
tüdruku	tüdruk	0		S	sg g
juures	juures	0		K	
käinud	käi	nud		V	nud
ja	ja	0		J	
keigile	####				
ära	ära	0		D	
maksnud	maks	nud		V	nud
ja	ja	0		J	
kui	kui	0		D	
   	kui	0		J	
ta	tema	0		P	sg n
Liisa	Liisa	0		H	sg n
Kärner	Kärner	0		H	sg n
juures	juures	0		K	
käinud	käi	nud		V	nud
siis	siis	0		D	
andnud	and	nud		V	nud
üks	üks	0		N	sg n
   	üks	0		P	sg n
kord	kord	0		S	sg n
1	1	0		N	?
Rbl	Rbl	0		Y	
.	.			Z	
</s>					
<s>					
ja	ja	0		J	
teine	teine	0		O	sg n
     	teine	0		P	sg n
kord	kord	0		S	sg n
andnu	and=nu	0		S	sg g
1	1	0		N	?
paar	paar	0		N	sg n
naiste	naine	te		S	pl g
saapid	####				
,	,			Z	
ja	ja	0		J	
tema	tema	0		P	sg n
saap	saa	b		V	b
tunnistus	tunnistus	0		S	sg n
et	et	0		J	
teised	teine	d		O	pl n
      	teine	d		P	pl n
poisid	poiss	d		S	pl n
ka	ka	0		D	
Liisa	Liisa	0		H	sg n
Kärneri	Kärner	0		H	sg g
juures	juures	0		K	
on	ole	0		V	b
  	ole	0		V	vad
käinud	käi	nud		V	nud
.	.			Z	
</s>					
<s>					
Temal	tema	l		P	sg ad
olla	ole	a		V	da
nüüd	nüüd	0		D	
rohkemb	####				
aastat	aasta	t		S	sg p
naene	naine	0		S	sg n
voetud	voe=tu	d		A	pl n
Tarto	Tarto	0		H	sg n
linnast	linn	st		S	sg el
mis	mis	0		P	sg n
Liisa	Liisa	0		H	sg n
Kärner	Kärner	0		H	sg n
sis	siis	0		D	
säetu	####				
ajal	aeg	l		S	sg ad
Tarto	Tarto	0		H	sg n
õppetajale	####				
es	ei	s		V	neg s
kaiba	####				
(	(			Z	
ja	ja	0		J	
naese	naine	0		S	sg g
võtmist	võtmine	t		S	sg p
kuni	kuni	0		K	
es	ei	s		V	neg s
keela	keela	0		V	o
).	).			Z	
</s>					
<s>					
Liisa	Liisa	0		H	sg n
Kärner	Kärner	0		H	sg n
üttel	üte	l		S	sg ad
et	et	0		J	
kül	küll	0		D	
kuulu	kuulu	0		V	o
kui	kui	0		D	
   	kui	0		J	
Kr	Kr	0		Y	sg n
.	.			Z	
</s>					
<s>					
Sepp	Sepp	0		H	sg n
naist	naine	t		S	sg p
võtnu	võt	nud		V	nud
,	,			Z	
aga	aga	0		J	
peremees	pere_mees	0		S	sg n
ei	ei	0		V	neg
andnu	and=nu	0		S	sg g
aiga	####				
õppetaja	####				
juure	juur	0		S	sg g
minna	mine	a		V	da
.	.			Z	
</s>					
<s>					
Otsus	otsus	0		S	sg n
.	.			Z	
</s>					
<s>					
Ehk	ehk	0		D	
kül	küll	0		D	
Kr	Kr	0		Y	sg n
.	.			Z	
</s>					
<s>					
Sepp	Sepp	0		H	sg n
ütles	ütle	s		V	s
tunnistusi	tunnistus	i		S	pl p
olevat	ole	vat		V	vat
et	et	0		J	
teised	teine	d		O	pl n
      	teine	d		P	pl n
poisid	poiss	d		S	pl n
selle	see	0		P	sg g
tüdruku	tüdruk	0		S	sg g
juures	juures	0		K	
ka	ka	0		D	
käinud	käi	nud		V	nud
aga	aga	0		J	
kohus	kohus	0		H	sg n
es	ei	s		V	neg s
võtta	võt	a		V	da
seda	see	da		P	sg p
kuulda	kuul	da		V	da
vaid	vaid	0		D	
and	and	0		S	sg n
otsust	otsus	t		S	sg p
et	et	0		J	
Kristjan	Kristjan	0		H	sg n
Sepp	Sepp	0		H	sg n
peab	pida	b		V	b
ega	ega	0		D	
aasta	aasta	0		S	sg g
Liisa	Liisa	0		H	sg n
Kärnerile	Kärner	le		H	sg all
8	8	0		N	?
Rbl	Rbl	0		Y	
.	.			Z	
</s>					
<s>					
apse	aps	e		S	pl p
toitmise	toitmine	0		S	sg g
raha	raha	0		S	sg p
maksma	maks	ma		V	ma
seeni	seen	i		S	pl p
kui	kui	0		D	
   	kui	0		J	
laps	laps	0		S	sg n
10	10	0		N	?
aastat	aasta	t		S	sg p
vanas	vana	s		A	sg in
saab	saa	b		V	b
.	.			Z	
</s>					
<s>					
See	see	0		P	sg n
otsus	otsus	0		S	sg n
sai	saa	i		V	s
kohtu	kohtu	0		H	sg n
käiatele	####				
kuulutud	kuulu	tud		V	tud
.	.			Z	
</s>					
