<s>					
Karl	Karl	0		H	sg n
Kenkman	Kenkman	0		H	sg n
lubas	luba	s		V	s
H.	H.	0		Y	sg n
Paursonile	Paurson	le		H	sg all
tare	tare	0		S	sg n
ehituse	ehitus	0		S	sg g
olgi	####				
64	64	0		N	?
puuda	puud	0		S	sg g
ära	ära	0		D	
massa	maks	0		S	sg g
ni	nii	0		D	
pea	pea	0		D	
kui	kui	0		D	
   	kui	0		J	
võimalik	võimalik	0		A	sg n
om	ole	0		V	b
  	ole	0		V	vad
.	.			Z	
</s>					
