<s>					
24.09.1882	24.09.1882	0		N	?
:	:			Z	
38	38	0		N	?
</s>					
<s>					
Päkohtumees	####				
M.	M.	0		Y	sg n
</s>					
<s>					
Metsik	metsik	0		A	sg n
Kohtumees	kohtu_mees	0		S	sg n
M.	M.	0		Y	sg n
Laurberg	Laurberg	0		H	sg n
H.	H.	0		Y	sg n
Paurson	Paurson	0		H	sg n
</s>					
<s>					
Vallavanemb	####				
K	K	0		Y	sg n
Paurson	Paurson	0		H	sg n
kaevas	kaeva	s		V	s
et	et	0		J	
Andres	Andres	0		H	sg n
Aur	Aur	0		H	sg n
ja	ja	0		J	
Johan	Johan	0		H	sg n
Jaanus	Jaanus	0		H	sg n
kes	kes	0		P	sg n
võõra	võõras	0		S	sg g
valla	valla	0		H	sg n
liikmed	liige	d		S	pl n
ja	ja	0		J	
siin	siin	0		D	
talusid	talu	sid		S	pl p
peavad	pida	vad		V	vad
ei	ei	0		V	neg
maksa	maks	0		V	o
oma	oma	0		P	sg g
valla	valla	0		H	sg n
maksusid	maks	sid		S	pl p
mitte	mitte	0		D	
ära	ära	0		D	
;	;			Z	
nimelt	nimelt	0		D	
on	ole	0		V	b
  	ole	0		V	vad
volimehed	voli_mees	d		S	pl n
1881/82	1881/82	0		N	?
pä	####				
raha	raha	0		S	sg g
rehnungis	rehnung	s		S	sg in
nemad	tema	d		P	pl n
valla	valla	0		H	sg n
maksude	maks	de		S	pl g
ala	ala	0		S	sg n
võtnud	võt	nud		V	nud
muud	muu	d		P	sg p
kui	kui	0		D	
   	kui	0		J	
kroonu	kroonu	0		S	sg n
pä	####				
raha	raha	0		S	sg n
maksavad	maks	vad		V	vad
oma	oma	0		P	sg g
valda	valda	0		H	sg n
,	,			Z	
ja	ja	0		J	
om	ole	0		V	b
  	ole	0		V	vad
neil	tema	l		P	pl ad
siia	siia	0		D	
maksa	maks	0		V	o
kumagil	####				
6	6	0		N	?
Rbl	Rbl	0		Y	
.	.			Z	
</s>					
<s>					
43	43	0		N	?
kop	kop	0		Y	?
.	.			Z	
</s>					
<s>					
ni	nii	0		D	
kui	kui	0		D	
   	kui	0		J	
pä	####				
raha	raha	0		S	sg g
rehnung	rehnung	0		S	sg n
näitab	näita	b		V	b
.	.			Z	
</s>					
<s>					
Andres	Andres	0		H	sg n
Aur	Aur	0		H	sg n
ja	ja	0		J	
Johan	Johan	0		H	sg n
Janus	Janus	s		H	sg n
kohtu	kohtu	0		H	sg n
ees	ees	0		K	
ütlesid	ütle	sid		V	sid
et	et	0		J	
nende	tema	de		P	pl g
käest	käest	0		K	
noutakse	####				
oma	oma	0		P	sg g
valda	valda	0		H	sg n
ka	ka	0		D	
täis	täis	0		A	
pä	####				
raha	raha	0		S	sg p
ja	ja	0		J	
mitte	mitte	0		D	
ainult	ainult	0		D	
kroonu	kroonu	0		S	sg n
pä	####				
raha	raha	0		S	sg n
,	,			Z	
seeperast	####				
ei	ei	0		V	neg
maksa	maks	0		V	o
nemad	tema	d		P	pl n
mitte	mitte	0		D	
.	.			Z	
</s>					
<s>					
Otsus	otsus	0		S	sg n
Et	et	0		J	
kogukonna	kogukond	0		S	sg g
säädus	####				
seda	see	da		P	sg p
ütleb	ütle	b		V	b
kus	kus	0		D	
keegi	keegi	0		P	sg n
valla	valla	0		H	sg n
vakku	vakk	u		S	pl p
maad	maa	d		S	sg p
peab	pida	b		V	b
,	,			Z	
senna	senna	0		S	sg n
peab	pida	b		V	b
tema	tema	0		P	sg g
ka	ka	0		D	
valla	valla	0		H	sg n
maksud	maks	d		S	pl n
maksma	maks	ma		V	ma
ja	ja	0		J	
volimehed	voli_mees	d		S	pl n
sel	see	l		P	sg ad
pohjusel	####				
nemad	tema	d		P	pl n
ka	ka	0		D	
maksma	maks	ma		V	ma
pannud	pane	nud		V	nud
ja	ja	0		J	
Keiserlik	Keiserlik	0		H	sg n
Kihelkonna	Kihelkonna	0		H	sg n
kohus	kohus	0		H	sg n
sel	see	l		P	sg ad
pä	####				
raha	raha	0		S	sg g
rehnung	rehnung	0		S	sg n
1881/82	1881/82	0		N	?
ka	ka	0		D	
on	ole	0		V	b
  	ole	0		V	vad
ära	ära	0		D	
kinnitanud	kinnita	nud		V	nud
kus	kus	0		D	
nende	tema	de		P	pl g
maks	maks	0		S	sg n
nime	nimi	0		S	sg p
pidi	pida	i		V	s
on	ole	0		V	b
  	ole	0		V	vad
üles	üles	0		D	
antud	and	tud		V	tud
,	,			Z	
moistis	mõist	is		V	s
kohus	kohus	0		H	sg n
et	et	0		J	
Andres	Andres	0		H	sg n
Aur	Aur	0		H	sg n
maksab	maks	b		V	b
6	6	0		N	?
R.	R.	0		Y	sg n
</s>					
<s>					
43	43	0		N	?
kop	kop	0		Y	?
.	.			Z	
</s>					
<s>					
ja	ja	0		J	
Johan	Johan	0		H	sg n
Jaanus	Jaanus	0		H	sg n
6	6	0		N	?
R	R	0		Y	sg n
43	43	0		N	?
Kop	####				
.	.			Z	
</s>					
<s>					
valla	valla	0		H	sg n
vanemale	vanem	le		S	sg all
ära	ära	0		D	
.	.			Z	
</s>					
<s>					
See	see	0		P	sg n
otsus	otsus	0		S	sg n
sai	saa	i		V	s
kohtu	kohtu	0		H	sg n
käiatele	####				
kuulutud	kuulu	tud		V	tud
ja	ja	0		J	
oppuse	õppus	0		S	sg g
lehed	leht	d		S	pl n
Aurile	Aurile	0		H	sg n
ja	ja	0		J	
Janussele	Janussele	0		H	sg n
välja	välja	0		D	
antu	antud	0		A	sg g
.	.			Z	
</s>					
