<s>					
Reino	Reino	0		H	sg n
Ivvask	Ivvask	0		H	sg n
saab	saa	b		V	b
Andres	Andres	0		H	sg n
Villo	Villo	0		H	sg n
käest	käsi	st		S	sg el
96	96	0		N	?
Rbl	Rbl	0		H	sg n
40	40	0		N	?
Kop	Kop	0		H	sg n
.	.			Z	
</s>					
<s>					
hõbbe	hõbe	0		S	sg n
lainus	####				
nink	ning	0		J	
peab	pida	b		V	b
se	see	0		P	sg n
rahha	raha	0		S	sg p
96	96	0		N	?
Rbl	Rbl	0		H	sg n
40	40	0		N	?
Cop	Cop	0		H	sg n
.	.			Z	
</s>					
<s>					
höbbe	####				
sel	see	l		P	sg ad
18.	18.	0		O	?
</s>					
<s>					
Februaril	####				
1878	1878	0		N	?
Andres	Andres	0		H	sg n
Villole	Villo	le		H	sg all
ärra	ära	0		D	
maksma	maks	ma		V	ma
,	,			Z	
sedda	see	da		P	sg p
tunnistasse	####				
tööes	####				
:	:			Z	
Pääkohtomees	####				
:	:			Z	
Jaak	Jaak	0		H	sg n
Urb	Urb	0		H	sg n
Kohtomees	####				
:	:			Z	
Johann	Johann	0		H	sg n
Eichvaldt	Eichvaldt	0		H	sg n
Kohtomees	####				
:	:			Z	
Mihkel	Mihkel	0		H	sg n
Eichelmann	Eichelmann	0		H	sg n
</s>					
