<s>					
Ette	ette	0		D	
tulli	tule	i		V	s
Jaan	Jaan	0		H	sg n
Tiks	Tiks	0		H	sg n
nink	ning	0		J	
kaibas	kaeba	s		V	s
et	et	0		J	
temma	tema	0		P	sg n
on	ole	0		V	b
  	ole	0		V	vad
omma	oma	0		P	sg g
tüttar	####				
(	(			Z	
Ann	Ann	0		H	sg n
)	)			Z	
andno	and	no		V	nud
Kaarli	Kaarli	0		H	sg n
Köivole	####				
karjoses	####				
nink	ning	0		J	
ollevad	ole	vad		V	vat
Kaarli	Kaarli	0		H	sg n
Köiv	Köiv	0		H	sg n
temma	tema	0		P	sg n
tüttard	####				
nüid	####				
pesno	peks	no		V	nud
,	,			Z	
nink	ning	0		J	
omma	oma	0		P	sg g
mant	mant	0		K	
ärra	ära	0		D	
aijano	aja	no		V	nud
.	.			Z	
</s>					
<s>					
Pääle	####				
selle	see	0		P	sg g
sai	saa	i		V	s
temma	tema	0		P	sg n
tütre	tütar	0		S	sg g
Anne	Anne	0		H	sg n
käest	käsi	st		S	sg el
küsito	####				
kuddas	####				
vissi	vissi	0		D	
Karli	Karl	0		H	sg g
Köiv	Köiv	0		H	sg n
tedda	tema	da		P	sg p
olli	ole	i		V	s
peksnud	peks	nud		V	nud
selle	see	0		P	sg g
pääle	peale	0		K	
kostis	kost	is		V	s
temma	tema	0		P	sg n
et	et	0		J	
temma	tema	0		P	sg n
on	ole	0		V	b
  	ole	0		V	vad
üks	üks	0		N	sg n
   	üks	0		P	sg n
eespäiv	####				
öddango	####				
laua	laud	0		S	sg g
man	man	0		K	
raamatut	raamat	t		S	sg p
luggenud	luge	nud		V	nud
nink	ning	0		J	
ollevad	ole	vad		V	vat
ennast	ise	t		P	sg p
nattoke	####				
laua	laud	0		S	sg g
külge	külge	0		K	
nöatanno	####				
sis	siis	0		J	
ollevad	ole	vad		V	vat
Karli	Karl	0		H	sg g
tälle	tema	lle		P	sg all
kakskord	kaks_kord	0		S	sg n
russikoka	####				
lööno	####				
nink	ning	0		J	
tedda	tema	da		P	sg p
ärra	ära	0		D	
aijanud	####				
.	.			Z	
</s>					
<s>					
Sai	saa	i		V	s
Kaarli	Kaarli	0		H	sg n
Köiv	Köiv	0		H	sg n
ette	ette	0		D	
kutsoto	kutsu	to		V	tud
temma	tema	0		P	sg n
ütles	ütle	s		V	s
et	et	0		J	
temma	tema	0		P	sg n
on	ole	0		V	b
  	ole	0		V	vad
laua	laud	0		S	sg g
pääl	peal	0		K	
lamba	lammas	0		S	sg g
nahko	####				
kaapino	####				
nink	ning	0		J	
Ann	Ann	0		H	sg n
Tiks	Tiks	0		H	sg n
olno	ole	no		V	nud
laua	laud	0		S	sg g
taggan	taga	n		V	n
ja	ja	0		J	
ligotano	####				
ühte	üks	0		N	adt
    	üks	0		P	adt
luggo	####				
lauda	laud	0		S	adt
sis	siis	0		J	
ollevad	ole	vad		V	vat
temma	tema	0		P	sg n
kül	küll	0		D	
tedda	tema	da		P	sg p
läua	####				
takkast	####				
kätpitti	####				
välla	välja	0		D	
tömmanud	####				
agga	aga	0		J	
lööno	####				
temma	tema	0		P	sg n
tedda	tema	da		P	sg p
mitte	mitte	0		D	
ei	ei	0		V	neg
ollevad	ole	vad		V	vat
nink	ning	0		J	
ei	ei	0		V	neg
ollevad	ole	vad		V	vat
ka	ka	0		D	
tedda	tema	da		P	sg p
mitte	mitte	0		D	
ärra	ära	0		D	
aijanud	####				
vait	vait	0		D	
temma	tema	0		P	sg n
ollevad	ole	vad		V	vat
essi	ise	0		P	sg n
omma	oma	0		P	sg g
vöimo	####				
ärra	ära	0		D	
länno	mine	no		V	nud
.	.			Z	
</s>					
<s>					
Selle	see	0		P	sg g
pääle	peale	0		K	
sai	saa	i		V	s
kohto	kohus	0		S	sg ill
poolest	pool	st		S	sg el
Karli	Karl	0		H	sg g
Köivo	Köiv	0		H	sg g
käest	käsi	st		S	sg el
küssito	####				
kas	kas	0		D	
temma	tema	0		P	sg n
tahhab	####				
Anne	Anne	0		H	sg n
Tiks	Tiks	0		H	sg n
omma	oma	0		P	sg g
juurde	juurde	0		K	
taggasi	tagasi	0		D	
vötta	####				
vai	vai	0		S	sg n
mitte	mitte	0		D	
,	,			Z	
Kaarli	Kaarli	0		H	sg n
Köiv	Köiv	0		H	sg n
kostis	kost	is		V	s
selle	see	0		P	sg g
pääle	peale	0		K	
et	et	0		J	
temma	tema	0		P	sg n
kül	küll	0		D	
mitte	mitte	0		D	
tedda	tema	da		P	sg p
omma	oma	0		P	sg g
juure	juur	0		S	sg g
ei	ei	0		V	neg
tahha	####				
taggasi	tagasi	0		D	
vötta	####				
.	.			Z	
</s>					
<s>					
Nisammote	####				
sai	saa	i		V	s
ka	ka	0		D	
Jaan	Jaan	0		H	sg n
Tiks	Tiks	0		H	sg n
käest	käsi	st		S	sg el
küssito	####				
kas	kas	0		D	
temma	tema	0		P	sg n
omma	oma	0		P	sg g
tüttar	####				
Ann	Ann	0		H	sg n
tahhab	####				
Kaarli	Kaarli	0		H	sg n
Köivo	Köiv	0		H	sg g
manno	manu	0		K	
taggasi	tagasi	0		D	
panda	panda	0		S	sg n
vai	vai	0		S	sg n
mitte	mitte	0		D	
selle	see	0		P	sg g
pääle	peale	0		K	
kostis	kost	is		V	s
Jaan	Jaan	0		H	sg n
et	et	0		J	
temma	tema	0		P	sg n
omma	oma	0		P	sg g
tüttar	####				
ennamb	enam	0		D	
mitte	mitte	0		D	
Kaarli	Kaarli	0		H	sg n
Köivo	Köiv	0		H	sg g
manno	manu	0		K	
taggasi	tagasi	0		D	
ei	ei	0		V	neg
panne	pann	e		S	pl p
.	.			Z	
</s>					
<s>					
Möistus	mõistus	0		S	sg n
.	.			Z	
</s>					
<s>					
Tüdroko	####				
Ann	Ann	0		H	sg n
Tiksi	Tiks	0		H	sg g
pesminne	####				
arvatas	arva	tas		V	takse
tühjas	tühi	s		A	sg in
sest	sest	0		J	
et	et	0		J	
tunnistust	tunnistus	t		S	sg p
ei	ei	0		V	neg
olle	ole	0		V	o
,	,			Z	
nink	ning	0		J	
et	et	0		J	
Karli	Karl	0		H	sg g
Köiv	Köiv	0		H	sg n
tüdrokut	####				
ei	ei	0		V	neg
tahha	####				
taggasi	tagasi	0		D	
vötta	####				
ja	ja	0		J	
Jaan	Jaan	0		H	sg n
Tiks	Tiks	0		H	sg n
ka	ka	0		D	
ennamb	enam	0		D	
taggasi	tagasi	0		D	
anda	and	a		V	da
ei	ei	0		V	neg
tahha	####				
massab	maks	b		V	b
Kaarli	Kaarli	0		H	sg n
Köiv	Köiv	0		H	sg n
Jaan	Jaan	0		H	sg n
Tiksile	Tiks	le		H	sg all
temma	tema	0		P	sg n
tütre	tütar	0		S	sg g
Annele	Anne	le		H	sg all
talve	tali	0		S	sg g
     	talv	0		S	sg g
moonas	moon	s		S	sg in
1	1	0		N	?
vak	vakk	0		S	sg n
rükki	rüga	i		S	pl p
ja	ja	0		J	
1	1	0		N	?
vakk	vakk	0		S	sg n
kesvi	kesv	i		S	pl p
.	.			Z	
</s>					
<s>					
Möistus	mõistus	0		S	sg n
sai	saa	i		V	s
sääduslikko	seaduslik	0		A	sg g
körra	kord	0		S	sg g
pääl	peal	0		K	
kulotedo	####				
ollid	####				
möllemad	möll_ema	d		S	pl n
seega	seega	0		D	
üsna	üsna	0		D	
rahho	rahul	0		D	
.	.			Z	
</s>					
