<s>					
Selleperrast	####				
et	et	0		J	
Peter	Peter	0		H	sg n
Rosenfeldt	Rosenfeldt	0		H	sg n
kohto	kohus	0		S	sg ill
istumisse	istumine	se		S	adt
aego	####				
mööda	mööda	0		D	
tarre	tare	0		S	adt
ülles	üles	0		D	
nink	ning	0		J	
alla	alla	0		D	
köndis	könt	s		S	sg in
,	,			Z	
–	-			Z	
läbbi	läbi	0		K	
Akna	aken	0		S	sg g
välla	välja	0		D	
vahtis	vahti	s		V	s
nink	ning	0		J	
sällaga	####				
kohto	kohus	0		S	sg ill
vasto	vastu	0		K	
könneles	####				
sai	saa	i		V	s
</s>					
<s>					
Möistetu	Möistetu	0		H	sg n
:	:			Z	
Makasab	Makasab	0		H	sg n
Peter	Peter	0		H	sg n
Rosenfeldt	Rosenfeldt	0		H	sg n
3	3	0		N	?
Rubla	rubla	0		S	sg g
vaeste	vaene	te		S	pl g
laadiko	####				
trahvi	trahv	0		S	sg g
.	.			Z	
</s>					
<s>					
Möistus	mõistus	0		S	sg n
sai	saa	i		V	s
säädust	####				
mööda	mööda	0		D	
kuulotedus	####				
.	.			Z	
</s>					
