<s>					
Ette	ette	0		D	
tulli	tule	i		V	s
Pukkast	Pukkast	st		H	sg n
Hans	Hans	0		H	sg n
Buschmann	Buschmann	0		H	sg n
kaibass	kai_bass	0		S	sg n
et	et	0		J	
üks	üks	0		N	sg n
   	üks	0		P	sg n
neist	see	st		P	pl el
poistest	poiss	test		S	pl el
kas	kas	0		D	
Andres	Andres	0		H	sg n
Kregel	Kregel	0		H	sg n
Akrest	Akrest	0		H	sg n
vai	vai	0		S	sg n
Jaan	Jaan	0		H	sg n
Veide	Veide	0		H	sg n
nink	ning	0		J	
Mangus	Mangus	s		H	sg n
Sulle	sina	lle		P	sg all
Valgutast	Valgotast	t		H	sg p
ollevad	ole	vad		V	vat
temma	tema	0		P	sg n
poija	####				
pää	####				
kiviga	kivi	ga		S	sg kom
Veikese	Veikese	0		H	sg n
Röngo	Röngo	0		H	sg n
venne	vene	0		G	
kooli	kool	0		S	sg g
man	man	0		K	
lahki	####				
löno	####				
.	.			Z	
</s>					
<s>					
Sai	saa	i		V	s
Andres	Andres	0		H	sg n
Kregel	Kregel	0		H	sg n
Akrest	Akrest	0		H	sg n
venne	vene	0		G	
usko	usk	0		S	sg p
ette	ette	0		D	
kutsoto	kutsu	to		V	tud
temma	tema	0		P	sg n
ütles	ütle	s		V	s
et	et	0		J	
temma	tema	0		P	sg n
on	ole	0		V	b
  	ole	0		V	vad
nänno	####				
kui	kui	0		D	
   	kui	0		J	
poisikenne	####				
on	ole	0		V	b
  	ole	0		V	vad
mahha	maha	0		D	
kukkuno	####				
,	,			Z	
sis	siis	0		J	
on	ole	0		V	b
  	ole	0		V	vad
temma	tema	0		P	sg n
Mangus	Mangus	s		H	sg n
Sulle	sina	lle		P	sg all
käest	käsi	st		S	sg el
küsino	####				
:	:			Z	
""""	""""			Z	
mes	mis	0		P	sg n
sa	sina	0		P	sg n
nüüd	nüüd	0		D	
teid	sina	d		P	pl p
""""	""""			Z	
selle	see	0		P	sg g
pääle	peale	0		K	
ollevad	ole	vad		V	vat
Mangus	Mangus	s		H	sg n
üttelno	####				
""""	""""			Z	
olle	ole	0		V	o
vait	vait	0		D	
""""	""""			Z	
muust	muu	st		P	sg el
temma	tema	0		P	sg n
midagist	####				
ei	ei	0		V	neg
teedvet	tead	vet		V	vat
.	.			Z	
</s>					
<s>					
Selle	see	0		P	sg g
pääle	peale	0		K	
sai	saa	i		V	s
Jaan	Jaan	0		H	sg n
Veide	Veide	0		H	sg n
Valgotast	Valgotast	st		H	sg n
venne	vene	0		G	
usko	usk	0		S	sg p
ette	ette	0		D	
kutsoto	kutsu	to		V	tud
temma	tema	0		P	sg n
ütles	ütle	s		V	s
et	et	0		J	
temma	tema	0		P	sg n
sest	sest	0		J	
kivviga	####				
visgamisest	####				
midagi	miski	dagi		P	sg p
pikkemalt	pikk_ema	lt		S	sg abl
ei	ei	0		V	neg
tea	tead	0		V	o
kui	kui	0		D	
   	kui	0		J	
ennegi	ennegi	0		D	
et	et	0		J	
Andres	Andres	0		H	sg n
Kregel	Kregel	0		H	sg n
om	ole	0		V	b
temma	tema	0		P	sg n
manno	manu	0		K	
tulno	tule	no		V	nud
ja	ja	0		J	
üttelno	####				
ärra	ära	0		D	
sa	sina	0		P	sg n
ütle	ütle	0		V	o
sest	sest	0		J	
Mangus	Mangus	s		H	sg n
Sulle	sina	lle		P	sg all
on	ole	0		V	b
  	ole	0		V	vad
kivviga	####				
ühhe	üks	0		N	sg g
veikese	####				
poisile	poiss	le		S	sg all
kivviga	####				
pähha	####				
lööno	####				
.	.			Z	
</s>					
<s>					
Sai	saa	i		V	s
Mangus	Mangus	s		H	sg n
Sulle	sina	lle		P	sg all
Valgotast	Valgotast	st		H	sg n
venne	vene	0		G	
usko	usk	0		S	sg p
ette	ette	0		D	
kutsoto	kutsu	to		V	tud
temma	tema	0		P	sg n
ütles	ütle	s		V	s
er	####				
keik	kõik	0		P	pl n
kolm	kolm	0		N	sg n
ollevad	ole	vad		V	vat
kivviga	####				
vissanud	####				
nink	ning	0		J	
temma	tema	0		P	sg n
mitte	mitte	0		D	
üksinda	üksinda	0		D	
.	.			Z	
</s>					
<s>					
Selle	see	0		P	sg g
pääle	peale	0		K	
leppisit	####				
Hans	Hans	0		H	sg n
Buschmann	Buschmann	0		H	sg n
Pukkast	Pukkast	st		H	sg n
nink	ning	0		J	
Mangus	Mangus	s		H	sg n
Sulle	sina	lle		P	sg all
möllema	möll_ema	0		S	sg g
all	all	0		K	
seisvad	seisev	d		A	pl n
moodu	####				
:	:			Z	
maksab	maks	b		V	b
Mangus	Mangus	s		H	sg n
Sulle	sina	lle		P	sg all
Hans	Hans	0		H	sg n
Buschmannile	Buschmann	le		H	sg all
82.	82.	0		O	?
</s>					
<s>					
Rbl	Rbl	0		H	sg n
.	.			Z	
</s>					
<s>					
(	(			Z	
kaheksakümmend	kaheksa_kümmend	0		N	sg n
kaks	kaks	0		N	sg n
rubla	rubla	0		S	sg p
)	)			Z	
ja	ja	0		J	
maksab	maks	b		V	b
nimmelt	nimelt	0		D	
vastses	vastne	s		A	sg in
aastas	aasta	s		S	sg in
1877	1877	0		N	?
,	,			Z	
se	see	0		P	sg n
om	ole	0		V	b
sis	siis	0		J	
en	####				
tulevas	tulev	s		A	sg in
vastses	vastne	s		S	sg in
aastas	aasta	s		S	sg in
30	30	0		N	?
Rbl	Rbl	0		H	sg n
.	.			Z	
</s>					
<s>					
(	(			Z	
kolm	kolm	0		N	sg n
kümmend	####				
rubla	rubla	0		S	sg p
)	)			Z	
Hans	Hans	0		H	sg n
Buschmannile	Buschmann	le		H	sg all
ärra	ära	0		D	
,	,			Z	
nink	ning	0		J	
se	see	0		P	sg n
töine	töine	0		A	sg n
pool	pool	0		S	sg n
52	52	0		N	?
(	(			Z	
viskümmend	####				
kaks	kaks	0		N	sg n
)	)			Z	
rubla	rubla	0		S	sg g
ses	see	s		P	sg in
töises	töine	s		A	sg in
vastses	vastne	s		S	sg in
aastass	aas_tass	0		S	sg n
se	see	0		P	sg n
om	ole	0		V	b
vastseaastas	vastse_aasta	s		S	sg in
1878	1878	0		N	?
ärra	ära	0		D	
.	.			Z	
</s>					
<s>					
Sedda	see	da		P	sg p
tunnistasse	####				
essi	ise	0		P	sg n
töes	####				
omma	oma	0		P	sg g
käe	käsi	0		S	sg g
allapanekiga	alla_panek_iga	0		S	sg n
.	.			Z	
</s>					
<s>					
Mangus	Mangus	s		H	sg n
Sulle	sina	lle		P	sg all
Hans	Hans	0		H	sg n
Buschmann	Buschmann	0		H	sg n
</s>					
