<s>					
Selle	see	0		P	sg g
perrast	pärast	0		K	
et	et	0		J	
Jaan	Jaan	0		H	sg n
Karro	Karro	0		H	sg n
selle	see	0		P	sg g
koggokonna	####				
kohto	kohus	0		S	sg ill
ees	ees	0		D	
mitto	####				
körda	####				
Jaan	Jaan	0		H	sg n
Reidolfi	Reidolf	0		H	sg g
vasto	vastu	0		K	
ütles	ütle	s		V	s
:	:			Z	
et	et	0		J	
Jaan	Jaan	0		H	sg n
Reidolf	Reidolf	0		H	sg n
ei	ei	0		V	neg
jöudvat	####				
temmale	tema	le		P	sg all
mitte	mitte	0		D	
palka	palk	0		S	sg p
maksa	maks	0		V	o
nink	ning	0		J	
et	et	0		J	
Jaan	Jaan	0		H	sg n
Reidolf	Reidolf	0		H	sg n
selle	see	0		P	sg g
ülle	ülle	0		D	
kaebab	kaeba	b		V	b
,	,			Z	
et	et	0		J	
Jaan	Jaan	0		H	sg n
Karro	Karro	0		H	sg n
on	ole	0		V	b
  	ole	0		V	vad
tedda	tema	da		P	sg p
sellega	see	ga		P	sg kom
trotsino	####				
,	,			Z	
avvalikult	####				
kohto	kohus	0		S	sg ill
ees	ees	0		K	
sai	saa	i		V	s
:	:			Z	
</s>					
<s>					
Möistetu	Möistetu	0		H	sg n
</s>					
<s>					
Saab	saa	b		V	b
Jaan	Jaan	0		H	sg n
Karro	Karro	0		H	sg n
15	15	0		N	?
vitsalöögiga	vitsa_löök	ga		S	sg kom
trahvitus	trahvi=tu	s		S	sg in
.	.			Z	
</s>					
<s>					
Möistus	mõistus	0		S	sg n
sai	saa	i		V	s
sääduslikko	seaduslik	0		A	sg g
körra	kord	0		S	sg g
pääl	peal	0		K	
kuulotedus	####				
,	,			Z	
Jaan	Jaan	0		H	sg n
Karro	Karro	0		H	sg n
ei	ei	0		V	neg
olnud	ole	nud		V	nud
sega	sega	0		V	o
mitte	mitte	0		D	
rahhul	####				
pallus	####				
protokolli	protokoll	0		S	sg g
Keiserlikko	Keiserlikko	0		H	sg n
kihhelkonna	kihelkond	0		S	sg g
kohto	kohus	0		S	sg ill
minna	mine	a		V	da
,	,			Z	
mes	mis	0		P	sg n
temmale	tema	le		P	sg all
ka	ka	0		D	
lubbato	luba	to		V	tud
sai	saa	i		V	s
,	,			Z	
–	-			Z	
Appellationi	####				
kirri	####				
kätte	käsi	tte		S	adt
anto	and	to		V	tud
nink	ning	0		J	
§	§	0		Y	?
773	773	0		N	?
ja	ja	0		J	
774	774	0		N	?
ärra	ära	0		D	
selletedu	####				
.	.			Z	
</s>					
