<s>					
Ette	ette	0		D	
tulli	tule	i		V	s
Jaan	Jaan	0		H	sg n
Reidolf	Reidolf	0		H	sg n
nink	ning	0		J	
kaebas	kaeba	s		V	s
et	et	0		J	
temma	tema	0		P	sg n
ollevad	ole	vad		V	vat
Jaan	Jaan	0		H	sg n
Karro	Karro	0		H	sg n
ommale	####				
aasta	aasta	0		S	sg g
pääle	peale	0		K	
sullases	####				
kaubelno	####				
,	,			Z	
agga	aga	0		J	
pääle	peale	0		K	
selle	see	0		P	sg g
ollevad	ole	vad		V	vat
Jaan	Jaan	0		H	sg n
Karro	Karro	0		H	sg n
kui	kui	0		D	
   	kui	0		J	
temma	tema	0		P	sg n
,	,			Z	
temma	tema	0		P	sg n
juure	juur	0		S	sg g
teenistuisi	####				
tullo	####				
nink	ning	0		J	
3	3	0		N	?
kuud	kuu	d		S	sg p
12	12	0		N	?
päiva	päev	0		S	sg g
ärra	ära	0		D	
teenino	####				
ollo	ole	lo		V	nud
,	,			Z	
aasta	aasta	0		S	sg n
pooleli	pooleli	0		D	
jätno	jät	no		V	nud
nink	ning	0		J	
essi	ise	0		P	sg n
omma	oma	0		P	sg g
tahtmist	tahtmine	t		S	sg p
perra	perra	0		K	
teenistusest	teenistus	st		S	sg el
ärra	ära	0		D	
länno	mine	no		V	nud
nink	ning	0		J	
növvab	####				
nüid	####				
selle	see	0		P	sg g
eest	eest	0		K	
Jaan	Jaan	0		H	sg n
Karro	Karro	0		H	sg n
käest	käsi	st		S	sg el
se	see	0		P	sg n
temmale	tema	le		P	sg all
tellito	####				
aasta	aasta	0		S	sg g
palk	palk	0		S	sg n
60	60	0		N	?
Rubla	rubla	0		S	sg g
rahha	raha	0		S	sg p
1/2	1/2	0		N	?
vakkamaad	vaka_maa	d		S	sg p
linna	linn	0		S	adt
,	,			Z	
1	1	0		N	?
paar	paar	0		N	sg n
saapit	####				
ja	ja	0		J	
3	3	0		N	?
paari	paar	0		N	sg p
kindit	####				
taggasi	tagasi	0		D	
.	.			Z	
</s>					
<s>					
Ette	ette	0		D	
sai	saa	i		V	s
kutsotud	####				
Jaan	Jaan	0		H	sg n
Karro	Karro	0		H	sg n
se	see	0		P	sg n
ütles	ütle	s		V	s
küsimisse	küsimine	se		S	adt
pääle	peale	0		K	
välla	välja	0		D	
,	,			Z	
et	et	0		J	
temma	tema	0		P	sg n
ei	ei	0		V	neg
ollevad	ole	vad		V	vat
mitte	mitte	0		D	
Jaan	Jaan	0		H	sg n
Reidolfiga	Reidolf	ga		H	sg kom
aasta	aasta	0		S	sg g
pääle	peale	0		K	
kaup	kaup	0		S	sg n
tenno	tege	nno		V	nud
,	,			Z	
vait	vait	0		D	
paiviti	####				
ennast	ise	t		P	sg p
tööle	töö	le		S	sg all
tinginud	tingi	nud		V	nud
.	.			Z	
</s>					
<s>					
Selle	see	0		P	sg g
pääle	peale	0		K	
et	et	0		J	
Jaan	Jaan	0		H	sg n
Karro	Karro	0		H	sg n
salgas	salga	s		V	s
tunnistass	####				
Pääkohtomees	####				
Märt	Märt	0		H	sg n
Luik	Luik	0		H	sg n
lutteri	####				
usko	usk	0		S	sg p
:	:			Z	
et	et	0		J	
Jaan	Jaan	0		H	sg n
Karro	Karro	0		H	sg n
ollevad	ole	vad		V	vat
temmale	tema	le		P	sg all
üks	üks	0		N	sg n
   	üks	0		P	sg n
körd	kord	0		S	sg n
könnelno	####				
,	,			Z	
et	et	0		J	
ta	tema	0		P	sg n
ennast	ise	t		P	sg p
aasta	aasta	0		S	sg g
pääle	peale	0		K	
Jaan	Jaan	0		H	sg n
Reidolfi	Reidolf	0		H	sg g
juure	juur	0		S	sg g
on	ole	0		V	b
  	ole	0		V	vad
teenistuisi	####				
kaubelno	####				
.	.			Z	
</s>					
<s>					
Kohtomeess	####				
Andres	Andres	0		H	sg n
Must	Must	0		H	sg n
,	,			Z	
venne	vene	0		G	
usko	usk	0		S	sg p
,	,			Z	
tunnistas	tunnista	s		V	s
nindasamma	####				
kui	kui	0		D	
   	kui	0		J	
Paakohtomeess	Paakohtomeess	0		H	sg n
Märt	Märt	0		H	sg n
Luik	Luik	0		H	sg n
.	.			Z	
</s>					
<s>					
Möistus	mõistus	0		S	sg n
.	.			Z	
</s>					
<s>					
Maksab	maks	b		V	b
Jaan	Jaan	0		H	sg n
Karro	Karro	0		H	sg n
Jaan	Jaan	0		H	sg n
Reidolfile	Reidolf	le		H	sg all
8	8	0		N	?
päiva	päev	0		S	sg g
aija	####				
sees	sees	0		D	
59	59	0		N	?
Rubla	rubla	0		S	sg p
56.	56.	0		O	?
</s>					
<s>					
Cop	Cop	0		H	sg n
.	.			Z	
</s>					
<s>					
selle	see	0		P	sg g
aija	####				
eest	eest	0		K	
mes	mis	0		P	sg n
temma	tema	0		P	sg n
enna	####				
aastat	aasta	t		S	sg p
Jaan	Jaan	0		H	sg n
Reidolfi	Reidolf	0		H	sg g
juurest	juurest	0		K	
teenistussest	####				
ärra	ära	0		D	
läks	mine	s		V	s
nink	ning	0		J	
se	see	0		P	sg n
23	23	0		N	?
Rubla	rubla	0		S	sg g
34	34	0		N	?
Cop	Cop	0		H	sg n
.	.			Z	
</s>					
<s>					
mes	mis	0		P	sg n
temma	tema	0		P	sg n
selle	see	0		P	sg g
3	3	0		N	?
kuu	kuu	0		S	sg g
12	12	0		N	?
päiva	päev	0		S	sg g
eest	eest	0		K	
,	,			Z	
mes	mis	0		P	sg n
temma	tema	0		P	sg n
olles	ole	es		V	des
piddano	pida	no		V	nud
Jaan	Jaan	0		H	sg n
Reidolfi	Reidolf	0		H	sg g
käest	käsi	st		S	sg el
välla	välja	0		D	
masseto	####				
saama	saa	ma		V	ma
jääb	jää	b		V	b
Jaan	Jaan	0		H	sg n
Reidolfile	Reidolf	le		H	sg all
taggasi	tagasi	0		D	
selle	see	0		P	sg g
eest	eest	0		K	
mes	mis	0		P	sg n
temma	tema	0		P	sg n
selle	see	0		P	sg g
juures	juures	0		K	
on	ole	0		V	b
  	ole	0		V	vad
kahjo	####				
saano	saa	no		V	nud
et	et	0		J	
Jaan	Jaan	0		H	sg n
Karro	Karro	0		H	sg n
enne	enne	0		K	
aastat	aasta	t		S	sg p
temma	tema	0		P	sg n
juurest	juurest	0		K	
teenistussest	####				
on	ole	0		V	b
  	ole	0		V	vad
ärra	ära	0		D	
länno	mine	no		V	nud
.	.			Z	
</s>					
<s>					
Möistus	mõistus	0		S	sg n
sai	saa	i		V	s
sääduslikko	seaduslik	0		A	sg g
körra	kord	0		S	sg g
pääl	peal	0		K	
kuulotedus	####				
Jaan	Jaan	0		H	sg n
Karro	Karro	0		H	sg n
ei	ei	0		V	neg
olnud	ole	nud		V	nud
sega	sega	0		V	o
mitte	mitte	0		D	
rahhul	####				
,	,			Z	
vait	vait	0		D	
pallus	####				
protokolli	protokoll	0		S	sg g
Keiserlikko	Keiserlikko	0		H	sg n
kihhelkonna	kihelkond	0		S	sg g
kohto	kohus	0		S	sg ill
minna	mine	a		V	da
mes	mis	0		P	sg n
temale	tema	le		P	sg all
ka	ka	0		D	
lubbato	luba	to		V	tud
sai	saa	i		V	s
,	,			Z	
–	-			Z	
Appelationi	####				
kirri	####				
kätte	käsi	tte		S	adt
anto	and	to		V	tud
nink	ning	0		J	
§	§	0		Y	?
773	773	0		N	?
ja	ja	0		J	
774	774	0		N	?
ärra	ära	0		D	
selletedu	####				
.	.			Z	
</s>					
