<s>					
Ette	ette	0		D	
tulli	tule	i		V	s
ennine	####				
Vörmüder	Vörmüder	0		H	sg n
Mihkel	Mihkel	0		H	sg n
Tamm	Tamm	0		H	sg n
nink	ning	0		J	
tunnistas	tunnista	s		V	s
et	et	0		J	
temma	tema	0		P	sg n
käes	käsi	s		S	sg in
22	22	0		N	?
rbl	rbl	0		Y	
valla	valla	0		H	sg n
rahhast	####				
ollev	ole	v		V	vat
,	,			Z	
mes	mis	0		P	sg n
temmale	tema	le		P	sg all
rehnungi	rehnung	0		S	sg g
tulep	tule	b		V	b
mano	####				
arvata	arva	ta		V	da
nink	ning	0		J	
Jaak	Jaak	0		H	sg n
Rosenfeldt	Rosenfeldt	0		H	sg n
rehnungist	rehnung	st		S	sg el
mahha	maha	0		D	
arvata	arva	ta		V	da
nink	ning	0		J	
lubbab	luba	b		V	b
se	see	0		P	sg n
rahha	raha	0		S	sg p
süggise	sügis	0		S	sg g
Septembre	####				
kuus	kuu	s		S	sg in
ärra	ära	0		D	
massa	maks	a		V	da
.	.			Z	
</s>					
<s>					
Pälle	####				
tolle	too	0		P	sg g
on	ole	0		V	b
  	ole	0		V	vad
Tammil	tamm	l		S	sg ad
veel	veel	0		D	
valla	valla	0		H	sg n
rahha	raha	0		S	sg p
massa	maks	a		V	da
pääle	peale	0		K	
päärahha	####				
völla	####				
:	:			Z	
3	3	0		N	?
rbl	rbl	0		Y	
97	97	0		N	?
kop	kop	0		Y	?
Ütte	üte	0		S	sg g
Summa	summa	0		S	sg n
25	25	0		N	?
rbl	rbl	0		Y	
97	97	0		N	?
kop	kop	0		Y	?
</s>					
<s>					
Mihkel	Mihkel	0		H	sg n
Tamm	Tamm	0		H	sg n
</s>					
