<s>					
Tuli	tule	i		V	s
ette	ette	0		D	
Tina	Tina	0		H	sg n
Pääsoke	Pääsoke	0		H	sg n
kaibas	kaeba	s		V	s
ommal	####				
Räma	Räma	0		H	sg n
Mats	Mats	0		H	sg n
Sulzi	Sulz	0		H	sg g
käest	käsi	st		S	sg el
saada	saa	da		V	da
ollevat	ole	vat		V	vat
omma	oma	0		P	sg g
aasta	aasta	0		S	sg g
palk	palk	0		S	sg n
Jürri	Jürri	0		H	sg n
päivast	päev	st		S	sg el
seni	seni	0		D	
kui	kui	0		D	
   	kui	0		J	
märdipäivani	####				
,	,			Z	
nink	ning	0		J	
pidi	pida	i		V	s
palka	palk	0		S	sg p
aastas	aasta	s		S	sg in
20	20	0		N	?
Rbl	Rbl	0		H	sg n
rahha	raha	0		S	sg p
1	1	0		N	?
pund	pund	0		S	sg n
linno	####				
nink	ning	0		J	
2	2	0		N	?
nakla	####				
villo	####				
saama	saa	ma		V	ma
.	.			Z	
</s>					
<s>					
Ette	ette	0		D	
tulli	tule	i		V	s
Mats	Mats	0		H	sg n
Sulz	Sulz	0		H	sg n
ütles	ütle	s		V	s
et	et	0		J	
Tiina	Tiina	0		H	sg n
Pääsoke	Pääsoke	0		H	sg n
oma	oma	0		P	sg g
aastat	aasta	t		S	sg p
ei	ei	0		V	neg
olle	ole	0		V	o
täis	täis	0		A	
tenino	####				
,	,			Z	
nink	ning	0		J	
töiselt	töise=lt	0		D	
ollev	ole	v		V	vat
Tiina	Tiina	0		H	sg n
tedda	tema	da		P	sg p
teotano	####				
,	,			Z	
et	et	0		J	
sest	sest	0		J	
Tiina	Tiina	0		H	sg n
latsest	####				
temma	tema	0		P	sg n
essa	####				
ollev	ole	v		V	vat
,	,			Z	
nink	ning	0		J	
selle	see	0		P	sg g
perrast	pärast	0		K	
ka	ka	0		D	
temma	tema	0		P	sg n
Tiina	Tiina	0		H	sg n
palka	palk	0		S	sg p
kinni	kinni	0		D	
pidavet	####				
.	.			Z	
</s>					
<s>					
Siis	siis	0		D	
kaibas	kaeba	s		V	s
veel	veel	0		D	
Tiina	Tiina	0		H	sg n
et	et	0		J	
temast	tema	st		P	sg el
latsest	####				
Mats	Mats	0		H	sg n
Sulz	Sulz	0		H	sg n
essa	####				
ollevat	ole	vat		V	vat
,	,			Z	
nink	ning	0		J	
noud	####				
latse	lats	e		S	pl p
kasvatamisses	####				
Mats	Mats	0		H	sg n
Sulzi	Sulz	0		H	sg g
käest	käsi	st		S	sg el
100	100	0		N	?
Rubla	rubla	0		S	sg p
,	,			Z	
ja	ja	0		J	
ütles	ütle	s		V	s
et	et	0		J	
Mätz	Mätz	0		H	sg n
on	ole	0		V	b
  	ole	0		V	vad
tälle	tema	lle		P	sg all
enne	enne	0		D	
palve	palve	0		S	sg g
kolmapa	####				
1875	1875	0		N	?
too	too	0		P	sg n
päiv	päev	0		S	sg n
akrede	####				
perra	perra	0		K	
saadno	####				
,	,			Z	
ja	ja	0		J	
pääle	peale	0		K	
selle	see	0		P	sg g
olevat	ole	vat		V	vat
temma	tema	0		P	sg n
3	3	0		N	?
körd	kord	0		S	sg n
temma	tema	0		P	sg n
man	man	0		D	
käino	####				
.	.			Z	
</s>					
<s>					
Mats	Mats	0		H	sg n
ütles	ütle	s		V	s
et	et	0		J	
temma	tema	0		P	sg n
Tiinast	Tiina	st		H	sg el
puhhas	####				
on	ole	0		V	b
  	ole	0		V	vad
nink	ning	0		J	
ei	ei	0		V	neg
olle	ole	0		V	o
sugoge	####				
Tiina	Tiina	0		H	sg n
man	man	0		D	
käino	####				
.	.			Z	
</s>					
<s>					
Möistus	mõistus	0		S	sg n
sai	saa	i		V	s
tehto	####				
</s>					
<s>					
Selle	see	0		P	sg g
pool	pool	0		K	
aasta	aasta	0		S	sg g
tenistuse	####				
eest	eest	0		K	
mes	mis	0		P	sg n
Tiina	Tiina	0		H	sg n
on	ole	0		V	b
  	ole	0		V	vad
teda	tema	da		P	sg p
teenino	####				
massap	####				
Mats	Mats	0		H	sg n
Tiinale	Tiina	le		H	sg all
10	10	0		N	?
Rbl	Rbl	0		H	sg n
rahha	raha	0		S	sg p
nink	ning	0		J	
poole	pool	0		N	sg g
punna	pund	0		S	sg g
linade	lina	de		S	pl g
eest	eest	0		K	
1	1	0		N	?
Rbl	Rbl	0		H	sg n
,	,			Z	
nink	ning	0		J	
1	1	0		N	?
nakla	####				
villo	####				
eest	eest	0		K	
40	40	0		N	?
kop	kop	0		Y	?
.	.			Z	
</s>					
<s>					
Ja	ja	0		J	
selle	see	0		P	sg g
perrast	pärast	0		K	
et	et	0		J	
Tiina	Tiina	0		H	sg n
ütlep	ütle	p		V	b
et	et	0		J	
tema	tema	0		P	sg g
laps	laps	0		S	sg n
Matsi	Mats	0		H	sg g
jago	####				
on	ole	0		V	b
  	ole	0		V	vad
,	,			Z	
sis	siis	0		J	
peap	pida	b		V	b
Mats	Mats	0		H	sg n
Tiinale	Tiina	le		H	sg all
latse	lats	e		S	pl p
kasvatamisses	####				
50	50	0		N	?
rbl	rbl	0		Y	
masma	maks	ma		V	ma
10	10	0		N	?
aasta	aasta	0		S	sg g
sissen	####				
,	,			Z	
ja	ja	0		J	
massap	####				
egga	iga	0		P	sg n
aasta	aasta	0		S	sg n
5	5	0		N	?
Rbl	Rbl	0		H	sg n
sest	sest	0		J	
rahhast	####				
Tiinale	Tiina	le		H	sg all
ärrä	ära	0		D	
.	.			Z	
</s>					
<s>					
Möistu	####				
sai	saa	i		V	s
kulato	####				
Mats	Mats	0		H	sg n
Sulz	Sulz	0		H	sg n
ei	ei	0		V	neg
olno	ole	no		V	nud
selle	see	0		P	sg g
möistmisega	####				
rahho	rahul	0		D	
,	,			Z	
pallos	####				
protokolli	protokoll	0		S	sg g
kihelkona	####				
kohto	kohus	0		S	sg ill
,	,			Z	
mes	mis	0		P	sg n
tälle	tema	lle		P	sg all
ka	ka	0		D	
sai	saa	i		V	s
lubato	####				
nink	ning	0		J	
§§	§§	0		Y	?
72	72	0		N	?
,	,			Z	
73	73	0		N	?
ärrä	ära	0		D	
selleto	####				
nin	####				
õpetuse	õpetus	0		S	sg g
leht	leht	0		S	sg n
kätte	käsi	tte		S	adt
anto	and	to		V	tud
.	.			Z	
</s>					
