<s>					
Ette	ette	0		D	
tulli	tule	i		V	s
Jaan	Jaan	0		H	sg n
Rosenfelt	Rosenfelt	lt		H	sg n
kaibas	kaeba	s		V	s
et	et	0		J	
temma	tema	0		P	sg n
källimees	####				
Mihkel	Mihkel	0		H	sg n
Piir	Piir	0		H	sg n
ollevad	ole	vad		V	vat
temmale	tema	le		P	sg all
könnelno	####				
et	et	0		J	
temma	tema	0		P	sg n
velli	####				
Jaak	Jaak	0		H	sg n
Rosenfeldt	Rosenfeldt	0		H	sg n
ollevad	ole	vad		V	vat
lubbano	luba	no		V	nud
temma	tema	0		P	sg n
hobbesid	####				
ärra	ära	0		D	
varrastata	varrasta	ta		V	ta
laske	lask	ke		V	ge
,	,			Z	
nink	ning	0		J	
ollevat	ole	vat		V	vat
ka	ka	0		D	
lubbano	luba	no		V	nud
temma	tema	0		P	sg n
maija	####				
Ivvaskit	Ivvaskit	t		H	sg n
,	,			Z	
nink	ning	0		J	
temma	tema	0		P	sg n
omma	oma	0		P	sg g
maija	####				
Mutsit	Mutsit	0		H	sg n
tullega	####				
ärra	ära	0		D	
pallotada	####				
.	.			Z	
</s>					
<s>					
Mihkel	Mihkel	0		H	sg n
Piir	Piir	0		H	sg n
lut	lut	0		Y	?
.	.			Z	
</s>					
<s>					
usko	usk	0		S	sg p
suurest	suur	st		A	sg el
Röngost	Röngost	0		H	sg n
sai	saa	i		V	s
ette	ette	0		D	
kutsoto	kutsu	to		V	tud
temma	tema	0		P	sg n
ütles	ütle	s		V	s
et	et	0		J	
temma	tema	0		P	sg n
ei	ei	0		V	neg
olle	ole	0		V	o
middagi	miski	dagi		P	sg p
neist	see	st		P	pl el
asjost	####				
Jaak	Jaak	0		H	sg n
Rosenfeldi	Rosenfeldi	0		H	sg n
käest	käsi	st		S	sg el
kuulo	kuulo	0		S	sg g
nink	ning	0		J	
ei	ei	0		V	neg
ollevad	ole	vad		V	vat
ka	ka	0		D	
middagi	miski	dagi		P	sg p
Jaan	Jaan	0		H	sg n
Rosenfeldile	Rosenfeldt	le		H	sg all
niisugotist	####				
asjost	####				
könnelno	####				
.	.			Z	
</s>					
<s>					
Möistus	mõistus	0		S	sg n
.	.			Z	
</s>					
<s>					
Selle	see	0		P	sg g
perrast	pärast	0		K	
et	et	0		J	
avvalikko	####				
tunnistust	tunnistus	t		S	sg p
ei	ei	0		V	neg
olle	ole	0		V	o
saab	saa	b		V	b
se	see	0		P	sg n
kaibuss	kai_buss	0		S	sg n
tühja	tühi	0		A	sg g
möistitu	####				
.	.			Z	
</s>					
<s>					
Möistus	mõistus	0		S	sg n
sa	sina	0		P	sg n
sääduslikko	seaduslik	0		A	sg g
körra	kord	0		S	sg g
pääl	peal	0		K	
kohtokäijadele	####				
kuulotedus	####				
.	.			Z	
</s>					
