<s>					
Koggokonna	####				
kohto	kohus	0		S	sg ill
poolt	poolt	0		K	
sai	saa	i		V	s
kaivato	####				
et	et	0		J	
Juhan	Juhan	0		H	sg n
Kolberg	Kolberg	0		H	sg n
15	15	0		N	?
aastat	aasta	t		S	sg p
kohto	kohus	0		S	sg ill
meeste	mees	te		S	pl g
vilja	vili	0		S	sg g
palka	palk	0		S	sg p
kui	kui	0		D	
   	kui	0		J	
ka	ka	0		D	
öppetaja	õpetaja	0		S	sg g
vilja	vili	0		S	sg g
masse	mass	e		S	pl p
ei	ei	0		V	neg
olla	ole	a		V	da
masno	####				
,	,			Z	
nink	ning	0		J	
täl	tema	l		P	sg ad
nüüd	nüüd	0		D	
selle	see	0		P	sg g
15	15	0		N	?
aasta	aasta	0		S	sg g
eest	eest	0		K	
massa	maks	a		V	da
on	ole	0		V	b
  	ole	0		V	vad
utte	utt	0		S	adt
kokku	kokku	0		D	
:	:			Z	
1	1	0		N	?
Tsetv	####				
.	.			Z	
</s>					
<s>					
11	11	0		N	?
Garnist	Garnist	0		H	sg n
Rükki	Rükki	0		H	sg n
1	1	0		N	?
Tsetv	####				
.	.			Z	
</s>					
<s>					
11	11	0		N	?
Garnist	Garnist	0		H	sg n
Kesvi	kesv	i		S	pl p
nink	ning	0		J	
1	1	0		N	?
Tsetv	####				
.	.			Z	
</s>					
<s>					
11	11	0		N	?
Garnist	Garnist	0		H	sg n
Kaaro	####				
Ette	ette	0		D	
tulli	tule	i		V	s
Juhan	Juhan	0		H	sg n
Kolberg	Kolberg	0		H	sg n
nink	ning	0		J	
ütles	ütle	s		V	s
et	et	0		J	
se	see	0		P	sg n
temma	tema	0		P	sg n
kondradin	####				
ei	ei	0		V	neg
saisa	####				
et	et	0		J	
temma	tema	0		P	sg n
olles	ole	es		V	des
pidand	####				
sedda	see	da		P	sg p
masma	maks	ma		V	ma
,	,			Z	
nink	ning	0		J	
ei	ei	0		V	neg
lubba	luba	0		V	o
ka	ka	0		D	
mitte	mitte	0		D	
massa	maks	a		V	da
.	.			Z	
</s>					
<s>					
Möistus	mõistus	0		S	sg n
.	.			Z	
</s>					
<s>					
Sest	sest	0		J	
et	et	0		J	
keik	kõik	0		P	pl n
perremehhe	####				
Veikese	Veikese	0		H	sg n
Röngon	Röngon	0		H	sg n
astal	####				
öppetaja	õpetaja	0		S	sg g
nink	ning	0		J	
kohto	kohus	0		S	sg ill
meesete	####				
palgaga	palk	ga		S	sg kom
kokko	####				
masva	####				
talopält	####				
5	5	0		N	?
karnist	karn	st		S	sg el
egast	####				
viljast	vili	st		S	sg el
siss	siss	0		S	sg n
peap	pida	b		V	b
ka	ka	0		D	
Juhan	Juhan	0		H	sg n
Kolberg	Kolberg	0		H	sg n
see	see	0		P	sg n
masmine	maksmine	0		S	sg n
ärä	ära	0		D	
masma	maks	ma		V	ma
.	.			Z	
</s>					
<s>					
Möistus	mõistus	0		S	sg n
sai	saa	i		V	s
kuulotedo	####				
säädusikko	####				
köra	####				
pääl	peal	0		K	
Juhan	Juhan	0		H	sg n
Kolberg	Kolberg	0		H	sg n
ei	ei	0		V	neg
olno	ole	no		V	nud
seega	seega	0		D	
rahho	rahul	0		D	
pallos	####				
prottokolli	####				
keiserlikko	keiserlik	0		A	sg ill
kihhelkonna	kihelkond	0		S	sg g
kohto	kohus	0		S	sg ill
,	,			Z	
mes	mis	0		P	sg n
tälle	tema	lle		P	sg all
ka	ka	0		D	
lubbato	luba	to		V	tud
sai	saa	i		V	s
nink	ning	0		J	
§	§	0		Y	?
773	773	0		N	?
,	,			Z	
744	744	0		N	?
ärra	ära	0		D	
selletedo	####				
.	.			Z	
</s>					
