<s>					
Ette	ette	0		D	
tulli	tule	i		V	s
Reino	Reino	0		H	sg n
Simmon	Simmon	0		H	sg n
Ivask	Ivask	0		H	sg n
nink	ning	0		J	
tunnistas	tunnista	s		V	s
et	et	0		J	
temma	tema	0		P	sg n
käes	käsi	s		S	sg in
80	80	0		N	?
Rbl	Rbl	0		H	sg n
.	.			Z	
</s>					
<s>					
13	13	0		N	?
Cop	Cop	0		H	sg n
.	.			Z	
</s>					
<s>					
valla	valla	0		H	sg n
rahha	raha	0		S	sg p
on	ole	0		V	b
  	ole	0		V	vad
.	.			Z	
</s>					
<s>					
Simmon	Simmon	0		H	sg n
Ivask	Ivask	0		H	sg n
</s>					
<s>					
Ette	ette	0		D	
tulli	tuli	0		S	sg n
Tilga	Tilga	0		H	sg n
Karjamoisa	Karjamoisa	0		H	sg n
rentnik	rentnik	0		S	sg n
G.	G.	0		Y	sg n
Parrol	Parrol	0		H	sg n
nink	ning	0		J	
tunnistas	tunnista	s		V	s
et	et	0		J	
temma	tema	0		P	sg n
käes	käsi	s		S	sg in
5	5	0		N	?
Rbl	Rbl	0		H	sg n
.	.			Z	
</s>					
<s>					
valla	valla	0		H	sg n
rahha	raha	0		S	sg p
on	ole	0		V	b
  	ole	0		V	vad
.	.			Z	
</s>					
<s>					
G.	G.	0		Y	sg n
Parrol	Parrol	0		H	sg n
</s>					
<s>					
Ette	ette	0		D	
tulli	tuli	0		S	sg n
Hain	Hain	0		H	sg n
Rosenfeldt	Rosenfeldt	0		H	sg n
nink	ning	0		J	
tunnistas	tunnista	s		V	s
et	et	0		J	
temma	tema	0		P	sg n
käes	käsi	s		S	sg in
7	7	0		N	?
Rbl	Rbl	0		H	sg n
76	76	0		N	?
Cop	Cop	0		H	sg n
.	.			Z	
</s>					
<s>					
valla	valla	0		H	sg n
rahha	raha	0		S	sg p
on	ole	0		V	b
  	ole	0		V	vad
.	.			Z	
</s>					
<s>					
Han	Han	0		H	sg n
Rosenfeldt	Rosenfeldt	0		H	sg n
</s>					
