<s>					
Hans	Hans	0		H	sg n
Viljak	Viljak	0		H	sg n
kaebas	kaeba	s		V	s
,	,			Z	
et	et	0		J	
temal	tema	l		P	sg ad
Tõnis	Tõnis	0		H	sg n
Soontaki	Soontak	0		H	sg g
käest	käsi	st		S	sg el
3	3	0		N	?
rubla	rubla	0		S	sg p
hobuste	hobune	te		S	pl g
vahi	vaht	0		S	sg g
palka	palk	0		S	sg p
saada	saa	da		V	da
olla	ole	a		V	da
ja	ja	0		J	
palus	palu	s		V	s
et	et	0		J	
kohus	kohus	0		S	sg n
seda	see	da		P	sg p
välja	välja	0		D	
pärib	päri	b		V	b
.	.			Z	
</s>					
<s>					
Tõnis	Tõnis	0		H	sg n
Soontak	Soontak	0		H	sg n
tegi	tege	i		V	s
rehnungi	rehnung	0		S	sg g
,	,			Z	
et	et	0		J	
paljalt	paljalt	0		D	
2	2	0		N	?
rubla	rubla	0		S	sg p
saada	saa	da		V	da
oli	ole	i		V	s
,	,			Z	
mis	mis	0		P	sg n
vastu	vastu	0		D	
Hans	Hans	0		H	sg n
Viljak	Viljak	0		H	sg n
midagi	miski	dagi		P	sg p
ei	ei	0		V	neg
võinud	või	nud		V	nud
tõrelda	tõrele	da		V	da
vaid	vaid	0		D	
kahega	kaks	ga		N	sg kom
(	(			Z	
rubla	rubla	0		S	sg g
)	)			Z	
rahu	rahu	0		S	sg n
lubas	luba	s		V	s
jääda	jää	da		V	da
.	.			Z	
</s>					
<s>					
Mõistetud	mõist	tud		V	tud
:	:			Z	
Tõnis	Tõnis	0		H	sg n
Soontak	Soontak	0		H	sg n
peab	pida	b		V	b
ilma	ilma	0		D	
viivitamata	viivitamata	0		D	
see	see	0		P	sg n
2	2	0		N	?
rubla	rubla	0		S	sg p
Mihkli	Mihkli	0		H	sg n
kiriku	kiriku	0		H	sg n
valla	valla	0		H	sg n
kohtu	kohus	0		S	sg g
kätte	kätte	0		K	
välja	välja	0		D	
maksma	maks	ma		V	ma
ja	ja	0		J	
saab	saa	b		V	b
see	see	0		P	sg n
raha	raha	0		S	sg n
Hans	Hans	0		H	sg n
Viljaki	Viljak	0		H	sg g
pearaha	pea_raha	0		S	sg g
võlaks	võlg	ks		S	sg tr
ehk	ehk	0		D	
õigem	õigem	0		C	sg n
:	:			Z	
võla	võlg	0		S	sg g
kustutamiseks	kustutamine	ks		S	sg tr
.	.			Z	
</s>					
