<s>					
Tuli	tule	i		V	s
ette	ette	0		D	
Mihkli	Mihkli	0		H	sg n
kiriku	kiriku	0		H	sg n
vallavanem	valla_vanem	0		S	sg n
Ott	Ott	0		H	sg n
Riisan	Riisan	0		H	sg n
ja	ja	0		J	
rääkis	rääki	s		V	s
,	,			Z	
et	et	0		J	
tema	tema	0		P	sg n
on	ole	0		V	b
  	ole	0		V	vad
30.	30.	0		O	?
jaanuaril	jaanuar	l		S	sg ad
s.a	s.a	0		Y	?
Juri	Juri	0		H	sg n
Vunki	Vunk	0		H	sg g
heina	hein	0		S	sg g
kuhja	kuhi	0		S	sg p
oma	oma	0		P	sg g
kuhjaks	kuhi	ks		S	sg tr
pidamise	pidamine	0		S	sg g
pärast	pärast	0		K	
ära	ära	0		D	
toonud	too	nud		V	nud
ja	ja	0		J	
oma	oma	0		P	sg g
kuhja	kuhi	0		S	sg p
sinna	sinna	0		D	
jätnud	jät	nud		V	nud
sest	sest	0		J	
et	et	0		J	
soo	soo	0		S	sg g
   	sugu	0		S	sg g
lage	lagi	0		S	sg p
ja	ja	0		J	
nende	tema	de		P	pl g
heinamaad	heina_maa	d		S	pl n
Juri	Juri	0		H	sg n
Vunki	Vunk	0		H	sg g
heinamaaga	heina_maa	ga		S	sg kom
vastastikku	vastastikku	0		D	
on	ole	0		V	b
  	ole	0		V	vad
koos	koos	0		D	
olnud	ole	nud		V	nud
.	.			Z	
</s>					
<s>					
Kui	kui	0		D	
   	kui	0		J	
ta	tema	0		P	sg n
31.	31.	0		O	?
jaanuaril	jaanuar	l		S	sg ad
kuulnud	kuul	nud		V	nud
,	,			Z	
et	et	0		J	
Juri	Juri	0		H	sg n
Vunk	Vunk	0		H	sg n
oma	oma	0		P	sg g
kuhja	kuhi	0		S	sg p
kaebanud	kaeva	nud		V	nud
kadunud	kadu	nud		V	nud
olevad	olev	d		A	pl n
ja	ja	0		J	
et	et	0		J	
ka	ka	0		D	
üks	üks	0		N	sg n
   	üks	0		P	sg n
püssi	püss	0		S	sg g
tropp	tropp	0		S	sg n
seal	seal	0		D	
kuhja	kuhi	0		S	sg g
aseme	ase	0		S	sg g
ääres	ääres	0		K	
maas	maas	0		D	
olnud	ole	nud		V	nud
,	,			Z	
on	ole	0		V	b
  	ole	0		V	vad
ta	tema	0		P	sg n
1.	1.	0		O	?
veebruaril	veebruar	l		S	sg ad
vaatanud	####				
ja	ja	0		J	
kohe	kohe	0		D	
ära	ära	0		D	
tunnud	tund	nud		V	nud
,	,			Z	
et	et	0		J	
see	see	0		P	sg n
tema	tema	0		P	sg g
püssi	püss	0		S	sg g
tropp	tropp	0		S	sg n
on	ole	0		V	b
  	ole	0		V	vad
ja	ja	0		J	
on	ole	0		V	b
  	ole	0		V	vad
kohe	kohe	0		D	
siis	siis	0		D	
ka	ka	0		D	
Juri	Juri	0		H	sg n
Vunkile	Vunk	le		H	sg all
ütelnud	ütle	nud		V	nud
,	,			Z	
et	et	0		J	
tema	tema	0		P	sg g
püssiga	püss	ga		S	sg kom
seal	seal	0		D	
käinud	käi	nud		V	nud
ja	ja	0		J	
see	see	0		P	sg n
ka	ka	0		D	
tema	tema	0		P	sg g
püssi	püss	0		S	sg g
tropp	tropp	0		S	sg n
olla	ole	a		V	da
ja	ja	0		J	
arvas	arva	s		V	s
et	et	0		J	
siis	siis	0		D	
tema	tema	0		P	sg n
ka	ka	0		D	
need	see	d		P	pl n
heinad	hein	d		S	pl n
on	ole	0		V	b
  	ole	0		V	vad
ära	ära	0		D	
toonud	too	nud		V	nud
.	.			Z	
</s>					
<s>					
Nad	tema	d		P	pl n
olla	ole	a		V	da
kohe	kohe	0		D	
Juri	Juri	0		H	sg n
Vunkiga	Vunk	ga		H	sg kom
sinna	sinna	0		D	
vaatama	vaata	ma		V	ma
läinud	mine	nud		V	nud
ja	ja	0		J	
ta	tema	0		P	sg n
tunnud	tund	nud		V	nud
siis	siis	0		D	
selgeste	selgesti	0		D	
,	,			Z	
et	et	0		J	
see	see	0		P	sg n
kuhi	kuhi	0		S	sg n
tema	tema	0		P	sg g
toodud	too	dud		V	tud
on	ole	0		V	b
  	ole	0		V	vad
ja	ja	0		J	
seda	see	da		P	sg p
ütelnud	ütle	nud		V	nud
ta	tema	0		P	sg g
Juri	Juri	0		H	sg n
Vunkile	Vunk	le		H	sg all
,	,			Z	
mispeale	mis_peale	0		D	
nad	tema	d		P	pl n
selle	see	0		P	sg g
asja	asi	0		S	sg p
nii	nii	0		D	
vastamisi	vastamisi	0		D	
seadnud	sead	nud		V	nud
,	,			Z	
et	et	0		J	
Juri	Juri	0		H	sg n
Vunk	Vunk	0		H	sg n
jälle	jälle	0		D	
tema	tema	0		P	sg g
kuhja	kuhi	0		S	sg g
omale	oma	le		S	sg all
võtnud	võt	nud		V	nud
ja	ja	0		J	
nende	tema	de		P	pl g
asi	asi	0		S	sg n
rahul	rahul	0		D	
on	ole	0		V	b
  	ole	0		V	vad
olnud	ole	nud		V	nud
.	.			Z	
</s>					
<s>					
Nüüd	nüüd	0		D	
olla	ole	a		V	da
aga	aga	0		J	
Fritz	Fritz	0		H	sg n
Vastopäh	Vastopäh	0		H	sg n
ja	ja	0		J	
Ado	Ado	0		H	sg n
Ostmann	Ostmann	0		H	sg n
mitmes	mitu	s		P	sg in
kohas	koha	s		S	sg in
     	koht	s		S	sg in
ja	ja	0		J	
veel	veel	0		D	
Mihkli	Mihkli	0		H	sg n
koguduse	kogudus	0		S	sg g
õpetaja	õpetaja	0		S	sg g
härra	härra	0		S	sg n
Schmidti	Schmidti	0		H	sg n
ees	ees	0		K	
teda	tema	da		P	sg p
""""	""""			Z	
kahe	kaks	0		N	sg g
heina	hein	0		S	sg g
kuhja	kuhi	0		S	sg g
vargaks	varas	ks		S	sg tr
""""	""""			Z	
teutanud	####				
,	,			Z	
mispärast	mis_pärast	0		D	
tema	tema	0		P	sg n
niisugused	nii_sugune	d		P	pl n
vale	vale	0		A	sg n
teutajad	####				
kohtu	kohus	0		S	sg g
alla	alla	0		K	
annab	and	b		V	b
.	.			Z	
</s>					
<s>					
Juri	Juri	0		H	sg n
Vunk	Vunk	0		H	sg n
ütles	ütle	s		V	s
,	,			Z	
et	et	0		J	
see	see	0		P	sg n
kuhja	kuhi	0		S	sg g
toomine	toomine	0		S	sg n
ja	ja	0		J	
rääkimine	rääkimine	0		S	sg n
nendel	see	del		P	pl ad
Ott	Ott	0		H	sg n
Riisaniga	Riisan	ga		H	sg kom
nii	nii	0		D	
viisi	viis	0		S	sg p
olnud	ole	nud		V	nud
kuidas	kuidas	0		D	
Ott	Ott	0		H	sg n
Riisan	Riisan	0		H	sg n
üles	üles	0		D	
annud	and	nud		V	nud
ja	ja	0		J	
usub	usku	b		V	b
tema	tema	0		P	sg n
,	,			Z	
et	et	0		J	
Ott	Ott	0		H	sg n
Riisan	Riisan	0		H	sg n
seda	see	da		P	sg p
mitte	mitte	0		D	
varguse	vargus	0		S	sg g
pärast	pärast	0		K	
pole	ole	0		V	neg o
teinud	tege	nud		V	nud
,	,			Z	
mispärast	mis_pärast	0		D	
tema	tema	0		P	sg n
ka	ka	0		D	
nii	nii	0		D	
viisi	viis	0		S	sg p
kohe	kohe	0		D	
Ott	Ott	0		H	sg n
Riisani	Riisan	0		H	sg g
kuhja	kuhi	0		S	sg g
oma	oma	0		P	sg g
heinde	####				
vastu	vastu	0		D	
võtnud	võt	nud		V	nud
ja	ja	0		J	
seega	seega	0		D	
rahul	rahul	0		D	
olnud	ole	nud		V	nud
.	.			Z	
</s>					
<s>					
Ado	Ado	0		H	sg n
Ostmann	Ostmann	0		H	sg n
ütles	ütle	s		V	s
,	,			Z	
et	et	0		J	
tema	tema	0		P	sg n
küll	küll	0		D	
Mihkli	Mihkli	0		H	sg n
kiriku	kiriku	0		H	sg n
õpetajale	õpetaja	le		S	sg all
nendaviisi	####				
rääkinud	rääki	nud		V	nud
,	,			Z	
et	et	0		J	
vallavanem	valla_vanem	0		S	sg n
Ott	Ott	0		H	sg n
Riisan	Riisan	0		H	sg n
Juri	Juri	0		H	sg n
Vunkil	Vunk	l		H	sg ad
ühe	üks	0		N	sg g
   	üks	0		P	sg g
kuhja	kuhi	0		S	sg g
heino	hein	u		S	pl p
ära	ära	0		D	
varastanud	varasta	nud		V	nud
,	,			Z	
ja	ja	0		J	
olla	ole	a		V	da
veel	veel	0		D	
juure	juur	0		S	sg g
lisanud	lisa	nud		V	nud
,	,			Z	
et	et	0		J	
Juri	Juri	0		H	sg n
Vunkil	Vunk	l		H	sg ad
küll	küll	0		D	
2	2	0		N	?
kuhja	kuhi	0		S	sg p
heino	hein	u		S	pl p
olla	ole	a		V	da
varastud	####				
ja	ja	0		J	
on	ole	0		V	b
  	ole	0		V	vad
ta	tema	0		P	sg g
aga	aga	0		J	
ühe	üks	0		N	sg g
   	üks	0		P	sg g
kätte	käsi	tte		S	adt
saanud	saa	nud		V	nud
.	.			Z	
</s>					
<s>					
Fritz	Fritz	0		H	sg n
Vastopäh	Vastopäh	0		H	sg n
ütles	ütle	s		V	s
,	,			Z	
et	et	0		J	
tema	tema	0		P	sg n
küll	küll	0		D	
seda	see	da		P	sg p
Mihkli	Mihkli	0		H	sg n
kiriku	kiriku	0		H	sg n
õpetaja	õpetaja	0		S	sg g
härrale	härra	le		S	sg all
ütelnud	ütle	nud		V	nud
,	,			Z	
Ott	Ott	0		H	sg n
Riisanile	Riisan	le		H	sg all
süüks	süü	ks		S	sg tr
pannes	pane	es		V	des
,	,			Z	
et	et	0		J	
see	see	0		P	sg n
Juri	Juri	0		H	sg n
Vunki	Vunk	0		H	sg g
heina	hein	0		S	sg g
kuhja	kuhi	0		S	sg p
on	ole	0		V	b
  	ole	0		V	vad
ära	ära	0		D	
toonud	too	nud		V	nud
,	,			Z	
aga	aga	0		J	
seda	see	da		P	sg p
ta	tema	0		P	sg n
ei	ei	0		V	neg
määleta	####				
kas	kas	0		D	
ta	tema	0		P	sg n
vargust	vargus	t		S	sg p
ka	ka	0		D	
on	ole	0		V	b
  	ole	0		V	vad
ütelnud	ütle	nud		V	nud
.	.			Z	
</s>					
<s>					
Vallavanem	valla_vanem	0		S	sg n
Ott	Ott	0		H	sg n
Riisan	Riisan	0		H	sg n
ütles	ütle	s		V	s
,	,			Z	
et	et	0		J	
ta	tema	0		P	sg n
omale	oma	le		P	sg all
10	10	0		N	?
rubla	rubla	0		S	sg p
pärib	päri	b		V	b
oma	oma	0		P	sg g
auteutamise	####				
eest	eest	0		K	
.	.			Z	
</s>					
<s>					
Ado	Ado	0		H	sg n
Ostmann	Ostmann	0		H	sg n
ja	ja	0		J	
Fritz	Fritz	0		H	sg n
Vastopäh	Vastopäh	0		H	sg n
ütlesid	ütle	sid		V	sid
,	,			Z	
et	et	0		J	
nemad	tema	d		P	pl n
seda	see	da		P	sg p
raha	raha	0		S	sg p
ei	ei	0		V	neg
maksa	maks	0		V	o
.	.			Z	
</s>					
<s>					
See	see	0		P	sg n
varguse	vargus	0		S	sg g
jutt	jutt	0		S	sg n
olla	ole	a		V	da
aga	aga	0		J	
Juri	Juri	0		H	sg n
Vunkist	Vunk	t		H	sg p
ja	ja	0		J	
tema	tema	0		P	sg g
venna	vend	0		S	sg g
Mihkel	Mihkel	0		H	sg n
Vunkist	Vunk	t		H	sg p
välja	välja	0		D	
kasvanud	kasva	nud		V	nud
.	.			Z	
</s>					
<s>					
Juri	Juri	0		H	sg n
Vunk	Vunk	0		H	sg n
ütles	ütle	s		V	s
,	,			Z	
et	et	0		J	
ta	tema	0		P	sg n
rääkinud	rääki	nud		V	nud
on	ole	0		V	b
  	ole	0		V	vad
,	,			Z	
et	et	0		J	
niisugune	nii_sugune	0		P	sg n
kuhja	kuhi	0		S	sg g
toomine	toomine	0		S	sg n
nagu	nagu	0		D	
    	nagu	0		J	
meelel	meel	l		S	sg ad
näitab	näita	b		V	b
tehtud	tege	tud		V	tud
olevad	olev	d		A	pl n
.	.			Z	
</s>					
<s>					
Mõistetud	mõist	tud		V	tud
:	:			Z	
see	see	0		P	sg n
asi	asi	0		S	sg n
keiserliku	keiserlik	0		A	sg g
Pärnu	Pärnu	0		H	sg n
sillakohtule	sillakohtule	le		H	sg n
otsuse	otsus	0		S	sg g
tegemiseks	tegemine	ks		S	sg tr
ette	ette	0		D	
panna	pane	a		V	da
.	.			Z	
</s>					
