<s>					
Tuli	tule	i		V	s
ette	ette	0		D	
Fritz	Fritz	0		H	sg n
Pitkmann	Pitkmann	0		H	sg n
oma	oma	0		P	sg g
eestkostjatega	eest_kostja	tega		S	pl kom
Mihkel	Mihkel	0		H	sg n
Soontak	Soontak	0		H	sg n
ja	ja	0		J	
Mart	Mart	0		H	sg n
Siimon	Siimon	0		H	sg n
ja	ja	0		J	
palus	palu	s		V	s
valla	valla	0		H	sg n
kohut	kohus	t		S	sg p
,	,			Z	
et	et	0		J	
tema	tema	0		P	sg n
tahab	taht	b		V	b
omast	oma	st		P	sg el
käest	käsi	st		S	sg el
selle	see	0		P	sg g
oma	oma	0		P	sg g
surnud	sure	nud		V	nud
isa	isa	0		S	sg n
Kustas	Kustas	0		H	sg n
Pitkmanni	Pitkmanni	0		H	sg n
päranduse	pärandus	0		S	sg g
15	15	0		N	?
rubla	rubla	0		S	sg g
38	38	0		N	?
kop	kop	0		Y	?
(	(			Z	
omast	oma	st		P	sg el
käest	käsi	st		S	sg el
)	)			Z	
10	10	0		N	?
rubla	rubla	0		S	sg p
juurde	juurde	0		D	
maksa	maks	0		V	o
,	,			Z	
nenda	nõnda	0		D	
et	et	0		J	
tema	tema	0		P	sg g
kapital	kapital	0		S	sg n
25	25	0		N	?
rubla	rubla	0		S	sg g
38	38	0		N	?
kop	kop	0		Y	?
suur	suur	0		A	sg n
on	ole	0		V	b
  	ole	0		V	vad
.	.			Z	
</s>					
<s>					
Seda	see	da		P	sg p
sai	saa	i		V	s
temale	tema	le		P	sg all
lubatud	luba	tud		V	tud
ja	ja	0		J	
maksis	maks	is		V	s
Fritz	Fritz	0		H	sg n
Pitkmann	Pitkmann	0		H	sg n
see	see	0		P	sg n
10	10	0		N	?
rubla	rubla	0		S	sg p
välja	välja	0		D	
.	.			Z	
</s>					
<s>					
Selle	see	0		P	sg g
järel	järel	0		K	
jäeb	####				
siis	siis	0		D	
nüüd	nüüd	0		D	
eestkoste	eest_koste	0		S	sg g
alla	alla	0		K	
:	:			Z	
Fritz	Fritz	0		H	sg n
Pitkmanni	Pitkmanni	0		H	sg n
heaks	heaks	0		D	
25	25	0		N	?
rubla	rubla	0		S	sg g
38	38	0		N	?
kop	kop	0		Y	?
</s>					
<s>					
Kai	Kai	0		H	sg n
Pitkmanni	Pitkmanni	0		H	sg n
heaks	heaks	0		D	
15	15	0		N	?
rubla	rubla	0		S	sg g
38	38	0		N	?
kop	kop	0		Y	?
</s>					
<s>					
Summa	summa	0		S	sg n
40	40	0		N	?
rubla	rubla	0		S	sg g
76	76	0		N	?
kop	kop	0		Y	?
</s>					
