<s>					
Kui	kui	0		D	
   	kui	0		J	
Keiserliku	Keiserliku	0		H	sg n
Pärnu	Pärnu	0		H	sg n
sillakohtu	sillakohtu	0		H	sg n
kirja	kiri	0		S	adt
läbi	läbi	0		D	
27.	27.	0		O	?
veebruarist	veebruar	st		S	sg el
s.a	s.a	0		Y	?
nr	nr	0		Y	?
2290	2290	0		N	?
all	all	0		K	
üles	üles	0		D	
oli	ole	i		V	s
antud	and	tud		V	tud
et	et	0		J	
see	see	0		P	sg n
asi	asi	0		S	sg n
mis	mis	0		P	sg n
siit	siit	0		D	
kohtu	kohus	0		S	sg g
protokollis	protokoll	s		S	sg in
17.	17.	0		O	?
veebruarist	veebruar	st		S	sg el
s.a	s.a	0		Y	?
nr	nr	0		Y	?
5	5	0		N	?
all	all	0		K	
üles	üles	0		D	
võetus	võetud	s		A	sg in
seisab	seis	b		V	b
,	,			Z	
piab	####				
talurahva	talu_rahvas	0		S	sg g
seaduse	seadus	0		S	sg g
raamatu	raamat	0		S	sg g
§	§	0		Y	?
1095	1095	0		N	?
ff	####				
.	.			Z	
</s>					
<s>					
järel	järel	0		K	
valla	valla	0		H	sg n
kohtu	kohus	0		S	sg g
poolt	poolt	0		K	
seletud	seletu	d		V	d
saama	saa	ma		V	ma
siis	siis	0		D	
tuli	tule	i		V	s
kaebduse	kaebus	0		S	sg g
aluste	alune	te		S	pl g
      	alus	te		S	pl g
soovi	soov	0		S	sg g
peale	peale	0		K	
veel	veel	0		D	
Juri	Juri	0		H	sg n
Vunki	Vunk	0		H	sg g
isa	isa	0		S	sg n
Juri	Juri	0		H	sg n
Vunk	Vunk	0		H	sg n
ette	ette	0		D	
,	,			Z	
ja	ja	0		J	
ütles	ütle	s		V	s
et	et	0		J	
tema	tema	0		P	sg n
küll	küll	0		D	
Fritz	Fritz	0		H	sg n
Vastopähle	Vastopäh	le		H	sg all
raakinud	####				
,	,			Z	
et	et	0		J	
vallavanema	valla_vanem	0		S	sg g
Ott	Ott	0		H	sg n
Riisan	Riisan	0		H	sg n
nendel	see	del		P	pl ad
ühe	üks	0		N	sg g
   	üks	0		P	sg g
kuhja	kuhi	0		S	sg g
heino	hein	u		S	pl p
on	ole	0		V	b
  	ole	0		V	vad
ära	ära	0		D	
varastanud	varasta	nud		V	nud
ja	ja	0		J	
see	see	0		P	sg n
ta	tema	0		P	sg g
ütelus	####				
on	ole	0		V	b
  	ole	0		V	vad
selajal	####				
olnud	ole	nud		V	nud
kui	kui	0		D	
   	kui	0		J	
ta	tema	0		P	sg n
juba	juba	0		D	
teadnud	tead	nud		V	nud
,	,			Z	
et	et	0		J	
need	see	d		P	pl n
heinad	hein	d		S	pl n
Ott	Ott	0		H	sg n
Riisani	Riisan	0		H	sg g
käes	käsi	s		S	sg in
olnud	ole	nud		V	nud
.	.			Z	
</s>					
<s>					
Fritz	Fritz	0		H	sg n
Vastopäh	Vastopäh	0		H	sg n
ütles	ütle	s		V	s
et	et	0		J	
tema	tema	0		P	sg n
ka	ka	0		D	
sel	see	l		P	sg ad
põhjusel	põhjus	l		S	sg ad
Mihkli	Mihkli	0		H	sg n
õpetaja	õpetaja	0		S	sg g
härrale	härra	le		S	sg all
ühe	üks	0		N	sg g
   	üks	0		P	sg g
kuhja	kuhi	0		S	sg g
heina	hein	0		S	sg g
toomist	toomine	t		S	sg p
on	ole	0		V	b
  	ole	0		V	vad
rääkinud	rääki	nud		V	nud
.	.			Z	
</s>					
<s>					
Ado	Ado	0		H	sg n
Ostmann	Ostmann	0		H	sg n
ütles	ütle	s		V	s
et	et	0		J	
ta	tema	0		P	sg n
nimetud	nimetu	d		A	pl n
õpetaja	õpetaja	0		S	sg g
härrale	härra	le		S	sg all
ühe	üks	0		N	sg g
   	üks	0		P	sg g
kuhja	kuhi	0		S	sg g
vargusest	vargus	st		S	sg el
rääkinud	rääki	nud		V	nud
.	.			Z	
</s>					
<s>					
Mihkli	Mihkli	0		H	sg n
õpetaja	õpetaja	0		S	sg g
härra	härra	0		S	sg n
tunnistas	tunnista	s		V	s
oma	oma	0		P	sg g
kirja	kiri	0		S	sg g
läbi	läbi	0		D	
12.	12.	0		O	?
märtsist	märts	st		S	sg el
s.a	s.a	0		Y	?
et	et	0		J	
enne	enne	0		K	
Ado	Ado	0		H	sg n
Ostmann	Ostmann	0		H	sg n
ja	ja	0		J	
mõne	mõni	0		P	sg g
aja	aeg	0		S	sg g
päralt	päralt	0		K	
Fritz	Fritz	0		H	sg n
Vastopäh	Vastopäh	0		H	sg n
temale	tema	le		P	sg all
ülesannud	####				
,	,			Z	
et	et	0		J	
vallavanem	valla_vanem	0		S	sg n
Ott	Ott	0		H	sg n
Riisan	Riisan	0		H	sg n
on	ole	0		V	b
  	ole	0		V	vad
soost	soo	st		S	sg el
     	sugu	st		S	sg el
kaks	kaks	0		N	sg n
kuhja	kuhi	0		S	sg p
heino	hein	u		S	pl p
varastanud	varasta	nud		V	nud
.	.			Z	
</s>					
<s>					
Selle	see	0		P	sg g
kahe	kaks	0		N	sg g
kuhja	kuhi	0		S	sg g
rääkimise	rääkimine	0		S	sg g
salgasid	salga	sid		V	sid
Fritz	Fritz	0		H	sg n
Vastopäh	Vastopäh	0		H	sg n
ja	ja	0		J	
Ado	Ado	0		H	sg n
Ostmann	Ostmann	0		H	sg n
ära	ära	0		D	
ja	ja	0		J	
vallavanem	valla_vanem	0		S	sg n
Ott	Ott	0		H	sg n
Riisan	Riisan	0		H	sg n
nõudis	nõud	is		V	s
et	et	0		J	
neid	see	d		P	pl p
vastutamise	vastutamine	0		S	sg g
alla	alla	0		K	
saaks	saa	ks		V	ks
võetud	võt	tud		V	tud
.	.			Z	
</s>					
<s>					
Mõistetud	mõist	tud		V	tud
:	:			Z	
Ott	Ott	0		H	sg n
Riisani	Riisan	0		H	sg g
kaebdus	kaebus	0		S	sg n
Fritz	Fritz	0		H	sg n
Vastopäh	Vastopäh	0		H	sg n
ja	ja	0		J	
Ado	Ado	0		H	sg n
Ostmanni	Ostmann	0		H	sg g
vastu	vastu	0		K	
saab	saa	b		V	b
tühjaks	tühi	ks		A	sg tr
arvatud	arva	tud		V	tud
.	.			Z	
</s>					
<s>					
(	(			Z	
Appellatsjooni	####				
seatud	sead	tud		V	tud
kord	kord	0		S	sg n
sai	saa	i		V	s
etteluetud	####				
.)	.)			Z	
</s>					
