<s>					
Keiserliku	Keiserliku	0		H	sg n
II	II	0		H	sg n
Pärnu	Pärnu	0		H	sg n
kihelkonna	kihelkond	0		S	sg g
kohtu	kohus	0		S	sg g
kirja	kiri	0		S	sg g
järele	järele	0		K	
19.	19.	0		O	?
oktoobrist	oktoober	st		S	sg el
s.a	s.a	0		Y	?
nr	nr	0		Y	?
3191	3191	0		N	?
all	all	0		K	
sai	saa	i		V	s
Mihkli	Mihkli	0		H	sg n
kiriku	kiriku	0		H	sg n
vallavalitsusel	valla_valitsus	l		S	sg ad
ja	ja	0		J	
kaebajatel	kaebaja	tel		S	pl ad
Hans	Hans	0		H	sg n
Naisson	Naisson	0		H	sg n
,	,			Z	
Ott	Ott	0		H	sg n
Riisan	Riisan	0		H	sg n
,	,			Z	
Jaan	Jaan	0		H	sg n
Riisan	Riisan	0		H	sg n
ja	ja	0		J	
saadikutel	saadik	tel		S	pl ad
Juri	Juri	0		H	sg n
Vunk	Vunk	0		H	sg n
ja	ja	0		J	
Jaan	Jaan	0		H	sg n
Vilipsonil	Vilipsonil	l		H	sg n
kuulutud	kuulu	tud		V	tud
,	,			Z	
et	et	0		J	
Mihkli	Mihkli	0		H	sg n
kiriku	kiriku	0		H	sg n
valla	valla	0		H	sg n
volikogu	voli_kogu	0		S	sg g
otsus	otsus	0		S	sg n
3.	3.	0		O	?
oktoobrist	oktoober	st		S	sg el
s.a	s.a	0		Y	?
nr	nr	0		Y	?
10	10	0		N	?
punkt	punkt	0		S	sg n
I	I	0		Y	sg n
on	ole	0		V	b
  	ole	0		V	vad
kihelkonna	kihelkond	0		S	sg g
kohtu	kohus	0		S	sg g
otsuse	otsus	0		S	sg g
läbi	läbi	0		D	
19.	19.	0		O	?
oktoobrist	oktoober	st		S	sg el
s.a	s.a	0		Y	?
nr	nr	0		Y	?
3190	3190	0		N	?
all	all	0		K	
,	,			Z	
naa	naa	0		D	
kui	kui	0		D	
   	kui	0		J	
seaduse	seadus	0		S	sg g
järele	järele	0		K	
tehtud	tege	tud		V	tud
,	,			Z	
igapidi	iga_pidi	0		D	
kinnitud	kinnitu	d		V	d
saanud	saa	nud		V	nud
ja	ja	0		J	
piavad	####				
kaebajad	kaebaja	d		S	pl n
keigist	####				
valla	valla	0		H	sg n
maksudest	maks	dest		S	pl el
jagu	jagu	0		S	sg p
võtma	võt	ma		V	ma
,	,			Z	
sest	sest	0		J	
et	et	0		J	
nemad	tema	d		P	pl n
§	§	0		Y	?
1	1	0		N	?
selle	see	0		P	sg g
tähenduse	tähendus	0		S	sg g
järel	järel	0		K	
maaseadusest	maa_seadus	st		S	sg el
1866	1866	0		N	?
aastast	aasta	st		S	sg el
seeläbi	see_läbi	0		D	
et	et	0		J	
nemad	tema	d		P	pl n
on	ole	0		V	b
  	ole	0		V	vad
vallamaa	valla_maa	0		S	sg n
rentinud	renti	nud		V	nud
,	,			Z	
peavad	pida	vad		V	vad
na	na	0		D	
kui	kui	0		D	
   	kui	0		J	
täied	täis	d		S	pl n
valla	valla	0		H	sg n
liikmed	liige	d		S	pl n
arvatud	arva	tud		V	tud
saama	saa	ma		V	ma
.	.			Z	
</s>					
<s>					
(	(			Z	
Appellatsjooni	####				
seatud	sead	tud		V	tud
kord	kord	0		S	sg n
sai	saa	i		V	s
ka	ka	0		D	
etteluetud	####				
.)	.)			Z	
</s>					
