<s>					
Lesk	lesk	0		S	sg n
naene	naine	0		S	sg n
Kai	Kai	0		H	sg n
Mitt	Mitt	0		H	sg n
,	,			Z	
oma	oma	0		P	sg g
käemehega	käe_mees	ga		S	sg kom
Juri	Juri	0		H	sg n
Tamberg	Tamberg	0		H	sg n
,	,			Z	
tuli	tule	i		V	s
ette	ette	0		D	
ja	ja	0		J	
kaebas	kaeba	s		V	s
et	et	0		J	
temal	tema	l		P	sg ad
Jaan	Jaan	0		H	sg n
Soontaki	Soontak	0		H	sg g
käest	käsi	st		S	sg el
36	36	0		N	?
rubla	rubla	0		S	sg p
raha	raha	0		S	sg p
saada	saa	da		V	da
olla	ole	a		V	da
mida	mis	da		P	sg p
see	see	0		P	sg n
mitte	mitte	0		D	
ära	ära	0		D	
ei	ei	0		V	neg
maksa	maks	0		V	o
.	.			Z	
</s>					
<s>					
Jaan	Jaan	0		H	sg n
Soontak	Soontak	0		H	sg n
ütles	ütle	s		V	s
,	,			Z	
et	et	0		J	
see	see	0		P	sg n
võlg	võlg	0		S	sg n
küll	küll	0		D	
õige	õige	0		A	sg n
olla	ole	a		V	da
aga	aga	0		J	
et	et	0		J	
tal	tema	l		P	sg ad
praegu	praegu	0		D	
mitte	mitte	0		D	
võimalik	võimalik	0		A	sg n
maksa	maks	0		S	sg p
ei	ei	0		V	neg
ole	ole	0		V	o
seepärast	see_pärast	0		D	
palub	palu	b		V	b
nelja	neli	0		N	sg g
aasta	aasta	0		S	sg g
peale	peale	0		K	
omaga	oma	ga		P	sg kom
kannatada	kannata	da		V	da
.	.			Z	
</s>					
<s>					
Kai	Kai	0		H	sg n
Mitt	Mitt	0		H	sg n
lubas	luba	s		V	s
nii	nii	0		D	
viisi	viis	0		S	sg p
kannatama	kannata	ma		V	ma
jääda	jää	da		V	da
,	,			Z	
et	et	0		J	
Jaan	Jaan	0		H	sg n
Soontak	Soontak	0		H	sg n
temale	tema	le		P	sg all
see	see	0		P	sg n
võlg	võlg	0		S	sg n
nelja	neli	0		N	sg g
aasta	aasta	0		S	sg g
sees	sees	0		K	
sedaviisi	seda_viisi	0		D	
ära	ära	0		D	
maksab	maks	b		V	b
et	et	0		J	
iga	iga	0		P	sg g
aasta	aasta	0		S	sg g
9	9	0		N	?
rubla	rubla	0		S	sg n
Kai	Kai	0		H	sg n
Mittile	Mittile	0		H	sg n
välja	välja	0		D	
maksab	maks	b		V	b
.	.			Z	
</s>					
