<s>					
Astusid	astu	sid		V	sid
ette	ette	0		D	
Mihkel	Mihkel	0		H	sg n
Pernit	Pernit	0		H	sg n
ja	ja	0		J	
kohtumees	kohtu_mees	0		S	sg n
Ado	Ado	0		H	sg n
Simm	Simm	0		H	sg n
ja	ja	0		J	
kaebasid	kaeba	sid		V	sid
,	,			Z	
et	et	0		J	
Mihkel	Mihkel	0		H	sg n
Rätsepa	Rätsep	0		H	sg g
5	5	0		N	?
veist	veis	t		S	sg p
olnud	ole	nud		V	nud
tänavu	tänavu	0		D	
suvel	suvi	l		S	sg ad
nende	see	de		P	pl g
odrade	####				
sees	sees	0		D	
mida	mis	da		P	sg p
nad	tema	d		P	pl n
pantinud	panti	nud		V	nud
.	.			Z	
</s>					
<s>					
Mihkel	Mihkel	0		H	sg n
Pernitile	Pernit	le		H	sg all
lubanud	luba	nud		V	nud
Mihkel	Mihkel	0		H	sg n
Rätsep	Rätsep	0		H	sg n
kahe	kaks	0		N	sg g
nädali	nädal	0		S	sg g
aja	aeg	0		S	sg g
sees	sees	0		K	
1	1	0		N	?
rubla	rubla	0		S	sg p
raha	raha	0		S	sg p
ja	ja	0		J	
vakk	vakk	0		S	sg n
odre	oder	i		S	pl p
maksa	maks	0		V	o
mis	mis	0		P	sg n
nüüd	nüüd	0		D	
alles	alles	0		D	
maksmata	maks	mata		V	mata
olla	ole	a		V	da
ja	ja	0		J	
nõuab	nõud	b		V	b
Mihkel	Mihkel	0		H	sg n
Pernit	Pernit	0		H	sg n
see	see	0		P	sg n
1	1	0		N	?
rubla	rubla	0		S	sg g
raha	raha	0		S	sg n
ja	ja	0		J	
vakk	vakk	0		S	sg n
odre	oder	i		S	pl p
ehk	ehk	0		J	
kui	kui	0		D	
   	kui	0		J	
raha	raha	0		S	sg g
peale	peale	0		K	
arvatud	arva	tud		V	tud
siis	siis	0		D	
3	3	0		N	?
rubla	rubla	0		S	sg p
raha	raha	0		S	sg g
kahjutasumise	kahju_tasumine	0		S	sg g
ja	ja	0		J	
pantimise	panti=mine	0		S	sg g
eest	eest	0		K	
.	.			Z	
</s>					
<s>					
Ado	Ado	0		H	sg n
Simm	Simm	0		H	sg n
nõudis	nõud	is		V	s
50	50	0		N	?
kop	kop	0		Y	?
.	.			Z	
</s>					
<s>					
Mihkel	Mihkel	0		H	sg n
Rätsep	Rätsep	0		H	sg n
ütles	ütle	s		V	s
,	,			Z	
et	et	0		J	
tema	tema	0		P	sg g
sel	see	l		P	sg ad
ajal	aeg	l		S	sg ad
kui	kui	0		D	
   	kui	0		J	
oma	oma	0		P	sg g
loomi	loom	i		S	pl p
ära	ära	0		D	
ajanud	aja	nud		V	nud
.	.			Z	
</s>					
<s>					
Küll	küll	0		D	
Mihkel	Mihkel	0		H	sg n
Pernitile	Pernit	le		H	sg all
1	1	0		N	?
rubla	rubla	0		S	sg p
raha	raha	0		S	sg p
ja	ja	0		J	
vakk	vakk	0		S	sg n
odre	oder	i		S	pl p
maksa	maks	0		V	o
lubanud	luba	nud		V	nud
kui	kui	0		D	
   	kui	0		J	
nad	tema	d		P	pl n
kahju	kahi	0		S	sg g
     	kahju	0		S	sg g
läbi	läbi	0		D	
vaatanud	####				
aga	aga	0		J	
pärast	pärast	0		K	
on	ole	0		V	b
  	ole	0		V	vad
ta	tema	0		P	sg n
arvama	arva	ma		V	ma
akanud	hakka	nud		V	nud
,	,			Z	
et	et	0		J	
see	see	0		P	sg n
palju	palju	0		D	
on	ole	0		V	b
  	ole	0		V	vad
.	.			Z	
</s>					
<s>					
Tema	tema	0		P	sg n
pakub	pakku	b		V	b
Mihkel	Mihkel	0		H	sg n
Pernitile	Pernit	le		H	sg all
ja	ja	0		J	
Ado	Ado	0		H	sg n
Simmile	Simm	le		H	sg all
kokku	kokku	0		D	
50	50	0		N	?
kop	kop	0		Y	?
.	.			Z	
</s>					
<s>					
Peakohtumees	pea_kohtu_mees	0		S	sg n
Jaan	Jaan	0		H	sg n
Rätsep	Rätsep	0		H	sg n
ja	ja	0		J	
vallavanem	valla_vanem	0		S	sg n
Ott	Ott	0		H	sg n
Riisan	Riisan	0		H	sg n
ütlesid	ütle	sid		V	sid
et	et	0		J	
seal	seal	0		D	
odrade	####				
sees	sees	0		D	
olla	ole	a		V	da
moned	####				
veiste	veis	te		S	pl g
tallatud	talla	tud		V	tud
luhad	luht	d		S	pl n
olnud	ole	nud		V	nud
ja	ja	0		J	
mõnest	mõni	st		P	sg el
kohast	koha	st		S	sg el
      	koht	st		S	sg el
olnud	ole	nud		V	nud
ka	ka	0		D	
päid	pea	id		S	pl p
katkutud	katku	tud		V	tud
.	.			Z	
</s>					
<s>					
Mõistetud	mõist	tud		V	tud
:	:			Z	
Mihkel	Mihkel	0		H	sg n
Rätsep	Rätsep	0		H	sg n
piab	####				
kahe	kaks	0		N	sg g
nädali	nädal	0		S	sg g
aja	aeg	0		S	sg g
sees	sees	0		K	
maksma	maks	ma		V	ma
:	:			Z	
Mihkel	Mihkel	0		H	sg n
Pernitile	Pernit	le		H	sg all
50	50	0		N	?
kop	kop	0		Y	?
raha	raha	0		S	sg p
ja	ja	0		J	
2	2	0		N	?
külimatti	####				
odre	oder	i		S	pl p
ja	ja	0		J	
Ado	Ado	0		H	sg n
Simmile	Simm	le		H	sg all
50	50	0		N	?
kop	kop	0		Y	?
.	.			Z	
</s>					
<s>					
(	(			Z	
Kohtu	kohus	0		S	sg g
mõistus	mõistus	0		S	sg n
sai	saa	i		V	s
kohtukäijatele	kohtu_käija	tele		S	pl all
ette	ette	0		D	
luetud	####				
.)	.)			Z	
</s>					
