<s>					
Eeskirja	ees_kiri	0		S	sg p
mööda	mööda	0		K	
sai	saa	i		V	s
vaestelaste	vaes+te_last	e		S	pl p
varanduse	varandus	0		S	sg g
omandamine	omandamine	0		S	sg n
eestkostjate	eest_kostja	te		S	pl g
juures	juures	0		K	
olemisel	olemine	l		S	sg ad
ettevõetud	ette_võetud	0		A	sg n
:	:			Z	
</s>					
<s>					
1.	1.	0		O	?
</s>					
<s>					
Ado	Ado	0		H	sg n
Soontak	Soontak	0		H	sg n
tõendas	tõenda	s		V	s
,	,			Z	
et	et	0		J	
tema	tema	0		P	sg g
tütre	tütar	0		S	sg g
Mari	Mari	0		H	sg n
headuseks	headus	ks		S	sg tr
on	ole	0		V	b
  	ole	0		V	vad
nüüd	nüüd	0		D	
vaestekassas	vaes+te_kassa	s		S	sg in
:	:			Z	
1	1	0		N	?
)	)			Z	
Kapital	kapital	0		S	sg n
28.	28.	0		O	?
veenruarist	####				
1884	1884	0		N	?
30	30	0		N	?
rubla	rubla	0		S	sg p
</s>					
<s>					
2	2	0		N	?
)	)			Z	
intressid	intress	d		S	pl n
6	6	0		N	?
rubla	rubla	0		S	sg g
78	78	0		N	?
kop	kop	0		Y	?
</s>					
<s>					
2.	2.	0		O	?
</s>					
<s>					
Maalinna	maa_linn	0		S	sg g
Mihkel	Mihkel	0		H	sg n
Soontak	Soontak	0		H	sg n
tõendas	tõenda	s		V	s
,	,			Z	
et	et	0		J	
tema	tema	0		P	sg g
tütre	tütar	0		S	sg g
Mari	Mari	0		H	sg n
headuseks	headus	ks		S	sg tr
on	ole	0		V	b
  	ole	0		V	vad
praegu	praegu	0		D	
vaeste	vaene	te		S	pl g
kassas	kassa	s		S	sg in
:	:			Z	
1	1	0		N	?
)	)			Z	
Kapital	kapital	0		S	sg n
9.	9.	0		O	?
aprillist	aprill	st		S	sg el
1880	1880	0		N	?
50	50	0		N	?
rubla	rubla	0		S	sg p
</s>					
<s>					
2	2	0		N	?
)	)			Z	
intressid	intress	d		S	pl n
19	19	0		N	?
rubla	rubla	0		S	sg g
57	57	0		N	?
kop	kop	0		Y	?
</s>					
<s>					
Takseeritud	takseeri	tud		V	tud
vara	vara	0		S	sg g
28	28	0		N	?
rubla	rubla	0		S	sg g
väärt	väärt	0		D	
olla	ole	a		V	da
heas	hea	s		A	sg in
korras	kord	s		S	sg in
.	.			Z	
</s>					
<s>					
3.	3.	0		O	?
</s>					
<s>					
Surnud	sure	nud		V	nud
Mihkel	Mihkel	0		H	sg n
Saumanni	Saumanni	0		H	sg n
pärijate	pärija	te		S	pl g
Jaan	Jaan	0		H	sg n
ja	ja	0		J	
Mihkel	Mihkel	0		H	sg n
Saumanni	Saumanni	0		H	sg n
eestkostjad	eest_kostja	d		S	pl n
Tõnis	Tõnis	0		H	sg n
Täht	Täht	0		H	sg n
ja	ja	0		J	
Ado	Ado	0		H	sg n
Simm	Simm	0		H	sg n
tõendasid	tõenda	sid		V	sid
,	,			Z	
et	et	0		J	
nimetud	nimetu	d		A	pl n
pärijate	pärija	te		S	pl g
headuseks	headus	ks		S	sg tr
on	ole	0		V	b
  	ole	0		V	vad
praegu	praegu	0		D	
vaeste	vaene	te		S	pl g
kassas	kassa	s		S	sg in
:	:			Z	
1	1	0		N	?
)	)			Z	
Kapital	kapital	0		S	sg n
7.	7.	0		O	?
oktoobrist	oktoober	st		S	sg el
ja	ja	0		J	
12.	12.	0		O	?
detsembrist	detsember	st		S	sg el
1885	1885	0		N	?
45	45	0		N	?
rubla	rubla	0		S	sg p
</s>					
<s>					
2	2	0		N	?
)	)			Z	
intressid	intress	d		S	pl n
6	6	0		N	?
rubla	rubla	0		S	sg g
29	29	0		N	?
kop	kop	0		Y	?
</s>					
<s>					
Nagu	nagu	0		D	
    	nagu	0		J	
mineva	minev	0		A	sg g
aasta	aasta	0		S	sg g
nii	nii	0		D	
ka	ka	0		D	
täna	täna	0		D	
,	,			Z	
ei	ei	0		V	neg
ilmunud	ilmu	nud		V	nud
Mart	Mart	0		H	sg n
Siimon	Siimon	0		H	sg n
esimise	####				
kutsumise	kutsumine	0		S	sg g
peale	peale	0		K	
aruandmisele	aru_andmine	le		S	sg all
.	.			Z	
</s>					
