<s>					
Hans	Hans	0		H	sg n
Ostmann	Ostmann	0		H	sg n
palus	palu	s		V	s
sest	see	st		P	sg el
rahast	raha	st		S	sg el
mis	mis	0		P	sg n
valla	valla	0		H	sg n
kohtu	kohus	0		S	sg g
välja	välja	0		D	
mineva	minev	0		A	sg g
kirjas	kiri	s		S	sg in
kviitungi	kviitung	0		S	sg g
järel	järel	0		K	
</s>					
<s>					
3.	3.	0		O	?
veebruarist	veebruar	st		S	sg el
1887	1887	0		N	?
nr	nr	0		Y	?
4	4	0		N	?
all	all	0		K	
näidatud	näita	tud		V	tud
seisab	seis	b		V	b
25	25	0		N	?
rubla	rubla	0		S	sg p
kätte	käsi	tte		S	adt
,	,			Z	
nenda	nõnda	0		D	
et	et	0		J	
22	22	0		N	?
rubla	rubla	0		S	sg p
31	31	0		N	?
kop	kop	0		Y	?
veel	veel	0		D	
kohtu	kohus	0		S	sg g
laekasse	laegas	sse		S	sg ill
hoiu	hoid	0		S	sg g
alla	alla	0		K	
jäeb	####				
.	.			Z	
</s>					
<s>					
Seda	see	da		P	sg p
nõuetud	####				
25	25	0		N	?
rubla	rubla	0		S	sg p
sai	saa	i		V	s
taale	tema	le		S	sg all
välja	välja	0		D	
maksetud	makse=tu	d		A	pl n
.	.			Z	
</s>					
