<s>					
Tuli	tule	i		V	s
ette	ette	0		D	
Juri	Juri	0		H	sg n
Reigas	Reigas	0		H	sg n
ja	ja	0		J	
rääkis	rääki	s		V	s
,	,			Z	
et	et	0		J	
see	see	0		P	sg n
6	6	0		N	?
rubla	rubla	0		S	sg p
pearaha	pea_raha	0		S	sg n
,	,			Z	
mis	mis	0		P	sg n
tema	tema	0		P	sg g
juba	juba	0		D	
8.	8.	0		O	?
mail	mai	l		S	sg ad
1886	1886	0		N	?
endise	endine	0		A	sg g
vallavanema	valla_vanem	0		S	sg g
Tõnis	Tõnis	0		H	sg n
Soontaki	Soontak	0		H	sg g
käest	käsi	st		S	sg el
pärinud	päri	nud		V	nud
,	,			Z	
olla	ole	a		V	da
välja	välja	0		D	
tulnud	tule	nud		V	nud
,	,			Z	
et	et	0		J	
tema	tema	0		P	sg n
seda	see	da		P	sg p
tõeste	tõene	te		A	pl g
maksnud	maks	nud		V	nud
on	ole	0		V	b
  	ole	0		V	vad
ja	ja	0		J	
nõuab	nõud	b		V	b
,	,			Z	
et	et	0		J	
6	6	0		N	?
rubla	rubla	0		S	sg p
tema	tema	0		P	sg g
pearaha	pea_raha	0		S	sg g
võlast	võlg	st		S	sg el
saaks	saa	ks		V	ks
maha	maha	0		D	
kustutud	kustu	tud		V	tud
.	.			Z	
</s>					
<s>					
Endine	endine	0		A	sg n
vallavanem	valla_vanem	0		S	sg n
Tõnis	Tõnis	0		H	sg n
Soontak	Soontak	0		H	sg n
ütles	ütle	s		V	s
et	et	0		J	
nagu	nagu	0		D	
    	nagu	0		J	
tal	tema	l		P	sg ad
meele	meel	0		S	sg g
tulnud	tule	nud		V	nud
,	,			Z	
on	ole	0		V	b
  	ole	0		V	vad
Juri	Juri	0		H	sg n
Reigas	Reigas	0		H	sg n
tõeste	tõene	te		A	pl g
see	see	0		P	sg n
6	6	0		N	?
rubla	rubla	0		S	sg p
tema	tema	0		P	sg g
kätte	kätte	0		K	
maksnud	maks	nud		V	nud
kellest	kes	st		P	sg el
tema	tema	0		P	sg g
Mihkli	Mihkli	0		H	sg n
kiriku	kiriku	0		H	sg n
õpetaja	õpetaja	0		S	sg g
härra	härra	0		S	sg n
kätte	käsi	tte		S	adt
selle	see	0		P	sg g
aastase	aastane	0		A	sg g
rüütle	####				
kogu	kogu	0		A	
raha	raha	0		S	sg p
(	(			Z	
1881	1881	0		N	?
aasta	aasta	0		S	sg g
eest	eest	0		K	
)	)			Z	
ära	ära	0		D	
maksnud	maks	nud		V	nud
ja	ja	0		J	
endine	endine	0		A	sg n
kirjutaja	kirjutaja	0		S	sg n
pole	ole	0		V	neg o
seda	see	da		P	sg p
mitte	mitte	0		D	
kirja	kiri	0		S	adt
pannud	pane	nud		V	nud
ja	ja	0		J	
soovib	soovi	b		V	b
et	et	0		J	
see	see	0		P	sg n
nüüd	nüüd	0		D	
saaks	saa	ks		V	ks
kirja	kiri	0		S	adt
pandud	pane	dud		V	tud
et	et	0		J	
ta	tema	0		P	sg n
seletud	seletu	d		V	d
on	ole	0		V	b
  	ole	0		V	vad
.	.			Z	
</s>					
<s>					
Praegune	praegune	0		A	sg n
Mihkli	Mihkli	0		H	sg n
kiriku	kiriku	0		H	sg n
vallavanem	valla_vanem	0		S	sg n
Ott	Ott	0		H	sg n
Riisan	Riisan	0		H	sg n
ütles	ütle	s		V	s
,	,			Z	
et	et	0		J	
Mihkli	Mihkli	0		H	sg n
kiriku	kiriku	0		H	sg n
valdas	valda	s		V	s
olla	ole	a		V	da
niisugusid	####				
ülearu	üle_aru	0		D	
võlgasid	võlg	sid		S	pl p
pearaha	pea_raha	0		S	sg g
raamatus	raamat	s		S	sg in
mis	mis	0		P	sg n
kassa	kassa	0		S	sg g
raamatu	raamat	0		S	sg g
võla	võlg	0		S	sg g
numbrist	number	st		S	sg el
üle	üle	0		D	
käivad	käi	vad		V	vad
ja	ja	0		J	
lubas	luba	s		V	s
tema	tema	0		P	sg n
,	,			Z	
et	et	0		J	
see	see	0		P	sg n
6	6	0		N	?
rubla	rubla	0		S	sg p
võib	või	b		V	b
Juri	Juri	0		H	sg n
Reigasi	Reigas	0		H	sg g
pearaha	pea_raha	0		S	sg g
võlga	võlg	0		S	sg p
nüüd	nüüd	0		D	
ilma	ilma	0		K	
rahata	raha	ta		S	sg ab
saada	saa	da		V	da
kirja	kiri	0		S	adt
pandud	pane	dud		V	tud
.	.			Z	
</s>					
<s>					
Mõistetud	mõist	tud		V	tud
:	:			Z	
Mihkli	Mihkli	0		H	sg n
kiriku	kiriku	0		H	sg n
vallavalitsus	valla_valitsus	0		S	sg n
piab	####				
Juri	Juri	0		H	sg n
Reigasi	Reigas	0		H	sg g
pearaha	pea_raha	0		S	sg n
see	see	0		P	sg n
6	6	0		N	?
rubla	rubla	0		S	sg p
nüüd	nüüd	0		D	
ilma	ilma	0		K	
raha	raha	0		S	sg p
maksuta	maks	ta		S	sg ab
kirja	kiri	0		S	sg p
panema	pane	ma		V	ma
ja	ja	0		J	
seda	see	da		P	sg p
tema	tema	0		P	sg n
võlast	võlg	st		S	sg el
maha	maha	0		D	
arvama	arva	ma		V	ma
.	.			Z	
</s>					
