<s>					
Kui	kui	0		D	
   	kui	0		J	
Keiserliku	Keiserliku	0		H	sg n
II	II	0		H	sg n
Pärnu	Pärnu	0		H	sg n
kihelkonna	kihelkond	0		S	sg g
kohtu	kohus	0		S	sg g
kirja	kiri	0		S	adt
läbi	läbi	0		D	
6.	6.	0		O	?
juunist	juuni	st		S	sg el
s.a	s.a	0		Y	?
nr	nr	0		Y	?
1515	1515	0		N	?
all	all	0		K	
käsktud	####				
oli	ole	i		V	s
Mihkel	Mihkel	0		H	sg n
Rätsepa	Rätsep	0		H	sg g
käest	käsi	st		S	sg el
Hans	Hans	0		H	sg n
Vastopäh	Vastopäh	0		H	sg n
heaks	heaks	0		D	
210	210	0		N	?
rubla	rubla	0		S	sg p
viibimata	viibimata	0		D	
riisumise	riisumine	0		S	sg g
teel	teel	0		K	
väljapärida	välja_päri	da		V	da
siis	siis	0		D	
oli	ole	i		V	s
vallakohus	valla_kohus	0		S	sg n
Mihkel	Mihkel	0		H	sg n
Rätsepa	Rätsep	0		H	sg g
kraami	kraam	0		S	sg g
üleskirjutuse	üles_kirjutus	0		S	sg g
pärast	pärast	0		K	
tänasel	tänane	l		A	sg ad
pääval	####				
Uuerõika	Uuerõika	0		H	sg n
talusse	talu	sse		S	sg ill
kokku	kokku	0		D	
tulnud	tule	nud		V	nud
.	.			Z	
</s>					
<s>					
I	I	0		Y	sg n
Kõige	kõik	0		P	sg g
pealt	pealt	0		K	
palus	palu	s		V	s
Kõima	Kõima	0		H	sg n
mees	mees	0		S	sg n
Jaan	Jaan	0		H	sg n
Tõnn	Tõnn	0		H	sg n
üles	üles	0		D	
võtta	võt	a		V	da
,	,			Z	
et	et	0		J	
Mihkel	Mihkel	0		H	sg n
Rätsep	Rätsep	0		H	sg n
olla	ole	a		V	da
tema	tema	0		P	sg g
käest	käsi	st		S	sg el
kahe	kaks	0		N	sg g
aasta	aasta	0		S	sg g
eest	eest	0		K	
50	50	0		N	?
rubla	rubla	0		S	sg p
laenanud	laena	nud		V	nud
kus	kus	0		D	
Kõima	Kõima	0		H	sg n
mehed	mees	d		S	pl n
Juri	Juri	0		H	sg n
Kukk	Kukk	0		H	sg n
ja	ja	0		J	
Juri	Juri	0		H	sg n
Kibur	Kibur	0		H	sg n
juures	juures	0		K	
olnud	ole	nud		V	nud
ja	ja	0		J	
nõuab	nõud	b		V	b
seda	see	da		P	sg p
kätte	käsi	tte		S	adt
.	.			Z	
</s>					
<s>					
Mihkel	Mihkel	0		H	sg n
Rätsep	Rätsep	0		H	sg n
olla	ole	a		V	da
küll	küll	0		D	
lubanud	luba	nud		V	nud
seda	see	da		P	sg p
sügisel	sügis	l		S	sg ad
1886	1886	0		N	?
ära	ära	0		D	
maksta	maks	ta		V	da
aga	aga	0		J	
et	et	0		J	
maksta	maks	ta		V	da
pole	ole	0		V	neg o
olnud	ole	nud		V	nud
,	,			Z	
on	ole	0		V	b
  	ole	0		V	vad
see	see	0		P	sg n
võlg	võlg	0		S	sg n
edasi	edasi	0		D	
jäänud	jää	nud		V	nud
.	.			Z	
</s>					
<s>					
Mihkel	Mihkel	0		H	sg n
Rätsep	Rätsep	0		H	sg n
ütles	ütle	s		V	s
selle	see	0		P	sg g
tõe	tõde	0		S	sg g
   	tõsi	0		S	sg g
olevad	olev	d		A	pl n
.	.			Z	
</s>					
<s>					
II	II	0		H	sg n
Nendasama	####				
andis	and	is		V	s
Mihkel	Mihkel	0		H	sg n
Rätsepa	Rätsep	0		H	sg g
isa	isa	0		S	sg n
Mihkel	Mihkel	0		H	sg n
Rätsep	Rätsep	0		H	sg n
üles	üles	0		D	
,	,			Z	
et	et	0		J	
raudvara	raud_vara	0		S	sg n
ja	ja	0		J	
kõik	kõik	0		P	sg n
enamiste	####				
muud	muu	d		P	pl n
selle	see	0		P	sg g
maja	maja	0		S	sg g
riistade	riist	de		S	pl g
vara	vara	0		S	sg n
,	,			Z	
on	ole	0		V	b
  	ole	0		V	vad
kõik	kõik	0		P	sg n
tema	tema	0		P	sg g
omandus	omandus	0		S	sg n
.	.			Z	
</s>					
<s>					
Olgu	ole	gu		V	gu
küll	küll	0		D	
et	et	0		J	
maja	maja	0		S	sg g
kontraht	kontraht	0		S	sg n
poeg	poeg	0		S	sg n
Mihkel	Mihkel	0		H	sg n
Rätsepa	Rätsep	0		H	sg g
nimel	nimel	0		K	
on	ole	0		V	b
  	ole	0		V	vad
.	.			Z	
</s>					
<s>					
Poeg	poeg	0		S	sg n
Mihkel	Mihkel	0		H	sg n
Rätsepa	Rätsep	0		H	sg g
vara	vara	0		S	sg g
seal	seal	0		D	
seas	seas	0		K	
olla	ole	a		V	da
järgmine	järgmine	0		A	sg n
,	,			Z	
mida	mis	da		P	sg p
poeg	poeg	0		S	sg n
Mihkel	Mihkel	0		H	sg n
Rätsep	Rätsep	0		H	sg n
ka	ka	0		D	
ise	ise	0		P	sg n
ütleb	ütle	b		V	b
,	,			Z	
nenda	nõnda	0		D	
kui	kui	0		D	
   	kui	0		J	
:	:			Z	
1	1	0		N	?
lina	lina	0		S	sg g
masin	masin	0		S	sg n
1	1	0		N	?
haige	haige	0		S	sg g
maas	maa	s		S	sg in
oleja	ole=ja	0		S	sg g
lehm	lehm	0		S	sg n
1	1	0		N	?
põrsas	põrsas	0		S	sg n
1	1	0		N	?
veike	####				
kapi	kapp	0		S	sg g
1	1	0		N	?
tool	tool	0		S	sg n
1	1	0		N	?
piima	piim	0		S	sg g
lüpsik	lüpsik	0		S	sg n
1	1	0		N	?
vee	vesi	0		S	sg g
kapp	kapp	0		S	sg n
ühed	üks	d		N	pl n
    	üks	d		P	pl n
vee	vesi	0		S	sg g
pangid	####				
1	1	0		N	?
leiva	leib	0		S	sg g
laud	laud	0		S	sg n
1	1	0		N	?
äke	äke	0		S	sg n
ja	ja	0		J	
Mihkel	Mihkel	0		H	sg n
Rätsepa	Rätsep	0		H	sg g
naese	naine	0		S	sg g
Mari	Mari	0		H	sg n
riiete	riie	te		S	pl g
kirst	kirst	0		S	sg n
.	.			Z	
</s>					
<s>					
Need	see	d		P	pl n
asjad	asi	d		S	pl n
said	saa	id		V	sid
ülevaadatud	üle_vaadatud	0		A	sg n
ning	ning	0		J	
abikohtumees	abi_kohtu_mees	0		S	sg n
Tõnis	Tõnis	0		H	sg n
Soontak	Soontak	0		H	sg n
ja	ja	0		J	
peakohtumees	pea_kohtu_mees	0		S	sg n
Jaan	Jaan	0		H	sg n
Rätsep	Rätsep	0		H	sg n
tunnistasid	tunnista	sid		V	sid
,	,			Z	
et	et	0		J	
poeg	poeg	0		S	sg n
Mihkel	Mihkel	0		H	sg n
Rätsep	Rätsep	0		H	sg n
on	ole	0		V	b
  	ole	0		V	vad
kuue	kuus	0		N	sg g
aasta	aasta	0		S	sg g
eest	eest	0		K	
isa	isa	0		S	sg n
Mihkel	Mihkel	0		H	sg n
Rätsepa	Rätsep	0		H	sg g
vara	vara	0		S	sg g
peal	peal	0		K	
koha	koha	0		S	sg g
    	koht	0		S	sg g
pidajaks	pidaja	ks		S	sg tr
hakanud	hakka	nud		V	nud
ja	ja	0		J	
omal	oma	l		P	sg ad
ei	ei	0		V	neg
ole	ole	0		V	o
olnud	ole	nud		V	nud
.	.			Z	
</s>					
<s>					
Nendasama	####				
ei	ei	0		V	neg
ole	ole	0		V	o
nad	tema	d		P	pl n
kuulnud	kuul	nud		V	nud
isa	isa	0		S	sg g
Mihkel	Mihkel	0		H	sg n
Rätsepa	Rätsep	0		H	sg g
ja	ja	0		J	
poeg	poeg	0		S	sg n
Mihkel	Mihkel	0		H	sg n
Rätsepa	Rätsep	0		H	sg g
vahel	vahel	0		K	
varanduse	varandus	0		S	sg g
jautuse	####				
vahet	vahe	t		S	sg p
tehtavad	tehtav	d		A	pl n
.	.			Z	
</s>					
<s>					
Isa	isa	0		S	sg n
Mihkel	Mihkel	0		H	sg n
Rätsepa	Rätsep	0		H	sg g
varandus	varandus	0		S	sg n
leiti	leid	ti		V	ti
järgmine	järgmine	0		A	sg n
olevad	olev	d		A	pl n
:	:			Z	
13	13	0		N	?
vana	vana	0		A	sg p
lammast	lammas	t		S	sg p
7	7	0		N	?
lamba	lammas	0		S	sg g
talle	tema	lle		P	sg all
2	2	0		N	?
mullikast	mullikas	st		S	sg el
3	3	0		N	?
lehma	lehm	0		S	sg p
1	1	0		N	?
ruun	ruun	0		S	sg n
hobune	hobune	0		S	sg n
1	1	0		N	?
mära	mära	0		S	sg g
hobune	hobune	0		S	sg n
1	1	0		N	?
aastane	aastane	0		A	sg n
mära	mära	0		S	sg g
sälg	sälg	0		S	sg n
2	2	0		N	?
emist	emis	t		S	sg p
siga	siga	0		S	sg p
1	1	0		N	?
orikas	orikas	s		S	sg in
3	3	0		N	?
põrsast	põrsas	st		S	sg el
3	3	0		N	?
rautud	####				
rege	regi	0		S	sg p
1	1	0		N	?
raud	raud	0		S	sg n
aksidega	####				
vanker	vanker	0		S	sg n
1	1	0		N	?
puuaksidega	####				
rautud	####				
vanker	vanker	0		S	sg n
1	1	0		N	?
puu	puu	0		S	sg g
vanker	vanker	0		S	sg n
1	1	0		N	?
tühi	tühi	0		A	sg n
eli	####				
vaat	vaat	0		I	
9	9	0		N	?
tühja	tühi	0		A	sg p
nõu	nõu	0		S	sg p
1	1	0		N	?
käi	käi	0		V	o
1	1	0		N	?
kirn	kirn	0		S	sg n
1	1	0		N	?
vana	vana	0		A	sg n
vann	vann	0		S	sg n
1	1	0		N	?
lähker	lähker	0		S	sg n
1	1	0		N	?
kapsa	kapsas	0		S	sg g
nõu	nõu	0		S	sg g
Ühed	üks	d		N	pl n
    	üks	d		P	pl n
kanga	kangas	0		S	sg g
teljed	telg	d		S	pl n
1	1	0		N	?
tischleri	####				
penk	####				
2	2	0		N	?
äket	äke	t		S	sg p
1	1	0		N	?
ader	ader	0		S	sg n
1	1	0		N	?
sahk	sahk	0		S	sg n
2	2	0		N	?
vana	vana	0		A	sg n
vikatid	vikat	d		S	pl n
2	2	0		N	?
riiete	riie	te		S	pl g
kirstu	kirst	0		S	sg g
1	1	0		N	?
vilja	vili	0		S	sg p
kirst	kirst	0		S	sg n
1	1	0		N	?
vana	vana	0		A	sg g
laua	laud	0		S	sg g
saag	saag	0		S	sg n
1	1	0		N	?
hobuse	hobune	0		S	sg g
sõim	sõim	0		S	sg n
2	2	0		N	?
hobuse	hobune	0		S	sg g
looka	look	0		S	adt
Kahed	kaks	d		N	pl n
hobuse	hobune	0		S	sg g
rangid	rangid	d		S	pl n
ja	ja	0		J	
ohjad	ohi	d		S	pl n
1	1	0		N	?
veike	####				
saag	saag	0		S	sg n
1	1	0		N	?
sia	####				
küna	küna	0		S	sg g
1	1	0		N	?
virutsi	####				
küna	küna	0		S	sg g
2	2	0		N	?
labidast	labidas	st		S	sg el
1	1	0		N	?
pool	pool	0		K	
raud	raud	0		S	sg n
kangi	kang	0		S	sg g
2	2	0		N	?
lehma	lehm	0		S	sg p
toobert	####				
4	4	0		N	?
tooli	tool	0		S	sg g
1	1	0		N	?
pesu	pesu	0		S	sg g
nõu	nõu	0		S	sg g
3	3	0		N	?
pada	pada	0		S	sg n
1	1	0		N	?
leiva	leib	0		S	sg g
kapi	kapp	0		S	sg g
1	1	0		N	?
leiva	leib	0		S	sg g
lõime	lõim	0		S	sg g
2	2	0		N	?
sängi	säng	0		S	adt
1	1	0		N	?
voki	vokk	0		S	sg g
1	1	0		N	?
tunnikell	tunni_kell	0		S	sg n
1	1	0		N	?
kirves	kirves	0		S	sg n
1	1	0		N	?
suur	suur	0		A	sg n
nuga	nuga	0		S	sg n
Kõige	kõige	0		D	
selle	see	0		P	sg g
varanduse	varandus	0		S	sg g
järelvaatajaks	järel_vaataja	ks		S	sg tr
sai	saa	i		V	s
abikohtumees	abi_kohtu_mees	0		S	sg n
Tõnis	Tõnis	0		H	sg n
Soontak	Soontak	0		H	sg n
seatud	sead	tud		V	tud
.	.			Z	
</s>					
<s>					
Otsus	otsus	0		S	sg n
:	:			Z	
Mihkel	Mihkel	0		H	sg n
Rätsepa	Rätsep	0		H	sg g
ja	ja	0		J	
tema	tema	0		P	sg g
poja	poeg	0		S	sg g
    	poja	0		S	sg g
Mihkle	Mihkel	le		H	sg all
varanduse	varandus	0		S	sg g
asjus	asi	us		S	pl in
saab	saa	b		V	b
15.	15.	0		O	?
selle	see	0		P	sg g
kuu	kuu	0		S	sg g
pääval	####				
kohtu	kohus	0		S	sg g
istumisel	istumine	l		S	sg ad
vahe	vahe	0		S	sg g
tehtud	tege	tud		V	tud
ja	ja	0		J	
poeg	poeg	0		S	sg n
Mihkel	Mihkel	0		H	sg n
Rätsep	Rätsep	0		H	sg n
võib	või	b		V	b
veel	veel	0		D	
kuni	kuni	0		K	
17	17	0		N	?
selle	see	0		P	sg g
kuu	kuu	0		S	sg g
päävaks	####				
raha	raha	0		S	sg p
muretseda	muretse	da		V	da
oma	oma	0		P	sg g
varanduse	varandus	0		S	sg g
vabastamiseks	vabastamine	ks		S	sg tr
.	.			Z	
</s>					
<s>					
Kui	kui	0		D	
   	kui	0		J	
see	see	0		P	sg n
mitte	mitte	0		D	
ei	ei	0		V	neg
sünni	sündi	0		V	o
siis	siis	0		D	
saab	saa	b		V	b
19.	19.	0		O	?
ja	ja	0		J	
26.	26.	0		O	?
selle	see	0		P	sg g
kuu	kuu	0		S	sg g
pääval	####				
Mihkli	Mihkli	0		H	sg n
,	,			Z	
Jakobi	Jakob	0		H	sg g
ja	ja	0		J	
Kalli	Kalli	0		H	sg n
kirikutes	kirik	tes		S	pl in
kuulutud	kuulu	tud		V	tud
ja	ja	0		J	
oksjoon	oks_joon	0		S	sg n
30.	30.	0		O	?
juunil	juuni	l		S	sg ad
s.a	s.a	0		Y	?
enne	enne	0		K	
lõunat	lõuna	t		S	sg p
kell	kell	0		S	sg n
10	10	0		N	?
ära	ära	0		D	
peetud	pida	tud		V	tud
.	.			Z	
</s>					
