<s>					
Tänasel	tänane	l		A	sg ad
pääval	####				
maksis	maks	is		V	s
Mihkli	Mihkli	0		H	sg n
kiriku	kiriku	0		H	sg n
mõisa	mõis	0		S	sg g
maade	maa	de		S	pl g
rentniku	rentnik	0		S	sg g
Mihkel	Mihkel	0		H	sg n
Rätsepa	Rätsep	0		H	sg g
sulane	sulane	0		S	sg n
Ado	Ado	0		H	sg n
Ostmann	Ostmann	0		H	sg n
Mihkel	Mihkel	0		H	sg n
Naissonile	Naissonile	0		H	sg n
selle	see	0		P	sg g
Mihkel	Mihkel	0		H	sg n
Rätsepa	Rätsep	0		H	sg g
võla	võlg	0		S	sg g
ära	ära	0		D	
mis	mis	0		P	sg n
siitvalla	####				
kohtu	kohus	0		S	sg g
protokollis	protokoll	s		S	sg in
17.	17.	0		O	?
veebruarist	veebruar	st		S	sg el
s.a	s.a	0		Y	?
nr	nr	0		Y	?
4	4	0		N	?
all	all	0		K	
näidatud	näita	tud		V	tud
seisab	seis	b		V	b
,	,			Z	
see	see	0		P	sg n
oli	ole	i		V	s
ühte	ühte	0		D	
kokku	kokku	0		D	
93	93	0		N	?
rubla	rubla	0		S	sg p
.	.			Z	
</s>					
<s>					
Seega	seega	0		D	
on	ole	0		V	b
  	ole	0		V	vad
selle	see	0		P	sg g
võla	võlg	0		S	sg g
asjad	asi	d		S	pl n
täitsa	täitsa	0		D	
lõpetatud	lõpeta	tud		V	tud
.	.			Z	
</s>					
