<s>					
Tulid	tule	id		V	sid
ette	ette	0		D	
vastastikku	vastastikku	0		D	
nõudjad	nõud=ja	d		S	pl n
üksteise	üks_teise	0		P	sg g
vastu	vastu	0		K	
Annuse	annus	0		S	sg g
Mihkel	Mihkel	0		H	sg n
Soontak	Soontak	0		H	sg n
ja	ja	0		J	
peakohtumees	pea_kohtu_mees	0		S	sg n
Marguse	Marguse	0		H	sg n
Jaan	Jaan	0		H	sg n
Rätsep	Rätsep	0		H	sg n
.	.			Z	
</s>					
<s>					
Mihkel	Mihkel	0		H	sg n
Soontak	Soontak	0		H	sg n
kaebas	kaeba	s		V	s
,	,			Z	
et	et	0		J	
Jaan	Jaan	0		H	sg n
Rätsep	Rätsep	0		H	sg n
olla	ole	a		V	da
tema	tema	0		P	sg g
Annuse	annus	0		S	sg g
nr	nr	0		Y	?
6	6	0		N	?
rendikoha	rendi_koht	0		S	sg g
järel	järel	0		K	
olevat	olev	t		A	sg p
põldu	põld	0		S	sg p
,	,			Z	
umbes	umbes	0		D	
1	1	0		N	?
vakamaa	vaka_maa	0		S	sg g
suur	suur	0		A	sg n
,	,			Z	
pruukinud	pruuki	nud		V	nud
,	,			Z	
mis	mis	0		P	sg n
maakaardi	maa_kaart	0		S	sg g
järge	järg	0		S	sg p
tema	tema	0		P	sg g
jagu	jagu	0		S	sg n
ja	ja	0		J	
nendanimetatud	####				
""""	""""			Z	
Paka	Paka	0		H	sg n
""""	""""			Z	
ehk	ehk	0		J	
""""	""""			Z	
Sooba	####				
""""	""""			Z	
põllal	####				
seista	seis	ta		V	da
.	.			Z	
</s>					
<s>					
Kui	kui	0		D	
   	kui	0		J	
nemad	tema	d		P	pl n
Jaan	Jaan	0		H	sg n
Rätsepaga	Rätsep	ga		H	sg kom
27.	27.	0		O	?
aprillil	aprill	l		S	sg ad
s.a	s.a	0		Y	?
Kõima	Kõima	0		H	sg n
mõisas	mõis	s		S	sg in
Mihkli	Mihkli	0		H	sg n
kiriku	kiriku	0		H	sg n
eestseisja	eest_seisja	0		S	sg n
härra	härra	0		S	sg n
D.	D.	0		Y	sg n
von	####				
Ditmari	Ditmari	0		H	sg n
vaatamise	vaatamine	0		S	sg g
ja	ja	0		J	
ütlemise	ütlemine	0		S	sg g
järel	järel	0		K	
maakaardist	maa_kaart	st		S	sg el
nii	nii	0		D	
viisi	viisi	0		K	
ära	ära	0		D	
õiendanud	õienda	nud		V	nud
,	,			Z	
et	et	0		J	
see	see	0		P	sg n
põld	põld	0		S	sg n
täitsa	täitsa	0		D	
tema	tema	0		P	sg g
(	(			Z	
Mihkel	Mihkel	0		H	sg n
Soontaki	Soontak	0		H	sg g
)	)			Z	
jagu	jagu	0		S	sg n
on	ole	0		V	b
  	ole	0		V	vad
mida	mis	da		P	sg p
ta	tema	0		P	sg n
pruukida	pruuki	da		V	da
võib	või	b		V	b
,	,			Z	
ei	ei	0		V	neg
ole	ole	0		V	o
Jaan	Jaan	0		H	sg n
Rätsep	Rätsep	0		H	sg n
midagi	miski	dagi		P	sg p
selle	see	0		P	sg g
vastu	vastu	0		K	
enam	enam	0		D	
tõrelenud	tõrele	nud		V	nud
,	,			Z	
aga	aga	0		J	
pärast	pärast	0		K	
kui	kui	0		D	
   	kui	0		J	
tema	tema	0		P	sg g
põllu	põld	0		S	sg g
valmis	valmis	0		A	
kordanud	####				
,	,			Z	
olla	ole	a		V	da
Jaan	Jaan	0		H	sg n
Rätsep	Rätsep	0		H	sg n
13.	13.	0		O	?
mail	mai	l		S	sg ad
s.a	s.a	0		Y	?
tema	tema	0		P	sg g
keelust	keeld	st		S	sg el
hoolimata	hoolimata	0		K	
enamiste	####				
põllu	põld	0		S	sg g
odradega	####				
täis	täis	0		D	
külvanud	külva	nud		V	nud
,	,			Z	
nenda	nõnda	0		D	
et	et	0		J	
umbes	umbes	0		D	
¼	####				
jagu	jagu	0		S	sg n
see	see	0		P	sg n
on	ole	0		V	b
  	ole	0		V	vad
üks	üks	0		N	sg n
   	üks	0		P	sg n
külimatt	####				
odre	oder	i		S	pl p
temast	tema	st		P	sg el
(	(			Z	
Mihkel	Mihkel	0		H	sg n
Soontakist	Soontak	t		H	sg p
)	)			Z	
külvatud	külva	tud		V	tud
saanud	saa	nud		V	nud
mida	mis	da		P	sg p
igaüks	iga_üks	0		P	sg n
oma	oma	0		P	sg g
külvi	külv	0		S	sg g
sisse	sisse	0		K	
künnud	####				
ja	ja	0		J	
Jaan	Jaan	0		H	sg n
Rätsep	Rätsep	0		H	sg n
mõlemaid	mõlema	id		P	pl p
kündisid	künd	sid		S	pl p
jälle	jälle	0		D	
äestanud	äesta	nud		V	nud
ning	ning	0		J	
rullinud	rulli	nud		V	nud
.	.			Z	
</s>					
<s>					
Sellepärast	selle_pärast	0		D	
nõuab	nõud	b		V	b
Mihkel	Mihkel	0		H	sg n
Soontak	Soontak	0		H	sg n
,	,			Z	
et	et	0		J	
kohus	kohus	0		S	sg n
avitaks	avita	ks		V	ks
seda	see	da		P	sg p
põldu	põld	0		S	sg p
kui	kui	0		D	
   	kui	0		J	
tema	tema	0		P	sg g
seaduslikku	seaduslik	0		A	sg p
jagu	jagu	0		S	sg p
maa-kaardi	maa-kaart	0		S	sg g
põhjusel	põhjus	l		S	sg ad
tema	tema	0		P	sg g
pruukimiseks	pruukimine	ks		S	sg tr
anda	and	a		V	da
ja	ja	0		J	
Jaan	Jaan	0		H	sg n
Rätsepa	Rätsep	0		H	sg g
vastu	vastu	0		K	
kaitseda	kaitse	da		V	da
.	.			Z	
</s>					
<s>					
Pealegid	####				
,	,			Z	
et	et	0		J	
see	see	0		P	sg n
põld	põld	0		S	sg n
mineva	minev	0		A	sg g
1887	1887	0		N	?
aastal	aasta	l		S	sg ad
kui	kui	0		D	
   	kui	0		J	
tema	tema	0		P	sg g
(	(			Z	
Mihkel	Mihkel	0		H	sg n
Soontak	Soontak	0		H	sg n
)	)			Z	
juba	juba	0		D	
Annuse	annus	0		S	sg g
peremees	pere_mees	0		S	sg n
olnud	ole	nud		V	nud
,	,			Z	
ka	ka	0		D	
Jaan	Jaan	0		H	sg n
Rätsepa	Rätsep	0		H	sg g
rukide	####				
all	all	0		D	
olnud	ole	nud		V	nud
,	,			Z	
nõuab	nõud	b		V	b
Mihkel	Mihkel	0		H	sg n
Soontak	Soontak	0		H	sg n
selle	see	0		P	sg g
1887	1887	0		N	?
aasta	aasta	0		S	sg g
ette	ette	0		K	
2	2	0		N	?
setverti	setvert	0		S	sg p
rukit	####				
ja	ja	0		J	
tänavuse	tänavune	0		A	sg g
1888	1888	0		N	?
aasta	aasta	0		S	sg g
üle	üle	0		K	
pärib	päri	b		V	b
kõik	kõik	0		P	sg n
selle	see	0		P	sg g
põllu	põld	0		S	sg g
lõikuse	lõikus	0		S	sg g
ja	ja	0		J	
et	et	0		J	
Jaan	Jaan	0		H	sg n
Rätsep	Rätsep	0		H	sg n
sinna	sinna	0		D	
odrad	oder	d		S	pl n
teinud	tege	nud		V	nud
kus	kus	0		D	
tema	tema	0		P	sg g
kartuhvlid	####				
pidanud	pida	nud		V	nud
tegema	tege	ma		V	ma
,	,			Z	
selle	see	0		P	sg g
üle	üle	0		K	
nõuab	nõud	b		V	b
ta	tema	0		P	sg n
18	18	0		N	?
rubla	rubla	0		S	sg g
Jaan	Jaan	0		H	sg n
Rätsepa	Rätsep	0		H	sg g
käest	käsi	st		S	sg el
kahjutasumist	kahju_tasumine	t		S	sg p
.	.			Z	
</s>					
<s>					
Jaan	Jaan	0		H	sg n
Rätsep	Rätsep	0		H	sg n
ütles	ütle	s		V	s
,	,			Z	
et	et	0		J	
Mihkel	Mihkel	0		H	sg n
Soontaki	Soontak	0		H	sg g
rääkimine	rääkimine	0		S	sg n
küll	küll	0		D	
õige	õige	0		A	sg n
olla	ole	a		V	da
,	,			Z	
aga	aga	0		J	
tema	tema	0		P	sg n
pärib	päri	b		V	b
siiski	siiski	0		D	
seda	see	da		P	sg p
põldu	põld	0		S	sg p
omale	oma	le		P	sg all
,	,			Z	
olgu	ole	gu		V	gu
küll	küll	0		D	
et	et	0		J	
see	see	0		P	sg n
kaartis	####				
Mihkel	Mihkel	0		H	sg n
Soontaki	Soontak	0		H	sg g
jagu	jagu	0		S	sg n
on	ole	0		V	b
  	ole	0		V	vad
.	.			Z	
</s>					
<s>					
Maksa	maks	0		S	sg g
ei	ei	0		V	neg
taha	taht	0		V	o
tema	tema	0		P	sg g
Mihkel	Mihkel	0		H	sg n
Soontakile	Soontak	le		H	sg all
seepärast	see_pärast	0		D	
midagi	miski	dagi		P	sg p
,	,			Z	
et	et	0		J	
tema	tema	0		P	sg n
enne	enne	0		K	
seda	see	da		P	sg p
põldu	põld	0		S	sg p
mõnda	mõni	da		P	sg p
aastat	aasta	t		S	sg p
juba	juba	0		D	
on	ole	0		V	b
  	ole	0		V	vad
pruukinud	pruuki	nud		V	nud
ja	ja	0		J	
paljuse	paljus	0		S	sg g
arvu	arv	0		S	sg g
järge	järg	0		S	sg p
tema	tema	0		P	sg n
on	ole	0		V	b
  	ole	0		V	vad
.	.			Z	
</s>					
<s>					
Muidu	muidu	0		D	
puududa	puudu	da		V	da
temal	tema	l		P	sg ad
sealt	sealt	0		D	
üks	üks	0		N	sg n
   	üks	0		P	sg n
põld	põld	0		S	sg n
.	.			Z	
</s>					
<s>					
Mihkel	Mihkel	0		H	sg n
Soontak	Soontak	0		H	sg n
ütles	ütle	s		V	s
,	,			Z	
et	et	0		J	
seal	seal	0		D	
põllal	####				
peremeestel	pere_mees	tel		S	pl ad
üksteisega	üks_teise	ga		P	sg kom
mitte	mitte	0		D	
ühe	üks	0		N	sg g
   	üks	0		P	sg g
palju	palju	0		D	
põldusid	põld	sid		S	pl p
ei	ei	0		V	neg
ole	ole	0		V	o
ega	ega	0		J	
lugude	lugu	de		S	pl g
järge	järg	0		S	sg p
üksteisega	üks_teise	ga		P	sg kom
kõrvu	kõrv	u		S	pl p
ei	ei	0		V	neg
või	või	0		V	o
panna	pane	a		V	da
,	,			Z	
et	et	0		J	
küll	küll	0		D	
maad	maa	d		S	sg p
ühesuurused	ühe_suurune	d		A	pl n
on	ole	0		V	b
  	ole	0		V	vad
.	.			Z	
</s>					
<s>					
Jaan	Jaan	0		H	sg n
Rätsep	Rätsep	0		H	sg n
ütles	ütle	s		V	s
,	,			Z	
et	et	0		J	
ta	tema	0		P	sg n
umbes	umbes	0		D	
30	30	0		N	?
aastat	aasta	t		S	sg p
juba	juba	0		D	
seda	see	da		P	sg p
põldu	põld	0		S	sg p
pruukinud	pruuki	nud		V	nud
ja	ja	0		J	
sellepärast	selle_pärast	0		D	
seda	see	da		P	sg p
kätte	käsi	tte		S	adt
ei	ei	0		V	neg
või	või	0		V	o
anda	and	a		V	da
,	,			Z	
ja	ja	0		J	
kui	kui	0		D	
   	kui	0		J	
see	see	0		P	sg n
põld	põld	0		S	sg n
temale	tema	le		P	sg all
jäeb	####				
siis	siis	0		D	
pärib	päri	b		V	b
Mihkel	Mihkel	0		H	sg n
Soontakist	Soontak	t		H	sg p
külitud	küli	tud		V	tud
odrad	oder	d		S	pl n
ka	ka	0		D	
omale	oma	le		S	sg all
.	.			Z	
</s>					
<s>					
Mihkel	Mihkel	0		H	sg n
Soontak	Soontak	0		H	sg n
ütles	ütle	s		V	s
,	,			Z	
et	et	0		J	
enne	enne	0		K	
on	ole	0		V	b
  	ole	0		V	vad
ilma	ilma	0		K	
maakaardita	maa_kaart	ta		S	sg ab
neid	see	d		P	pl p
põldusid	põld	sid		S	pl p
pruugitud	pruuki	tud		V	tud
,	,			Z	
aga	aga	0		J	
kuue	kuus	0		N	sg g
aasta	aasta	0		S	sg g
eest	eest	0		K	
saanud	saa	nud		V	nud
iga	iga	0		P	sg n
peremees	pere_mees	0		S	sg n
oma	oma	0		P	sg g
põllu	põld	0		S	sg g
maakaardi	maa_kaart	0		S	sg g
järel	järel	0		K	
kätte	käsi	tte		S	adt
ja	ja	0		J	
see	see	0		P	sg n
üks	üks	0		N	sg n
   	üks	0		P	sg n
tema	tema	0		P	sg g
põld	põld	0		S	sg n
on	ole	0		V	b
  	ole	0		V	vad
teadmata	tead=mata	0		A	
viisil	viis	l		S	sg ad
Jaan	Jaan	0		H	sg n
Rätsepa	Rätsep	0		H	sg g
pruukida	pruuki	da		V	da
jäenud	####				
.	.			Z	
</s>					
<s>					
Vallakohus	valla_kohus	0		S	sg n
vaatas	vaata	s		V	s
tänasel	tänane	l		A	sg ad
päeval	päev	l		S	sg ad
Kõima	Kõima	0		H	sg n
mõisas	mõis	s		S	sg in
Mihkli	Mihkli	0		H	sg n
kiriku	kiriku	0		H	sg n
eestseisja	eest_seisja	0		S	sg n
härra	härra	0		S	sg n
D.	D.	0		Y	sg n
von	####				
Ditmari	Ditmari	0		H	sg n
juures	juures	0		K	
olemisel	olemine	l		S	sg ad
Mihkli	Mihkli	0		H	sg n
kiriku	kiriku	0		H	sg n
valla	valla	0		H	sg n
maakaardist	maa_kaart	st		S	sg el
,	,			Z	
et	et	0		J	
see	see	0		P	sg n
põld	põld	0		S	sg n
Mihkel	Mihkel	0		H	sg n
Soontaki	Soontak	0		H	sg g
jagu	jagu	0		S	sg n
on	ole	0		V	b
  	ole	0		V	vad
Annuse	annus	0		S	sg g
koha	koha	0		S	sg g
    	koht	0		S	sg g
nr	nr	0		Y	?
6	6	0		N	?
järel	järel	0		K	
ja	ja	0		J	
Marguse	Marguse	0		H	sg n
nr	nr	0		Y	?
16	16	0		N	?
seal	seal	0		D	
ei	ei	0		V	neg
seisa	seis	0		V	o
.	.			Z	
</s>					
<s>					
Mõistetud	mõist	tud		V	tud
:	:			Z	
See	see	0		P	sg n
põld	põld	0		S	sg n
jäeb	####				
edaspidi	edas_pidi	0		D	
nii	nii	0		D	
kauaks	kauaks	0		D	
kui	kui	0		D	
   	kui	0		J	
Jaan	Jaan	0		H	sg n
Rätsep	Rätsep	0		H	sg n
Marguse	Marguse	0		H	sg n
koha	koha	0		S	sg g
    	koht	0		S	sg g
peremees	pere_mees	0		S	sg n
on	ole	0		V	b
  	ole	0		V	vad
,	,			Z	
tema	tema	0		P	sg g
pruukimiseks	pruukimine	ks		S	sg tr
ja	ja	0		J	
Mihkel	Mihkel	0		H	sg n
Soontak	Soontak	0		H	sg n
ei	ei	0		V	neg
või	või	0		V	o
sealt	sealt	0		D	
mitte	mitte	0		D	
kahjutasumist	kahju_tasumine	t		S	sg p
pärida	päri	da		V	da
vaid	vaid	0		D	
temal	tema	l		P	sg ad
jäeb	####				
õigus	õigus	0		S	sg n
Jaan	Jaan	0		H	sg n
Rätsepalt	Rätsep	t		H	sg p
üks	üks	0		N	sg n
   	üks	0		P	sg n
külimat	####				
odra	oder	0		S	sg g
seemet	seeme	t		S	sg p
tagasi	tagasi	0		D	
pärida	päri	da		V	da
,	,			Z	
mis	mis	0		P	sg n
ta	tema	0		P	sg n
sinna	sinna	0		D	
maha	maha	0		D	
on	ole	0		V	b
  	ole	0		V	vad
külvanud	külva	nud		V	nud
.	.			Z	
</s>					
<s>					
(	(			Z	
Kohtu	kohus	0		S	sg g
mõistus	mõistus	0		S	sg n
ja	ja	0		J	
appellatsjooni	####				
seatud	sead	tud		V	tud
kord	kord	0		S	sg n
sai	saa	i		V	s
kohtukäijatele	kohtu_käija	tele		S	pl all
kuulutud	kuulu	tud		V	tud
.)	.)			Z	
</s>					
