<s>					
Johann	Johann	0		H	sg n
Patto	Patto	0		H	sg n
kaivas	kaeba	s		V	s
Heindrik	Heindrik	0		H	sg n
Schvalbe	Schvalbe	0		H	sg n
päle	peale	0		K	
et	et	0		J	
temma	tema	0		P	sg g
võt	####				
minno	mina	0		P	sg p
Piibo	Piibo	0		H	sg n
tõmada	####				
,	,			Z	
sis	siis	0		D	
küsse	küsi	0		V	s
omma	oma	0		P	sg g
Piibo	Piibo	0		H	sg n
,	,			Z	
se	see	0		P	sg n
päle	peale	0		K	
võt	####				
minno	mina	0		P	sg p
ollast	####				
kinni	kinni	0		D	
ja	ja	0		J	
taht	taht	0		S	sg n
minno	mina	0		P	sg p
ärrä	ära	0		D	
käkkistada	####				
Kusta	Kusta	0		H	sg n
Varnik	Varnik	0		H	sg n
kes	kes	0		P	sg n
man	man	0		D	
olli	ole	i		V	s
üttel	ütle	0		V	s
:	:			Z	
Patto	Patto	0		H	sg n
nõus	nõus	0		D	
omma	oma	0		P	sg g
Piibo	Piibo	0		H	sg n
sis	siis	0		D	
võt	####				
Schvalbe	Schvalbe	0		H	sg n
kattest	kate	st		S	sg el
õllast	####				
kinni	kinni	0		D	
ja	ja	0		J	
tegiva	tege	iva		V	sid
lärmi	lärm	0		S	sg p
.	.			Z	
</s>					
<s>					
Moisteti	####				
:	:			Z	
Selle	sell	e		S	pl p
et	et	0		J	
mõllemba	####				
viina	viin	0		S	sg p
sanu	saa	nu		V	nud
ja	ja	0		J	
lärmi	lärm	0		S	sg g
teeva	####				
sava	####				
kumbke	####				
24	24	0		N	?
tunnis	tund	s		S	sg in
kinni	kinni	0		D	
pantus	####				
.	.			Z	
</s>					
<s>					
Loeti	luge	ti		V	ti
ette	ette	0		D	
,	,			Z	
jäva	####				
rahhule	####				
.	.			Z	
</s>					
