<s>					
Rein	Rein	0		H	sg n
Praks	Praks	0		H	sg n
Lina	lina	0		S	sg n
Praksi	Praks	0		H	sg g
essäk	####				
kaivas	kaeba	s		V	s
Karl	Karl	0		H	sg n
Raag	Raag	0		H	sg n
naise	naine	0		S	sg g
Els	Els	0		H	sg n
Raag	Raag	0		H	sg n
päle	peale	0		K	
et	et	0		J	
mino	mina	0		P	sg g
naise	naine	0		S	sg g
Emä	Emä	0		H	sg n
and	and	0		V	s
latse	lats	e		S	pl p
Karl	Karl	0		H	sg n
Raagale	Raag	le		H	sg all
kasso	####				
latses	####				
kui	kui	0		D	
   	kui	0		J	
jo	juba	0		D	
lats	lats	0		S	sg n
möni	####				
paar	paar	0		N	sg n
näddälat	####				
sääl	seal	0		D	
olli	ole	i		V	s
olnu	ole	nud		V	nud
sis	siis	0		D	
om	ole	0		V	b
latse	lats	e		S	pl p
eesmält	esmalt	0		D	
omma	oma	0		P	sg g
sea	siga	0		S	sg g
karja	kari	0		S	sg g
ja	ja	0		J	
perräst	pärast	0		K	
tallo	talu	sse		S	sg ill
sea	siga	0		A	sg g
karja	kari	0		S	sg g
saatnu	saat	nud		V	nud
,	,			Z	
selle	see	0		P	sg g
et	et	0		J	
lats	lats	0		S	sg n
sea	siga	0		S	sg g
karjan	####				
es	ei	s		V	neg s
jõvva	####				
kävva	####				
jäi	jää	i		V	s
haiges	haige	s		S	sg in
ja	ja	0		J	
tulli	tule	i		V	s
ärrä	ära	0		D	
,	,			Z	
emmä	####				
Ann	Ann	0		H	sg n
pess	####				
latse	lats	e		S	pl p
läbbi	läbi	0		D	
ja	ja	0		J	
saat	####				
latse	lats	e		S	pl p
taggasi	tagasi	0		D	
,	,			Z	
ent	ent	0		J	
se	see	0		P	sg n
päle	peale	0		K	
om	ole	0		V	b
Els	Els	0		H	sg n
Raag	Raag	0		H	sg n
jälle	jälle	0		D	
last	laps	t		S	sg p
pesnu	peks	nud		V	nud
kuis	kuis	0		D	
voisi	####				
minna	mine	a		V	da
last	laps	t		S	sg p
sinnä	sinna	0		D	
jätta	jät	a		V	da
ja	ja	0		J	
minna	mine	a		V	da
nõvva	nõud	0		V	n
pesmisse	####				
eest	eest	0		D	
vallo	####				
rahha	raha	0		S	sg g
9	9	0		N	?
rbl	rbl	0		Y	
nink	ning	0		J	
politsei	politsei	0		S	sg g
trahvi	trahv	0		S	sg g
,	,			Z	
Els	Els	0		H	sg n
Raag	Raag	0		H	sg n
om	ole	0		V	b
Hans	Hans	0		H	sg n
Kimmalanne	Kimmalanne	0		H	sg n
ja	ja	0		J	
Pe	Pe	0		Y	sg n
Põhjatu	Põhjatu	0		H	sg n
kuulten	####				
essi	ise	0		P	sg n
könnelnu	####				
et	et	0		J	
minna	mine	a		V	da
olle	ole	0		V	o
last	laps	t		S	sg p
pesnu	peks	nud		V	nud
,	,			Z	
sest	sest	0		J	
muud	muu	d		P	pl n
tunnistajad	tunnistaja	d		S	pl n
es	ei	s		V	neg s
olle	ole	0		V	o
sääl	seal	0		D	
,	,			Z	
kui	kui	0		D	
   	kui	0		J	
ne	see	0		P	pl n
kelle	kes	0		P	sg g
ta	tema	0		P	sg n
essi	ise	0		P	sg n
könnel	####				
,	,			Z	
minna	mine	a		V	da
palle	pall	e		S	pl p
et	et	0		J	
na	na	0		D	
ette	ette	0		D	
kutsutas	####				
.	.			Z	
</s>					
<s>					
Els	Els	0		H	sg n
Raag	Raag	0		H	sg n
tulli	tule	i		V	s
ette	ette	0		D	
nink	ning	0		J	
üttel	ütle	0		V	s
:	:			Z	
minna	mine	a		V	da
aye	####				
last	laps	t		S	sg p
tarre	tare	0		S	adt
,	,			Z	
võtsi	####				
leppä	####				
hao	hagu	0		S	sg g
es	ei	s		V	neg s
lö	####				
enge	####				
hirmutassi	hirmu_tass	0		S	sg g
teddä	####				
,	,			Z	
Hans	Hans	0		H	sg n
Kimalanne	Kimalane	0		H	sg g
om	ole	0		V	b
neide	neid	e		S	pl p
suggulane	sugulane	0		S	sg n
ja	ja	0		J	
minno	mina	0		P	sg p
vihha	####				
mees	mees	0		S	sg n
kuis	kuis	0		D	
voijo	####				
temmä	tema	0		P	sg n
tunnistaja	tunnistaja	0		S	sg g
olla	ole	a		V	da
.	.			Z	
</s>					
<s>					
Tunnistaja	tunnistaja	0		S	sg n
Hans	Hans	0		H	sg n
Kimalane	Kimalane	0		H	sg n
venne	####				
usku	usk	0		S	sg p
üttel	ütle	0		V	s
:	:			Z	
Els	Els	0		H	sg n
Raag	Raag	0		H	sg n
üttel	ütle	0		V	s
essi	ise	0		P	sg n
mulle	mina	lle		P	sg all
,	,			Z	
et	et	0		J	
minna	mine	a		V	da
pessi	####				
teddä	####				
häste	####				
vitsaga	vits	ga		S	sg kom
,	,			Z	
ent	ent	0		J	
lats	lats	0		S	sg n
üttel	ütle	0		V	s
tokkiga	tokk_iga	0		S	sg p
pesvat	####				
,	,			Z	
seddä	see	dä		P	sg p
könnet	####				
kuuld	kuuld	0		S	sg n
Peter	Peter	0		H	sg n
Põhjatu	Põhjatu	0		H	sg n
.	.			Z	
</s>					
<s>					
Peter	Peter	0		H	sg n
Põhjatu	Põhjatu	0		H	sg n
vene	vene	0		G	
usku	usk	0		S	sg p
üttel	ütle	0		V	s
:	:			Z	
minna	mine	a		V	da
es	ei	s		V	neg s
kuule	kuul	0		V	o
mitte	mitte	0		D	
kuis	kuis	0		D	
neide	neid	e		S	pl p
jutt	jutt	0		S	sg n
olli	ole	i		V	s
.	.			Z	
</s>					
<s>					
Moistetu	mõist	tu		V	tud
:	:			Z	
Karl	Karl	0		H	sg n
Raag	Raag	0		H	sg n
peap	pida	b		V	b
omma	oma	0		P	sg g
naise	naine	0		S	sg g
Else	####				
eest	eest	0		K	
Lina	lina	0		S	sg n
Partsi	Partsi	0		H	sg n
Essäko	Essäko	0		H	sg n
Rein	Rein	0		H	sg n
Praks	Praks	0		H	sg n
kätte	käsi	tte		S	adt
vallo	####				
rahha	raha	0		S	sg g
3	3	0		N	?
rbl	rbl	0		Y	
ja	ja	0		J	
politsei	politsei	0		S	sg g
trahvi	trahv	0		S	sg g
valla	valla	0		H	sg n
ladiko	####				
hääs	####				
2	2	0		N	?
rbl	rbl	0		Y	
2	2	0		N	?
näddäli	nädal	0		S	sg g
sissen	####				
ärrä	ära	0		D	
masma	maks	ma		V	ma
.	.			Z	
</s>					
<s>					
Loeti	luge	ti		V	ti
ette	ette	0		D	
Karl	Karl	0		H	sg n
Raag	Raag	0		H	sg n
ja	ja	0		J	
Rein	Rein	0		H	sg n
Praks	Praks	0		H	sg n
ei	ei	0		V	neg
olle	ole	0		V	o
rahhul	rahul	0		D	
.	.			Z	
</s>					
<s>					
Protokoll	protokoll	0		S	sg n
anti	and	ti		V	ti
sel	see	l		P	sg ad
29	29	0		N	?
Febr	####				
.	.			Z	
</s>					
<s>					
välja	välja	0		D	
.	.			Z	
</s>					
<s>					
Kui	kui	0		D	
   	kui	0		J	
ette	ette	0		D	
olli	ole	i		V	s
loetu	loetu	0		S	sg n
sis	siis	0		D	
and	and	0		V	s
Els	Els	0		H	sg n
Raag	Raag	0		H	sg n
veel	veel	0		D	
Liiso	Liiso	0		H	sg n
Petersoni	Peterson	0		H	sg g
tunnistajas	tunnistaja	s		S	sg in
,	,			Z	
kes	kes	0		P	sg n
man	man	0		D	
olnu	ole	nud		V	nud
.	.			Z	
</s>					
<s>					
Liiso	Liiso	0		H	sg n
Peterson	Peterson	0		H	sg n
olli	ole	i		V	s
man	man	0		D	
,	,			Z	
selle	see	0		P	sg g
et	et	0		J	
Liisa	Liiso	0		H	sg n
Peterson	Peterson	0		H	sg n
,	,			Z	
es	ei	s		V	neg s
olle	ole	0		V	o
kohtu	kohus	0		S	sg g
ette	ette	0		K	
tullu	tule	nud		V	nud
pudup	####				
se	see	0		P	sg n
tunistus	####				
,	,			Z	
et	et	0		J	
mina	mina	0		S	sg n
ei	ei	0		V	neg
olle	ole	0		V	o
last	laps	t		S	sg p
pesnu	peks	nud		V	nud
,	,			Z	
jääp	jää	p		V	b
ni	nii	0		D	
kui	kui	0		D	
   	kui	0		J	
enne	enne	0		D	
,	,			Z	
se	see	0		P	sg n
viimane	viimane	0		A	sg n
ei	ei	0		V	neg
tulle	tuli	0		S	adt
kirjotada	####				
.	.			Z	
</s>					
