<s>					
Hans	Hans	0		H	sg n
Vint	Vint	0		H	sg n
kaivas	kaeba	s		V	s
Johann	Johann	0		H	sg n
Sageusse	Sageus	sse		H	sg ill
päle	peale	0		K	
,	,			Z	
et	et	0		J	
temä	tema	0		P	sg n
mulle	mina	lle		P	sg all
5	5	0		N	?
rbl	rbl	0		Y	
võlgo	võlg	u		S	pl p
om	ole	0		V	b
ütlep	ütle	b		V	b
et	et	0		J	
mina	mina	0		P	sg n
olle	ole	0		V	o
kallo	####				
temä	tema	0		P	sg n
käest	käsi	st		S	sg el
selle	see	0		P	sg g
raha	raha	0		S	sg g
eest	eest	0		K	
viino	####				
,	,			Z	
ent	ent	0		J	
mina	mina	0		S	sg n
olle	ole	0		V	o
konagi	kunagi	0		D	
kallo	####				
toonu	too	nud		V	nud
.	.			Z	
</s>					
<s>					
Johann	Johann	0		H	sg n
Sageus	Sageus	0		H	sg n
üttel	ütle	0		V	s
et	et	0		J	
mina	mina	0		P	sg n
olle	ole	0		V	o
temä	tema	0		P	sg n
käest	käsi	st		S	sg el
3	3	0		N	?
rbl	rbl	0		Y	
lainanu	####				
ent	ent	0		J	
selle	see	0		P	sg g
eest	eest	0		K	
olle	ole	0		V	o
tälle	tema	le		P	sg all
essi	ise	0		P	sg n
mitto	####				
kõrd	kord	0		S	sg n
kallo	####				
viino	####				
nink	ning	0		J	
ei	ei	0		V	neg
olle	ole	0		V	o
tälle	tema	le		P	sg all
middägi	miski	dägi		P	sg p
massa	maks	0		S	sg p
.	.			Z	
</s>					
<s>					
Moistetu	mõist	tu		V	tud
:	:			Z	
Selle	sell	e		S	pl p
et	et	0		J	
kumalgi	kuma	l	gi	S	sg ad
tunistust	####				
ei	ei	0		V	neg
olle	ole	0		V	o
et	et	0		J	
kallo	####				
ilma	ilma	0		K	
rahata	raha	ta		S	sg ab
olles	ole	es		V	des
sanu	saa	nu		V	nud
sis	siis	0		D	
lepis	####				
Vint	Vint	0		H	sg n
3	3	0		N	?
rbl	rbl	0		Y	
ja	ja	0		J	
Johan	Johan	0		H	sg n
Sageus	Sageus	0		H	sg n
peap	pida	b		V	b
3	3	0		N	?
rbl	rbl	0		Y	
masma	maks	ma		V	ma
.	.			Z	
</s>					
<s>					
Sel	sel	0		Y	?
22	22	0		N	?
Märtsil	märts	l		S	sg ad
1884.	1884.	0		O	?
masnu	maks	nud		V	nud
Vasta	vasta	0		V	o
võtnu	võt	nud		V	nud
Hans	Hans	0		H	sg n
Vint	Vint	0		H	sg n
</s>					
