<s>					
Valguta	Valguta	0		H	sg n
moisa	mõis	0		S	sg g
vallitseja	####				
Härrä	Härrä	0		H	sg n
A	A	0		Y	sg n
Tobber	Tobber	0		H	sg n
kaivas	kaeba	s		V	s
Murro	Murro	0		H	sg n
perremehe	perre_mees	0		S	sg g
Margus	Margus	0		H	sg n
Põdder	Põdder	0		H	sg n
päle	peale	0		K	
et	et	0		J	
temä	tema	0		P	sg n
Tallo	Tallo	0		H	sg n
ait	ait	0		S	sg n
verest	veri	st		S	sg el
ütte	üte	0		S	sg g
kõivo	####				
mes	mis	0		P	sg n
kui	kui	0		D	
   	kui	0		J	
tallo	talu	sse		S	sg ill
illu	####				
om	ole	0		V	b
ja	ja	0		J	
ennembi	####				
jo	juba	0		D	
sääl	seal	0		D	
kassunu	####				
om	ole	0		V	b
kui	kui	0		D	
   	kui	0		J	
se	see	0		P	sg n
perremees	perre_mees	0		S	sg n
ärrä	ära	0		D	
raggunu	####				
ja	ja	0		J	
mitto	####				
kontrakti	####				
aiga	aeg	0		S	sg p
sääl	seal	0		D	
jo	juba	0		D	
saisnu	####				
om	ole	0		V	b
,	,			Z	
mes	mis	0		P	sg n
nüüd	nüüd	0		D	
kui	kui	0		D	
   	kui	0		J	
maja	maja	0		S	sg g
ommantus	####				
om	ole	0		V	b
,	,			Z	
se	see	0		P	sg n
kõiv	kõiv	0		S	sg n
om	ole	0		V	b
Kubernimango	####				
Zeitungi	####				
taksi	taks	0		S	sg g
perrä	####				
kes	kes	0		P	sg n
19	19	0		N	?
tolli	toll	0		S	sg g
paksi	####				
11	11	0		N	?
rbl	rbl	0		Y	
70	70	0		N	?
kop	kop	0		Y	?
väärt	väärt	0		D	
ja	ja	0		J	
nõvva	nõud	0		V	n
nida	####				
selle	see	0		P	sg g
sädusse	####				
põhja	põhi	0		S	sg g
paal	paa	l		S	sg ad
3	3	0		N	?
kõrd	kord	0		S	sg n
sedda	see	da		P	sg p
hinda	hind	0		S	sg p
35	35	0		N	?
rbl	rbl	0		Y	
10	10	0		N	?
kop	kop	0		Y	?
,	,			Z	
selle	see	0		P	sg g
kõivo	####				
eest	eest	0		K	
trahvi	trahv	0		S	sg g
.	.			Z	
</s>					
<s>					
Margus	Margus	0		H	sg n
Põdder	Põdder	0		H	sg n
tulli	tule	i		V	s
ette	ette	0		D	
nink	ning	0		J	
üttel	ütle	0		V	s
:	:			Z	
se	see	0		P	sg n
kõiv	kõiv	0		S	sg n
om	ole	0		V	b
36	36	0		N	?
aasta	aasta	0		S	sg g
eest	eest	0		K	
minno	mina	0		P	sg p
naisel	naine	l		S	sg ad
,	,			Z	
kes	kes	0		P	sg n
enne	enne	0		K	
mino	mina	0		P	sg g
sääl	seal	0		D	
olli	ole	i		V	s
istutetu	####				
ja	ja	0		J	
se	see	0		P	sg n
pu	####				
om	ole	0		V	b
minno	mina	0		P	sg p
künni	künd	0		S	sg g
ma	mina	0		P	sg n
sissen	####				
kassunu	####				
,	,			Z	
temä	tema	0		P	sg n
om	ole	0		V	b
minno	mina	0		P	sg p
väljä	####				
ärrä	ära	0		D	
varjanu	varja=nu	0		S	sg n
,	,			Z	
kui	kui	0		D	
   	kui	0		J	
moisa	mõis	0		S	sg g
mino	mina	0		P	sg g
käest	käsi	st		S	sg el
se	see	0		P	sg n
perräst	pärast	0		K	
trahvi	trahv	0		S	sg g
nõvvap	####				
et	et	0		J	
minna	mine	a		V	da
teddä	####				
olle	ole	0		V	o
ärrä	ära	0		D	
raggunu	####				
,	,			Z	
sis	siis	0		D	
peä	####				
minna	mine	a		V	da
eggä	iga	0		P	sg n
aasta	aasta	0		S	sg g
eest	eest	0		K	
mes	mis	0		P	sg n
ta	tema	0		P	sg n
sääl	seal	0		D	
om	ole	0		V	b
kassunu	####				
.	.			Z	
</s>					
<s>					
1	1	0		N	?
vak	####				
suvve	####				
vilja	vili	0		S	sg p
mes	mis	0		P	sg n
ta	tema	0		P	sg n
om	ole	0		V	b
ärrä	ära	0		D	
varjanu	varja=nu	0		S	sg g
kahju	kahi	0		S	sg g
     	kahju	0		S	sg g
tassumises	####				
nõudma	nõud	ma		V	ma
.	.			Z	
</s>					
<s>					
Kui	kui	0		D	
   	kui	0		J	
se	see	0		P	sg n
pu	####				
om	ole	0		V	b
istetu	iste=tu	0		A	sg n
selle	see	0		P	sg g
ülle	ülle	0		D	
om	ole	0		V	b
tunnistaja	tunnistaja	0		S	sg n
Andres	Andres	0		H	sg n
Sillaots	Sillaots	0		H	sg n
.	.			Z	
</s>					
<s>					
Tunnistaja	tunnistaja	0		S	sg n
Andres	Andres	0		H	sg n
Sillaots	Sillaots	0		H	sg n
venne	####				
usko	####				
tulli	tule	i		V	s
ette	ette	0		D	
üttel	ütle	0		V	s
:	:			Z	
kui	kui	0		D	
   	kui	0		J	
minna	mine	a		V	da
36	36	0		N	?
aasta	aasta	0		S	sg g
eest	eest	0		K	
sääl	seal	0		D	
tallun	talu	n		S	sg in
olli	ole	i		V	s
,	,			Z	
sis	siis	0		D	
istut	####				
Peter	Peter	0		H	sg n
Nöps	Nöps	0		H	sg n
sellesama	see_sama	0		P	sg g
Tallo	Tallo	0		H	sg n
perrensise	####				
Anikega	Anikega	ga		H	sg n
selle	see	0		P	sg g
pu	####				
mes	mis	0		P	sg n
nüüd	nüüd	0		D	
Margus	Margus	0		H	sg n
Põdder	Põdder	0		H	sg n
mahha	maha	0		D	
raggunu	####				
,	,			Z	
sääl	seal	0		D	
aid	####				
verren	####				
olli	ole	i		V	s
ka	ka	0		D	
enne	enne	0		K	
puid	puu	id		S	pl p
ent	ent	0		J	
minna	mine	a		V	da
ei	ei	0		V	neg
olle	ole	0		V	o
nüüd	nüüd	0		D	
nännu	näge	nu		V	nud
kus	kus	0		D	
se	see	0		P	sg n
pu	####				
om	ole	0		V	b
mes	mis	0		P	sg n
istetu	iste=tu	0		A	sg n
.	.			Z	
</s>					
<s>					
Moisa	Moisa	0		H	sg n
Vallitseja	####				
üttel	ütle	0		V	s
selle	see	0		P	sg g
kahjo	####				
nõudmisse	nõudmine	se		S	adt
päle	peale	0		K	
ei	ei	0		V	neg
olle	ole	0		V	o
mul	mina	l		P	sg ad
siin	siin	0		D	
middägi	miski	dägi		P	sg p
ütlemist	ütlemine	t		S	sg p
.	.			Z	
</s>					
<s>					
Moistetu	mõist	tu		V	tud
.	.			Z	
</s>					
<s>					
Selle	sell	e		S	pl p
et	et	0		J	
Margus	Margus	0		H	sg n
Põdder	Põdder	0		H	sg n
kontrakti	####				
vahe	vahe	0		S	sg g
ajal	ajal	0		K	
ei	ei	0		V	neg
olle	ole	0		V	o
moisa	mõis	0		S	sg g
vallitsussele	####				
üttelnu	ütle	nu		V	nud
,	,			Z	
et	et	0		J	
se	see	0		P	sg n
pu	####				
kahjo	####				
teep	tege	b		V	b
,	,			Z	
sis	siis	0		D	
ei	ei	0		V	neg
sa	sina	0		P	sg n
temä	tema	0		P	sg n
middagi	miski	dagi		P	sg p
kahjo	####				
tassumisses	####				
enege	####				
peäp	####				
Moisale	####				
se	see	0		P	sg n
pu	####				
hind	hind	0		S	sg n
ennegi	ennegi	0		D	
üts	üks	0		P	sg n
kõrd	kord	0		S	sg n
11	11	0		N	?
rbl	rbl	0		Y	
70	70	0		N	?
kop	kop	0		Y	?
2	2	0		N	?
näddäli	nädal	0		S	sg g
sissen	####				
ärrä	ära	0		D	
masma	maks	ma		V	ma
.	.			Z	
</s>					
<s>					
Loeti	luge	ti		V	ti
ette	ette	0		D	
:	:			Z	
Margus	Margus	0		H	sg n
Põdder	Põdder	0		H	sg n
ei	ei	0		V	neg
olle	ole	0		V	o
rahhul	rahul	0		D	
,	,			Z	
Päle	####				
se	see	0		P	sg n
ei	ei	0		V	neg
olle	ole	0		V	o
ka	ka	0		D	
moisa	mõis	0		S	sg g
vallitsus	####				
rahhul	rahul	0		D	
.	.			Z	
</s>					
<s>					
Protokolli	protokoll	0		S	adt
anti	and	ti		V	ti
välja	välja	0		D	
sel	see	l		P	sg ad
10	10	0		N	?
Febr	####				
.	.			Z	
</s>					
