<s>					
Jürri	Jürri	0		H	sg n
Puskar	Puskar	0		H	sg n
kaivas	kaeba	s		V	s
neide	neid	e		S	pl p
poiste	poiss	te		S	pl g
päle	peale	0		K	
:	:			Z	
Jaan	Jaan	0		H	sg n
Sieder	Sieder	0		H	sg n
,	,			Z	
Jaan	Jaan	0		H	sg n
Räst	Räst	0		H	sg n
,	,			Z	
Hans	Hans	0		H	sg n
Uibo	Uibo	0		H	sg n
,	,			Z	
Peter	Peter	0		H	sg n
Tam	Tam	0		H	sg n
nink	ning	0		J	
Kristian	Kristian	0		H	sg n
Põdder	Põdder	0		H	sg n
nemma	####				
tulliva	tull_iva	0		S	sg n
sel	see	l		P	sg ad
27	27	0		N	?
Augustil	august	l		S	sg ad
ööse	öös	e		S	pl p
minno	mina	0		P	sg p
tarre	tare	0		S	adt
sisse	sisse	0		D	
ja	ja	0		J	
nõudsiva	####				
minno	mina	0		P	sg p
tüttart	####				
Minat	####				
tagga	taga	0		D	
,	,			Z	
ja	ja	0		J	
M.	M.	0		Y	sg n
Puritu	Purits	0		H	sg n
takkesis	####				
läts	####				
kui	kui	0		D	
   	kui	0		J	
nemma	####				
sääl	seal	0		D	
veidi	veidi	0		D	
aiga	aeg	0		S	sg p
tantseva	####				
sis	siis	0		D	
lätsiva	lätsi=v	0		A	sg g
mu	mina	0		P	sg g
välja	välja	0		D	
ent	ent	0		J	
Jaan	Jaan	0		H	sg n
Sieder	Sieder	0		H	sg n
ja	ja	0		J	
Kristian	Kristian	0		H	sg n
Põdder	Põdder	0		H	sg n
tulliva	tull_iva	0		S	sg g
taggasi	tagasi	0		K	
sisse	sisse	0		D	
ja	ja	0		J	
Sieder	Sieder	0		H	sg n
üttel	ütle	0		V	s
omma	oma	0		P	sg g
väitse	väits	0		S	adt
ärrä	ära	0		D	
kaddunu	kadu	nud		V	nud
ollevat	ole	vat		V	vat
võt	####				
tulle	tuli	0		S	adt
ülles	üles	0		D	
ja	ja	0		J	
ots	ots	0		S	sg n
omma	oma	0		P	sg g
väitse	väits	0		S	sg g
välja	välja	0		D	
,	,			Z	
ent	ent	0		J	
seni	seni	0		D	
kui	kui	0		D	
   	kui	0		J	
ne	see	0		P	pl n
kats	####				
sissen	####				
olliva	####				
naksiva	naksi=v	0		A	sg g
ne	see	0		P	pl n
tõise	####				
poisi	poiss	0		S	sg g
väljan	välja	n		V	n
kivvedega	####				
sainu	####				
päle	peale	0		K	
pilma	####				
,	,			Z	
viimate	####				
pilsiva	####				
nemma	####				
väikessest	####				
aknast	aken	st		S	sg el
kelle	kes	0		P	sg g
kottal	####				
perrenaine	####				
latsega	####				
san	####				
maggas	maga	s		V	s
mulda	muld	0		S	adt
ja	ja	0		J	
porri	pori	0		S	adt
     	porr	0		S	adt
sängi	säng	0		S	sg p
,	,			Z	
perräst	pärast	0		K	
ajasiva	####				
nemma	####				
suure	suur	0		A	sg g
5	5	0		N	?
sülda	süld	0		S	sg p
pikka	pikk	0		A	sg p
raviko	####				
akna	aken	0		S	sg g
kruutist	####				
sisse	sisse	0		D	
ja	ja	0		J	
tõmassiva	####				
eddesi	edasi	0		D	
taggasi	tagasi	0		D	
seni	seni	0		D	
kui	kui	0		D	
   	kui	0		J	
aken	aken	0		S	sg n
kige	kõik	0		P	sg g
kruute	####				
ja	ja	0		J	
ramiga	####				
mahha	maha	0		D	
satte	####				
ja	ja	0		J	
katski	####				
läts	####				
,	,			Z	
ent	ent	0		J	
ne	see	0		P	pl n
kats	####				
poisi	poiss	0		S	sg g
Sieder	Sieder	0		H	sg n
ja	ja	0		J	
Põdder	Põdder	0		H	sg n
olliva	####				
kik	####				
se	see	0		P	sg n
aig	####				
sissen	####				
,	,			Z	
neil	see	l		P	pl ad
olli	ole	i		V	s
se	see	0		P	sg n
nõud	nõu	d		S	pl n
peetu	peetu	0		S	sg n
,	,			Z	
kui	kui	0		D	
   	kui	0		J	
minna	mine	a		V	da
välja	välja	0		D	
neid	see	d		P	pl p
keelma	####				
lä	####				
et	et	0		J	
sis	siis	0		D	
minno	mina	0		P	sg p
tappas	####				
,	,			Z	
sest	sest	0		J	
ne	see	0		P	pl n
tijava	####				
selgete	selge	te		A	pl g
et	et	0		J	
kes	kes	0		P	sg n
ne	see	0		P	pl n
tõise	####				
olliva	####				
.	.			Z	
</s>					
<s>					
1.	1.	0		O	?
</s>					
<s>					
Jaan	Jaan	0		H	sg n
Räst	Räst	0		H	sg n
tulli	tule	i		V	s
ette	ette	0		D	
nink	ning	0		J	
üttel	ütle	0		V	s
:	:			Z	
minna	mine	a		V	da
ei	ei	0		V	neg
olle	ole	0		V	o
mitte	mitte	0		D	
Pedopetre	Pedopetre	0		H	sg n
tallun	talu	n		S	sg in
sel	see	l		P	sg ad
kõrral	####				
käinu	käi	nud		V	nud
ei	ei	0		D	
ka	ka	0		D	
rovikat	####				
aknast	aken	st		S	sg el
sisse	sisse	0		D	
ajanu	aja	nud		V	nud
,	,			Z	
ent	ent	0		J	
muul	muu	l		P	sg ad
ajal	aeg	l		S	sg ad
olle	ole	0		V	o
kül	küll	0		D	
päiva	päev	0		S	sg g
käinu	käi	nud		V	nud
.	.			Z	
</s>					
<s>					
2.	2.	0		O	?
</s>					
<s>					
Hans	Hans	0		H	sg n
Uibo	Uibo	0		H	sg n
üttel	ütle	0		V	s
:	:			Z	
minna	mine	a		V	da
ei	ei	0		V	neg
olle	ole	0		V	o
mitte	mitte	0		D	
sääl	seal	0		D	
tallun	talu	n		S	sg in
käinu	käi	nud		V	nud
.	.			Z	
</s>					
<s>					
3.	3.	0		O	?
</s>					
<s>					
Peter	Peter	0		H	sg n
Tamm	Tamm	0		H	sg n
üttel	ütle	0		V	s
:	:			Z	
minna	mine	a		V	da
ei	ei	0		V	neg
olle	ole	0		V	o
mitte	mitte	0		D	
sääl	seal	0		D	
tallun	talu	n		S	sg in
käinu	käi	nud		V	nud
.	.			Z	
</s>					
<s>					
4.	4.	0		O	?
</s>					
<s>					
Jaan	Jaan	0		H	sg n
Sieder	Sieder	0		H	sg n
üttel	ütle	0		V	s
:	:			Z	
minna	mine	a		V	da
olle	ole	0		V	o
kül	küll	0		D	
sel	see	l		P	sg ad
pühhapäiva	####				
õddangul	####				
sääl	seal	0		D	
olnu	ole	nud		V	nud
kui	kui	0		D	
   	kui	0		J	
rovik	####				
sisse	sisse	0		D	
ajeti	aje=ti	0		D	
,	,			Z	
ei	ei	0		V	neg
tija	tead	0		V	o
kes	kes	0		P	sg n
olliva	####				
,	,			Z	
sest	sest	0		J	
minna	mine	a		V	da
olli	ole	i		V	s
tarren	####				
.	.			Z	
</s>					
<s>					
5.	5.	0		O	?
</s>					
<s>					
Kristian	Kristian	0		H	sg n
Põdder	Põdder	0		H	sg n
üttel	ütle	0		V	s
,	,			Z	
minna	mine	a		V	da
olle	ole	0		V	o
kül	küll	0		D	
sääl	seal	0		D	
olnu	ole	nud		V	nud
ja	ja	0		J	
nännu	näge	nu		V	nud
et	et	0		J	
rovik	####				
aknast	aken	st		S	sg el
sisse	sisse	0		D	
tõugati	tõuka	ti		V	ti
ent	ent	0		J	
ei	ei	0		V	neg
tija	tead	0		V	o
kes	kes	0		P	sg n
ne	see	0		P	pl n
olliva	####				
.	.			Z	
</s>					
<s>					
Moistetu	mõist	tu		V	tud
:	:			Z	
Selle	see	0		P	sg g
et	et	0		J	
tõiste	teine	te		P	pl g
ülle	ülle	0		D	
tunnistust	tunnistus	t		S	sg p
ei	ei	0		V	neg
olle	ole	0		V	o
,	,			Z	
kes	kes	0		P	sg n
ne	see	0		P	pl n
olnu	ole	nud		V	nud
kes	kes	0		P	sg n
kivve	####				
,	,			Z	
mulda	muld	0		S	sg p
nink	ning	0		J	
rovikoga	####				
aknast	aken	st		S	sg el
sisse	sisse	0		D	
om	ole	0		V	b
ajanu	aja	nud		V	nud
jäva	####				
ilma	ilma	0		K	
trahvita	trahv	ta		S	sg ab
,	,			Z	
enge	####				
Jaan	Jaan	0		H	sg n
Sieder	Sieder	0		H	sg n
nink	ning	0		J	
Kristian	Kristian	0		H	sg n
Põdder	Põdder	0		H	sg n
omma	oma	0		P	sg g
essi	ise	0		P	sg n
üttelnu	ütle	nu		V	nud
et	et	0		J	
sel	see	l		P	sg ad
kõrral	####				
sääl	seal	0		D	
olliva	####				
sis	siis	0		D	
teedva	####				
kül	küll	0		D	
nink	ning	0		J	
sava	####				
seperräst	see_pärast	0		D	
trahvitus	trahvi=tu	s		S	sg in
et	et	0		J	
öse	####				
võran	võra	n		V	n
paigan	####				
hulknu	####				
,	,			Z	
sava	####				
kumbke	####				
ihhu	ihu	0		S	adt
karristuses	####				
25	25	0		N	?
vitsa	vits	0		S	sg g
hoopi	hoop	0		S	sg p
.	.			Z	
</s>					
<s>					
Loeti	luge	ti		V	ti
ette	ette	0		D	
.	.			Z	
</s>					
<s>					
Jaan	Jaan	0		H	sg n
Sieder	Sieder	0		H	sg n
n	n	0		Y	?
.	.			Z	
</s>					
<s>					
Kr	####				
.	.			Z	
</s>					
<s>					
Põdder	Põdder	0		H	sg n
ei	ei	0		V	neg
olle	ole	0		V	o
rahhul	rahul	0		D	
,	,			Z	
saiva	####				
Protokolli	protokoll	0		S	adt
sel	see	l		P	sg ad
24	24	0		N	?
Januaril	####				
välja	välja	0		D	
.	.			Z	
</s>					
