<s>					
Enn	Enn	0		H	sg n
Karrist	Karrist	0		H	sg n
kaivas	kaeba	s		V	s
Jaan	Jaan	0		H	sg n
Vääri	väär	0		S	sg g
päle	peale	0		K	
et	et	0		J	
täl	####				
1872	1872	0		N	?
Magasi	magas	0		S	sg g
ramatu	####				
perrä	####				
7	7	0		N	?
Mõõt	mõõt	0		S	sg n
6	6	0		N	?
1/2	1/2	0		N	?
karnitsat	karnits	t		S	sg p
Rüggi	Rüggi	0		H	sg n
võlgo	võlgu	0		D	
Jaan	Jaan	0		H	sg n
Vääri	vääri	0		D	
lubbas	luba	s		V	s
ärä	ära	0		D	
massa	maks	0		S	adt
.	.			Z	
</s>					
