<s>					
Vilsi	Vilsi	0		H	sg n
Kõrtsi	Kõrtsi	0		H	sg n
mees	mees	0		S	sg n
Jaak	Jaak	0		H	sg n
Kaup	Kaup	0		H	sg n
kaivas	kaeba	s		V	s
Kristian	Kristian	0		H	sg n
Undritse	Undritz	0		H	sg g
ja	ja	0		J	
Johan	Johan	0		H	sg n
Kört	Kört	0		H	sg n
päle	peale	0		K	
nida	####				
:	:			Z	
nemmä	####				
tulliva	tull_iva	0		S	sg n
üts	üks	0		P	sg n
kõrd	kord	0		S	sg n
sinä	####				
oma	oma	0		P	sg g
võlgu	võlgu	0		D	
selletama	####				
tõijeva	####				
2	2	0		N	?
vakka	vakk	0		S	adt
kesvi	kesv	i		S	pl p
võlla	võllas	0		S	sg g
eest	eest	0		K	
,	,			Z	
päle	peale	0		K	
se	see	0		P	sg n
küsse	küsi	0		V	s
Kristian	Kristian	0		H	sg n
Undritz	Undritz	0		H	sg n
2	2	0		N	?
puddelit	pudel	t		S	sg p
paersi	####				
õllut	####				
ja	ja	0		J	
minul	mina	l		P	sg ad
tulli	tule	i		V	s
haigus	haigus	0		S	sg n
päle	peale	0		K	
,	,			Z	
ja	ja	0		J	
lätsi	lätsi	0		V	o
sängi	säng	0		S	sg p
ja	ja	0		J	
temä	tema	0		P	sg n
jäije	####				
rahha	raha	0		S	sg g
suhv	####				
ladiko	####				
mannu	####				
,	,			Z	
mina	mina	0		S	sg g
kässi	####				
täl	####				
hendäl	####				
seddä	see	dä		P	sg p
rahha	raha	0		S	sg p
õlle	õlu	0		S	sg g
eest	eest	0		K	
suhvladiko	####				
pana	####				
,	,			Z	
ent	ent	0		J	
minul	mina	l		P	sg ad
olli	ole	i		V	s
suhv	####				
ladikun	####				
ülle	ülle	0		D	
5	5	0		N	?
rbl	rbl	0		Y	
rahha	raha	0		S	sg p
,	,			Z	
ent	ent	0		J	
selle	see	0		P	sg g
vahhe	####				
aja	aeg	0		S	sg g
sissen	####				
kui	kui	0		D	
   	kui	0		J	
minna	mine	a		V	da
maan	maa	n		S	sg in
olli	ole	i		V	s
ja	ja	0		J	
mino	mina	0		P	sg g
naine	naine	0		S	sg n
kõrtsin	####				
es	ei	s		V	neg s
olle	ole	0		V	o
om	ole	0		V	b
Kristian	Kristian	0		H	sg n
Undritz	Undritz	0		H	sg n
ja	ja	0		J	
Johan	Johan	0		H	sg n
Kört	Kört	0		H	sg n
suhv	####				
ladikust	####				
5	5	0		N	?
rbl	rbl	0		Y	
rahha	raha	0		S	sg n
ärrä	ära	0		D	
võtnu	võt	nud		V	nud
,	,			Z	
kui	kui	0		D	
   	kui	0		J	
naine	naine	0		S	sg n
sisse	sisse	0		D	
tulnu	tulnu	0		S	sg n
om	ole	0		V	b
Kristian	Kristian	0		H	sg n
Undritse	Undritz	0		H	sg g
kõttu	####				
alt	alt	0		K	
kona	####				
tu	####				
lavva	####				
pääl	peal	0		K	
küllite	####				
olnu	ole	nud		V	nud
ütte	üte	0		S	sg g
puddeli	pudel	0		S	sg g
tävve	####				
viina	viin	0		S	sg p
välja	välja	0		D	
võtnu	võt	nud		V	nud
ja	ja	0		J	
selle	see	0		P	sg g
aja	aeg	0		S	sg g
sissen	####				
olli	ole	i		V	s
4	4	0		N	?
puddeli	pudel	0		S	sg g
täit	täis	t		A	sg p
viina	viin	0		S	sg p
tühjas	tühi	s		A	sg in
joodu	joodu	0		S	sg g
     	joot	0		S	sg g
2	2	0		N	?
vaati	vaat	0		S	adt
kraani	kraan	0		S	sg g
1	1	0		N	?
peikli	####				
1	1	0		N	?
vörikne	####				
2	2	0		N	?
õlle	õlu	0		S	sg g
klaasi	klaas	0		S	sg p
ja	ja	0		J	
1	1	0		N	?
hamer	####				
olli	ole	i		V	s
ärrä	ära	0		D	
kaddunu	kadu	nud		V	nud
ja	ja	0		J	
nõvva	nõud	0		V	n
seddä	see	dä		P	sg p
neide	neid	e		S	pl p
käest	käsi	st		S	sg el
,	,			Z	
selle	see	0		P	sg g
man	man	0		K	
oma	oma	0		P	sg g
tunistaja	tunnistaja	0		S	sg n
Hans	Hans	0		H	sg n
Ilves	Ilves	0		H	sg n
nink	ning	0		J	
Jaan	Jaan	0		H	sg n
Mäggi	Mäggi	0		H	sg n
.	.			Z	
</s>					
<s>					
ärrä	ära	0		D	
varrastetu	varr_aste=tu	0		A	sg n
rahha	raha	0		S	sg n
5	5	0		N	?
rbl	rbl	0		Y	
</s>					
<s>					
viina	viin	0		S	sg p
ärä	ära	0		D	
joodu	joodu	0		S	sg g
     	joot	0		S	sg g
vije	####				
rubla	rubla	0		S	sg g
eest	eest	0		K	
5	5	0		N	?
rbl	rbl	0		Y	
</s>					
<s>					
2	2	0		N	?
krani	####				
varrastetu	varr_aste=tu	0		A	sg n
mes	mis	0		P	sg n
masva	####				
6	6	0		N	?
rbl	rbl	0		Y	
</s>					
<s>					
vö	####				
rihma	rihm	0		S	sg g
ja	ja	0		J	
õlle	õlu	0		S	sg g
klaase	klaas	e		S	pl p
eest	eest	0		K	
1	1	0		N	?
rbl	rbl	0		Y	
</s>					
<s>					
peikle	####				
ja	ja	0		J	
hamre	####				
eest	eest	0		K	
1	1	0		N	?
rbl	rbl	0		Y	
</s>					
<s>					
Summa	summa	0		S	sg n
18	18	0		N	?
rbl	rbl	0		Y	
</s>					
<s>					
Kristian	Kristian	0		H	sg n
Undritz	Undritz	0		H	sg n
üttel	ütle	0		V	s
:	:			Z	
mina	mina	0		S	sg n
lätsi	lätsi	0		V	o
pühhapäival	####				
Johan	Johan	0		H	sg n
Körtiga	Kört	ga		H	sg kom
sinä	####				
võlga	võlg	0		S	sg p
selletama	####				
ja	ja	0		J	
viisime	vii	sime		V	sime
2	2	0		N	?
vaka	vakk	0		S	sg g
kesvi	kesv	i		S	pl p
560	560	0		N	?
kop	kop	0		Y	?
eest	eest	0		K	
ja	ja	0		J	
mina	mina	0		S	sg n
ei	ei	0		V	neg
olle	ole	0		V	o
mitte	mitte	0		D	
suhvladiko	####				
man	man	0		D	
käinu	käi	nud		V	nud
enge	####				
kõrtsi	kõrts	0		S	adt
mees	mees	0		S	sg n
võt	####				
2	2	0		N	?
puddeli	pudel	0		S	sg g
õlle	õlu	0		S	sg g
eest	eest	0		K	
20	20	0		N	?
kop	kop	0		Y	?
vasta	vasta	0		V	o
ja	ja	0		J	
and	and	0		V	s
4	4	0		N	?
kopikat	kopikas	t		S	sg p
taggasi	tagasi	0		D	
ja	ja	0		J	
ütte	üte	0		S	sg g
tühja	tühi	0		A	sg g
puddeli	pudel	0		S	sg g
eest	eest	0		K	
massi	mass	0		S	sg p
15	15	0		N	?
kop	kop	0		Y	?
ent	ent	0		J	
20	20	0		N	?
kop	kop	0		Y	?
jäije	####				
võlgo	võlgu	0		D	
nink	ning	0		J	
ei	ei	0		V	neg
tija	tead	0		V	o
sest	sest	0		J	
nõudmissest	####				
middägi	miski	dägi		P	sg p
.	.			Z	
</s>					
<s>					
Johan	Johan	0		H	sg n
Kört	Kört	0		H	sg n
lasti	lask	ti		V	ti
ette	ette	0		D	
tulla	tule	a		V	da
temä	tema	0		P	sg n
üttel	ütle	0		V	s
:	:			Z	
meije	####				
viisime	vii	sime		V	sime
2	2	0		N	?
vaka	vakk	0		S	sg g
kesvi	kesv	i		S	pl p
võlla	võllas	0		S	sg g
eest	eest	0		K	
,	,			Z	
perremees	perre_mees	0		S	sg n
ost	ost	0		S	sg n
1	1	0		N	?
toop	toop	0		S	sg n
õllut	####				
ja	ja	0		J	
viina	viin	0		S	sg g
ja	ja	0		J	
kõrtsi	kõrts	0		S	sg g
mees	mees	0		S	sg n
and	and	0		V	s
ni	nii	0		D	
paljo	####				
kui	kui	0		D	
   	kui	0		J	
vaja	vaja	0		D	
olli	ole	i		V	s
.	.			Z	
</s>					
<s>					
Mina	mina	0		P	sg n
lainasi	####				
Kolli	Kolli	0		H	sg n
Johanile	Johan	le		H	sg all
30	30	0		N	?
kop	kop	0		Y	?
,	,			Z	
sest	sest	0		J	
Kolli	Kolli	0		H	sg n
Johan	Johan	0		H	sg n
and	and	0		V	s
kõrtsi	kõrts	0		S	adt
mehhele	####				
5	5	0		N	?
rbl	rbl	0		Y	
täl	####				
es	ei	s		V	neg s
olle	ole	0		V	o
taggasi	tagasi	0		D	
anda	and	a		V	da
,	,			Z	
üttel	ütle	0		V	s
1	1	0		N	?
rbl	rbl	0		Y	
ollevat	ole	vat		V	vat
,	,			Z	
kui	kui	0		D	
   	kui	0		J	
mina	mina	0		S	sg n
viina	viin	0		S	sg p
olli	ole	i		V	s
joonu	joo	nud		V	nud
sis	siis	0		D	
võtti	####				
ütte	üte	0		S	sg g
õllevaati	õlle_vaat	0		S	adt
kraani	kraan	0		S	sg p
ärrä	ära	0		D	
,	,			Z	
ent	ent	0		J	
tõist	####				
krani	####				
ei	ei	0		V	neg
olle	ole	0		V	o
võtnu	võt	nud		V	nud
,	,			Z	
keddä	####				
Hans	Hans	0		H	sg n
Ilves	Ilves	0		H	sg n
mul	mina	l		P	sg ad
käsk	käsk	0		S	sg n
võtta	võt	a		V	da
ja	ja	0		J	
kõrtsi	kõrts	0		S	sg g
mees	mees	0		S	sg n
võt	####				
Hans	Hans	0		H	sg n
Ilvese	Ilves	0		H	sg g
taskust	tasku	st		S	sg el
1	1	0		N	?
puddeli	pudel	0		S	sg g
viina	viin	0		S	sg p
välja	välja	0		D	
.	.			Z	
</s>					
<s>					
T.	T.	0		Y	sg n
Hans	Hans	0		H	sg n
Ilves	Ilves	0		H	sg n
venne	####				
usku	usk	0		S	sg p
üttel	ütle	0		V	s
:	:			Z	
kõrtsi	kõrts	0		S	sg g
mees	mees	0		S	sg n
käis	käi	s		V	s
Kristian	Kristian	0		H	sg n
Undritsega	Undrits	ga		H	sg kom
tagga	taga	0		D	
kambren	####				
kui	kui	0		D	
   	kui	0		J	
kõrtsi	kõrts	0		S	adt
mees	mees	0		S	sg n
rahha	raha	0		S	sg g
võt	####				
sis	siis	0		D	
olli	ole	i		V	s
Kristian	Kristian	0		H	sg n
Undritz	Undritz	0		H	sg n
man	man	0		D	
,	,			Z	
ent	ent	0		J	
ei	ei	0		V	neg
olle	ole	0		V	o
nännu	näge	nu		V	nud
suhvladiko	####				
man	man	0		D	
käimist	käimine	t		S	sg p
.	.			Z	
</s>					
<s>					
Johan	Johan	0		H	sg n
Kört	Kört	0		H	sg n
võt	####				
2	2	0		N	?
kõrda	kord	0		S	sg p
vaja	vaja	0		D	
päält	pea	lt		S	sg abl
2	2	0		N	?
kraani	kraan	0		S	sg p
ärrä	ära	0		D	
.	.			Z	
</s>					
<s>					
Tunnistaja	tunnistaja	0		S	sg n
Jaan	Jaan	0		H	sg n
Mäggi	Mäggi	0		H	sg n
lutteri	####				
usku	usk	0		S	sg p
üttel	ütle	0		V	s
:	:			Z	
Kõrtsi	Kõrtsi	0		H	sg n
mees	mees	0		S	sg n
olli	ole	i		V	s
Kristian	Kristian	0		H	sg n
Undritsega	Undrits	ga		H	sg kom
tagga	taga	0		D	
kambren	####				
ja	ja	0		J	
Johan	Johan	0		H	sg n
Kört	Kört	0		H	sg n
tõugas	####				
usse	uss	e		S	pl p
kinni	kinni	0		D	
ja	ja	0		J	
võt	####				
lavva	####				
päält	pea	lt		S	sg abl
ilma	ilma	0		K	
kõrtsi	kõrts	0		S	sg g
mehheta	####				
2	2	0		N	?
pool	pool	0		K	
kortenit	####				
viina	viin	0		S	sg p
ilma	ilma	0		D	
rahhata	####				
ja	ja	0		J	
võt	####				
eest	eest	0		K	
kõrtsist	kõrts	st		S	sg el
lae	laad	0		S	sg g
   	lagi	0		S	sg g
alt	alt	0		K	
2	2	0		N	?
vassist	####				
kraani	kraan	0		S	sg p
ärrä	ära	0		D	
ent	ent	0		J	
es	ei	s		V	neg s
näe	näge	0		V	o
mitte	mitte	0		D	
rahha	raha	0		S	sg g
võtmist	võtmine	t		S	sg p
,	,			Z	
ent	ent	0		J	
seddä	see	dä		P	sg p
minna	mine	a		V	da
näggi	näge	i		V	s
et	et	0		J	
Hans	Hans	0		H	sg n
Ilves	Ilves	0		H	sg n
taggast	####				
kambrest	####				
tulli	tule	i		V	s
sis	siis	0		D	
võt	####				
kõrtsimees	kõrtsi_mees	0		S	sg n
temmä	tema	0		P	sg n
taskost	####				
1	1	0		N	?
puddeli	pudel	0		S	sg g
viina	viin	0		S	sg p
välja	välja	0		D	
.	.			Z	
</s>					
<s>					
Johan	Johan	0		H	sg n
Körtil	Kört	l		H	sg ad
käsk	käsk	0		S	sg n
kohhus	####				
seddä	see	dä		P	sg p
varrastetu	varr_aste=tu	0		A	sg n
krani	####				
ärrä	ära	0		D	
tuvva	####				
,	,			Z	
mes	mis	0		P	sg n
temä	tema	0		P	sg n
kohtu	kohus	0		S	sg g
kätte	kätte	0		K	
ärrä	ära	0		D	
tõije	####				
ja	ja	0		J	
üttel	ütle	0		V	s
tõist	####				
krani	####				
ei	ei	0		V	neg
olle	ole	0		V	o
võtnu	võt	nud		V	nud
,	,			Z	
se	see	0		P	sg n
kran	####				
anti	and	ti		V	ti
kõrtsi	kõrts	0		S	adt
mehhe	####				
kätte	käsi	tte		S	adt
ärrä	ära	0		D	
.	.			Z	
</s>					
<s>					
Kõrtsi	Kõrtsi	0		H	sg n
mehhe	####				
naine	naine	0		S	sg n
Ann	Ann	0		H	sg n
Kaup	Kaup	0		H	sg n
tulli	tule	i		V	s
ette	ette	0		D	
nink	ning	0		J	
üttel	ütle	0		V	s
:	:			Z	
kui	kui	0		D	
   	kui	0		J	
minna	mine	a		V	da
sisse	sisse	0		D	
tulli	tule	i		V	s
,	,			Z	
sis	siis	0		D	
olli	ole	i		V	s
Kristian	Kristian	0		H	sg n
Undritz	Undritz	0		H	sg n
lavva	####				
pääle	pea	le		S	sg all
kumardanu	####				
ja	ja	0		J	
minna	mine	a		V	da
võtti	####				
temä	tema	0		P	sg n
kõttu	####				
alt	alt	0		D	
ütte	üte	0		S	sg g
puddeli	pudel	0		S	sg g
viina	viin	0		S	sg p
välja	välja	0		D	
mes	mis	0		P	sg n
ta	tema	0		P	sg n
olli	ole	i		V	s
ärrä	ära	0		D	
võtnu	võt	nud		V	nud
.	.			Z	
</s>					
<s>					
Moistetu	mõist	tu		V	tud
:	:			Z	
Et	et	0		J	
Kristian	Kristian	0		H	sg n
Undritse	Undritz	0		H	sg g
käest	käsi	st		S	sg el
1	1	0		N	?
puddel	pudel	0		S	sg n
viina	viin	0		S	sg p
kätte	käsi	tte		S	adt
sadu	sada	u		N	pl p
peäp	####				
masma	maks	ma		V	ma
2	2	0		N	?
rbl	rbl	0		Y	
50	50	0		N	?
kop	kop	0		Y	?
Hans	Hans	0		H	sg n
Ilvese	Ilves	0		H	sg g
käest	käsi	st		S	sg el
1	1	0		N	?
puddel	pudel	0		S	sg n
viina	viin	0		S	sg p
kätte	käsi	tte		S	adt
sadu	sada	u		N	pl p
peäp	####				
masma	maks	ma		V	ma
2	2	0		N	?
rbl	rbl	0		Y	
50	50	0		N	?
kop	kop	0		Y	?
</s>					
<s>					
Johan	Johan	0		H	sg n
Kört	Kört	0		H	sg n
peap	pida	b		V	b
selle	see	0		P	sg g
puduva	####				
krani	####				
eest	eest	0		K	
3	3	0		N	?
rbl	rbl	0		Y	
masma	maks	ma		V	ma
Et	et	0		J	
Johan	Johan	0		H	sg n
Kört	Kört	0		H	sg n
2	2	0		N	?
pool	pool	0		N	sg n
korterit	korter	t		S	sg p
viina	viin	0		S	sg p
ilma	ilma	0		D	
rahhata	####				
võtnu	võt	nud		V	nud
saap	saa	b		V	b
20	20	0		N	?
kop	kop	0		Y	?
Kokko	####				
3	3	0		N	?
rbl	rbl	0		Y	
20	20	0		N	?
kop	kop	0		Y	?
selle	see	0		P	sg g
et	et	0		J	
tunnistust	tunnistus	t		S	sg p
ei	ei	0		V	neg
olle	ole	0		V	o
et	et	0		J	
rahha	raha	0		S	sg g
vö	####				
ja	ja	0		J	
peikli	####				
n	n	0		Y	?
.	.			Z	
hamre	####				
võetu	võetud	0		A	sg g
jääp	jää	p		V	b
tühjas	tühi	s		A	sg in
se	see	0		P	sg n
kaibus	####				
Sedda	see	da		P	sg p
rahha	raha	0		S	sg g
masva	####				
2	2	0		N	?
näddali	####				
aja	aeg	0		S	sg g
sissen	####				
ärrä	ära	0		D	
kõrtsi	kõrts	0		S	adt
mehhe	####				
hääs	####				
Ja	ja	0		J	
politsei	politsei	0		S	sg n
trahvis	trahvi	s		V	s
sava	####				
eggä	iga	0		P	sg n
üts	üks	0		P	sg n
3	3	0		N	?
kõrd	kord	0		S	sg n
24	24	0		N	?
tunnis	tund	s		S	sg in
vangi	vang	0		S	sg g
pantus	####				
.	.			Z	
</s>					
<s>					
Loeti	luge	ti		V	ti
ette	ette	0		D	
.	.			Z	
</s>					
<s>					
Kristian	Kristian	0		H	sg n
Undritz	Undritz	0		H	sg n
ei	ei	0		V	neg
olle	ole	0		V	o
rahhul	rahul	0		D	
Johan	Johan	0		H	sg n
Kört	Kört	0		H	sg n
ei	ei	0		V	neg
olle	ole	0		V	o
rahhul	rahul	0		D	
(	(			Z	
ent	ent	0		J	
panti	pant	0		S	adt
vangi	vang	0		S	adt
)	)			Z	
Hans	Hans	0		H	sg n
Ilves	Ilves	0		H	sg n
om	ole	0		V	b
rahhul	rahul	0		D	
.	.			Z	
</s>					
<s>					
Protokoll	protokoll	0		S	sg n
anti	and	ti		V	ti
välja	välja	0		D	
sel	see	l		P	sg ad
16	16	0		N	?
Aprillil	aprill	l		S	sg ad
.	.			Z	
</s>					
