<s>					
Keiserliko	Keiserliko	0		H	sg n
Kreiskohtu	Kreiskohtu	0		H	sg n
kässu	####				
päle	peale	0		K	
sest	sest	0		J	
11	11	0		N	?
Juni	Juni	0		H	sg n
1879	1879	0		N	?
Nr	Nr	0		Y	sg n
2420	2420	0		N	?
kirjoteti	####				
Hans	Hans	0		H	sg n
Lind	Lind	0		H	sg n
varrandus	####				
ülles	üles	0		D	
.	.			Z	
</s>					
<s>					
rbl	rbl	0		Y	
kop	kop	0		Y	?
</s>					
<s>					
1	1	0		N	?
nella	####				
jalla	####				
laud	laud	0		S	sg n
1	1	0		N	?
50	50	0		N	?
</s>					
<s>					
1	1	0		N	?
saina	####				
kell	kell	0		S	sg n
5	5	0		N	?
</s>					
<s>					
1	1	0		N	?
vok	####				
1	1	0		N	?
</s>					
<s>					
1	1	0		N	?
väike	väike	0		A	sg n
kapp	kapp	0		S	sg n
2	2	0		N	?
</s>					
<s>					
2	2	0		N	?
vikatit	vikat	t		S	sg p
1	1	0		N	?
</s>					
<s>					
1	1	0		N	?
tool	tool	0		S	sg n
10	10	0		N	?
kop	kop	0		Y	?
1	1	0		N	?
venne	####				
look	look	0		S	sg n
150	150	0		N	?
kop	kop	0		Y	?
1	1	0		N	?
60	60	0		N	?
</s>					
<s>					
1	1	0		N	?
pann	pann	0		S	sg n
75	75	0		N	?
kop	kop	0		Y	?
1	1	0		N	?
pang	pang	0		S	sg n
10	10	0		N	?
kop	kop	0		Y	?
85	85	0		N	?
</s>					
<s>					
3	3	0		N	?
toverit	####				
30	30	0		N	?
kop	kop	0		Y	?
2	2	0		N	?
adra	ader	0		S	sg g
2	2	0		N	?
rbl	rbl	0		Y	
2	2	0		N	?
30	30	0		N	?
</s>					
<s>					
1	1	0		N	?
raud	raud	0		S	sg n
telle	####				
vanger	####				
30	30	0		N	?
</s>					
<s>					
1	1	0		N	?
pu	####				
telle	####				
vanger	####				
10	10	0		N	?
</s>					
<s>					
2	2	0		N	?
pari	pari	0		S	sg g
taosit	####				
3	3	0		N	?
</s>					
<s>					
2	2	0		N	?
pari	pari	0		S	sg g
leisit	####				
ja	ja	0		J	
sedulk	####				
5	5	0		N	?
</s>					
<s>					
1	1	0		N	?
paar	paar	0		N	sg n
ohja	ohi	0		S	sg p
rihmuga	####				
ja	ja	0		J	
sedle	####				
rihm	rihm	0		S	sg n
50	50	0		N	?
</s>					
<s>					
1	1	0		N	?
luitse	####				
50	50	0		N	?
kop	kop	0		Y	?
1	1	0		N	?
kirves	kirves	0		S	sg n
25	25	0		N	?
75	75	0		N	?
</s>					
<s>					
2	2	0		N	?
v	v	0		Y	?
.	.			Z	
looka	look	0		S	adt
15	15	0		N	?
kop	kop	0		Y	?
5	5	0		N	?
vikatit	vikat	t		S	sg p
2	2	0		N	?
rbl	rbl	0		Y	
2	2	0		N	?
15	15	0		N	?
</s>					
<s>					
2	2	0		N	?
äkle	####				
20	20	0		N	?
kop	kop	0		Y	?
1	1	0		N	?
Kast	kast	0		S	sg n
50	50	0		N	?
kop	kop	0		Y	?
70	70	0		N	?
</s>					
<s>					
1	1	0		N	?
rasega	####				
tönike	####				
30	30	0		N	?
</s>					
<s>					
1	1	0		N	?
anum	anum	0		S	sg n
15	15	0		N	?
kop	kop	0		Y	?
1	1	0		N	?
eringo	####				
pütt	pütt	0		S	sg n
10	10	0		N	?
kop	kop	0		Y	?
25	25	0		N	?
</s>					
<s>					
7	7	0		N	?
vilja	vili	0		S	sg p
kotti	kott	0		S	adt
a	a	0		Y	?
40	40	0		N	?
kop	kop	0		Y	?
2	2	0		N	?
80	80	0		N	?
</s>					
<s>					
1	1	0		N	?
raud	raud	0		S	sg n
tük	####				
20	20	0		N	?
kop	kop	0		Y	?
2	2	0		N	?
määrde	määre	0		S	sg g
annust	annus	t		S	sg p
5	5	0		N	?
kop	kop	0		Y	?
25	25	0		N	?
</s>					
<s>					
1	1	0		N	?
v	v	0		Y	?
.	.			Z	
kast	kast	0		S	sg n
1	1	0		N	?
väike	väike	0		A	sg n
övel	####				
50	50	0		N	?
kop	kop	0		Y	?
53	53	0		N	?
</s>					
<s>					
1	1	0		N	?
raud	raud	0		S	sg n
pütti	pütt	0		S	adt
vitsa	vits	0		S	sg g
10	10	0		N	?
kop	kop	0		Y	?
1	1	0		N	?
tover	####				
30	30	0		N	?
kop	kop	0		Y	?
40	40	0		N	?
</s>					
<s>					
2	2	0		N	?
pool	pool	0		N	sg n
pütti	pütt	0		S	sg p
15	15	0		N	?
kop	kop	0		Y	?
1	1	0		N	?
kasega	kask	ga		S	sg kom
villa	vill	0		S	sg g
     	villa	0		S	sg g
korv	korv	0		S	sg n
10	10	0		N	?
kop	kop	0		Y	?
25	25	0		N	?
</s>					
<s>					
1	1	0		N	?
kirves	kirves	0		S	sg n
50	50	0		N	?
kop	kop	0		Y	?
5	5	0		N	?
kotti	kott	0		S	adt
250	250	0		N	?
kop	kop	0		Y	?
3	3	0		N	?
</s>					
<s>					
4	4	0		N	?
sugga	suga	0		S	sg p
a	a	0		Y	?
30	30	0		N	?
kop	kop	0		Y	?
1	1	0		N	?
20	20	0		N	?
</s>					
<s>					
1	1	0		N	?
vana	vana	0		A	sg n
vikat	vikat	0		S	sg n
10	10	0		N	?
kop	kop	0		Y	?
1	1	0		N	?
pu	####				
lapjo	####				
5	5	0		N	?
kop	kop	0		Y	?
15	15	0		N	?
</s>					
<s>					
1	1	0		N	?
verrev	####				
rüitsälg	####				
lehm	lehm	0		S	sg n
6	6	0		N	?
aastat	aasta	t		S	sg p
20	20	0		N	?
</s>					
<s>					
1	1	0		N	?
valge	valge	0		A	sg n
orrik	####				
1	1	0		N	?
aastat	aasta	t		S	sg p
5	5	0		N	?
</s>					
<s>					
1	1	0		N	?
valge	valge	0		A	sg n
emmis	####				
sigga	siga	0		A	sg n
2	2	0		N	?
aastat	aasta	t		S	sg p
5	5	0		N	?
</s>					
<s>					
4	4	0		N	?
põrsast	põrsas	t		S	sg p
a	a	0		Y	?
150	150	0		N	?
kop	kop	0		Y	?
10	10	0		N	?
50	50	0		N	?
</s>					
<s>					
1	1	0		N	?
verrev	####				
lehm	lehm	0		S	sg n
5	5	0		N	?
aastat	aasta	t		S	sg p
20	20	0		N	?
</s>					
<s>					
7	7	0		N	?
lammast	lammas	t		S	sg p
2	2	0		N	?
rbl	rbl	0		Y	
tük	####				
14	14	0		N	?
</s>					
<s>					
1	1	0		N	?
verrev	####				
päitspä	####				
lehm	lehm	0		S	sg n
25	25	0		N	?
</s>					
<s>					
1	1	0		N	?
ahk	####				
märrä	####				
4	4	0		N	?
aastat	aasta	t		S	sg p
35	35	0		N	?
</s>					
<s>					
1	1	0		N	?
suur	suur	0		A	sg n
kapp	kapp	0		S	sg n
10	10	0		N	?
</s>					
<s>					
1	1	0		N	?
kohve	kohv	e		S	pl p
kan	####				
35	35	0		N	?
kop	kop	0		Y	?
35	35	0		N	?
</s>					
<s>					
1	1	0		N	?
suhvli	suhvel	0		S	sg g
laud	laud	0		S	sg n
1	1	0		N	?
</s>					
<s>					
1	1	0		N	?
väike	väike	0		A	sg n
laud	laud	0		S	sg n
1	1	0		N	?
vok	####				
1	1	0		N	?
</s>					
<s>					
1	1	0		N	?
suur	suur	0		A	sg n
padda	pada	0		S	sg n
1	1	0		N	?
50	50	0		N	?
</s>					
<s>					
1	1	0		N	?
väike	väike	0		A	sg n
padda	pada	0		S	sg n
50	50	0		N	?
</s>					
<s>					
1	1	0		N	?
väike	väike	0		A	sg n
saag	saag	0		S	sg n
25	25	0		N	?
kop	kop	0		Y	?
25	25	0		N	?
</s>					
<s>					
1	1	0		N	?
tari	tari	0		V	o
lörike	####				
50	50	0		N	?
kop	kop	0		Y	?
1	1	0		N	?
suur	suur	0		A	sg n
törike	####				
1	1	0		N	?
rbl	rbl	0		Y	
1	1	0		N	?
50	50	0		N	?
</s>					
<s>					
2	2	0		N	?
pool	pool	0		N	sg n
pütti	pütt	0		S	sg p
15	15	0		N	?
kop	kop	0		Y	?
1	1	0		N	?
eringe	####				
pütt	pütt	0		S	sg n
10	10	0		N	?
kop	kop	0		Y	?
25	25	0		N	?
</s>					
<s>					
1	1	0		N	?
kasega	kask	ga		S	sg kom
tün	####				
1	1	0		N	?
rbl	rbl	0		Y	
1	1	0		N	?
kühvli	kühvel	0		S	sg g
30	30	0		N	?
kop	kop	0		Y	?
1	1	0		N	?
30	30	0		N	?
</s>					
<s>					
1	1	0		N	?
vanna	####				
kast	kast	0		S	sg n
15	15	0		N	?
kop	kop	0		Y	?
1	1	0		N	?
kirves	kirves	0		S	sg n
30	30	0		N	?
kop	kop	0		Y	?
45	45	0		N	?
</s>					
<s>					
1	1	0		N	?
kolmandik	kolmandik	0		N	sg n
30	30	0		N	?
kop	kop	0		Y	?
11	11	0		N	?
sirpi	sirp	0		S	adt
15	15	0		N	?
kop	kop	0		Y	?
45	45	0		N	?
</s>					
<s>					
1	1	0		N	?
reggi	regi	0		S	sg n
uhert	####				
15	15	0		N	?
kop	kop	0		Y	?
1	1	0		N	?
ravva	####				
kast	kast	0		S	sg n
1	1	0		N	?
rbl	rbl	0		Y	
1	1	0		N	?
15	15	0		N	?
</s>					
<s>					
1	1	0		N	?
keitse	####				
massin	####				
25	25	0		N	?
kop	kop	0		Y	?
1	1	0		N	?
tover	####				
5	5	0		N	?
kop	kop	0		Y	?
30	30	0		N	?
</s>					
<s>					
1	1	0		N	?
eringe	####				
pütt	pütt	0		S	sg n
5	5	0		N	?
kop	kop	0		Y	?
1	1	0		N	?
pool	pool	0		N	sg n
pütti	pütt	0		S	sg p
10	10	0		N	?
kop	kop	0		Y	?
15	15	0		N	?
</s>					
<s>					
1	1	0		N	?
saan	saa	n		V	n
50	50	0		N	?
kop	kop	0		Y	?
1	1	0		N	?
reggi	regi	0		S	sg n
75	75	0		N	?
kop	kop	0		Y	?
1	1	0		N	?
25	25	0		N	?
</s>					
<s>					
2	2	0		N	?
pari	pari	0		S	sg g
jallasit	####				
50	50	0		N	?
kop	kop	0		Y	?
1	1	0		N	?
vange	vang	e		S	pl p
kõddarit	####				
30	30	0		N	?
kop	kop	0		Y	?
80	80	0		N	?
</s>					
<s>					
puu	puu	0		S	sg g
kraeni	krae	ni		S	sg ter
1	1	0		N	?
</s>					
<s>					
4	4	0		N	?
reddelit	redel	t		S	sg p
30	30	0		N	?
</s>					
<s>					
1	1	0		N	?
kirst	kirst	0		S	sg n
1	1	0		N	?
</s>					
<s>					
4	4	0		N	?
ratta	ratas	0		S	sg g
rummu	rumm	0		S	adt
1	1	0		N	?
</s>					
<s>					
4	4	0		N	?
lunga	####				
rehha	####				
40	40	0		N	?
</s>					
<s>					
2	2	0		N	?
larja	####				
1	1	0		N	?
</s>					
<s>					
1	1	0		N	?
sõggel	####				
5	5	0		N	?
kop	kop	0		Y	?
23	23	0		N	?
ree	regi	0		S	sg g
painatust	paina=tu	st		S	sg el
1	1	0		N	?
rbl	rbl	0		Y	
1	1	0		N	?
5	5	0		N	?
</s>					
<s>					
4	4	0		N	?
vanna	####				
rattast	ratas	st		S	sg el
30	30	0		N	?
</s>					
<s>					
1	1	0		N	?
linna	linn	0		S	sg g
massin	####				
3	3	0		N	?
</s>					
<s>					
3	3	0		N	?
linna	linn	0		S	sg p
massina	mass	na		S	sg es
trulli	trull	0		S	sg g
1	1	0		N	?
</s>					
<s>					
2	2	0		N	?
rasva	rasv	0		S	sg p
moldi	mold	0		S	adt
20	20	0		N	?
</s>					
<s>					
pukraeni	####				
3	3	0		N	?
</s>					
<s>					
2	2	0		N	?
vana	vana	0		A	sg g
voki	vokk	0		S	sg g
15	15	0		N	?
</s>					
<s>					
1	1	0		N	?
pang	pang	0		S	sg n
15	15	0		N	?
kop	kop	0		Y	?
2	2	0		N	?
pari	pari	0		S	sg g
taose	####				
laudo	####				
60	60	0		N	?
kop	kop	0		Y	?
75	75	0		N	?
</s>					
<s>					
1	1	0		N	?
pa	####				
ravvat	####				
30	30	0		N	?
</s>					
<s>					
Summa	summa	0		S	sg n
summarum	####				
247	247	0		N	?
63	63	0		N	?
</s>					
