<s>					
Ado	Ado	0		H	sg n
Rüütel	Rüütli	l		H	sg ad
kaivas	kaeba	s		V	s
Johann	Johann	0		H	sg n
Völli	Völli	0		H	sg n
peale	peale	0		D	
et	et	0		J	
temä	tema	0		P	sg n
lei	####				
mulle	mina	lle		P	sg all
russikaga	####				
18	18	0		N	?
kõrda	kord	0		S	sg p
pähä	####				
,	,			Z	
se	see	0		P	sg n
assi	ass	0		S	adt
olli	ole	i		V	s
seddä	see	dä		P	sg p
viisi	viis	0		S	sg p
:	:			Z	
Mina	mina	0		P	sg n
pani	pane	i		V	s
tõise	####				
mehe	mees	0		S	sg g
adra	ader	0		S	sg g
ette	ette	0		K	
oma	oma	0		P	sg g
obbese	####				
ja	ja	0		J	
piddi	pida	i		V	s
kündma	künd	ma		V	ma
minema	mine	ma		V	ma
,	,			Z	
selle	see	0		P	sg g
päle	peale	0		K	
taht	taht	0		S	sg n
Margus	Margus	0		H	sg n
Kerge	Kerge	0		H	sg n
ärä	ära	0		D	
võtta	võt	a		V	da
,	,			Z	
meil	mina	l		P	pl ad
tulli	tule	i		V	s
sõna	sõna	0		S	sg g
vahetust	vahetus	t		S	sg p
se	see	0		P	sg n
päle	peale	0		K	
tulli	tule	i		V	s
Johann	Johann	0		H	sg n
Völli	Völli	0		H	sg n
sinä	####				
vahele	vahele	0		D	
ja	ja	0		J	
nakkas	nakka	s		V	s
minno	mina	0		P	sg p
pesma	####				
,	,			Z	
mina	mina	0		P	sg n
nõvva	nõud	0		V	n
selle	see	0		P	sg g
pesmisse	####				
eest	eest	0		K	
80	80	0		N	?
rbl	rbl	0		Y	
,	,			Z	
sääl	seal	0		D	
man	man	0		D	
olliva	####				
Jakob	Jakob	0		H	sg n
Tamm	Tamm	0		H	sg n
,	,			Z	
Heindrik	Heindrik	0		H	sg n
Look	Look	0		H	sg n
,	,			Z	
Jaan	Jaan	0		H	sg n
Kohva	Kohva	0		H	sg n
,	,			Z	
Thomas	Thomas	0		H	sg n
Aroel	Aroel	0		H	sg n
ja	ja	0		J	
Mihkel	Mihkel	0		H	sg n
Kants	Kants	0		H	sg n
.	.			Z	
</s>					
<s>					
Rautsep	####				
Johann	Johann	0		H	sg n
Völli	Völli	0		H	sg n
tulli	tule	i		V	s
ette	ette	0		D	
n	n	0		Y	?
.	.			Z	
üttel	ütle	0		V	s
:	:			Z	
Ado	Ado	0		H	sg n
Rüütel	Rüütli	l		H	sg ad
olli	ole	i		V	s
võra	võra	0		S	sg g
mehe	mees	0		S	sg g
Adra	ader	0		S	sg g
võtnu	võt	nud		V	nud
ja	ja	0		J	
kakelsiva	####				
Margus	Margus	0		H	sg n
Kergega	Kerge	ga		H	sg kom
,	,			Z	
mina	mina	0		S	sg n
tulli	tule	i		V	s
neide	neid	e		S	pl p
tülli	tüli	0		S	adt
     	tüll	0		S	adt
lahutama	lahuta	ma		V	ma
ja	ja	0		J	
ütli	ütle	i		V	sin
tälle	tema	le		P	sg all
,	,			Z	
võtta	võt	a		V	da
oma	oma	0		P	sg g
adder	ader	0		S	sg n
se	see	0		P	sg n
päle	peale	0		K	
karas	kara	s		S	sg in
tema	tema	0		P	sg n
mulle	mina	lle		P	sg all
rindo	####				
,	,			Z	
mina	mina	0		S	sg g
tõugasi	tõug_asi	0		S	sg n
hendä	ise	0		P	sg g
mant	mant	0		K	
ärä	ära	0		D	
,	,			Z	
sis	siis	0		D	
tulli	tule	i		V	s
veel	veel	0		D	
adra	ader	0		S	sg g
kolgiga	kolk	ga		S	sg kom
mulle	mina	lle		P	sg all
tagast	####				
järele	järele	0		D	
ja	ja	0		J	
taht	taht	0		S	sg n
mulle	mina	lle		P	sg all
lüvva	####				
,	,			Z	
ent	ent	0		J	
mina	mina	0		S	sg n
ei	ei	0		V	neg
olle	ole	0		V	o
teddä	####				
mitte	mitte	0		D	
lönu	####				
ei	ei	0		V	neg
ka	ka	0		D	
pesnu	peks	nud		V	nud
.	.			Z	
</s>					
<s>					
1.	1.	0		O	?
</s>					
<s>					
Tunistaja	tunnistaja	0		S	sg n
Jakob	Jakob	0		H	sg n
Tamm	Tamm	0		H	sg n
vene	vene	0		G	
usku	usk	0		S	sg p
üttel	ütle	0		V	s
:	:			Z	
Ado	Ado	0		H	sg n
Rüütel	Rüütli	l		H	sg ad
ja	ja	0		J	
Margus	Margus	0		H	sg n
Kerge	Kerge	0		H	sg n
lätsiva	lätsi=v	0		A	sg g
tülli	tüli	0		S	adt
     	tüll	0		S	adt
,	,			Z	
Johann	Johann	0		H	sg n
Völli	Völli	0		H	sg n
tulli	tule	i		V	s
lahutama	lahuta	ma		V	ma
ja	ja	0		J	
tõugas	####				
neid	tema	d		P	pl p
koost	koost	0		D	
ärä	ära	0		D	
,	,			Z	
ent	ent	0		J	
Rüütli	Rüütli	0		H	sg n
karas	kara	s		S	sg in
Völlile	Völli	le		H	sg all
rindo	####				
,	,			Z	
pesmist	####				
ei	ei	0		V	neg
olle	ole	0		V	o
nännu	näge	nu		V	nud
.	.			Z	
</s>					
<s>					
2.	2.	0		O	?
</s>					
<s>					
Heindrik	Heindrik	0		H	sg n
Look	Look	0		H	sg n
lutteri	####				
usku	usk	0		S	sg p
üttel	ütle	0		V	s
:	:			Z	
mina	mina	0		S	sg n
olli	ole	i		V	s
Seppikoan	####				
es	ei	s		V	neg s
näe	näge	0		V	o
neide	neid	e		S	pl p
tülli	tüli	0		S	adt
     	tüll	0		S	adt
.	.			Z	
</s>					
<s>					
3.	3.	0		O	?
</s>					
<s>					
Jaan	Jaan	0		H	sg n
Kohva	Kohva	0		H	sg n
vene	vene	0		G	
usku	usk	0		S	sg p
üttel	ütle	0		V	s
:	:			Z	
Ado	Ado	0		H	sg n
Rüütel	Rüütli	l		H	sg ad
ja	ja	0		J	
Margus	Margus	0		H	sg n
Kerge	Kerge	0		H	sg n
lätsiva	lätsi=v	0		A	sg g
adra	ader	0		S	sg g
päle	peale	0		K	
tülli	tüli	0		S	adt
     	tüll	0		S	adt
,	,			Z	
sis	siis	0		D	
tulli	tule	i		V	s
Johann	Johann	0		H	sg n
Völli	Völli	0		H	sg n
neid	tema	d		P	pl p
lahutama	lahuta	ma		V	ma
,	,			Z	
se	see	0		P	sg n
päle	peale	0		K	
taht	taht	0		S	sg n
Ado	Ado	0		H	sg n
Johann	Johann	0		H	sg n
Völli	Völli	0		H	sg n
lüvva	####				
,	,			Z	
muud	muu	d		P	sg p
es	ei	s		V	neg s
näe	näge	0		V	o
.	.			Z	
</s>					
<s>					
4.	4.	0		O	?
</s>					
<s>					
Thomad	Thomad	d		H	sg n
Aroela	Aroela	0		H	sg n
lutteri	####				
usku	usk	0		S	sg p
üttel	ütle	0		V	s
:	:			Z	
Ado	Ado	0		H	sg n
Rüütel	Rüütli	l		H	sg ad
ja	ja	0		J	
Margus	Margus	0		H	sg n
Kerge	Kerge	0		H	sg n
olliva	####				
tüllin	####				
,	,			Z	
sis	siis	0		D	
tulli	tule	i		V	s
Johann	Johann	0		H	sg n
Völli	Völli	0		H	sg n
mann	mann	0		S	sg n
ja	ja	0		J	
tõugasiva	####				
ütstõist	####				
se	see	0		P	sg n
päle	peale	0		K	
lei	####				
Johann	Johann	0		H	sg n
Völli	Völli	0		H	sg n
Rüütlet	Rüütli	t		H	sg p
3	3	0		N	?
ehk	ehk	0		J	
4	4	0		N	?
kõrda	kord	0		S	sg p
russikaga	####				
.	.			Z	
</s>					
<s>					
5.	5.	0		O	?
</s>					
<s>					
Mihkel	Mihkel	0		H	sg n
Kants	Kants	0		H	sg n
lutteri	####				
usku	usk	0		S	sg p
üttel	ütle	0		V	s
:	:			Z	
tülli	tüli	0		S	adt
     	tüll	0		S	adt
allustust	all_us=tus	t		S	sg p
ei	ei	0		V	neg
näe	näge	0		V	o
ent	ent	0		J	
peräst	####				
näije	näge	ije		V	sin
et	et	0		J	
Ado	Ado	0		H	sg n
Rüütli	Rüütli	0		H	sg n
ja	ja	0		J	
Johann	Johann	0		H	sg n
Völli	Völli	0		H	sg n
olliva	####				
üts	üks	0		P	sg n
tõise	####				
rinust	####				
kinni	kinni	0		D	
võtnuva	####				
ja	ja	0		J	
rapputiva	####				
ütstõist	####				
,	,			Z	
pesmist	####				
es	ei	s		V	neg s
näe	näge	0		V	o
.	.			Z	
</s>					
<s>					
Moistetu	mõist	tu		V	tud
:	:			Z	
Selle	see	0		P	sg g
perräst	pärast	0		K	
et	et	0		J	
Ado	Ado	0		H	sg n
Rüütel	Rüütli	l		H	sg ad
ene	####				
tülli	tüli	0		S	adt
     	tüll	0		S	adt
tenu	####				
om	ole	0		V	b
ja	ja	0		J	
Johann	Johann	0		H	sg n
Völli	Völli	0		H	sg n
rinust	####				
kini	####				
võtno	####				
ja	ja	0		J	
lüva	####				
tahtnu	taht	nud		V	nud
sis	siis	0		D	
saap	saa	b		V	b
Ado	Ado	0		H	sg n
Rüütel	Rüütli	l		H	sg ad
2	2	0		N	?
öös	öö	s		S	sg in
ja	ja	0		J	
päivas	####				
vangi	vang	0		S	sg g
pantus	####				
.	.			Z	
</s>					
<s>					
et	et	0		J	
Johann	Johann	0		H	sg n
Völli	Völli	0		H	sg n
Ado	Ado	0		H	sg n
Rüütlit	Rüütli	t		H	sg p
3	3	0		N	?
ehk	ehk	0		J	
4	4	0		N	?
kõrd	kord	0		S	sg n
lönu	####				
saap	saa	b		V	b
1	1	0		N	?
päivas	####				
vangi	vang	0		S	sg g
pantus	####				
.	.			Z	
</s>					
<s>					
Loeti	luge	ti		V	ti
ette	ette	0		D	
:	:			Z	
Ado	Ado	0		H	sg n
Rüütel	Rüütli	l		H	sg ad
ja	ja	0		J	
Johan	Johan	0		H	sg n
Völli	Völli	0		H	sg n
ei	ei	0		V	neg
olle	ole	0		V	o
rahul	rahul	0		D	
.	.			Z	
</s>					
<s>					
Protokoll	protokoll	0		S	sg n
anti	and	ti		V	ti
välja	välja	0		D	
sel	see	l		P	sg ad
27	27	0		N	?
Octbr	####				
.	.			Z	
</s>					
