<s>					
Enn	Enn	0		H	sg n
Karrist	Karrist	0		H	sg n
kaivas	kaeba	s		V	s
Jaak	Jaak	0		H	sg n
Kiis	Kiis	0		H	sg n
päle	peale	0		K	
et	et	0		J	
täl	####				
1864	1864	0		N	?
a	a	0		Y	?
päraha	####				
võlgo	võlgu	0		D	
jänu	####				
Jaak	Jaak	0		H	sg n
Kiis	Kiis	0		H	sg n
lubbas	luba	s		V	s
ärrä	ära	0		D	
massa	maks	0		S	adt
.	.			Z	
</s>					
