<s>					
Pääle	####				
eesnimitatud	####				
asja	asi	0		S	sg g
valmissaamise	valmis_saamine	0		S	sg g
tulli	tule	i		V	s
Varbuse	Varbuse	0		H	sg n
jaama	jaam	0		S	sg g
tallmeister	tall_meister	0		S	sg n
Mikk	Mikk	0		H	sg n
Sonnatar	Sonnatar	0		H	sg n
ette	ette	0		D	
ja	ja	0		J	
ütles	ütle	s		V	s
,	,			Z	
et	et	0		J	
teise	teine	0		O	sg g
     	teine	0		P	sg g
varga	varas	0		S	sg g
Peter	Peter	0		H	sg n
Vasseri	Vasseri	0		H	sg n
ülekuulamise	üle_kuulamine	0		S	sg g
juures	juures	0		K	
Varbuses	Varbuse	s		H	sg in
seesama	see_sama	0		P	sg n
mitme	mitu	0		P	sg g
muu	muu	0		P	sg g
asjade	asi	de		S	pl g
kõrvas	kõrv	s		S	sg in
olla	ole	a		V	da
tunistanud	####				
,	,			Z	
et	et	0		J	
temalt	tema	lt		P	sg abl
25.	25.	0		O	?
selle	see	0		P	sg g
kuu	kuu	0		S	sg g
päeval	päev	l		S	sg ad
ärävarastatud	####				
paara	####				
adra	ader	0		S	sg g
rauda	raud	0		S	sg p
,	,			Z	
kasti	kast	0		S	sg g
ja	ja	0		J	
lusikaga	lusikas	ga		S	sg kom
Jakob	Jakob	0		H	sg n
Kontzi	Kontzi	0		H	sg n
jauks	####				
on	ole	0		V	b
  	ole	0		V	vad
olnud	ole	nud		V	nud
,	,			Z	
mis	mis	0		P	sg n
Adam	Adam	0		H	sg n
Matti	Matti	0		H	sg n
kraamiga	kraam	ga		S	sg kom
ühes	üks	s		N	sg in
    	üks	s		P	sg in
seie	siia	0		D	
olla	ole	a		V	da
toodud	too	dud		V	tud
.	.			Z	
</s>					
<s>					
Varbus	####				
kohtomees	kohtu_mees	0		S	sg n
oli	ole	i		V	s
asja	asi	0		S	sg g
selgituseks	selgitus	ks		S	sg tr
ühestulnud	####				
.	.			Z	
</s>					
<s>					
Kui	kui	0		D	
   	kui	0		J	
nimitatud	nimeta	tud		V	tud
tallmeister	tall_meister	0		S	sg n
omaduse	omadus	0		S	sg g
tunistuse	####				
ärä	ära	0		D	
oli	ole	i		V	s
annud	and	nud		V	nud
ja	ja	0		J	
see	see	0		P	sg n
tunistus	####				
asjadega	asi	dega		S	pl kom
täitsa	täitsa	0		D	
ühte	ühte	0		D	
sünnis	sünnis	0		A	sg n
,	,			Z	
siis	siis	0		J	
sai	saa	i		V	s
tälle	tema	le		P	sg all
tema	tema	0		P	sg g
asjad	asi	d		S	pl n
kätteantud	kätte_an=tud	0		A	sg n
.	.			Z	
</s>					
<s>					
Adra	ader	0		S	sg g
lusikat	lusikas	t		S	sg p
ei	ei	0		V	neg
olnud	ole	nud		V	nud
.	.			Z	
</s>					
