<s>					
Sai	Sai	i		H	sg n
see	see	0		P	sg n
asi	asi	0		S	sg n
nr	nr	0		Y	?
54	54	0		N	?
all	all	0		K	
s	s	0		Y	?
.	.			Z	
</s>					
<s>					
11	11	0		N	?
s	s	0		Y	?
.	.			Z	
k	k	0		Y	?
.	.			Z	
p	p	0		Y	?
.	.			Z	
edesiseletatud	####				
ja	ja	0		J	
Juhan	Juhan	0		H	sg n
Kurvitz	Kurvitz	0		H	sg n
ettekutsutud	ette_kutsutud	0		A	sg n
,	,			Z	
kes	kes	0		P	sg n
ütles	ütle	s		V	s
,	,			Z	
et	et	0		J	
tema	tema	0		P	sg g
teades	tead	es		V	des
ei	ei	0		V	neg
olla	ole	a		V	da
küll	küll	0		D	
tema	tema	0		P	sg g
eläjaid	####				
niitu	niit	0		S	adt
lastud	lask	tud		V	tud
.	.			Z	
</s>					
<s>					
Pääkohtomees	####				
,	,			Z	
kes	kes	0		P	sg n
kahju	kahi	0		S	sg g
     	kahju	0		S	sg g
üle	üle	0		K	
oli	ole	i		V	s
vaadand	vaata	nud		V	nud
,	,			Z	
arvas	arva	s		V	s
seda	see	da		P	sg p
5	5	0		N	?
rubla	rubla	0		S	sg g
pääle	peale	0		K	
.	.			Z	
</s>					
<s>					
Mõismine	####				
:	:			Z	
See	see	0		P	sg n
kahju	kahju	0		S	sg n
5	5	0		N	?
rubla	rubla	0		S	sg p
langeb	lange	b		V	b
3	3	0		N	?
rubla	rubla	0		S	sg p
Karel	Karel	0		H	sg n
Lentsiuse	Lentsiuse	0		H	sg n
ja	ja	0		J	
2	2	0		N	?
rubla	rubla	0		S	sg g
Juhan	Juhan	0		H	sg n
Kurvitze	Kurvitz	0		H	sg g
käest	käsi	st		S	sg el
2	2	0		N	?
nädälini	####				
a	a	0		Y	?
dato	####				
Kusta	Kusta	0		H	sg n
Naba	Naba	0		H	sg n
heaks	heaks	0		D	
seie	siia	0		D	
ärämaksta	####				
.	.			Z	
</s>					
<s>					
See	see	0		P	sg n
otsus	otsus	0		S	sg n
sai	saa	i		V	s
nende	see	de		P	pl g
kohtokäiatele	kohtu_käija	tele		S	pl all
Liivl	Liivl	0		H	sg n
.	.			Z	
</s>					
<s>					
Talor	Talor	0		H	sg n
.	.			Z	
</s>					
<s>					
Sääd	####				
.	.			Z	
</s>					
<s>					
§	§	0		Y	?
773	773	0		N	?
järele	järele	0		D	
kuulutatud	kuuluta	tud		V	tud
.	.			Z	
</s>					
