<s>					
Aste	aste	0		S	sg g
ette	ette	0		K	
Kiuma	Kiuma	0		H	sg n
mees	mees	0		S	sg n
Jacob	Jacob	0		H	sg n
Kübarsep	Kübarsep	0		H	sg n
ja	ja	0		J	
kaibas	kaeba	s		V	s
,	,			Z	
et	et	0		J	
Jaan	Jaan	0		H	sg n
Lukatz	Lukatz	0		H	sg n
ja	ja	0		J	
känksepa	känk_sepp	0		S	sg g
sell	sell	0		S	sg n
Adam	Adam	0		H	sg n
Kaarna	Kaarna	0		H	sg n
olla	ole	a		V	da
teda	tema	da		P	sg p
mõne	mõni	0		P	sg g
nädala	nädal	0		S	sg g
eest	eest	0		K	
mitu	mitu	0		P	sg n
kõrda	####				
päha	####				
löönud	löö	nud		V	nud
,	,			Z	
nõnda	nõnda	0		D	
et	et	0		J	
pää	####				
verine	verine	0		A	sg n
olnu	ole	nud		V	nud
,	,			Z	
mille	mis	0		P	sg g
märgid	märk	d		S	pl n
veel	veel	0		D	
täl	tema	l		P	sg ad
praegu	praegu	0		D	
pääl	pea	l		S	sg ad
külles	külg	s		S	sg in
näha	näge	a		V	da
olid	ole	id		V	sid
.	.			Z	
</s>					
<s>					
Tema	tema	0		P	sg n
nõuda	nõud	a		V	da
selle	see	0		P	sg g
ränga	ränk	0		A	sg g
nõudmise	nõudmine	0		S	sg g
eest	eest	0		K	
200	200	0		N	?
rubla	rubla	0		S	sg p
.	.			Z	
</s>					
<s>					
Jacob	Jacob	0		H	sg n
Vank	Vank	0		H	sg n
ja	ja	0		J	
Jaan	Jaan	0		H	sg n
Matson	Matson	0		H	sg n
(	(			Z	
17	17	0		N	?
aasatane	####				
)	)			Z	
voida	või	da		V	da
     	võid	a		V	da
seda	see	da		P	sg p
tunistada	####				
.	.			Z	
</s>					
<s>					
Jaan	Jaan	0		H	sg n
Lukatz	Lukatz	0		H	sg n
vabandas	vabanda	s		V	s
selle	see	0		P	sg g
vasto	vastu	0		K	
,	,			Z	
et	et	0		J	
Kübarsep	Kübarsep	0		H	sg n
olla	ole	a		V	da
teda	tema	da		P	sg p
kinnivõtnud	kinni_võt=nud	0		A	sg n
,	,			Z	
kui	kui	0		D	
   	kui	0		J	
ta	tema	0		P	sg n
kahte	kaks	0		N	sg p
purjuspääga	####				
taplejate	taple=ja	te		S	pl g
juure	juur	0		S	sg g
olla	ole	a		V	da
läinud	mine	nud		V	nud
ja	ja	0		J	
teda	tema	da		P	sg p
löönud	löö	nud		V	nud
,	,			Z	
siis	siis	0		J	
olla	ole	a		V	da
tema	tema	0		P	sg g
ka	ka	0		D	
vasto	vastu	0		D	
löönud	löö	nud		V	nud
.	.			Z	
</s>					
<s>					
Tema	tema	0		P	sg n
saanud	saa	nud		V	nud
ka	ka	0		D	
Kübarsepa	Kübarsep	0		H	sg g
käest	käsi	st		S	sg el
viinapudeliga	viina_pudel	ga		S	sg kom
hea	hea	0		A	sg g
löögi	löök	0		S	sg g
pähe	pea	0		S	adt
.	.			Z	
</s>					
<s>					
Aadam	Aadam	0		H	sg n
Kaarna	Kaarna	0		H	sg n
vabandas	vabanda	s		V	s
,	,			Z	
et	et	0		J	
tema	tema	0		P	sg g
olla	ole	a		V	da
taplejaid	taple=ja	id		S	pl p
lahutama	lahuta	ma		V	ma
läinud	mine	nud		V	nud
ja	ja	0		J	
ei	ei	0		D	
olla	ole	a		V	da
kellegile	####				
löönud	löö	nud		V	nud
,	,			Z	
vaid	vaid	0		J	
Hindrek	Hindrek	0		H	sg n
Lukatz	Lukatz	0		H	sg n
Jaan	Jaan	0		H	sg n
Lukatzi	Lukatz	0		H	sg g
vend	vend	0		S	sg n
olla	ole	a		V	da
Kübarsepa	Kübarsep	0		H	sg g
esiteks	esiteks	0		D	
löönud	löö	nud		V	nud
.	.			Z	
</s>					
<s>					
Jakob	Jakob	0		H	sg n
Vank	Vank	0		H	sg n
tunistas	####				
,	,			Z	
et	et	0		J	
Jakob	Jakob	0		H	sg n
Kübarsep	Kübarsep	0		H	sg n
läinud	mine	nud		V	nud
kahte	kaks	0		N	sg p
taplejat	taple=ja	t		S	sg p
lahutama	lahuta	ma		V	ma
,	,			Z	
kuhu	kuhu	0		D	
ka	ka	0		D	
Jaan	Jaan	0		H	sg n
Lukatz	Lukatz	0		H	sg n
ja	ja	0		J	
Aadam	Aadam	0		H	sg n
Kaarna	Kaarna	0		H	sg n
juure	juur	0		S	sg g
olla	ole	a		V	da
jooksnud	jooks	nud		V	nud
,	,			Z	
Jaan	Jaan	0		H	sg n
Lukatz	Lukatz	0		H	sg n
võtnud	võt	nud		V	nud
Kübarsepa	Kübarsep	0		H	sg g
kinni	kinni	0		D	
ja	ja	0		J	
Aadam	Aadam	0		H	sg n
Kaarna	Kaarna	0		H	sg n
olla	ole	a		V	da
teda	tema	da		P	sg p
löönud	löö	nud		V	nud
.	.			Z	
</s>					
<s>					
Pääle	####				
selle	see	0		P	sg g
olla	ole	a		V	da
ka	ka	0		D	
Kübarsep	Kübarsep	0		H	sg n
vastuhakkanud	####				
ja	ja	0		J	
veel	veel	0		D	
Jaan	Jaan	0		H	sg n
Lukatzi	Lukatz	0		H	sg g
käest	käsi	st		S	sg el
lüüa	löö	a		V	da
saanud	saa	nud		V	nud
.	.			Z	
</s>					
<s>					
Jaan	Jaan	0		H	sg n
Matson	Matson	0		H	sg n
tunistanu	####				
,	,			Z	
et	et	0		J	
tema	tema	0		P	sg g
olla	ole	a		V	da
kakeluse	####				
hakatusel	hakatus	l		S	sg ad
mant	mant	0		D	
pakku	pakk	0		S	sg p
jooksnud	jooks	nud		V	nud
ja	ja	0		J	
ei	ei	0		V	neg
ole	ole	0		V	o
sellepärast	selle_pärast	0		D	
midagi	miski	dagi		P	sg p
tähelepanna	####				
saanud	saa	nud		V	nud
.	.			Z	
</s>					
<s>					
Otsus	otsus	0		S	sg n
:	:			Z	
Kohus	kohus	0		S	sg n
arvas	arva	s		V	s
,	,			Z	
kui	kui	0		D	
   	kui	0		J	
vastased	vastane	d		S	pl n
isekeskis	ise_keskis	0		D	
ärä	ära	0		D	
ei	ei	0		V	neg
lepi	leppi	0		V	o
,	,			Z	
siis	siis	0		D	
on	ole	0		V	b
  	ole	0		V	vad
Jaan	Jaan	0		H	sg n
Lukatzil	Lukatz	l		H	sg ad
ja	ja	0		J	
Aadam	Aadam	0		H	sg n
Kaarnal	Kaarna	l		H	sg ad
ennast	ise	t		P	sg p
selle	see	0		P	sg g
tüli	tüli	0		S	sg g
sisse	sisse	0		K	
segamise	segamine	0		S	sg g
ja	ja	0		J	
selle	see	0		P	sg g
pahemaks	pahem	ks		C	sg tr
tegemise	tegemine	0		S	sg g
pärast	pärast	0		K	
Kübarsepa	Kübarsep	0		H	sg g
peksmise	peksmine	0		S	sg g
läbi	läbi	0		D	
kummagil	####				
6	6	0		N	?
rubla	rubla	0		S	sg p
Kübarsepa	Kübarsep	0		H	sg g
ja	ja	0		J	
3	3	0		N	?
rubla	rubla	0		S	sg p
selle	see	0		P	sg g
vaeste	vaene	te		S	pl g
kassa	kassa	0		S	sg g
heaks	heaks	0		K	
2	2	0		N	?
näd	####				
a	a	0		Y	?
dato	####				
ärämaksta	####				
.	.			Z	
</s>					
<s>					
Lepisivad	####				
ärä	ära	0		D	
.	.			Z	
</s>					
