<s>					
Mineva	minev	0		A	sg g
kõrd	kord	0		S	sg n
pooleli	pooleli	0		D	
jäänud	jää	nud		V	nud
asi	asi	0		S	sg n
ei	ei	0		V	neg
võinud	või	nud		V	nud
nüüdgi	####				
valmis	valmi	s		V	s
saada	saa	da		V	da
,	,			Z	
sest	sest	0		J	
et	et	0		J	
Jakob	Jakob	0		H	sg n
ja	ja	0		J	
Juhan	Juhan	0		H	sg n
Aripmann	Aripmann	0		H	sg n
jälle	jälle	0		D	
ilma	ilma	0		D	
vabandamata	vabanda	mata		V	mata
tagasi	tagasi	0		D	
olid	ole	id		V	sid
jäänud	jää	nud		V	nud
,	,			Z	
aga	aga	0		J	
et	et	0		J	
kihelkonna	kihelkond	0		S	sg g
kohtust	kohus	st		S	sg el
määratud	määra	tud		V	tud
seletamise	seletamine	0		S	sg g
aeg	aeg	0		S	sg n
sel	see	l		P	sg ad
29.	29.	0		O	?
augustil	august	l		S	sg ad
täis	täis	0		D	
on	ole	0		V	b
  	ole	0		V	vad
,	,			Z	
siis	siis	0		J	
on	ole	0		V	b
  	ole	0		V	vad
selle	see	0		P	sg g
üle	üle	0		K	
varssi	####				
senna	senna	0		S	sg g
teeda	####				
anda	and	a		V	da
ja	ja	0		J	
eesnimitatud	####				
kohtokäiad	####				
veel	veel	0		D	
kord	kord	0		D	
ettekäsütada	####				
seks	see	ks		P	sg tr
10.	10.	0		O	?
septembriks	september	ks		S	sg tr
säädusliku	####				
trahvi	trahv	0		S	sg g
juures	juures	0		K	
.	.			Z	
</s>					
