<s>					
Selkõrral	####				
ei	ei	0		V	neg
olnud	ole	nud		V	nud
midagi	miski	dagi		P	sg p
kohtuasju	kohtu_asi	u		S	pl p
seletada	seleta	da		V	da
,	,			Z	
vaid	vaid	0		J	
ennegi	ennegi	0		D	
see	see	0		P	sg n
konkursi	konkurss	0		S	sg g
protokoll	protokoll	0		S	sg n
sest	sest	0		J	
19.	19.	0		O	?
novembrist	november	st		S	sg el
pr	pr	0		Y	?
sub	sub	0		Y	?
nr	nr	0		Y	?
85	85	0		N	?
,	,			Z	
mis	mis	0		P	sg n
mõnesuguste	mõne_sugune	te		P	pl g
seäl	####				
ettetuleva	ette_tulev	0		A	sg g
puuduste	puudus	te		S	pl g
peräst	####				
kihelkonna	kihelkond	0		S	sg g
kohto	kohus	0		S	sg g
poolest	poolest	0		K	
ümbermõista	####				
oli	ole	i		V	s
kästud	käski	tud		V	tud
,	,			Z	
võeti	võt	ti		V	ti
nõuks	nõu	ks		S	sg tr
,	,			Z	
niipea	nii_pea	0		D	
kui	kui	0		D	
   	kui	0		J	
need	see	d		P	pl n
,	,			Z	
kes	kes	0		P	sg n
nimitatud	nimeta	tud		V	tud
protokoli	protokoll	0		S	sg g
otsusega	otsus	ga		S	sg kom
ja	ja	0		J	
Jacob	Jacob	0		H	sg n
Mustmann	Mustmann	0		H	sg n
seie	siia	0		D	
tulevad	tule	vad		V	vad
,	,			Z	
ärätallitada	####				
.	.			Z	
</s>					
