<s>					
Asi	asi	0		S	sg n
8.	8.	0		O	?
aprillist	aprill	st		S	sg el
c	c	0		Y	?
.	.			Z	
nr	nr	0		Y	?
12	12	0		N	?
edesiseletatud	####				
.	.			Z	
</s>					
<s>					
Gustav	Gustav	0		H	sg n
Eper	Eper	0		H	sg n
andis	and	is		V	s
üles	üles	0		D	
,	,			Z	
et	et	0		J	
Edesi	####				
olla	ole	a		V	da
teda	tema	da		P	sg p
ka	ka	0		D	
mõisa	mõis	0		S	sg g
kõrtsis	kõrts	s		S	sg in
trotsinud	trotsi	nud		V	nud
,	,			Z	
mida	mis	da		P	sg p
Jaan	Jaan	0		H	sg n
Lukatz	Lukatz	0		H	sg n
ja	ja	0		J	
Karl	Karl	0		H	sg n
Mustmann	Mustmann	0		H	sg n
voida	või	da		V	da
     	võid	a		V	da
tunistada	####				
.	.			Z	
</s>					
<s>					
Jaan	Jaan	0		H	sg n
Lukatz	Lukatz	0		H	sg n
tunnist	tund	st		S	sg el
,	,			Z	
et	et	0		J	
Edesi	####				
olla	ole	a		V	da
metsavahile	metsa_vaht	le		S	sg all
öölnud	####				
:	:			Z	
Ühed	üks	d		N	pl n
    	üks	d		P	pl n
kuradit	kurat	t		S	sg p
olete	ole	te		V	te
mõlemad	mõlema	d		P	pl n
oma	oma	0		P	sg g
herraga	####				
.	.			Z	
</s>					
<s>					
Carl	Carl	0		H	sg n
Mustmann	Mustmann	0		H	sg n
ei	ei	0		V	neg
teadnud	tead	nud		V	nud
muud	muu	d		P	pl n
tunistada	####				
,	,			Z	
kui	kui	0		D	
   	kui	0		J	
et	et	0		J	
metsavaht	metsa_vaht	0		S	sg n
öölnud	####				
Edesile	Edesil	le		H	sg all
:	:			Z	
""""	""""			Z	
Ma	mina	0		P	sg n
tahan	taht	n		V	n
seda	see	da		P	sg p
kaevata	kaeba	ta		V	da
       	kaeva	ta		V	da
","""	","""			Z	
muud	muu	d		P	sg p
ei	ei	0		V	neg
olla	ole	a		V	da
ta	tema	0		P	sg g
kuulnud	kuul	nud		V	nud
.	.			Z	
</s>					
<s>					
Jaan	Jaan	0		H	sg n
Edesi	####				
ei	ei	0		V	neg
vabandanud	vabanda	nud		V	nud
ennast	ise	t		P	sg p
muuga	muu	ga		P	sg kom
,	,			Z	
kui	kui	0		D	
   	kui	0		J	
ütles	ütle	s		V	s
,	,			Z	
et	et	0		J	
ta	tema	0		P	sg n
küll	küll	0		D	
vahest	vahest	0		D	
seda	see	da		P	sg p
võib	või	b		V	b
ütelnud	ütle	nud		V	nud
olla	ole	a		V	da
,	,			Z	
mis	mis	0		P	sg n
täl	tema	l		P	sg ad
enam	enam	0		D	
meeles	meel	s		S	sg in
ei	ei	0		V	neg
olla	ole	a		V	da
.	.			Z	
</s>					
<s>					
See	see	0		P	sg n
olla	ole	a		V	da
vahest	vahest	0		D	
purjus	purjus	0		A	
pääga	####				
juhtunud	juhtu	nud		V	nud
.	.			Z	
</s>					
<s>					
Mõistmine	mõistmine	0		S	sg n
:	:			Z	
Kohus	kohus	0		S	sg n
arvas	arva	s		V	s
:	:			Z	
Jaan	Jaan	0		H	sg n
Edesil	Edesil	l		H	sg n
on	ole	0		V	b
  	ole	0		V	vad
selle	see	0		P	sg g
laimduse	laimdus	0		S	sg g
eest	eest	0		K	
3	3	0		N	?
rubla	rubla	0		S	sg p
trahvi	trahv	0		S	sg g
2	2	0		N	?
nädd	####				
.	.			Z	
</s>					
<s>					
a	a	0		Y	?
dato	####				
selle	see	0		P	sg g
vaeste	vaene	te		S	pl g
laadikusse	laadik	sse		S	sg ill
maksta	maks	ta		V	da
.	.			Z	
</s>					
<s>					
See	see	0		P	sg n
mõistmine	mõistmine	0		S	sg n
sai	saa	i		V	s
nende	tema	de		P	pl g
kohtokäiatele	kohtu_käija	tele		S	pl all
sääduse	####				
järele	järele	0		D	
kuulutatud	kuuluta	tud		V	tud
.	.			Z	
</s>					
