<s>					
Asi	asi	0		S	sg n
21.	21.	0		O	?
juulist	juuli	st		S	sg el
nr	nr	0		Y	?
44	44	0		N	?
ettevõetud	ette_võetud	0		A	sg n
,	,			Z	
aga	aga	0		J	
Jüri	Jüri	0		H	sg n
Klaos	Klaos	0		H	sg n
oli	ole	i		V	s
jälle	jälle	0		D	
puudus	puudus	0		S	sg n
ja	ja	0		J	
on	ole	0		V	b
  	ole	0		V	vad
ta	tema	0		P	sg n
sellepärast	selle_pärast	0		D	
kohaliku	kohalik	0		A	sg g
kihelk	kihelk	0		Y	?
.	.			Z	
</s>					
<s>					
kohto	kohus	0		S	sg g
poolest	poolest	0		K	
27.	27.	0		O	?
augustiks	august	ks		S	sg tr
c	c	0		Y	?
.	.			Z	
ettekäsütada	####				
lasta	lask	ta		V	da
.	.			Z	
</s>					
