<s>					
Tulli	tull	0		S	sg g
ette	ette	0		K	
selle	see	0		P	sg g
mõisa	mõis	0		S	sg g
metsavaht	metsa_vaht	0		S	sg n
Kusta	Kusta	0		H	sg n
Eper	Eper	0		H	sg n
ja	ja	0		J	
kaibas	kaeba	s		V	s
,	,			Z	
et	et	0		J	
mõisa	mõis	0		S	sg g
maapidaja	maa_pidaja	0		S	sg n
Jaan	Jaan	0		H	sg n
Edesi	####				
olla	ole	a		V	da
teda	tema	da		P	sg p
mitmel	mitu	l		P	sg ad
kohal	koha	l		S	sg ad
     	koht	l		S	sg ad
tühja	tühi	0		A	sg g
juttude	jutt	de		S	pl g
läbi	läbi	0		D	
laimanud	laima	nud		V	nud
,	,			Z	
kui	kui	0		D	
   	kui	0		J	
oleks	ole	ks		V	ks
tema	tema	0		P	sg g
salajalt	####				
mõisa	mõis	0		S	sg g
puid	puu	id		S	pl p
oma	oma	0		P	sg g
kasuks	kasu	ks		S	sg tr
müünud	müü	nud		V	nud
ja	ja	0		J	
teda	tema	da		P	sg p
enneaegu	enne_aegu	0		D	
ametist	amet	st		S	sg el
lahti	lahti	0		D	
lubanud	luba	nud		V	nud
teha	tege	a		V	da
,	,			Z	
ütelusega	####				
,	,			Z	
et	et	0		J	
vaata	vaata	0		V	o
kuradit	kurat	t		S	sg p
,	,			Z	
kuidas	kuidas	0		D	
ta	tema	0		P	sg n
uhkelt	uhkelt	0		D	
kõnnib	kõndi	b		V	b
,	,			Z	
punane	punane	0		A	sg n
kepp	kepp	0		S	sg n
käes	käsi	s		S	sg in
,	,			Z	
aga	aga	0		J	
ma	mina	0		P	sg n
tahan	taht	n		V	n
teha	tege	a		V	da
,	,			Z	
et	et	0		J	
täl	tema	l		P	sg ad
siin	siin	0		D	
ametis	amet	s		S	sg in
aasta	aasta	0		S	sg g
vähe	vähe	0		D	
ja	ja	0		J	
poolt	poolt	0		K	
palju	palju	0		D	
on	ole	0		V	b
  	ole	0		V	vad
.	.			Z	
</s>					
<s>					
Kiuma	Kiuma	0		H	sg n
kõrtsimees	kõrtsi_mees	0		S	sg n
Johann	Johann	0		H	sg n
Aripmann	Aripmann	0		H	sg n
ja	ja	0		J	
tema	tema	0		P	sg g
poig	poeg	0		S	sg n
Jacob	Jacob	0		H	sg n
võida	võit	0		V	o
seda	see	da		P	sg p
tunistada	####				
.	.			Z	
</s>					
<s>					
Juhan	Juhan	0		H	sg n
ja	ja	0		J	
Jacob	Jacob	0		H	sg n
Aripmann	Aripmann	0		H	sg n
tunistiva	####				
,	,			Z	
et	et	0		J	
Jaan	Jaan	0		H	sg n
Edesi	####				
nendele	tema	dele		P	pl all
küll	küll	0		D	
nõnda	nõnda	0		D	
olla	ole	a		V	da
kõnelnu	kõnele	nud		V	nud
,	,			Z	
kuida	kuidas	0		D	
mõtsavaht	####				
kaevata	kaeba	ta		V	da
       	kaeva	ta		V	da
.	.			Z	
</s>					
<s>					
22.	22.	0		O	?
aprilliks	aprill	ks		S	sg tr
on	ole	0		V	b
  	ole	0		V	vad
Kusta	Kusta	0		H	sg n
Eper	Eper	0		H	sg n
ja	ja	0		J	
Jaan	Jaan	0		H	sg n
Edesi	####				
30	30	0		N	?
kop	kop	0		Y	?
trahvi	trahv	0		S	sg g
juures	juures	0		K	
ette	ette	0		D	
kutsuda	kutsu	da		V	da
.	.			Z	
</s>					
