<s>					
Sai	Sai	i		H	sg n
lesknaene	####				
Mai	Mai	0		H	sg n
Kimask	Kimask	0		H	sg n
ettelastud	ette_las=tud	0		A	sg n
ja	ja	0		J	
tälle	tema	le		P	sg all
Kusta	Kusta	0		H	sg n
Naba	Naba	0		H	sg n
võõlmündriks	####				
,	,			Z	
tema	tema	0		P	sg g
alaeäliste	####				
lastele	laps	tele		S	pl all
aga	aga	0		J	
Hans	Hans	0		H	sg n
Peedmann	Peedmann	0		H	sg n
seätud	####				
ja	ja	0		J	
nendele	see	dele		P	pl all
nende	tema	de		P	pl g
ameti	amet	0		S	sg g
kohused	kohus	d		S	pl n
teada	tead	a		V	da
antud	and	tud		V	tud
.	.			Z	
</s>					
