<s>					
Nr	Nr	0		Y	?
.	.			Z	
</s>					
<s>					
40	40	0		N	?
sest	sest	0		J	
9.	9.	0		O	?
aprillist	aprill	st		S	sg el
c	c	0		Y	?
.	.			Z	
edasiarutatud	edasi_aruta=tud	0		A	sg n
:	:			Z	
Mari	Mari	0		H	sg n
Jugova	Jugova	0		H	sg n
oli	ole	i		V	s
seekõrd	####				
siin	siin	0		D	
ja	ja	0		J	
sai	saa	i		V	s
sis	siis	0		D	
eestkostjaga	eest_kostja	ga		S	sg kom
ülekuulatud	üle_kuulatud	0		A	sg n
.	.			Z	
</s>					
<s>					
Ta	tema	0		P	sg g
tunistas	####				
,	,			Z	
et	et	0		J	
ta	tema	0		P	sg n
sest	sest	0		J	
puuvargusest	puu_vargus	st		S	sg el
midagi	miski	dagi		P	sg p
ei	ei	0		V	neg
olla	ole	a		V	da
kuulnu	kuul	nud		V	nud
ja	ja	0		J	
nännu	näge	nud		V	nud
.	.			Z	
</s>					
<s>					
Otsustedi	####				
:	:			Z	
Peter	Peter	0		H	sg n
Ussin	Ussin	0		H	sg n
,	,			Z	
Gustav	Gustav	0		H	sg n
Richm	Richm	0		H	sg n
ja	ja	0		J	
see	see	0		P	sg n
seäl	####				
varguse	vargus	0		S	sg g
otsimise	otsimine	0		S	sg g
juures	juures	0		K	
olnud	ole	nud		V	nud
Kähri	Kähri	0		H	sg n
pääkohtumees	####				
seks	see	ks		P	sg tr
14.	14.	0		O	?
mais	mai	s		S	sg in
c	c	0		Y	?
.	.			Z	
seädusliku	####				
tagasijäämise	tagasi_jäämine	0		S	sg g
trahvi	trahv	0		S	sg g
juures	juures	0		K	
ettekäsutada	####				
lasta	lask	ta		V	da
.	.			Z	
</s>					
