<s>					
Aste	aste	0		S	sg g
ette	ette	0		K	
siit	siit	0		D	
vallast	vallast	st		H	sg n
sulane	sulane	0		S	sg n
Gustav	Gustav	0		H	sg n
Kimask	Kimask	0		H	sg n
ja	ja	0		J	
kaibas	kaeba	s		V	s
,	,			Z	
et	et	0		J	
tema	tema	0		P	sg g
peremees	pere_mees	0		S	sg n
Peeter	Peeter	0		H	sg n
Aabel	Aabel	0		H	sg n
,	,			Z	
keda	kes	da		P	sg p
teenides	teeni	des		V	des
täl	tema	l		P	sg ad
nüüd	nüüd	0		D	
aasta	aasta	0		S	sg g
täis	täis	0		D	
olla	ole	a		V	da
,	,			Z	
ja	ja	0		J	
kelle	kes	0		P	sg g
juurest	juurest	0		K	
ta	tema	0		P	sg n
nüüd	nüüd	0		D	
ära	ära	0		D	
minna	mine	a		V	da
Vastse-Koiolasse	Vastse-Koiolasse	sse		H	sg n
,	,			Z	
ei	ei	0		V	neg
tahtvat	taht	vat		V	vat
tälle	tema	le		P	sg all
8	8	0		N	?
rubla	rubla	0		S	sg p
palka	palk	0		S	sg p
ja	ja	0		J	
ühe	üks	0		N	sg g
   	üks	0		P	sg g
setveriku	setverik	0		S	sg g
linamahategemise	lina_maha_tegemine	0		S	sg g
eest	eest	0		K	
ka	ka	0		D	
midagi	miski	dagi		P	sg p
maksta	maks	ta		V	da
ei	ei	0		V	neg
lubavat	luba	vat		V	vat
.	.			Z	
</s>					
<s>					
Peeter	Peeter	0		H	sg n
Aabel	Aabel	0		H	sg n
ei	ei	0		V	neg
salganud	salga	nud		V	nud
,	,			Z	
et	et	0		J	
8	8	0		N	?
rubla	rubla	0		S	sg p
palka	palk	0		S	sg p
maksmata	maks	mata		V	mata
ja	ja	0		J	
lubatud	luba	tud		V	tud
setverik	setverik	0		S	sg n
linu	lina	u		S	pl p
sulase	sulane	0		S	sg g
heaks	heaks	0		K	
mahategemata	maha_tege=mata	0		A	
olla	ole	a		V	da
jäänud	jää	nud		V	nud
.	.			Z	
</s>					
<s>					
Aga	aga	0		J	
et	et	0		J	
sulane	sulane	0		S	sg n
paiguti	paiguti	0		D	
sõnakuulmatu	sõna_kuulmatu	0		A	sg n
on	ole	0		V	b
  	ole	0		V	vad
olnud	ole	nud		V	nud
ja	ja	0		J	
öösite	####				
ümber	ümber	0		D	
on	ole	0		V	b
  	ole	0		V	vad
hulkunud	hulku	nud		V	nud
,	,			Z	
siis	siis	0		J	
olla	ole	a		V	da
tema	tema	0		P	sg g
selle	see	0		P	sg g
eest	eest	0		K	
see	see	0		P	sg n
8	8	0		N	?
rubla	rubla	0		S	sg p
palgast	palk	st		S	sg el
mahatõmmanud	maha_tõmba	nud		V	nud
.	.			Z	
</s>					
<s>					
Lina	lina	0		S	sg n
aga	aga	0		J	
ei	ei	0		V	neg
olla	ole	a		V	da
sulane	sulane	0		S	sg n
ise	ise	0		D	
vastuvõtnud	vastu_võt=nud	0		A	sg n
,	,			Z	
kui	kui	0		D	
   	kui	0		J	
ta	tema	0		P	sg n
on	ole	0		V	b
  	ole	0		V	vad
pakunud	####				
Sulane	sulane	0		S	sg n
ütles	ütle	s		V	s
sellepeale	selle_peale	0		D	
,	,			Z	
et	et	0		J	
peremees	pere_mees	0		S	sg n
ei	ei	0		V	neg
olla	ole	a		V	da
linast	lina	st		S	sg el
enne	enne	0		K	
sõna	sõna	0		S	sg p
lausunud	lausu	nud		V	nud
kui	kui	0		D	
   	kui	0		J	
ju	ju	0		D	
lina	lina	0		S	sg g
kasunud	####				
on	ole	0		V	b
  	ole	0		V	vad
,	,			Z	
sellepärast	selle_pärast	0		D	
tema	tema	0		P	sg n
enam	enam	0		D	
ei	ei	0		V	neg
ole	ole	0		V	o
seda	see	da		P	sg p
vastu	vastu	0		D	
võtta	võt	a		V	da
tahtnud	taht	nud		V	nud
,	,			Z	
sest	sest	0		J	
et	et	0		J	
lina	lina	0		S	sg n
tema	tema	0		P	sg g
tahtmist	tahtmine	t		S	sg p
mööda	mööda	0		K	
ei	ei	0		V	neg
olnud	ole	nud		V	nud
mahatehtud	maha_tege	tud		V	tud
.	.			Z	
</s>					
<s>					
Otsus	otsus	0		S	sg n
:	:			Z	
Poisi	poiss	0		S	sg g
öösiste	öösine	te		A	pl g
hulkumiste	hulkumine	te		S	pl g
pärast	pärast	0		K	
jäeb	####				
tema	tema	0		P	sg g
linarahast	lina_raha	st		S	sg el
ilma	ilma	0		D	
,	,			Z	
aga	aga	0		J	
8	8	0		N	?
rubla	rubla	0		S	sg p
palka	palk	0		S	sg p
on	ole	0		V	b
  	ole	0		V	vad
Peeter	Peeter	0		H	sg n
Aabelil	Aabel	l		H	sg ad
tälle	tema	le		P	sg all
kuu	kuu	0		S	sg g
aea	aeg	0		S	sg g
sees	sees	0		K	
a	a	0		Y	?
dato	####				
äramaksta	####				
.	.			Z	
</s>					
<s>					
See	see	0		P	sg n
sai	saa	i		V	s
seäduslikult	####				
kuulutatud	kuuluta	tud		V	tud
.	.			Z	
</s>					
