<s>					
Asi	asi	0		S	sg n
7.	7.	0		O	?
oktoobrist	oktoober	st		S	sg el
c	c	0		Y	?
.	.			Z	
nr	nr	0		Y	?
62	62	0		N	?
ärätäita	####				
tahetud	taht	tud		V	tud
.	.			Z	
</s>					
<s>					
Aga	aga	0		J	
et	et	0		J	
J.	J.	0		Y	sg n
Künnapuu	Künnapuu	0		H	sg n
ka	ka	0		D	
selkõrral	####				
puudus	puudu	s		V	s
,	,			Z	
sis	siis	0		J	
sai	saa	i		V	s
sellepoolne	selle_poolne	0		A	sg n
otsus	otsus	0		S	sg n
23.	23.	0		O	?
septembrist	september	st		S	sg el
c	c	0		Y	?
.	.			Z	
sub	sub	0		Y	?
nr	nr	0		Y	?
57	57	0		N	?
kui	kui	0		D	
   	kui	0		J	
õiguse	õigus	0		S	sg g
jõuliseks	jõuline	ks		A	sg tr
seletatud	seleta	tud		V	tud
ja	ja	0		J	
tuleb	tule	b		V	b
ta	tema	0		P	sg n
tingimata	tingimata	0		D	
J.	J.	0		Y	sg n
Künnapuu	Künnapuu	0		H	sg n
juures	juures	0		K	
ärätäita	####				
laske	lask	ke		V	ge
.	.			Z	
</s>					
<s>					
Tema	tema	0		P	sg g
lambad	lammas	d		S	pl n
,	,			Z	
mis	mis	0		P	sg n
5.	5.	0		O	?
augustil	august	l		S	sg ad
c	c	0		Y	?
.	.			Z	
kinni	kinni	0		D	
said	saa	id		V	sid
pantud	pane	tud		V	tud
,	,			Z	
on	ole	0		V	b
  	ole	0		V	vad
oksjoni	oksjon	0		S	sg g
viisil	viis	l		S	sg ad
väljamüüa	välja_müü	a		V	da
,	,			Z	
sest	sest	0		J	
et	et	0		J	
nad	tema	d		P	pl n
nüüd	nüüd	0		D	
enam	enam	0		D	
karjas	kari	s		S	sg in
ei	ei	0		V	neg
saa	saa	0		V	o
käia	käi	a		V	da
ja	ja	0		J	
selleläbi	selle_läbi	0		D	
söötmise	söötmine	0		S	sg g
kuluga	kulg	ga		S	sg kom
      	kulu	ga		S	sg kom
ühtepuhku	ühte_puhku	0		D	
omast	oma	st		P	sg el
hinnast	hind	st		S	sg el
kautavad	####				
.	.			Z	
</s>					
