<s>					
Aste	aste	0		S	sg g
ette	ette	0		K	
Kähri	Kähri	0		H	sg n
vallast	vallast	st		H	sg n
Joosep	Joosep	0		H	sg n
Paide	Paide	0		H	sg n
ja	ja	0		J	
kaibas	kaeba	s		V	s
et	et	0		J	
siit	siit	0		D	
Ivan	Ivan	0		H	sg n
Tiidemann	Tiidemann	0		H	sg n
,	,			Z	
kelle	kes	0		P	sg g
juures	juures	0		K	
tema	tema	0		P	sg g
mineva	minev	0		A	sg g
suvel	suvi	l		S	sg ad
puutööd	puu_töö	d		S	sg p
olla	ole	a		V	da
teinud	tege	nud		V	nud
,	,			Z	
30	30	0		N	?
rubla	rubla	0		S	sg p
palka	palk	0		S	sg p
veel	veel	0		D	
maksmata	maks	mata		V	mata
olla	ole	a		V	da
jätnud	jät	nud		V	nud
,	,			Z	
mida	mis	da		P	sg p
ta	tema	0		P	sg n
nüüd	nüüd	0		D	
varsi	vars	i		S	pl p
kättesaada	####				
tahta	taht	a		V	da
.	.			Z	
</s>					
<s>					
Ivan	Ivan	0		H	sg n
Tiidemann	Tiidemann	0		H	sg n
ütles	ütle	s		V	s
,	,			Z	
et	et	0		J	
mitte	mitte	0		D	
30	30	0		N	?
,	,			Z	
vaid	vaid	0		D	
29	29	0		N	?
rubla	rubla	0		S	sg p
olla	ole	a		V	da
saada	saa	da		V	da
,	,			Z	
sest	sest	0		J	
J.	J.	0		Y	sg n
Paide	Paide	0		H	sg n
olnud	ole	nud		V	nud
temal	tema	l		P	sg ad
4	4	0		N	?
kuud	kuu	d		S	sg p
,	,			Z	
2	2	0		N	?
k	k	0		Y	?
.	.			Z	
</s>					
<s>					
7	7	0		N	?
ja	ja	0		J	
2	2	0		N	?
k	k	0		Y	?
.	.			Z	
</s>					
<s>					
8	8	0		N	?
rubla	rubla	0		S	sg g
eest	eest	0		K	
ja	ja	0		J	
8	8	0		N	?
päeva	päev	0		S	sg g
a	a	0		Y	?
30	30	0		N	?
kop	kop	0		Y	?
töös	töö	s		S	sg in
;	;			Z	
nõnda	nõnda	0		D	
olnud	ole	nud		V	nud
temal	tema	l		P	sg ad
J.	J.	0		Y	sg n
Paidele	Paide	le		H	sg all
kõigeks	kõik	ks		P	sg tr
32	32	0		N	?
rubla	rubla	0		S	sg g
40	40	0		N	?
kop	kop	0		Y	?
maksta	maks	ta		V	da
,	,			Z	
kust	kust	0		D	
3	3	0		N	?
rubla	rubla	0		S	sg p
40	40	0		N	?
kop	kop	0		Y	?
ärä	ära	0		D	
olla	ole	a		V	da
tasunud	tasu	nud		V	nud
.	.			Z	
</s>					
<s>					
Joosep	Joosep	0		H	sg n
Paide	Paide	0		H	sg n
ütles	ütle	s		V	s
,	,			Z	
et	et	0		J	
1	1	0		N	?
kuu	kuu	0		S	sg g
7	7	0		N	?
rubla	rubla	0		S	sg p
ja	ja	0		J	
3	3	0		N	?
kuud	kuu	d		S	sg p
8	8	0		N	?
rubla	rubla	0		S	sg p
peale	peale	0		D	
olla	ole	a		V	da
lepitud	leppi	tud		V	tud
ja	ja	0		J	
nõnda	nõnda	0		D	
täl	tema	l		P	sg ad
veel	veel	0		D	
30	30	0		N	?
rubla	rubla	0		S	sg p
saada	saa	da		V	da
olla	ole	a		V	da
.	.			Z	
</s>					
<s>					
Mõlemad	mõlema	d		P	pl n
jäivad	####				
oma	oma	0		P	sg g
üteluste	üte_lust	e		S	pl p
juure	juur	0		S	sg g
,	,			Z	
aga	aga	0		J	
kummagil	####				
ei	ei	0		V	neg
olnud	ole	nud		V	nud
tunnistust	tunnistus	t		S	sg p
.	.			Z	
</s>					
<s>					
Otsus	otsus	0		S	sg n
:	:			Z	
See	see	0		P	sg n
üts	üks	0		N	sg n
   	üks	0		P	sg n
rubla	rubla	0		S	sg g
vahet	vahe	t		S	sg p
saab	saa	b		V	b
pooleks	pooleks	0		D	
arvatud	arva	tud		V	tud
ja	ja	0		J	
nõnda	nõnda	0		D	
on	ole	0		V	b
  	ole	0		V	vad
J.	J.	0		Y	sg n
Tiidemannil	Tiidemann	l		H	sg ad
J.	J.	0		Y	sg n
Paidele	Paide	le		H	sg all
ühe	üks	0		N	sg g
   	üks	0		P	sg g
kuu	kuu	0		S	sg g
aea	aeg	0		S	sg g
sees	sees	0		K	
a	a	0		Y	?
dato	####				
(	(			Z	
10.	10.	0		O	?
aprillini	aprill	ni		S	sg ter
)	)			Z	
29	29	0		N	?
½	½	0		N	?
rubla	rubla	0		S	sg p
ärämaksta	####				
.	.			Z	
</s>					
<s>					
See	see	0		P	sg n
otsus	otsus	0		S	sg n
sai	saa	i		V	s
seadusl	####				
.	.			Z	
</s>					
<s>					
kuulutatud	kuuluta	tud		V	tud
.	.			Z	
</s>					
<s>					
1894	1894	0		N	?
a	a	0		Y	?
.	.			Z	
15.	15.	0		O	?
veebruaril	veebruar	l		S	sg ad
Joosep	Joosep	0		H	sg n
Paidele	Paide	le		H	sg all
ära	ära	0		D	
kiri	kiri	0		S	sg n
nr	nr	0		Y	?
69	69	0		N	?
all	all	0		K	
väljaantud	välja_and	tud		V	tud
.	.			Z	
</s>					
