<s>					
Andis	and	is		V	s
selle	see	0		P	sg g
valla	valla	0		H	sg n
Koolimaea	koo_lima_iga	0		S	sg g
nr	nr	0		Y	?
26	26	0		N	?
talu	talu	0		S	sg g
omanik	omanik	0		S	sg n
Jakob	Jakob	0		H	sg n
Zuping	Zuping	0		H	sg n
selle	see	0		P	sg g
kohtule	kohus	le		S	sg all
üles	üles	0		D	
,	,			Z	
et	et	0		J	
tema	tema	0		P	sg g
rentnik	rentnik	0		S	sg n
varguse	vargus	0		S	sg g
asjaga	asi	ga		S	sg kom
omma	oma	0		P	sg g
kontrahti	kontraht	0		S	adt
olevat	ole	vat		V	vat
rikkunud	rikku	nud		V	nud
kae	kae	0		S	sg n
protokoll	protokoll	0		S	sg n
nr	nr	0		Y	?
72	72	0		N	?
a	a	0		Y	?
.	.			Z	
c	c	0		Y	?
.	.			Z	
ja	ja	0		J	
sellega	see	ga		P	sg kom
olla	ole	a		V	da
kontrahti	kontraht	0		S	sg p
aeg	aeg	0		S	sg n
otsas	otsas	0		D	
ja	ja	0		J	
Joh	Joh	0		H	sg n
.	.			Z	
</s>					
<s>					
Lepvaltz	Lepvaltz	0		H	sg n
tuleva	tulev	0		A	sg g
jüripäevast	####				
saadik	saadik	0		S	sg n
talust	talu	st		S	sg el
prii	prii	0		A	sg n
teha	tege	a		V	da
.	.			Z	
</s>					
<s>					
See	see	0		P	sg n
kontraht	kontraht	0		S	sg n
on	ole	0		V	b
  	ole	0		V	vad
kevadel	kevad	l		S	sg ad
       	kevade	l		S	sg ad
selle	see	0		P	sg g
kohto	kohus	0		S	sg g
juures	juures	0		K	
kinnitatud	kinnita	tud		V	tud
ja	ja	0		J	
kohus	kohus	0		S	sg n
arvas	arva	s		V	s
ka	ka	0		D	
nüüd	nüüd	0		D	
heaks	heaks	0		D	
Juhan	Juhan	0		H	sg n
Lepvaltzile	Lepvaltzile	0		H	sg n
ülesütelda	####				
,	,			Z	
mis	mis	0		P	sg n
ka	ka	0		D	
varsi	vars	i		S	pl p
ärätäideti	####				
ja	ja	0		J	
millega	mis	ga		P	sg kom
Joh	Joh	0		H	sg n
.	.			Z	
</s>					
<s>					
Lepvaltz	Lepvaltz	0		H	sg n
rahule	rahule	0		D	
oli	ole	i		V	s
.	.			Z	
</s>					
