<s>					
Sellest	see	st		P	sg el
vallast	vallast	st		H	sg n
taluomanik	talu_omanik	0		S	sg n
Juhan	Juhan	0		H	sg n
Aintz	Aintz	0		H	sg n
kaebanud	kaeva	nud		V	nud
,	,			Z	
et	et	0		J	
taluniku	talunik	0		S	sg g
Jüri	Jüri	0		H	sg n
Liigandi	Liigand	0		H	sg g
karja	kari	0		S	sg p
läbi	läbi	0		D	
sel	see	l		P	sg ad
sügisel	sügis	l		S	sg ad
tema	tema	0		P	sg g
heinamaale	heina_maa	le		S	sg all
kahju	kahju	0		S	sg n
olla	ole	a		V	da
tehtud	tege	tud		V	tud
,	,			Z	
mida	mis	da		P	sg p
kohtomees	kohtu_mees	0		S	sg n
P.	P.	0		Y	sg n
Abel	Abel	0		H	sg n
üle	üle	0		D	
olla	ole	a		V	da
vaatanud	####				
ja	ja	0		J	
mis	mis	0		P	sg n
eest	eest	0		K	
ta	tema	0		P	sg g
12	12	0		N	?
rubla	rubla	0		S	sg p
kahjutasumiseks	kahju_tasumine	ks		S	sg tr
nõuda	nõud	a		V	da
.	.			Z	
</s>					
<s>					
Et	Et	0		H	sg n
Jüri	Jüri	0		H	sg n
Liigand	Liigand	0		H	sg n
nüüd	nüüd	0		D	
juba	juba	0		D	
kolmatkorda	####				
ilmavabandamata	ilma_vabanda=mata	0		A	
tagasi	tagasi	0		D	
on	ole	0		V	b
  	ole	0		V	vad
jäänud	jää	nud		V	nud
,	,			Z	
sis	siis	0		J	
sai	saa	i		V	s
selletarvilist	selle_tarviline	t		A	sg p
seädust	####				
tähelepannes	####				
ja	ja	0		J	
selle	see	0		P	sg g
kahju	kahi	0		S	sg g
     	kahju	0		S	sg g
ülevaataja	üle_vaataja	0		S	sg n
,	,			Z	
kohtomehe	####				
P.	P.	0		Y	sg n
Abeli	Abel	0		H	sg g
ülevaatamise	üle_vaatamine	0		S	sg g
järele	järele	0		K	
Otsuse	otsus	0		S	sg g
:	:			Z	
J.	J.	0		Y	sg n
Liigandil	Liigand	l		H	sg ad
on	ole	0		V	b
  	ole	0		V	vad
2.	2.	0		O	?
nädalani	nädal	ni		S	sg ter
a	a	0		Y	?
dato	####				
selle	see	0		P	sg g
otsuse	otsus	0		S	sg g
kuulutamisest	kuulutamine	st		S	sg el
saadik	saadik	0		K	
arvatud	arva	tud		V	tud
,	,			Z	
4	4	0		N	?
rubla	rubla	0		S	sg p
J.	J.	0		Y	sg n
Aintzi	Aintz	0		H	sg g
heaks	hea	ks		A	sg tr
ärämaksta	####				
.	.			Z	
</s>					
<s>					
Tema	tema	0		P	sg n
ise	ise	0		P	sg n
aga	aga	0		J	
9.	9.	0		O	?
detsembriks	detsember	ks		S	sg tr
seda	see	da		P	sg p
kuulama	kuula	ma		V	ma
ettekäsütada	####				
.	.			Z	
</s>					
