<s>					
Said	saa	id		V	sid
ettekutsutud	ette_kutsutu	d		S	pl n
kadund	kadu	nud		V	nud
selle	see	0		P	sg g
valla	valla	0		H	sg n
soldati	soldat	0		S	sg g
Joh	Joh	0		H	sg n
.	.			Z	
</s>					
<s>					
Nemvaltzi	Nemvaltzi	0		H	sg n
naene	naine	0		S	sg n
temale	tema	le		P	sg all
ja	ja	0		J	
tema	tema	0		P	sg g
lastele	laps	tele		S	pl all
seätava	####				
vöölmündride	####				
Tilsist	Tilsist	0		H	sg n
Jaan	Jaan	0		H	sg n
Vasseri	Vasseri	0		H	sg n
ja	ja	0		J	
Kährist	Kährist	0		H	sg n
Jaan	Jaan	0		H	sg n
Nemvaltziga	Nemvaltzi	ga		H	sg kom
nende	see	de		P	pl g
äräkinnitamiseks	####				
ja	ja	0		J	
järelejäänud	järele_jäänud	0		A	sg n
varanduse	varandus	0		S	sg g
üleskirjutamiseks	üles_kirjutamine	ks		S	sg tr
:	:			Z	
Üksikud	üksik	d		A	pl n
varanduse	varandus	0		S	sg g
jaud	####				
on	ole	0		V	b
  	ole	0		V	vad
need	see	d		P	pl n
:	:			Z	
Üks	üks	0		N	sg n
   	üks	0		P	sg n
veike	####				
elumaja	elu_maja	0		S	sg p
,	,			Z	
väärt	väärt	0		A	
35	35	0		N	?
rubla	rubla	0		S	sg p
,	,			Z	
1	1	0		N	?
lehm	lehm	0		S	sg n
,	,			Z	
väärt	väärt	0		A	
17	17	0		N	?
rubla	rubla	0		S	sg p
ja	ja	0		J	
üks	üks	0		N	sg n
   	üks	0		P	sg n
lammas	lammas	0		S	sg n
,	,			Z	
väärt	väärt	0		A	
3	3	0		N	?
rubla	rubla	0		S	sg p
,	,			Z	
ülekõige	####				
55	55	0		N	?
rubla	rubla	0		S	sg p
varandust	varandus	t		S	sg p
,	,			Z	
mis	mis	0		P	sg n
muidugi	muidugi	0		D	
alaeäliste	####				
kasvatamiseks	kasvatamine	ks		S	sg tr
äräkulub	####				
.	.			Z	
</s>					
<s>					
Sai	Sai	i		H	sg n
ka	ka	0		D	
nimitatud	nimeta	tud		V	tud
vöölmündride	####				
nende	tema	de		P	pl g
kättejuhatatud	kätte_juhata=tu	d		S	pl n
ja	ja	0		J	
selgeks	selge	ks		A	sg tr
tehtud	tege	tud		V	tud
.	.			Z	
</s>					
<s>					
Kihelk.kohtule	####				
on	ole	0		V	b
  	ole	0		V	vad
selleüle	selle_üle	0		D	
varsi	vars	i		S	pl p
harilik	harilik	0		A	sg n
teadaandmise	teada_andmine	0		S	sg g
äräsaata	####				
.	.			Z	
</s>					
