<s>					
Aste	aste	0		S	sg g
ette	ette	0		K	
selle	see	0		P	sg g
mõisa	mõis	0		S	sg g
sepp	sepp	0		S	sg n
Alexander	Alexander	0		H	sg n
Teppask	Teppask	0		H	sg n
ja	ja	0		J	
kaibas	kaeba	s		V	s
,	,			Z	
et	et	0		J	
selle	see	0		P	sg g
valla	valla	0		H	sg n
mees	mees	0		S	sg n
Lilo	Lilo	0		H	sg n
Rihm	Rihm	0		H	sg n
ei	ei	0		V	neg
tahtvad	tahtev	d		A	pl n
tälle	tema	le		P	sg all
tema	tema	0		P	sg g
tööraha	töö_raha	0		S	sg g
3	3	0		N	?
rubla	rubla	0		S	sg g
30	30	0		N	?
kop	kop	0		Y	?
ärämaksta	####				
.	.			Z	
</s>					
<s>					
Lilo	Lilo	0		H	sg n
Rihm	Rihm	0		H	sg n
ei	ei	0		V	neg
salganud	salga	nud		V	nud
,	,			Z	
vaid	vaid	0		J	
ütles	ütle	s		V	s
,	,			Z	
et	et	0		J	
täl	tema	l		P	sg ad
praegu	praegu	0		D	
maksta	maks	ta		V	da
ei	ei	0		V	neg
olevat	ole	vat		V	vat
.	.			Z	
</s>					
<s>					
Otsus	otsus	0		S	sg n
:	:			Z	
Lilo	Lilo	0		H	sg n
Rihmal	Rihm	l		H	sg ad
on	ole	0		V	b
  	ole	0		V	vad
see	see	0		P	sg n
raha	raha	0		S	sg n
2.	2.	0		O	?
näd	####				
a	a	0		Y	?
dato	####				
Aleksander	Aleksander	0		H	sg n
Teppaski	Teppask	0		H	sg g
heaks	heaks	0		K	
seie	siia	0		D	
ärämaksta	####				
.	.			Z	
</s>					
<s>					
See	see	0		P	sg n
otsus	otsus	0		S	sg n
sai	saa	i		V	s
seäduslikult	####				
kuulutatud	kuuluta	tud		V	tud
.	.			Z	
</s>					
