<s>					
Aste	aste	0		S	sg g
ette	ette	0		K	
selle	see	0		P	sg g
mõisa	mõis	0		S	sg g
kantnik	kantnik	0		S	sg n
Gusta	Gusta	0		H	sg n
Tiidemann	Tiidemann	0		H	sg n
ja	ja	0		J	
kaibas	kaeba	s		V	s
,	,			Z	
et	et	0		J	
Jaan	Jaan	0		H	sg n
Roosi	Roosi	0		H	sg n
karjus	karju	s		V	s
Alexander	Alexander	0		H	sg n
Rihm	Rihm	0		H	sg n
olla	ole	a		V	da
omal	oma	l		P	sg ad
koeral	koer	l		S	sg ad
tema	tema	0		P	sg g
lamba	lammas	0		S	sg g
nõnda	nõnda	0		D	
äräkiskuda	####				
lasknud	lask	nud		V	nud
,	,			Z	
et	et	0		J	
sest	sest	0		J	
enam	enam	0		D	
midagi	miski	dagi		P	sg p
saada	saa	da		V	da
ei	ei	0		V	neg
olnud	ole	nud		V	nud
ja	ja	0		J	
tema	tema	0		P	sg n
teda	tema	da		P	sg p
ärä	ära	0		D	
pidanud	pida	nud		V	nud
tapma	tap	ma		V	ma
.	.			Z	
</s>					
<s>					
Tema	tema	0		P	sg g
nõuda	nõud	a		V	da
4	4	0		N	?
rubla	rubla	0		S	sg p
kahjutasumiseks	kahju_tasumine	ks		S	sg tr
.	.			Z	
</s>					
<s>					
Alexander	Alexander	0		H	sg n
Rihm	Rihm	0		H	sg n
(	(			Z	
eestkostjaga	eest_kostja	ga		S	sg kom
)	)			Z	
vastutas	vastuta	s		V	s
,	,			Z	
et	et	0		J	
Gusta	Gusta	0		H	sg n
Tiidemanni	Tiidemann	0		H	sg g
oma	oma	0		P	sg g
karjus	karju	s		V	s
,	,			Z	
kes	kes	0		P	sg n
ka	ka	0		D	
selle	see	0		P	sg g
koeraga	koer	ga		S	sg kom
tuttav	tuttav	0		A	sg n
olla	ole	a		V	da
,	,			Z	
teda	tema	da		P	sg p
oma	oma	0		P	sg g
lambale	lammas	le		S	sg all
peale	peale	0		D	
olla	ole	a		V	da
aeanud	aja	nud		V	nud
,	,			Z	
koer	koer	0		S	sg n
aga	aga	0		J	
,	,			Z	
kes	kes	0		P	sg n
muidugi	muidugi	0		D	
väga	väga	0		D	
kiskuja	kisku=ja	0		S	sg n
olla	ole	a		V	da
,	,			Z	
olla	ole	a		V	da
lamba	lammas	0		S	sg g
metsa	mets	0		S	sg g
aeanud	aja	nud		V	nud
ja	ja	0		J	
seält	####				
ikka	ikka	0		D	
edasi	edasi	0		D	
,	,			Z	
ilma	ilma	0		D	
et	et	0		J	
karjuse	karjus	0		S	sg g
keelust	keeld	st		S	sg el
oleks	ole	ks		V	ks
hoolinud	hooli	nud		V	nud
.	.			Z	
</s>					
<s>					
Temal	tema	l		P	sg ad
ise	ise	0		D	
olla	ole	a		V	da
viimati	viimati	0		D	
korda	kord	0		S	sg p
läinud	mine	nud		V	nud
,	,			Z	
teda	tema	da		P	sg p
tagasikutsuda	####				
.	.			Z	
</s>					
<s>					
Otsustedi	####				
:	:			Z	
Eestulevaks	ees_tulev	ks		A	sg tr
istumiseks	istumine	ks		S	sg tr
mõlemad	mõlema	d		P	pl n
vastanikud	####				
kui	kui	0		D	
   	kui	0		J	
ka	ka	0		D	
selle	see	0		P	sg g
koera	koer	0		S	sg g
peremees	pere_mees	0		S	sg n
Jaan	Jaan	0		H	sg n
Roos	Roos	0		H	sg n
ettekutsuda	####				
lasta	lask	ta		V	da
.	.			Z	
</s>					
<s>					
9.	9.	0		O	?
septembriks	september	ks		S	sg tr
.	.			Z	
</s>					
