<s>					
Aste	aste	0		S	sg g
ette	ette	0		K	
siit	siit	0		D	
valla	valla	0		H	sg n
taluomanik	talu_omanik	0		S	sg n
Peep	Peep	0		H	sg n
Alla	Alla	0		H	sg n
ja	ja	0		J	
kaibas	kaeba	s		V	s
,	,			Z	
selle	see	0		P	sg g
mõisa	mõis	0		S	sg g
Aarna	Aarna	0		H	sg n
mõldri	####				
sulane	sulane	0		S	sg n
M.	M.	0		Y	sg n
Villemson	Villemson	0		H	sg n
olla	ole	a		V	da
hobusel	hobune	l		S	sg ad
tema	tema	0		P	sg g
niidule	niit	le		S	sg all
äräsöötmise	####				
läbi	läbi	0		K	
kahju	kahi	0		S	sg g
     	kahju	0		S	sg g
lasknud	lask	nud		V	nud
teha	tege	a		V	da
,	,			Z	
mis	mis	0		P	sg n
eest	eest	0		K	
tema	tema	0		P	sg g
10	10	0		N	?
rubla	rubla	0		S	sg p
nõuda	nõud	a		V	da
.	.			Z	
</s>					
<s>					
M.	M.	0		Y	sg n
Villemson	Villemson	0		H	sg n
vabandas	vabanda	s		V	s
,	,			Z	
et	et	0		J	
see	see	0		P	sg n
olla	ole	a		V	da
möldri	mölder	0		S	sg g
Gottlieb	Gottlieb	0		H	sg n
Lipsky	Lipsky	0		H	sg n
hobune	hobune	0		S	sg n
olnud	ole	nud		V	nud
,	,			Z	
kes	kes	0		P	sg n
teda	tema	da		P	sg p
muiale	mujale	0		D	
töösse	töö	sse		S	sg ill
olla	ole	a		V	da
saatnud	saat	nud		V	nud
ja	ja	0		J	
mitte	mitte	0		D	
hobust	hobune	t		S	sg p
vahtima	vahti	ma		V	ma
.	.			Z	
</s>					
<s>					
Gottlieb	Gottlieb	0		H	sg n
Lipsky	Lipsky	0		H	sg n
ei	ei	0		V	neg
tulnud	tule	nud		V	nud
ette	ette	0		D	
,	,			Z	
vaid	vaid	0		J	
näitas	näita	s		V	s
tunistuse	####				
ette	ette	0		D	
,	,			Z	
et	et	0		J	
ta	tema	0		P	sg g
käsitööliste	käsi_tööline	te		S	pl g
zunftis	####				
olla	ole	a		V	da
.	.			Z	
</s>					
<s>					
Sellepärast	selle_pärast	0		D	
sai	saa	i		V	s
Peep	Peep	0		H	sg n
Alla	Alla	0		H	sg n
siitpoolt	siit_poolt	0		D	
Gottlieb	Gottlieb	0		H	sg n
Lipsky	Lipsky	0		H	sg n
pääle	peale	0		K	
keiserl	####				
.	.			Z	
</s>					
<s>					
kihelk	kihelk	0		Y	?
.	.			Z	
</s>					
<s>					
kohtosse	####				
kaibama	####				
juhatatud	juhata	tud		V	tud
.	.			Z	
</s>					
